%!PS-Adobe-2.0 EPSF-2.0
%%Title: fillup_adj_worker_q.tex
%%Creator: gnuplot 4.6 patchlevel 5
%%CreationDate: Mon Jan 11 02:28:27 2016
%%DocumentFonts: 
%%BoundingBox: 50 50 404 276
%%EndComments
%%BeginProlog
/gnudict 256 dict def
gnudict begin
%
% The following true/false flags may be edited by hand if desired.
% The unit line width and grayscale image gamma correction may also be changed.
%
/Color false def
/Blacktext true def
/Solid false def
/Dashlength 1 def
/Landscape false def
/Level1 false def
/Rounded false def
/ClipToBoundingBox false def
/SuppressPDFMark false def
/TransparentPatterns false def
/gnulinewidth 5.000 def
/userlinewidth gnulinewidth def
/Gamma 1.0 def
/BackgroundColor {-1.000 -1.000 -1.000} def
%
/vshift -73 def
/dl1 {
  10.0 Dashlength mul mul
  Rounded { currentlinewidth 0.75 mul sub dup 0 le { pop 0.01 } if } if
} def
/dl2 {
  10.0 Dashlength mul mul
  Rounded { currentlinewidth 0.75 mul add } if
} def
/hpt_ 31.5 def
/vpt_ 31.5 def
/hpt hpt_ def
/vpt vpt_ def
/doclip {
  ClipToBoundingBox {
    newpath 50 50 moveto 404 50 lineto 404 276 lineto 50 276 lineto closepath
    clip
  } if
} def
%
% Gnuplot Prolog Version 4.6 (September 2012)
%
%/SuppressPDFMark true def
%
/M {moveto} bind def
/L {lineto} bind def
/R {rmoveto} bind def
/V {rlineto} bind def
/N {newpath moveto} bind def
/Z {closepath} bind def
/C {setrgbcolor} bind def
/f {rlineto fill} bind def
/g {setgray} bind def
/Gshow {show} def   % May be redefined later in the file to support UTF-8
/vpt2 vpt 2 mul def
/hpt2 hpt 2 mul def
/Lshow {currentpoint stroke M 0 vshift R 
	Blacktext {gsave 0 setgray show grestore} {show} ifelse} def
/Rshow {currentpoint stroke M dup stringwidth pop neg vshift R
	Blacktext {gsave 0 setgray show grestore} {show} ifelse} def
/Cshow {currentpoint stroke M dup stringwidth pop -2 div vshift R 
	Blacktext {gsave 0 setgray show grestore} {show} ifelse} def
/UP {dup vpt_ mul /vpt exch def hpt_ mul /hpt exch def
  /hpt2 hpt 2 mul def /vpt2 vpt 2 mul def} def
/DL {Color {setrgbcolor Solid {pop []} if 0 setdash}
 {pop pop pop 0 setgray Solid {pop []} if 0 setdash} ifelse} def
/BL {stroke userlinewidth 2 mul setlinewidth
	Rounded {1 setlinejoin 1 setlinecap} if} def
/AL {stroke userlinewidth 2 div setlinewidth
	Rounded {1 setlinejoin 1 setlinecap} if} def
/UL {dup gnulinewidth mul /userlinewidth exch def
	dup 1 lt {pop 1} if 10 mul /udl exch def} def
/PL {stroke userlinewidth setlinewidth
	Rounded {1 setlinejoin 1 setlinecap} if} def
3.8 setmiterlimit
% Default Line colors
/LCw {1 1 1} def
/LCb {0 0 0} def
/LCa {0 0 0} def
/LC0 {1 0 0} def
/LC1 {0 1 0} def
/LC2 {0 0 1} def
/LC3 {1 0 1} def
/LC4 {0 1 1} def
/LC5 {1 1 0} def
/LC6 {0 0 0} def
/LC7 {1 0.3 0} def
/LC8 {0.5 0.5 0.5} def
% Default Line Types
/LTw {PL [] 1 setgray} def
/LTb {BL [] LCb DL} def
/LTa {AL [1 udl mul 2 udl mul] 0 setdash LCa setrgbcolor} def
/LT0 {PL [] LC0 DL} def
/LT1 {PL [4 dl1 2 dl2] LC1 DL} def
/LT2 {PL [2 dl1 3 dl2] LC2 DL} def
/LT3 {PL [1 dl1 1.5 dl2] LC3 DL} def
/LT4 {PL [6 dl1 2 dl2 1 dl1 2 dl2] LC4 DL} def
/LT5 {PL [3 dl1 3 dl2 1 dl1 3 dl2] LC5 DL} def
/LT6 {PL [2 dl1 2 dl2 2 dl1 6 dl2] LC6 DL} def
/LT7 {PL [1 dl1 2 dl2 6 dl1 2 dl2 1 dl1 2 dl2] LC7 DL} def
/LT8 {PL [2 dl1 2 dl2 2 dl1 2 dl2 2 dl1 2 dl2 2 dl1 4 dl2] LC8 DL} def
/Pnt {stroke [] 0 setdash gsave 1 setlinecap M 0 0 V stroke grestore} def
/Dia {stroke [] 0 setdash 2 copy vpt add M
  hpt neg vpt neg V hpt vpt neg V
  hpt vpt V hpt neg vpt V closepath stroke
  Pnt} def
/Pls {stroke [] 0 setdash vpt sub M 0 vpt2 V
  currentpoint stroke M
  hpt neg vpt neg R hpt2 0 V stroke
 } def
/Box {stroke [] 0 setdash 2 copy exch hpt sub exch vpt add M
  0 vpt2 neg V hpt2 0 V 0 vpt2 V
  hpt2 neg 0 V closepath stroke
  Pnt} def
/Crs {stroke [] 0 setdash exch hpt sub exch vpt add M
  hpt2 vpt2 neg V currentpoint stroke M
  hpt2 neg 0 R hpt2 vpt2 V stroke} def
/TriU {stroke [] 0 setdash 2 copy vpt 1.12 mul add M
  hpt neg vpt -1.62 mul V
  hpt 2 mul 0 V
  hpt neg vpt 1.62 mul V closepath stroke
  Pnt} def
/Star {2 copy Pls Crs} def
/BoxF {stroke [] 0 setdash exch hpt sub exch vpt add M
  0 vpt2 neg V hpt2 0 V 0 vpt2 V
  hpt2 neg 0 V closepath fill} def
/TriUF {stroke [] 0 setdash vpt 1.12 mul add M
  hpt neg vpt -1.62 mul V
  hpt 2 mul 0 V
  hpt neg vpt 1.62 mul V closepath fill} def
/TriD {stroke [] 0 setdash 2 copy vpt 1.12 mul sub M
  hpt neg vpt 1.62 mul V
  hpt 2 mul 0 V
  hpt neg vpt -1.62 mul V closepath stroke
  Pnt} def
/TriDF {stroke [] 0 setdash vpt 1.12 mul sub M
  hpt neg vpt 1.62 mul V
  hpt 2 mul 0 V
  hpt neg vpt -1.62 mul V closepath fill} def
/DiaF {stroke [] 0 setdash vpt add M
  hpt neg vpt neg V hpt vpt neg V
  hpt vpt V hpt neg vpt V closepath fill} def
/Pent {stroke [] 0 setdash 2 copy gsave
  translate 0 hpt M 4 {72 rotate 0 hpt L} repeat
  closepath stroke grestore Pnt} def
/PentF {stroke [] 0 setdash gsave
  translate 0 hpt M 4 {72 rotate 0 hpt L} repeat
  closepath fill grestore} def
/Circle {stroke [] 0 setdash 2 copy
  hpt 0 360 arc stroke Pnt} def
/CircleF {stroke [] 0 setdash hpt 0 360 arc fill} def
/C0 {BL [] 0 setdash 2 copy moveto vpt 90 450 arc} bind def
/C1 {BL [] 0 setdash 2 copy moveto
	2 copy vpt 0 90 arc closepath fill
	vpt 0 360 arc closepath} bind def
/C2 {BL [] 0 setdash 2 copy moveto
	2 copy vpt 90 180 arc closepath fill
	vpt 0 360 arc closepath} bind def
/C3 {BL [] 0 setdash 2 copy moveto
	2 copy vpt 0 180 arc closepath fill
	vpt 0 360 arc closepath} bind def
/C4 {BL [] 0 setdash 2 copy moveto
	2 copy vpt 180 270 arc closepath fill
	vpt 0 360 arc closepath} bind def
/C5 {BL [] 0 setdash 2 copy moveto
	2 copy vpt 0 90 arc
	2 copy moveto
	2 copy vpt 180 270 arc closepath fill
	vpt 0 360 arc} bind def
/C6 {BL [] 0 setdash 2 copy moveto
	2 copy vpt 90 270 arc closepath fill
	vpt 0 360 arc closepath} bind def
/C7 {BL [] 0 setdash 2 copy moveto
	2 copy vpt 0 270 arc closepath fill
	vpt 0 360 arc closepath} bind def
/C8 {BL [] 0 setdash 2 copy moveto
	2 copy vpt 270 360 arc closepath fill
	vpt 0 360 arc closepath} bind def
/C9 {BL [] 0 setdash 2 copy moveto
	2 copy vpt 270 450 arc closepath fill
	vpt 0 360 arc closepath} bind def
/C10 {BL [] 0 setdash 2 copy 2 copy moveto vpt 270 360 arc closepath fill
	2 copy moveto
	2 copy vpt 90 180 arc closepath fill
	vpt 0 360 arc closepath} bind def
/C11 {BL [] 0 setdash 2 copy moveto
	2 copy vpt 0 180 arc closepath fill
	2 copy moveto
	2 copy vpt 270 360 arc closepath fill
	vpt 0 360 arc closepath} bind def
/C12 {BL [] 0 setdash 2 copy moveto
	2 copy vpt 180 360 arc closepath fill
	vpt 0 360 arc closepath} bind def
/C13 {BL [] 0 setdash 2 copy moveto
	2 copy vpt 0 90 arc closepath fill
	2 copy moveto
	2 copy vpt 180 360 arc closepath fill
	vpt 0 360 arc closepath} bind def
/C14 {BL [] 0 setdash 2 copy moveto
	2 copy vpt 90 360 arc closepath fill
	vpt 0 360 arc} bind def
/C15 {BL [] 0 setdash 2 copy vpt 0 360 arc closepath fill
	vpt 0 360 arc closepath} bind def
/Rec {newpath 4 2 roll moveto 1 index 0 rlineto 0 exch rlineto
	neg 0 rlineto closepath} bind def
/Square {dup Rec} bind def
/Bsquare {vpt sub exch vpt sub exch vpt2 Square} bind def
/S0 {BL [] 0 setdash 2 copy moveto 0 vpt rlineto BL Bsquare} bind def
/S1 {BL [] 0 setdash 2 copy vpt Square fill Bsquare} bind def
/S2 {BL [] 0 setdash 2 copy exch vpt sub exch vpt Square fill Bsquare} bind def
/S3 {BL [] 0 setdash 2 copy exch vpt sub exch vpt2 vpt Rec fill Bsquare} bind def
/S4 {BL [] 0 setdash 2 copy exch vpt sub exch vpt sub vpt Square fill Bsquare} bind def
/S5 {BL [] 0 setdash 2 copy 2 copy vpt Square fill
	exch vpt sub exch vpt sub vpt Square fill Bsquare} bind def
/S6 {BL [] 0 setdash 2 copy exch vpt sub exch vpt sub vpt vpt2 Rec fill Bsquare} bind def
/S7 {BL [] 0 setdash 2 copy exch vpt sub exch vpt sub vpt vpt2 Rec fill
	2 copy vpt Square fill Bsquare} bind def
/S8 {BL [] 0 setdash 2 copy vpt sub vpt Square fill Bsquare} bind def
/S9 {BL [] 0 setdash 2 copy vpt sub vpt vpt2 Rec fill Bsquare} bind def
/S10 {BL [] 0 setdash 2 copy vpt sub vpt Square fill 2 copy exch vpt sub exch vpt Square fill
	Bsquare} bind def
/S11 {BL [] 0 setdash 2 copy vpt sub vpt Square fill 2 copy exch vpt sub exch vpt2 vpt Rec fill
	Bsquare} bind def
/S12 {BL [] 0 setdash 2 copy exch vpt sub exch vpt sub vpt2 vpt Rec fill Bsquare} bind def
/S13 {BL [] 0 setdash 2 copy exch vpt sub exch vpt sub vpt2 vpt Rec fill
	2 copy vpt Square fill Bsquare} bind def
/S14 {BL [] 0 setdash 2 copy exch vpt sub exch vpt sub vpt2 vpt Rec fill
	2 copy exch vpt sub exch vpt Square fill Bsquare} bind def
/S15 {BL [] 0 setdash 2 copy Bsquare fill Bsquare} bind def
/D0 {gsave translate 45 rotate 0 0 S0 stroke grestore} bind def
/D1 {gsave translate 45 rotate 0 0 S1 stroke grestore} bind def
/D2 {gsave translate 45 rotate 0 0 S2 stroke grestore} bind def
/D3 {gsave translate 45 rotate 0 0 S3 stroke grestore} bind def
/D4 {gsave translate 45 rotate 0 0 S4 stroke grestore} bind def
/D5 {gsave translate 45 rotate 0 0 S5 stroke grestore} bind def
/D6 {gsave translate 45 rotate 0 0 S6 stroke grestore} bind def
/D7 {gsave translate 45 rotate 0 0 S7 stroke grestore} bind def
/D8 {gsave translate 45 rotate 0 0 S8 stroke grestore} bind def
/D9 {gsave translate 45 rotate 0 0 S9 stroke grestore} bind def
/D10 {gsave translate 45 rotate 0 0 S10 stroke grestore} bind def
/D11 {gsave translate 45 rotate 0 0 S11 stroke grestore} bind def
/D12 {gsave translate 45 rotate 0 0 S12 stroke grestore} bind def
/D13 {gsave translate 45 rotate 0 0 S13 stroke grestore} bind def
/D14 {gsave translate 45 rotate 0 0 S14 stroke grestore} bind def
/D15 {gsave translate 45 rotate 0 0 S15 stroke grestore} bind def
/DiaE {stroke [] 0 setdash vpt add M
  hpt neg vpt neg V hpt vpt neg V
  hpt vpt V hpt neg vpt V closepath stroke} def
/BoxE {stroke [] 0 setdash exch hpt sub exch vpt add M
  0 vpt2 neg V hpt2 0 V 0 vpt2 V
  hpt2 neg 0 V closepath stroke} def
/TriUE {stroke [] 0 setdash vpt 1.12 mul add M
  hpt neg vpt -1.62 mul V
  hpt 2 mul 0 V
  hpt neg vpt 1.62 mul V closepath stroke} def
/TriDE {stroke [] 0 setdash vpt 1.12 mul sub M
  hpt neg vpt 1.62 mul V
  hpt 2 mul 0 V
  hpt neg vpt -1.62 mul V closepath stroke} def
/PentE {stroke [] 0 setdash gsave
  translate 0 hpt M 4 {72 rotate 0 hpt L} repeat
  closepath stroke grestore} def
/CircE {stroke [] 0 setdash 
  hpt 0 360 arc stroke} def
/Opaque {gsave closepath 1 setgray fill grestore 0 setgray closepath} def
/DiaW {stroke [] 0 setdash vpt add M
  hpt neg vpt neg V hpt vpt neg V
  hpt vpt V hpt neg vpt V Opaque stroke} def
/BoxW {stroke [] 0 setdash exch hpt sub exch vpt add M
  0 vpt2 neg V hpt2 0 V 0 vpt2 V
  hpt2 neg 0 V Opaque stroke} def
/TriUW {stroke [] 0 setdash vpt 1.12 mul add M
  hpt neg vpt -1.62 mul V
  hpt 2 mul 0 V
  hpt neg vpt 1.62 mul V Opaque stroke} def
/TriDW {stroke [] 0 setdash vpt 1.12 mul sub M
  hpt neg vpt 1.62 mul V
  hpt 2 mul 0 V
  hpt neg vpt -1.62 mul V Opaque stroke} def
/PentW {stroke [] 0 setdash gsave
  translate 0 hpt M 4 {72 rotate 0 hpt L} repeat
  Opaque stroke grestore} def
/CircW {stroke [] 0 setdash 
  hpt 0 360 arc Opaque stroke} def
/BoxFill {gsave Rec 1 setgray fill grestore} def
/Density {
  /Fillden exch def
  currentrgbcolor
  /ColB exch def /ColG exch def /ColR exch def
  /ColR ColR Fillden mul Fillden sub 1 add def
  /ColG ColG Fillden mul Fillden sub 1 add def
  /ColB ColB Fillden mul Fillden sub 1 add def
  ColR ColG ColB setrgbcolor} def
/BoxColFill {gsave Rec PolyFill} def
/PolyFill {gsave Density fill grestore grestore} def
/h {rlineto rlineto rlineto gsave closepath fill grestore} bind def
%
% PostScript Level 1 Pattern Fill routine for rectangles
% Usage: x y w h s a XX PatternFill
%	x,y = lower left corner of box to be filled
%	w,h = width and height of box
%	  a = angle in degrees between lines and x-axis
%	 XX = 0/1 for no/yes cross-hatch
%
/PatternFill {gsave /PFa [ 9 2 roll ] def
  PFa 0 get PFa 2 get 2 div add PFa 1 get PFa 3 get 2 div add translate
  PFa 2 get -2 div PFa 3 get -2 div PFa 2 get PFa 3 get Rec
  TransparentPatterns {} {gsave 1 setgray fill grestore} ifelse
  clip
  currentlinewidth 0.5 mul setlinewidth
  /PFs PFa 2 get dup mul PFa 3 get dup mul add sqrt def
  0 0 M PFa 5 get rotate PFs -2 div dup translate
  0 1 PFs PFa 4 get div 1 add floor cvi
	{PFa 4 get mul 0 M 0 PFs V} for
  0 PFa 6 get ne {
	0 1 PFs PFa 4 get div 1 add floor cvi
	{PFa 4 get mul 0 2 1 roll M PFs 0 V} for
 } if
  stroke grestore} def
%
/languagelevel where
 {pop languagelevel} {1} ifelse
 2 lt
	{/InterpretLevel1 true def}
	{/InterpretLevel1 Level1 def}
 ifelse
%
% PostScript level 2 pattern fill definitions
%
/Level2PatternFill {
/Tile8x8 {/PaintType 2 /PatternType 1 /TilingType 1 /BBox [0 0 8 8] /XStep 8 /YStep 8}
	bind def
/KeepColor {currentrgbcolor [/Pattern /DeviceRGB] setcolorspace} bind def
<< Tile8x8
 /PaintProc {0.5 setlinewidth pop 0 0 M 8 8 L 0 8 M 8 0 L stroke} 
>> matrix makepattern
/Pat1 exch def
<< Tile8x8
 /PaintProc {0.5 setlinewidth pop 0 0 M 8 8 L 0 8 M 8 0 L stroke
	0 4 M 4 8 L 8 4 L 4 0 L 0 4 L stroke}
>> matrix makepattern
/Pat2 exch def
<< Tile8x8
 /PaintProc {0.5 setlinewidth pop 0 0 M 0 8 L
	8 8 L 8 0 L 0 0 L fill}
>> matrix makepattern
/Pat3 exch def
<< Tile8x8
 /PaintProc {0.5 setlinewidth pop -4 8 M 8 -4 L
	0 12 M 12 0 L stroke}
>> matrix makepattern
/Pat4 exch def
<< Tile8x8
 /PaintProc {0.5 setlinewidth pop -4 0 M 8 12 L
	0 -4 M 12 8 L stroke}
>> matrix makepattern
/Pat5 exch def
<< Tile8x8
 /PaintProc {0.5 setlinewidth pop -2 8 M 4 -4 L
	0 12 M 8 -4 L 4 12 M 10 0 L stroke}
>> matrix makepattern
/Pat6 exch def
<< Tile8x8
 /PaintProc {0.5 setlinewidth pop -2 0 M 4 12 L
	0 -4 M 8 12 L 4 -4 M 10 8 L stroke}
>> matrix makepattern
/Pat7 exch def
<< Tile8x8
 /PaintProc {0.5 setlinewidth pop 8 -2 M -4 4 L
	12 0 M -4 8 L 12 4 M 0 10 L stroke}
>> matrix makepattern
/Pat8 exch def
<< Tile8x8
 /PaintProc {0.5 setlinewidth pop 0 -2 M 12 4 L
	-4 0 M 12 8 L -4 4 M 8 10 L stroke}
>> matrix makepattern
/Pat9 exch def
/Pattern1 {PatternBgnd KeepColor Pat1 setpattern} bind def
/Pattern2 {PatternBgnd KeepColor Pat2 setpattern} bind def
/Pattern3 {PatternBgnd KeepColor Pat3 setpattern} bind def
/Pattern4 {PatternBgnd KeepColor Landscape {Pat5} {Pat4} ifelse setpattern} bind def
/Pattern5 {PatternBgnd KeepColor Landscape {Pat4} {Pat5} ifelse setpattern} bind def
/Pattern6 {PatternBgnd KeepColor Landscape {Pat9} {Pat6} ifelse setpattern} bind def
/Pattern7 {PatternBgnd KeepColor Landscape {Pat8} {Pat7} ifelse setpattern} bind def
} def
%
%
%End of PostScript Level 2 code
%
/PatternBgnd {
  TransparentPatterns {} {gsave 1 setgray fill grestore} ifelse
} def
%
% Substitute for Level 2 pattern fill codes with
% grayscale if Level 2 support is not selected.
%
/Level1PatternFill {
/Pattern1 {0.250 Density} bind def
/Pattern2 {0.500 Density} bind def
/Pattern3 {0.750 Density} bind def
/Pattern4 {0.125 Density} bind def
/Pattern5 {0.375 Density} bind def
/Pattern6 {0.625 Density} bind def
/Pattern7 {0.875 Density} bind def
} def
%
% Now test for support of Level 2 code
%
Level1 {Level1PatternFill} {Level2PatternFill} ifelse
%
/Symbol-Oblique /Symbol findfont [1 0 .167 1 0 0] makefont
dup length dict begin {1 index /FID eq {pop pop} {def} ifelse} forall
currentdict end definefont pop
Level1 SuppressPDFMark or 
{} {
/SDict 10 dict def
systemdict /pdfmark known not {
  userdict /pdfmark systemdict /cleartomark get put
} if
SDict begin [
  /Title (fillup_adj_worker_q.tex)
  /Subject (gnuplot plot)
  /Creator (gnuplot 4.6 patchlevel 5)
  /Author (yummiii)
%  /Producer (gnuplot)
%  /Keywords ()
  /CreationDate (Mon Jan 11 02:28:27 2016)
  /DOCINFO pdfmark
end
} ifelse
end
%%EndProlog
%%Page: 1 1
gnudict begin
gsave
doclip
50 50 translate
0.050 0.050 scale
0 setgray
newpath
1.000 UL
LTb
814 704 M
63 0 V
5812 0 R
-63 0 V
814 1298 M
63 0 V
5812 0 R
-63 0 V
814 1892 M
63 0 V
5812 0 R
-63 0 V
814 2487 M
63 0 V
5812 0 R
-63 0 V
814 3081 M
63 0 V
5812 0 R
-63 0 V
814 3675 M
63 0 V
5812 0 R
-63 0 V
814 4269 M
63 0 V
5812 0 R
-63 0 V
814 704 M
0 63 V
0 3502 R
0 -63 V
1732 704 M
0 63 V
0 3502 R
0 -63 V
2650 704 M
0 63 V
0 3502 R
0 -63 V
3568 704 M
0 63 V
0 3502 R
0 -63 V
4486 704 M
0 63 V
0 3502 R
0 -63 V
5404 704 M
0 63 V
0 3502 R
0 -63 V
6322 704 M
0 63 V
0 3502 R
0 -63 V
stroke
814 4269 N
814 704 L
5875 0 V
0 3565 V
-5875 0 V
Z stroke
1.000 UP
1.000 UL
LTb
1.000 UL
LT2
3986 767 N
0 880 V
2571 0 V
0 -880 V
-2571 0 V
Z stroke
3986 1427 M
2571 0 V
1.000 UP
stroke
LT0
0.00 0.00 0.00 C LTb
LT0
0.00 0.00 0.00 C 1181 939 Circle
1181 939 Circle
1181 939 Circle
1181 939 Circle
1181 939 Circle
1273 997 Circle
1273 997 Circle
1273 997 Circle
1273 996 Circle
1273 997 Circle
1365 1053 Circle
1365 1053 Circle
1365 1053 Circle
1365 1053 Circle
1365 1053 Circle
1457 1109 Circle
1457 1109 Circle
1457 1109 Circle
1457 1109 Circle
1457 1109 Circle
1548 1164 Circle
1548 1164 Circle
1548 1164 Circle
1548 1163 Circle
1548 1164 Circle
1640 1218 Circle
1640 1218 Circle
1640 1218 Circle
1640 1218 Circle
1640 1218 Circle
1732 1271 Circle
1732 1272 Circle
1732 1271 Circle
1732 1272 Circle
1732 1272 Circle
1824 1325 Circle
1824 1324 Circle
1824 1324 Circle
1824 1325 Circle
1824 1325 Circle
1916 1377 Circle
1916 1377 Circle
1916 1377 Circle
1916 1377 Circle
1916 1377 Circle
2007 1429 Circle
2007 1430 Circle
2007 1429 Circle
2007 1429 Circle
2007 1429 Circle
2099 1480 Circle
2099 1480 Circle
2099 1481 Circle
2099 1481 Circle
2099 1481 Circle
2191 1530 Circle
2191 1531 Circle
2191 1533 Circle
2191 1530 Circle
2191 1531 Circle
2283 1579 Circle
2283 1578 Circle
2283 1580 Circle
2283 1578 Circle
2283 1581 Circle
2375 1628 Circle
2375 1629 Circle
2375 1629 Circle
2375 1628 Circle
2375 1628 Circle
2466 1680 Circle
2466 1677 Circle
2466 1679 Circle
2466 1680 Circle
2466 1680 Circle
2558 1727 Circle
2558 1728 Circle
2558 1727 Circle
2558 1729 Circle
2558 1728 Circle
2650 1776 Circle
2650 1774 Circle
2650 1775 Circle
2650 1776 Circle
2650 1776 Circle
2742 1824 Circle
2742 1826 Circle
2742 1824 Circle
2742 1823 Circle
2742 1826 Circle
2834 1875 Circle
2834 1871 Circle
2834 1874 Circle
2834 1872 Circle
2834 1872 Circle
2925 1916 Circle
2925 1919 Circle
2925 1918 Circle
2925 1916 Circle
2925 1918 Circle
3017 1962 Circle
3017 1962 Circle
3017 1963 Circle
3017 1961 Circle
3017 1961 Circle
3109 2011 Circle
3109 2009 Circle
3109 2009 Circle
3109 2008 Circle
3109 2011 Circle
3201 2054 Circle
3201 2058 Circle
3201 2057 Circle
3201 2053 Circle
3201 2054 Circle
3293 2097 Circle
3293 2094 Circle
3293 2100 Circle
3293 2101 Circle
3293 2099 Circle
3384 2141 Circle
3384 2143 Circle
3384 2141 Circle
3384 2138 Circle
3384 2142 Circle
3476 2186 Circle
3476 2188 Circle
3476 2185 Circle
3476 2185 Circle
3476 2191 Circle
3568 2228 Circle
3568 2223 Circle
3568 2226 Circle
3568 2231 Circle
3568 2228 Circle
3660 2272 Circle
3660 2272 Circle
3660 2269 Circle
3660 2268 Circle
3660 2271 Circle
3752 2299 Circle
3752 2298 Circle
3752 2299 Circle
3752 2303 Circle
3752 2299 Circle
3843 2343 Circle
3843 2347 Circle
3843 2346 Circle
3843 2339 Circle
3843 2344 Circle
3935 2387 Circle
3935 2387 Circle
3935 2387 Circle
3935 2391 Circle
3935 2384 Circle
4027 2431 Circle
4027 2432 Circle
4027 2432 Circle
4027 2431 Circle
4027 2432 Circle
4119 2477 Circle
4119 2481 Circle
4119 2472 Circle
4119 2479 Circle
4119 2480 Circle
4210 2516 Circle
4210 2517 Circle
4210 2521 Circle
4210 2519 Circle
4210 2519 Circle
4302 2557 Circle
4302 2555 Circle
4302 2558 Circle
4302 2558 Circle
4302 2562 Circle
4394 2600 Circle
4394 2603 Circle
4394 2597 Circle
4394 2595 Circle
4394 2607 Circle
4486 2643 Circle
4486 2634 Circle
4486 2637 Circle
4486 2636 Circle
4486 2640 Circle
4578 2683 Circle
4578 2682 Circle
4578 2679 Circle
4578 2679 Circle
4578 2678 Circle
4669 2720 Circle
4669 2725 Circle
4669 2719 Circle
4669 2721 Circle
4669 2720 Circle
4761 2769 Circle
4761 2765 Circle
4761 2770 Circle
4761 2768 Circle
4761 2765 Circle
4853 2814 Circle
4853 2806 Circle
4853 2802 Circle
4853 2808 Circle
4853 2807 Circle
4945 2855 Circle
4945 2831 Circle
4945 2853 Circle
4945 2837 Circle
4945 2848 Circle
5037 2881 Circle
5037 2885 Circle
5037 2883 Circle
5037 2878 Circle
5037 2884 Circle
5128 2929 Circle
5128 2935 Circle
5128 2930 Circle
5128 2920 Circle
5128 2917 Circle
5220 2964 Circle
5220 2972 Circle
5220 2967 Circle
5220 2947 Circle
5220 2948 Circle
5312 3005 Circle
5312 3001 Circle
5312 3013 Circle
5312 2995 Circle
5312 2998 Circle
5404 3034 Circle
5404 3052 Circle
5404 3044 Circle
5404 3043 Circle
5404 3036 Circle
5496 3092 Circle
5496 3082 Circle
5496 3093 Circle
5496 3093 Circle
5496 3086 Circle
5587 3127 Circle
5587 3135 Circle
5587 3128 Circle
5587 3131 Circle
5587 3138 Circle
5679 3162 Circle
5679 3177 Circle
5679 3187 Circle
5679 3178 Circle
5679 3183 Circle
5771 3230 Circle
5771 3194 Circle
5771 3177 Circle
5771 3222 Circle
5771 3198 Circle
5863 3273 Circle
5863 3232 Circle
5863 3258 Circle
5863 3253 Circle
5863 3257 Circle
5955 3290 Circle
5955 3286 Circle
5955 3275 Circle
5955 3294 Circle
5955 3289 Circle
6046 3325 Circle
6046 3300 Circle
6046 3305 Circle
6046 3299 Circle
6046 3330 Circle
6138 3367 Circle
6138 3371 Circle
6138 3338 Circle
6138 3374 Circle
6138 3373 Circle
6230 3405 Circle
6230 3410 Circle
6230 3415 Circle
6230 3403 Circle
6230 3411 Circle
6322 3454 Circle
6322 3437 Circle
6322 3445 Circle
6322 3422 Circle
6322 3442 Circle
6414 3470 Circle
6414 3454 Circle
6414 3463 Circle
6414 3480 Circle
6414 3472 Circle
6505 3516 Circle
6505 3474 Circle
6505 3494 Circle
6505 3534 Circle
6505 3510 Circle
6597 3566 Circle
6597 3554 Circle
6597 3559 Circle
6597 3513 Circle
6597 3560 Circle
6689 3597 Circle
6689 3594 Circle
6689 3562 Circle
6689 3601 Circle
6689 3549 Circle
6129 1317 Circle
1.000 UP
1.000 UL
LT1
0.00 0.00 0.00 C LTb
LT1
0.00 0.00 0.00 C 1181 942 Box
1181 942 Box
1181 942 Box
1181 942 Box
1181 942 Box
1273 1001 Box
1273 1001 Box
1273 1001 Box
1273 1000 Box
1273 1001 Box
1365 1059 Box
1365 1059 Box
1365 1059 Box
1365 1060 Box
1365 1058 Box
1457 1118 Box
1457 1116 Box
1457 1117 Box
1457 1118 Box
1457 1118 Box
1548 1173 Box
1548 1174 Box
1548 1172 Box
1548 1172 Box
1548 1174 Box
1640 1234 Box
1640 1232 Box
1640 1234 Box
1640 1234 Box
1640 1234 Box
1732 1290 Box
1732 1291 Box
1732 1291 Box
1732 1287 Box
1732 1289 Box
1824 1341 Box
1824 1347 Box
1824 1346 Box
1824 1344 Box
1824 1344 Box
1916 1402 Box
1916 1408 Box
1916 1408 Box
1916 1406 Box
1916 1406 Box
2007 1463 Box
2007 1460 Box
2007 1466 Box
2007 1462 Box
2007 1462 Box
2099 1517 Box
2099 1522 Box
2099 1523 Box
2099 1519 Box
2099 1520 Box
2191 1575 Box
2191 1574 Box
2191 1576 Box
2191 1577 Box
2191 1573 Box
2283 1623 Box
2283 1619 Box
2283 1621 Box
2283 1622 Box
2283 1626 Box
2375 1683 Box
2375 1678 Box
2375 1680 Box
2375 1673 Box
2375 1683 Box
2466 1741 Box
2466 1746 Box
2466 1743 Box
2466 1745 Box
2466 1744 Box
2558 1810 Box
2558 1798 Box
2558 1807 Box
2558 1802 Box
2558 1798 Box
2650 1856 Box
2650 1860 Box
2650 1863 Box
2650 1873 Box
2650 1873 Box
2742 1931 Box
2742 1918 Box
2742 1929 Box
2742 1918 Box
2742 1927 Box
2834 1997 Box
2834 1985 Box
2834 1986 Box
2834 1989 Box
2834 1986 Box
2925 2031 Box
2925 2048 Box
2925 2034 Box
2925 2041 Box
2925 2033 Box
3017 2089 Box
3017 2094 Box
3017 2093 Box
3017 2093 Box
3017 2095 Box
3109 2154 Box
3109 2156 Box
3109 2164 Box
3109 2145 Box
3109 2159 Box
3201 2217 Box
3201 2214 Box
3201 2211 Box
3201 2208 Box
3201 2203 Box
3293 2247 Box
3293 2257 Box
3293 2259 Box
3293 2270 Box
3293 2261 Box
3384 2309 Box
3384 2309 Box
3384 2303 Box
3384 2324 Box
3384 2318 Box
3476 2366 Box
3476 2360 Box
3476 2360 Box
3476 2355 Box
3476 2364 Box
3568 2394 Box
3568 2403 Box
3568 2402 Box
3568 2416 Box
3568 2400 Box
3660 2454 Box
3660 2448 Box
3660 2463 Box
3660 2441 Box
3660 2453 Box
3752 2482 Box
3752 2479 Box
3752 2498 Box
3752 2504 Box
3752 2482 Box
3843 2488 Box
3843 2486 Box
3843 2484 Box
3843 2481 Box
3843 2486 Box
3935 2538 Box
3935 2538 Box
3935 2539 Box
3935 2540 Box
3935 2541 Box
4027 2592 Box
4027 2593 Box
4027 2593 Box
4027 2590 Box
4027 2592 Box
4119 2653 Box
4119 2652 Box
4119 2644 Box
4119 2652 Box
4119 2649 Box
4210 2695 Box
4210 2700 Box
4210 2706 Box
4210 2693 Box
4210 2693 Box
4302 2741 Box
4302 2742 Box
4302 2745 Box
4302 2741 Box
4302 2748 Box
4394 2799 Box
4394 2804 Box
4394 2787 Box
4394 2785 Box
4394 2802 Box
4486 2847 Box
4486 2845 Box
4486 2831 Box
4486 2840 Box
4486 2845 Box
4578 2892 Box
4578 2896 Box
4578 2895 Box
4578 2886 Box
4578 2890 Box
4669 2945 Box
4669 2942 Box
4669 2933 Box
4669 2947 Box
4669 2947 Box
4761 2992 Box
4761 2994 Box
4761 2997 Box
4761 2989 Box
4761 2999 Box
4853 3045 Box
4853 3049 Box
4853 3039 Box
4853 3049 Box
4853 3050 Box
4945 3098 Box
4945 3088 Box
4945 3098 Box
4945 3102 Box
4945 3107 Box
5037 3151 Box
5037 3140 Box
5037 3138 Box
5037 3149 Box
5037 3143 Box
5128 3196 Box
5128 3202 Box
5128 3185 Box
5128 3193 Box
5128 3201 Box
5220 3245 Box
5220 3241 Box
5220 3240 Box
5220 3230 Box
5220 3240 Box
5312 3291 Box
5312 3299 Box
5312 3295 Box
5312 3300 Box
5312 3291 Box
5404 3335 Box
5404 3341 Box
5404 3348 Box
5404 3341 Box
5404 3348 Box
5496 3402 Box
5496 3402 Box
5496 3401 Box
5496 3400 Box
5496 3392 Box
5587 3451 Box
5587 3451 Box
5587 3462 Box
5587 3457 Box
5587 3463 Box
5679 3488 Box
5679 3505 Box
5679 3505 Box
5679 3513 Box
5679 3516 Box
5771 3565 Box
5771 3558 Box
5771 3524 Box
5771 3557 Box
5771 3571 Box
5863 3577 Box
5863 3586 Box
5863 3577 Box
5863 3570 Box
5863 3615 Box
5955 3650 Box
5955 3658 Box
5955 3667 Box
5955 3653 Box
5955 3664 Box
6046 3704 Box
6046 3704 Box
6046 3698 Box
6046 3678 Box
6046 3700 Box
6138 3754 Box
6138 3749 Box
6138 3748 Box
6138 3751 Box
6138 3760 Box
6230 3772 Box
6230 3804 Box
6230 3783 Box
6230 3788 Box
6230 3794 Box
6322 3844 Box
6322 3849 Box
6322 3848 Box
6322 3827 Box
6322 3849 Box
6414 3900 Box
6414 3884 Box
6414 3870 Box
6414 3900 Box
6414 3890 Box
6505 3939 Box
6505 3942 Box
6505 3936 Box
6505 3952 Box
6505 3937 Box
6597 3993 Box
6597 3993 Box
6597 4000 Box
6597 3989 Box
6597 3984 Box
6689 4002 Box
6689 4033 Box
6689 4053 Box
6689 4005 Box
6689 4003 Box
6129 1097 Box
1.000 UP
1.000 UL
LT2
0.00 0.00 0.00 C LTb
LT2
0.00 0.00 0.00 C 1181 940 Crs
1181 940 Crs
1181 940 Crs
1181 940 Crs
1181 940 Crs
1273 997 Crs
1273 997 Crs
1273 997 Crs
1273 997 Crs
1273 997 Crs
1365 1054 Crs
1365 1054 Crs
1365 1054 Crs
1365 1054 Crs
1365 1054 Crs
1457 1110 Crs
1457 1110 Crs
1457 1110 Crs
1457 1110 Crs
1457 1110 Crs
1548 1164 Crs
1548 1164 Crs
1548 1165 Crs
1548 1164 Crs
1548 1164 Crs
1640 1220 Crs
1640 1220 Crs
1640 1220 Crs
1640 1220 Crs
1640 1219 Crs
1732 1274 Crs
1732 1274 Crs
1732 1274 Crs
1732 1274 Crs
1732 1274 Crs
1824 1326 Crs
1824 1326 Crs
1824 1325 Crs
1824 1326 Crs
1824 1326 Crs
1916 1379 Crs
1916 1379 Crs
1916 1379 Crs
1916 1379 Crs
1916 1379 Crs
2007 1433 Crs
2007 1433 Crs
2007 1432 Crs
2007 1432 Crs
2007 1432 Crs
2099 1484 Crs
2099 1483 Crs
2099 1485 Crs
2099 1485 Crs
2099 1485 Crs
2191 1536 Crs
2191 1537 Crs
2191 1538 Crs
2191 1536 Crs
2191 1536 Crs
2283 1581 Crs
2283 1579 Crs
2283 1582 Crs
2283 1580 Crs
2283 1582 Crs
2375 1630 Crs
2375 1631 Crs
2375 1632 Crs
2375 1630 Crs
2375 1630 Crs
2466 1682 Crs
2466 1680 Crs
2466 1682 Crs
2466 1681 Crs
2466 1684 Crs
2558 1731 Crs
2558 1732 Crs
2558 1732 Crs
2558 1734 Crs
2558 1732 Crs
2650 1781 Crs
2650 1778 Crs
2650 1779 Crs
2650 1781 Crs
2650 1780 Crs
2742 1830 Crs
2742 1832 Crs
2742 1831 Crs
2742 1829 Crs
2742 1833 Crs
2834 1882 Crs
2834 1878 Crs
2834 1880 Crs
2834 1878 Crs
2834 1880 Crs
2925 1923 Crs
2925 1925 Crs
2925 1926 Crs
2925 1924 Crs
2925 1923 Crs
3017 1970 Crs
3017 1969 Crs
3017 1970 Crs
3017 1968 Crs
3017 1967 Crs
3109 2022 Crs
3109 2021 Crs
3109 2021 Crs
3109 2017 Crs
3109 2020 Crs
3201 2064 Crs
3201 2066 Crs
3201 2066 Crs
3201 2063 Crs
3201 2063 Crs
3293 2110 Crs
3293 2105 Crs
3293 2112 Crs
3293 2115 Crs
3293 2110 Crs
3384 2157 Crs
3384 2159 Crs
3384 2156 Crs
3384 2156 Crs
3384 2156 Crs
3476 2204 Crs
3476 2207 Crs
3476 2205 Crs
3476 2206 Crs
3476 2215 Crs
3568 2248 Crs
3568 2245 Crs
3568 2248 Crs
3568 2248 Crs
3568 2247 Crs
3660 2284 Crs
3660 2284 Crs
3660 2282 Crs
3660 2282 Crs
3660 2284 Crs
3752 2300 Crs
3752 2299 Crs
3752 2300 Crs
3752 2304 Crs
3752 2299 Crs
3843 2347 Crs
3843 2349 Crs
3843 2347 Crs
3843 2340 Crs
3843 2348 Crs
3935 2390 Crs
3935 2389 Crs
3935 2392 Crs
3935 2393 Crs
3935 2388 Crs
4027 2434 Crs
4027 2435 Crs
4027 2435 Crs
4027 2433 Crs
4027 2433 Crs
4119 2479 Crs
4119 2484 Crs
4119 2476 Crs
4119 2482 Crs
4119 2487 Crs
4210 2519 Crs
4210 2520 Crs
4210 2527 Crs
4210 2525 Crs
4210 2521 Crs
4302 2561 Crs
4302 2561 Crs
4302 2564 Crs
4302 2562 Crs
4302 2568 Crs
4394 2602 Crs
4394 2610 Crs
4394 2603 Crs
4394 2599 Crs
4394 2613 Crs
4486 2648 Crs
4486 2644 Crs
4486 2642 Crs
4486 2643 Crs
4486 2650 Crs
4578 2690 Crs
4578 2688 Crs
4578 2687 Crs
4578 2683 Crs
4578 2684 Crs
4669 2726 Crs
4669 2730 Crs
4669 2725 Crs
4669 2733 Crs
4669 2731 Crs
4761 2776 Crs
4761 2770 Crs
4761 2782 Crs
4761 2776 Crs
4761 2776 Crs
4853 2823 Crs
4853 2816 Crs
4853 2811 Crs
4853 2817 Crs
4853 2816 Crs
4945 2864 Crs
4945 2839 Crs
4945 2864 Crs
4945 2846 Crs
4945 2860 Crs
5037 2894 Crs
5037 2894 Crs
5037 2890 Crs
5037 2892 Crs
5037 2896 Crs
5128 2942 Crs
5128 2943 Crs
5128 2942 Crs
5128 2937 Crs
5128 2927 Crs
5220 2981 Crs
5220 2987 Crs
5220 2980 Crs
5220 2954 Crs
5220 2958 Crs
5312 3022 Crs
5312 3013 Crs
5312 3029 Crs
5312 3009 Crs
5312 3010 Crs
5404 3049 Crs
5404 3067 Crs
5404 3066 Crs
5404 3060 Crs
5404 3058 Crs
5496 3107 Crs
5496 3102 Crs
5496 3114 Crs
5496 3119 Crs
5496 3103 Crs
5587 3144 Crs
5587 3161 Crs
5587 3146 Crs
5587 3142 Crs
5587 3155 Crs
5679 3183 Crs
5679 3195 Crs
5679 3213 Crs
5679 3203 Crs
5679 3202 Crs
5771 3263 Crs
5771 3216 Crs
5771 3198 Crs
5771 3242 Crs
5771 3223 Crs
5863 3297 Crs
5863 3250 Crs
5863 3272 Crs
5863 3275 Crs
5863 3279 Crs
5955 3305 Crs
5955 3306 Crs
5955 3296 Crs
5955 3310 Crs
5955 3323 Crs
6046 3347 Crs
6046 3327 Crs
6046 3333 Crs
6046 3328 Crs
6046 3348 Crs
6138 3388 Crs
6138 3399 Crs
6138 3362 Crs
6138 3407 Crs
6138 3395 Crs
6230 3432 Crs
6230 3430 Crs
6230 3434 Crs
6230 3435 Crs
6230 3441 Crs
6322 3479 Crs
6322 3468 Crs
6322 3471 Crs
6322 3448 Crs
6322 3464 Crs
6414 3503 Crs
6414 3482 Crs
6414 3486 Crs
6414 3510 Crs
6414 3497 Crs
6505 3546 Crs
6505 3498 Crs
6505 3524 Crs
6505 3571 Crs
6505 3540 Crs
6597 3596 Crs
6597 3596 Crs
6597 3600 Crs
6597 3533 Crs
6597 3593 Crs
6689 3634 Crs
6689 3633 Crs
6689 3583 Crs
6689 3631 Crs
6689 3570 Crs
6129 877 Crs
1.000 UL
LTb
814 4269 N
814 704 L
5875 0 V
0 3565 V
-5875 0 V
Z stroke
1.000 UP
1.000 UL
LTb
stroke
grestore
end
showpage
%%Trailer
