%!PS-Adobe-2.0 EPSF-2.0
%%Title: fillup_adj_worker_s.tex
%%Creator: gnuplot 4.6 patchlevel 5
%%CreationDate: Mon Jan 11 02:28:27 2016
%%DocumentFonts: 
%%BoundingBox: 50 50 404 276
%%EndComments
%%BeginProlog
/gnudict 256 dict def
gnudict begin
%
% The following true/false flags may be edited by hand if desired.
% The unit line width and grayscale image gamma correction may also be changed.
%
/Color false def
/Blacktext true def
/Solid false def
/Dashlength 1 def
/Landscape false def
/Level1 false def
/Rounded false def
/ClipToBoundingBox false def
/SuppressPDFMark false def
/TransparentPatterns false def
/gnulinewidth 5.000 def
/userlinewidth gnulinewidth def
/Gamma 1.0 def
/BackgroundColor {-1.000 -1.000 -1.000} def
%
/vshift -73 def
/dl1 {
  10.0 Dashlength mul mul
  Rounded { currentlinewidth 0.75 mul sub dup 0 le { pop 0.01 } if } if
} def
/dl2 {
  10.0 Dashlength mul mul
  Rounded { currentlinewidth 0.75 mul add } if
} def
/hpt_ 31.5 def
/vpt_ 31.5 def
/hpt hpt_ def
/vpt vpt_ def
/doclip {
  ClipToBoundingBox {
    newpath 50 50 moveto 404 50 lineto 404 276 lineto 50 276 lineto closepath
    clip
  } if
} def
%
% Gnuplot Prolog Version 4.6 (September 2012)
%
%/SuppressPDFMark true def
%
/M {moveto} bind def
/L {lineto} bind def
/R {rmoveto} bind def
/V {rlineto} bind def
/N {newpath moveto} bind def
/Z {closepath} bind def
/C {setrgbcolor} bind def
/f {rlineto fill} bind def
/g {setgray} bind def
/Gshow {show} def   % May be redefined later in the file to support UTF-8
/vpt2 vpt 2 mul def
/hpt2 hpt 2 mul def
/Lshow {currentpoint stroke M 0 vshift R 
	Blacktext {gsave 0 setgray show grestore} {show} ifelse} def
/Rshow {currentpoint stroke M dup stringwidth pop neg vshift R
	Blacktext {gsave 0 setgray show grestore} {show} ifelse} def
/Cshow {currentpoint stroke M dup stringwidth pop -2 div vshift R 
	Blacktext {gsave 0 setgray show grestore} {show} ifelse} def
/UP {dup vpt_ mul /vpt exch def hpt_ mul /hpt exch def
  /hpt2 hpt 2 mul def /vpt2 vpt 2 mul def} def
/DL {Color {setrgbcolor Solid {pop []} if 0 setdash}
 {pop pop pop 0 setgray Solid {pop []} if 0 setdash} ifelse} def
/BL {stroke userlinewidth 2 mul setlinewidth
	Rounded {1 setlinejoin 1 setlinecap} if} def
/AL {stroke userlinewidth 2 div setlinewidth
	Rounded {1 setlinejoin 1 setlinecap} if} def
/UL {dup gnulinewidth mul /userlinewidth exch def
	dup 1 lt {pop 1} if 10 mul /udl exch def} def
/PL {stroke userlinewidth setlinewidth
	Rounded {1 setlinejoin 1 setlinecap} if} def
3.8 setmiterlimit
% Default Line colors
/LCw {1 1 1} def
/LCb {0 0 0} def
/LCa {0 0 0} def
/LC0 {1 0 0} def
/LC1 {0 1 0} def
/LC2 {0 0 1} def
/LC3 {1 0 1} def
/LC4 {0 1 1} def
/LC5 {1 1 0} def
/LC6 {0 0 0} def
/LC7 {1 0.3 0} def
/LC8 {0.5 0.5 0.5} def
% Default Line Types
/LTw {PL [] 1 setgray} def
/LTb {BL [] LCb DL} def
/LTa {AL [1 udl mul 2 udl mul] 0 setdash LCa setrgbcolor} def
/LT0 {PL [] LC0 DL} def
/LT1 {PL [4 dl1 2 dl2] LC1 DL} def
/LT2 {PL [2 dl1 3 dl2] LC2 DL} def
/LT3 {PL [1 dl1 1.5 dl2] LC3 DL} def
/LT4 {PL [6 dl1 2 dl2 1 dl1 2 dl2] LC4 DL} def
/LT5 {PL [3 dl1 3 dl2 1 dl1 3 dl2] LC5 DL} def
/LT6 {PL [2 dl1 2 dl2 2 dl1 6 dl2] LC6 DL} def
/LT7 {PL [1 dl1 2 dl2 6 dl1 2 dl2 1 dl1 2 dl2] LC7 DL} def
/LT8 {PL [2 dl1 2 dl2 2 dl1 2 dl2 2 dl1 2 dl2 2 dl1 4 dl2] LC8 DL} def
/Pnt {stroke [] 0 setdash gsave 1 setlinecap M 0 0 V stroke grestore} def
/Dia {stroke [] 0 setdash 2 copy vpt add M
  hpt neg vpt neg V hpt vpt neg V
  hpt vpt V hpt neg vpt V closepath stroke
  Pnt} def
/Pls {stroke [] 0 setdash vpt sub M 0 vpt2 V
  currentpoint stroke M
  hpt neg vpt neg R hpt2 0 V stroke
 } def
/Box {stroke [] 0 setdash 2 copy exch hpt sub exch vpt add M
  0 vpt2 neg V hpt2 0 V 0 vpt2 V
  hpt2 neg 0 V closepath stroke
  Pnt} def
/Crs {stroke [] 0 setdash exch hpt sub exch vpt add M
  hpt2 vpt2 neg V currentpoint stroke M
  hpt2 neg 0 R hpt2 vpt2 V stroke} def
/TriU {stroke [] 0 setdash 2 copy vpt 1.12 mul add M
  hpt neg vpt -1.62 mul V
  hpt 2 mul 0 V
  hpt neg vpt 1.62 mul V closepath stroke
  Pnt} def
/Star {2 copy Pls Crs} def
/BoxF {stroke [] 0 setdash exch hpt sub exch vpt add M
  0 vpt2 neg V hpt2 0 V 0 vpt2 V
  hpt2 neg 0 V closepath fill} def
/TriUF {stroke [] 0 setdash vpt 1.12 mul add M
  hpt neg vpt -1.62 mul V
  hpt 2 mul 0 V
  hpt neg vpt 1.62 mul V closepath fill} def
/TriD {stroke [] 0 setdash 2 copy vpt 1.12 mul sub M
  hpt neg vpt 1.62 mul V
  hpt 2 mul 0 V
  hpt neg vpt -1.62 mul V closepath stroke
  Pnt} def
/TriDF {stroke [] 0 setdash vpt 1.12 mul sub M
  hpt neg vpt 1.62 mul V
  hpt 2 mul 0 V
  hpt neg vpt -1.62 mul V closepath fill} def
/DiaF {stroke [] 0 setdash vpt add M
  hpt neg vpt neg V hpt vpt neg V
  hpt vpt V hpt neg vpt V closepath fill} def
/Pent {stroke [] 0 setdash 2 copy gsave
  translate 0 hpt M 4 {72 rotate 0 hpt L} repeat
  closepath stroke grestore Pnt} def
/PentF {stroke [] 0 setdash gsave
  translate 0 hpt M 4 {72 rotate 0 hpt L} repeat
  closepath fill grestore} def
/Circle {stroke [] 0 setdash 2 copy
  hpt 0 360 arc stroke Pnt} def
/CircleF {stroke [] 0 setdash hpt 0 360 arc fill} def
/C0 {BL [] 0 setdash 2 copy moveto vpt 90 450 arc} bind def
/C1 {BL [] 0 setdash 2 copy moveto
	2 copy vpt 0 90 arc closepath fill
	vpt 0 360 arc closepath} bind def
/C2 {BL [] 0 setdash 2 copy moveto
	2 copy vpt 90 180 arc closepath fill
	vpt 0 360 arc closepath} bind def
/C3 {BL [] 0 setdash 2 copy moveto
	2 copy vpt 0 180 arc closepath fill
	vpt 0 360 arc closepath} bind def
/C4 {BL [] 0 setdash 2 copy moveto
	2 copy vpt 180 270 arc closepath fill
	vpt 0 360 arc closepath} bind def
/C5 {BL [] 0 setdash 2 copy moveto
	2 copy vpt 0 90 arc
	2 copy moveto
	2 copy vpt 180 270 arc closepath fill
	vpt 0 360 arc} bind def
/C6 {BL [] 0 setdash 2 copy moveto
	2 copy vpt 90 270 arc closepath fill
	vpt 0 360 arc closepath} bind def
/C7 {BL [] 0 setdash 2 copy moveto
	2 copy vpt 0 270 arc closepath fill
	vpt 0 360 arc closepath} bind def
/C8 {BL [] 0 setdash 2 copy moveto
	2 copy vpt 270 360 arc closepath fill
	vpt 0 360 arc closepath} bind def
/C9 {BL [] 0 setdash 2 copy moveto
	2 copy vpt 270 450 arc closepath fill
	vpt 0 360 arc closepath} bind def
/C10 {BL [] 0 setdash 2 copy 2 copy moveto vpt 270 360 arc closepath fill
	2 copy moveto
	2 copy vpt 90 180 arc closepath fill
	vpt 0 360 arc closepath} bind def
/C11 {BL [] 0 setdash 2 copy moveto
	2 copy vpt 0 180 arc closepath fill
	2 copy moveto
	2 copy vpt 270 360 arc closepath fill
	vpt 0 360 arc closepath} bind def
/C12 {BL [] 0 setdash 2 copy moveto
	2 copy vpt 180 360 arc closepath fill
	vpt 0 360 arc closepath} bind def
/C13 {BL [] 0 setdash 2 copy moveto
	2 copy vpt 0 90 arc closepath fill
	2 copy moveto
	2 copy vpt 180 360 arc closepath fill
	vpt 0 360 arc closepath} bind def
/C14 {BL [] 0 setdash 2 copy moveto
	2 copy vpt 90 360 arc closepath fill
	vpt 0 360 arc} bind def
/C15 {BL [] 0 setdash 2 copy vpt 0 360 arc closepath fill
	vpt 0 360 arc closepath} bind def
/Rec {newpath 4 2 roll moveto 1 index 0 rlineto 0 exch rlineto
	neg 0 rlineto closepath} bind def
/Square {dup Rec} bind def
/Bsquare {vpt sub exch vpt sub exch vpt2 Square} bind def
/S0 {BL [] 0 setdash 2 copy moveto 0 vpt rlineto BL Bsquare} bind def
/S1 {BL [] 0 setdash 2 copy vpt Square fill Bsquare} bind def
/S2 {BL [] 0 setdash 2 copy exch vpt sub exch vpt Square fill Bsquare} bind def
/S3 {BL [] 0 setdash 2 copy exch vpt sub exch vpt2 vpt Rec fill Bsquare} bind def
/S4 {BL [] 0 setdash 2 copy exch vpt sub exch vpt sub vpt Square fill Bsquare} bind def
/S5 {BL [] 0 setdash 2 copy 2 copy vpt Square fill
	exch vpt sub exch vpt sub vpt Square fill Bsquare} bind def
/S6 {BL [] 0 setdash 2 copy exch vpt sub exch vpt sub vpt vpt2 Rec fill Bsquare} bind def
/S7 {BL [] 0 setdash 2 copy exch vpt sub exch vpt sub vpt vpt2 Rec fill
	2 copy vpt Square fill Bsquare} bind def
/S8 {BL [] 0 setdash 2 copy vpt sub vpt Square fill Bsquare} bind def
/S9 {BL [] 0 setdash 2 copy vpt sub vpt vpt2 Rec fill Bsquare} bind def
/S10 {BL [] 0 setdash 2 copy vpt sub vpt Square fill 2 copy exch vpt sub exch vpt Square fill
	Bsquare} bind def
/S11 {BL [] 0 setdash 2 copy vpt sub vpt Square fill 2 copy exch vpt sub exch vpt2 vpt Rec fill
	Bsquare} bind def
/S12 {BL [] 0 setdash 2 copy exch vpt sub exch vpt sub vpt2 vpt Rec fill Bsquare} bind def
/S13 {BL [] 0 setdash 2 copy exch vpt sub exch vpt sub vpt2 vpt Rec fill
	2 copy vpt Square fill Bsquare} bind def
/S14 {BL [] 0 setdash 2 copy exch vpt sub exch vpt sub vpt2 vpt Rec fill
	2 copy exch vpt sub exch vpt Square fill Bsquare} bind def
/S15 {BL [] 0 setdash 2 copy Bsquare fill Bsquare} bind def
/D0 {gsave translate 45 rotate 0 0 S0 stroke grestore} bind def
/D1 {gsave translate 45 rotate 0 0 S1 stroke grestore} bind def
/D2 {gsave translate 45 rotate 0 0 S2 stroke grestore} bind def
/D3 {gsave translate 45 rotate 0 0 S3 stroke grestore} bind def
/D4 {gsave translate 45 rotate 0 0 S4 stroke grestore} bind def
/D5 {gsave translate 45 rotate 0 0 S5 stroke grestore} bind def
/D6 {gsave translate 45 rotate 0 0 S6 stroke grestore} bind def
/D7 {gsave translate 45 rotate 0 0 S7 stroke grestore} bind def
/D8 {gsave translate 45 rotate 0 0 S8 stroke grestore} bind def
/D9 {gsave translate 45 rotate 0 0 S9 stroke grestore} bind def
/D10 {gsave translate 45 rotate 0 0 S10 stroke grestore} bind def
/D11 {gsave translate 45 rotate 0 0 S11 stroke grestore} bind def
/D12 {gsave translate 45 rotate 0 0 S12 stroke grestore} bind def
/D13 {gsave translate 45 rotate 0 0 S13 stroke grestore} bind def
/D14 {gsave translate 45 rotate 0 0 S14 stroke grestore} bind def
/D15 {gsave translate 45 rotate 0 0 S15 stroke grestore} bind def
/DiaE {stroke [] 0 setdash vpt add M
  hpt neg vpt neg V hpt vpt neg V
  hpt vpt V hpt neg vpt V closepath stroke} def
/BoxE {stroke [] 0 setdash exch hpt sub exch vpt add M
  0 vpt2 neg V hpt2 0 V 0 vpt2 V
  hpt2 neg 0 V closepath stroke} def
/TriUE {stroke [] 0 setdash vpt 1.12 mul add M
  hpt neg vpt -1.62 mul V
  hpt 2 mul 0 V
  hpt neg vpt 1.62 mul V closepath stroke} def
/TriDE {stroke [] 0 setdash vpt 1.12 mul sub M
  hpt neg vpt 1.62 mul V
  hpt 2 mul 0 V
  hpt neg vpt -1.62 mul V closepath stroke} def
/PentE {stroke [] 0 setdash gsave
  translate 0 hpt M 4 {72 rotate 0 hpt L} repeat
  closepath stroke grestore} def
/CircE {stroke [] 0 setdash 
  hpt 0 360 arc stroke} def
/Opaque {gsave closepath 1 setgray fill grestore 0 setgray closepath} def
/DiaW {stroke [] 0 setdash vpt add M
  hpt neg vpt neg V hpt vpt neg V
  hpt vpt V hpt neg vpt V Opaque stroke} def
/BoxW {stroke [] 0 setdash exch hpt sub exch vpt add M
  0 vpt2 neg V hpt2 0 V 0 vpt2 V
  hpt2 neg 0 V Opaque stroke} def
/TriUW {stroke [] 0 setdash vpt 1.12 mul add M
  hpt neg vpt -1.62 mul V
  hpt 2 mul 0 V
  hpt neg vpt 1.62 mul V Opaque stroke} def
/TriDW {stroke [] 0 setdash vpt 1.12 mul sub M
  hpt neg vpt 1.62 mul V
  hpt 2 mul 0 V
  hpt neg vpt -1.62 mul V Opaque stroke} def
/PentW {stroke [] 0 setdash gsave
  translate 0 hpt M 4 {72 rotate 0 hpt L} repeat
  Opaque stroke grestore} def
/CircW {stroke [] 0 setdash 
  hpt 0 360 arc Opaque stroke} def
/BoxFill {gsave Rec 1 setgray fill grestore} def
/Density {
  /Fillden exch def
  currentrgbcolor
  /ColB exch def /ColG exch def /ColR exch def
  /ColR ColR Fillden mul Fillden sub 1 add def
  /ColG ColG Fillden mul Fillden sub 1 add def
  /ColB ColB Fillden mul Fillden sub 1 add def
  ColR ColG ColB setrgbcolor} def
/BoxColFill {gsave Rec PolyFill} def
/PolyFill {gsave Density fill grestore grestore} def
/h {rlineto rlineto rlineto gsave closepath fill grestore} bind def
%
% PostScript Level 1 Pattern Fill routine for rectangles
% Usage: x y w h s a XX PatternFill
%	x,y = lower left corner of box to be filled
%	w,h = width and height of box
%	  a = angle in degrees between lines and x-axis
%	 XX = 0/1 for no/yes cross-hatch
%
/PatternFill {gsave /PFa [ 9 2 roll ] def
  PFa 0 get PFa 2 get 2 div add PFa 1 get PFa 3 get 2 div add translate
  PFa 2 get -2 div PFa 3 get -2 div PFa 2 get PFa 3 get Rec
  TransparentPatterns {} {gsave 1 setgray fill grestore} ifelse
  clip
  currentlinewidth 0.5 mul setlinewidth
  /PFs PFa 2 get dup mul PFa 3 get dup mul add sqrt def
  0 0 M PFa 5 get rotate PFs -2 div dup translate
  0 1 PFs PFa 4 get div 1 add floor cvi
	{PFa 4 get mul 0 M 0 PFs V} for
  0 PFa 6 get ne {
	0 1 PFs PFa 4 get div 1 add floor cvi
	{PFa 4 get mul 0 2 1 roll M PFs 0 V} for
 } if
  stroke grestore} def
%
/languagelevel where
 {pop languagelevel} {1} ifelse
 2 lt
	{/InterpretLevel1 true def}
	{/InterpretLevel1 Level1 def}
 ifelse
%
% PostScript level 2 pattern fill definitions
%
/Level2PatternFill {
/Tile8x8 {/PaintType 2 /PatternType 1 /TilingType 1 /BBox [0 0 8 8] /XStep 8 /YStep 8}
	bind def
/KeepColor {currentrgbcolor [/Pattern /DeviceRGB] setcolorspace} bind def
<< Tile8x8
 /PaintProc {0.5 setlinewidth pop 0 0 M 8 8 L 0 8 M 8 0 L stroke} 
>> matrix makepattern
/Pat1 exch def
<< Tile8x8
 /PaintProc {0.5 setlinewidth pop 0 0 M 8 8 L 0 8 M 8 0 L stroke
	0 4 M 4 8 L 8 4 L 4 0 L 0 4 L stroke}
>> matrix makepattern
/Pat2 exch def
<< Tile8x8
 /PaintProc {0.5 setlinewidth pop 0 0 M 0 8 L
	8 8 L 8 0 L 0 0 L fill}
>> matrix makepattern
/Pat3 exch def
<< Tile8x8
 /PaintProc {0.5 setlinewidth pop -4 8 M 8 -4 L
	0 12 M 12 0 L stroke}
>> matrix makepattern
/Pat4 exch def
<< Tile8x8
 /PaintProc {0.5 setlinewidth pop -4 0 M 8 12 L
	0 -4 M 12 8 L stroke}
>> matrix makepattern
/Pat5 exch def
<< Tile8x8
 /PaintProc {0.5 setlinewidth pop -2 8 M 4 -4 L
	0 12 M 8 -4 L 4 12 M 10 0 L stroke}
>> matrix makepattern
/Pat6 exch def
<< Tile8x8
 /PaintProc {0.5 setlinewidth pop -2 0 M 4 12 L
	0 -4 M 8 12 L 4 -4 M 10 8 L stroke}
>> matrix makepattern
/Pat7 exch def
<< Tile8x8
 /PaintProc {0.5 setlinewidth pop 8 -2 M -4 4 L
	12 0 M -4 8 L 12 4 M 0 10 L stroke}
>> matrix makepattern
/Pat8 exch def
<< Tile8x8
 /PaintProc {0.5 setlinewidth pop 0 -2 M 12 4 L
	-4 0 M 12 8 L -4 4 M 8 10 L stroke}
>> matrix makepattern
/Pat9 exch def
/Pattern1 {PatternBgnd KeepColor Pat1 setpattern} bind def
/Pattern2 {PatternBgnd KeepColor Pat2 setpattern} bind def
/Pattern3 {PatternBgnd KeepColor Pat3 setpattern} bind def
/Pattern4 {PatternBgnd KeepColor Landscape {Pat5} {Pat4} ifelse setpattern} bind def
/Pattern5 {PatternBgnd KeepColor Landscape {Pat4} {Pat5} ifelse setpattern} bind def
/Pattern6 {PatternBgnd KeepColor Landscape {Pat9} {Pat6} ifelse setpattern} bind def
/Pattern7 {PatternBgnd KeepColor Landscape {Pat8} {Pat7} ifelse setpattern} bind def
} def
%
%
%End of PostScript Level 2 code
%
/PatternBgnd {
  TransparentPatterns {} {gsave 1 setgray fill grestore} ifelse
} def
%
% Substitute for Level 2 pattern fill codes with
% grayscale if Level 2 support is not selected.
%
/Level1PatternFill {
/Pattern1 {0.250 Density} bind def
/Pattern2 {0.500 Density} bind def
/Pattern3 {0.750 Density} bind def
/Pattern4 {0.125 Density} bind def
/Pattern5 {0.375 Density} bind def
/Pattern6 {0.625 Density} bind def
/Pattern7 {0.875 Density} bind def
} def
%
% Now test for support of Level 2 code
%
Level1 {Level1PatternFill} {Level2PatternFill} ifelse
%
/Symbol-Oblique /Symbol findfont [1 0 .167 1 0 0] makefont
dup length dict begin {1 index /FID eq {pop pop} {def} ifelse} forall
currentdict end definefont pop
Level1 SuppressPDFMark or 
{} {
/SDict 10 dict def
systemdict /pdfmark known not {
  userdict /pdfmark systemdict /cleartomark get put
} if
SDict begin [
  /Title (fillup_adj_worker_s.tex)
  /Subject (gnuplot plot)
  /Creator (gnuplot 4.6 patchlevel 5)
  /Author (yummiii)
%  /Producer (gnuplot)
%  /Keywords ()
  /CreationDate (Mon Jan 11 02:28:27 2016)
  /DOCINFO pdfmark
end
} ifelse
end
%%EndProlog
%%Page: 1 1
gnudict begin
gsave
doclip
50 50 translate
0.050 0.050 scale
0 setgray
newpath
1.000 UL
LTb
814 704 M
63 0 V
5812 0 R
-63 0 V
814 1298 M
63 0 V
5812 0 R
-63 0 V
814 1892 M
63 0 V
5812 0 R
-63 0 V
814 2487 M
63 0 V
5812 0 R
-63 0 V
814 3081 M
63 0 V
5812 0 R
-63 0 V
814 3675 M
63 0 V
5812 0 R
-63 0 V
814 4269 M
63 0 V
5812 0 R
-63 0 V
814 704 M
0 63 V
0 3502 R
0 -63 V
1732 704 M
0 63 V
0 3502 R
0 -63 V
2650 704 M
0 63 V
0 3502 R
0 -63 V
3568 704 M
0 63 V
0 3502 R
0 -63 V
4486 704 M
0 63 V
0 3502 R
0 -63 V
5404 704 M
0 63 V
0 3502 R
0 -63 V
6322 704 M
0 63 V
0 3502 R
0 -63 V
stroke
814 4269 N
814 704 L
5875 0 V
0 3565 V
-5875 0 V
Z stroke
1.000 UP
1.000 UL
LTb
1.000 UL
LT2
3986 767 N
0 880 V
2571 0 V
0 -880 V
-2571 0 V
Z stroke
3986 1427 M
2571 0 V
1.000 UP
stroke
LT0
0.00 0.00 0.00 C LTb
LT0
0.00 0.00 0.00 C 1181 933 Circle
1181 933 Circle
1181 933 Circle
1181 933 Circle
1181 933 Circle
1273 989 Circle
1273 989 Circle
1273 989 Circle
1273 988 Circle
1273 989 Circle
1365 1044 Circle
1365 1044 Circle
1365 1044 Circle
1365 1044 Circle
1365 1044 Circle
1457 1098 Circle
1457 1098 Circle
1457 1098 Circle
1457 1098 Circle
1457 1098 Circle
1548 1153 Circle
1548 1152 Circle
1548 1152 Circle
1548 1152 Circle
1548 1152 Circle
1640 1206 Circle
1640 1206 Circle
1640 1206 Circle
1640 1206 Circle
1640 1206 Circle
1732 1259 Circle
1732 1259 Circle
1732 1259 Circle
1732 1259 Circle
1732 1259 Circle
1824 1312 Circle
1824 1311 Circle
1824 1311 Circle
1824 1312 Circle
1824 1311 Circle
1916 1364 Circle
1916 1364 Circle
1916 1364 Circle
1916 1364 Circle
1916 1363 Circle
2007 1416 Circle
2007 1417 Circle
2007 1416 Circle
2007 1415 Circle
2007 1416 Circle
2099 1466 Circle
2099 1467 Circle
2099 1468 Circle
2099 1468 Circle
2099 1468 Circle
2191 1516 Circle
2191 1518 Circle
2191 1520 Circle
2191 1517 Circle
2191 1518 Circle
2283 1567 Circle
2283 1564 Circle
2283 1567 Circle
2283 1565 Circle
2283 1568 Circle
2375 1615 Circle
2375 1616 Circle
2375 1617 Circle
2375 1615 Circle
2375 1616 Circle
2466 1668 Circle
2466 1666 Circle
2466 1667 Circle
2466 1668 Circle
2466 1670 Circle
2558 1717 Circle
2558 1717 Circle
2558 1717 Circle
2558 1718 Circle
2558 1717 Circle
2650 1765 Circle
2650 1764 Circle
2650 1765 Circle
2650 1767 Circle
2650 1766 Circle
2742 1816 Circle
2742 1817 Circle
2742 1816 Circle
2742 1813 Circle
2742 1818 Circle
2834 1868 Circle
2834 1863 Circle
2834 1866 Circle
2834 1865 Circle
2834 1864 Circle
2925 1909 Circle
2925 1912 Circle
2925 1912 Circle
2925 1909 Circle
2925 1911 Circle
3017 1957 Circle
3017 1956 Circle
3017 1957 Circle
3017 1956 Circle
3017 1956 Circle
3109 2006 Circle
3109 2005 Circle
3109 2005 Circle
3109 2003 Circle
3109 2007 Circle
3201 2053 Circle
3201 2055 Circle
3201 2055 Circle
3201 2051 Circle
3201 2051 Circle
3293 2095 Circle
3293 2093 Circle
3293 2099 Circle
3293 2101 Circle
3293 2098 Circle
3384 2140 Circle
3384 2143 Circle
3384 2140 Circle
3384 2139 Circle
3384 2142 Circle
3476 2189 Circle
3476 2190 Circle
3476 2187 Circle
3476 2187 Circle
3476 2194 Circle
3568 2231 Circle
3568 2226 Circle
3568 2230 Circle
3568 2236 Circle
3568 2232 Circle
3660 2278 Circle
3660 2278 Circle
3660 2275 Circle
3660 2275 Circle
3660 2277 Circle
3752 2306 Circle
3752 2306 Circle
3752 2307 Circle
3752 2313 Circle
3752 2305 Circle
3843 2316 Circle
3843 2319 Circle
3843 2318 Circle
3843 2312 Circle
3843 2318 Circle
3935 2360 Circle
3935 2362 Circle
3935 2361 Circle
3935 2365 Circle
3935 2358 Circle
4027 2407 Circle
4027 2406 Circle
4027 2407 Circle
4027 2406 Circle
4027 2407 Circle
4119 2454 Circle
4119 2459 Circle
4119 2448 Circle
4119 2457 Circle
4119 2457 Circle
4210 2494 Circle
4210 2495 Circle
4210 2498 Circle
4210 2496 Circle
4210 2500 Circle
4302 2536 Circle
4302 2535 Circle
4302 2536 Circle
4302 2535 Circle
4302 2539 Circle
4394 2579 Circle
4394 2581 Circle
4394 2573 Circle
4394 2572 Circle
4394 2586 Circle
4486 2621 Circle
4486 2613 Circle
4486 2613 Circle
4486 2613 Circle
4486 2620 Circle
4578 2661 Circle
4578 2661 Circle
4578 2658 Circle
4578 2657 Circle
4578 2657 Circle
4669 2700 Circle
4669 2705 Circle
4669 2699 Circle
4669 2701 Circle
4669 2702 Circle
4761 2749 Circle
4761 2747 Circle
4761 2751 Circle
4761 2749 Circle
4761 2748 Circle
4853 2797 Circle
4853 2791 Circle
4853 2787 Circle
4853 2793 Circle
4853 2790 Circle
4945 2841 Circle
4945 2814 Circle
4945 2839 Circle
4945 2821 Circle
4945 2832 Circle
5037 2866 Circle
5037 2871 Circle
5037 2869 Circle
5037 2864 Circle
5037 2871 Circle
5128 2914 Circle
5128 2922 Circle
5128 2915 Circle
5128 2906 Circle
5128 2900 Circle
5220 2948 Circle
5220 2957 Circle
5220 2954 Circle
5220 2930 Circle
5220 2933 Circle
5312 2993 Circle
5312 2987 Circle
5312 3000 Circle
5312 2982 Circle
5312 2982 Circle
5404 3023 Circle
5404 3040 Circle
5404 3030 Circle
5404 3031 Circle
5404 3022 Circle
5496 3080 Circle
5496 3070 Circle
5496 3081 Circle
5496 3080 Circle
5496 3074 Circle
5587 3117 Circle
5587 3124 Circle
5587 3122 Circle
5587 3122 Circle
5587 3127 Circle
5679 3157 Circle
5679 3169 Circle
5679 3181 Circle
5679 3170 Circle
5679 3174 Circle
5771 3227 Circle
5771 3190 Circle
5771 3171 Circle
5771 3217 Circle
5771 3192 Circle
5863 3272 Circle
5863 3228 Circle
5863 3255 Circle
5863 3250 Circle
5863 3255 Circle
5955 3290 Circle
5955 3285 Circle
5955 3273 Circle
5955 3294 Circle
5955 3286 Circle
6046 3325 Circle
6046 3294 Circle
6046 3302 Circle
6046 3294 Circle
6046 3332 Circle
6138 3368 Circle
6138 3370 Circle
6138 3331 Circle
6138 3375 Circle
6138 3374 Circle
6230 3406 Circle
6230 3411 Circle
6230 3417 Circle
6230 3402 Circle
6230 3412 Circle
6322 3455 Circle
6322 3436 Circle
6322 3445 Circle
6322 3420 Circle
6322 3442 Circle
6414 3471 Circle
6414 3457 Circle
6414 3465 Circle
6414 3481 Circle
6414 3472 Circle
6505 3518 Circle
6505 3481 Circle
6505 3501 Circle
6505 3534 Circle
6505 3509 Circle
6597 3569 Circle
6597 3557 Circle
6597 3561 Circle
6597 3522 Circle
6597 3560 Circle
6689 3604 Circle
6689 3597 Circle
6689 3573 Circle
6689 3606 Circle
6689 3557 Circle
6129 1317 Circle
1.000 UP
1.000 UL
LT1
0.00 0.00 0.00 C LTb
LT1
0.00 0.00 0.00 C 1181 935 Box
1181 935 Box
1181 934 Box
1181 935 Box
1181 935 Box
1273 992 Box
1273 992 Box
1273 991 Box
1273 991 Box
1273 991 Box
1365 1048 Box
1365 1048 Box
1365 1048 Box
1365 1049 Box
1365 1048 Box
1457 1105 Box
1457 1104 Box
1457 1104 Box
1457 1105 Box
1457 1105 Box
1548 1159 Box
1548 1160 Box
1548 1158 Box
1548 1159 Box
1548 1159 Box
1640 1217 Box
1640 1216 Box
1640 1218 Box
1640 1218 Box
1640 1218 Box
1732 1273 Box
1732 1273 Box
1732 1273 Box
1732 1271 Box
1732 1272 Box
1824 1323 Box
1824 1328 Box
1824 1327 Box
1824 1326 Box
1824 1325 Box
1916 1382 Box
1916 1387 Box
1916 1387 Box
1916 1385 Box
1916 1385 Box
2007 1441 Box
2007 1439 Box
2007 1443 Box
2007 1440 Box
2007 1440 Box
2099 1493 Box
2099 1498 Box
2099 1499 Box
2099 1495 Box
2099 1496 Box
2191 1550 Box
2191 1550 Box
2191 1552 Box
2191 1552 Box
2191 1550 Box
2283 1598 Box
2283 1593 Box
2283 1595 Box
2283 1596 Box
2283 1600 Box
2375 1654 Box
2375 1650 Box
2375 1653 Box
2375 1648 Box
2375 1656 Box
2466 1711 Box
2466 1715 Box
2466 1712 Box
2466 1714 Box
2466 1715 Box
2558 1778 Box
2558 1766 Box
2558 1775 Box
2558 1770 Box
2558 1767 Box
2650 1823 Box
2650 1826 Box
2650 1829 Box
2650 1836 Box
2650 1836 Box
2742 1894 Box
2742 1884 Box
2742 1892 Box
2742 1881 Box
2742 1891 Box
2834 1956 Box
2834 1946 Box
2834 1947 Box
2834 1950 Box
2834 1947 Box
2925 1992 Box
2925 2006 Box
2925 1995 Box
2925 1998 Box
2925 1994 Box
3017 2048 Box
3017 2051 Box
3017 2052 Box
3017 2052 Box
3017 2054 Box
3109 2111 Box
3109 2112 Box
3109 2118 Box
3109 2102 Box
3109 2114 Box
3201 2173 Box
3201 2168 Box
3201 2167 Box
3201 2165 Box
3201 2159 Box
3293 2205 Box
3293 2213 Box
3293 2215 Box
3293 2226 Box
3293 2218 Box
3384 2265 Box
3384 2267 Box
3384 2259 Box
3384 2277 Box
3384 2273 Box
3476 2324 Box
3476 2317 Box
3476 2317 Box
3476 2315 Box
3476 2326 Box
3568 2355 Box
3568 2360 Box
3568 2362 Box
3568 2374 Box
3568 2360 Box
3660 2413 Box
3660 2407 Box
3660 2418 Box
3660 2405 Box
3660 2411 Box
3752 2439 Box
3752 2434 Box
3752 2451 Box
3752 2456 Box
3752 2437 Box
3843 2421 Box
3843 2419 Box
3843 2418 Box
3843 2415 Box
3843 2420 Box
3935 2470 Box
3935 2470 Box
3935 2472 Box
3935 2473 Box
3935 2473 Box
4027 2524 Box
4027 2523 Box
4027 2526 Box
4027 2522 Box
4027 2524 Box
4119 2585 Box
4119 2584 Box
4119 2576 Box
4119 2584 Box
4119 2581 Box
4210 2625 Box
4210 2632 Box
4210 2637 Box
4210 2625 Box
4210 2627 Box
4302 2671 Box
4302 2672 Box
4302 2674 Box
4302 2670 Box
4302 2677 Box
4394 2729 Box
4394 2732 Box
4394 2713 Box
4394 2713 Box
4394 2730 Box
4486 2774 Box
4486 2771 Box
4486 2756 Box
4486 2764 Box
4486 2772 Box
4578 2815 Box
4578 2822 Box
4578 2821 Box
4578 2810 Box
4578 2815 Box
4669 2869 Box
4669 2866 Box
4669 2863 Box
4669 2872 Box
4669 2873 Box
4761 2917 Box
4761 2920 Box
4761 2923 Box
4761 2914 Box
4761 2925 Box
4853 2970 Box
4853 2974 Box
4853 2965 Box
4853 2975 Box
4853 2975 Box
4945 3020 Box
4945 3013 Box
4945 3023 Box
4945 3026 Box
4945 3032 Box
5037 3074 Box
5037 3060 Box
5037 3063 Box
5037 3072 Box
5037 3066 Box
5128 3119 Box
5128 3124 Box
5128 3103 Box
5128 3115 Box
5128 3123 Box
5220 3163 Box
5220 3160 Box
5220 3161 Box
5220 3146 Box
5220 3158 Box
5312 3212 Box
5312 3217 Box
5312 3214 Box
5312 3218 Box
5312 3205 Box
5404 3252 Box
5404 3259 Box
5404 3264 Box
5404 3256 Box
5404 3266 Box
5496 3317 Box
5496 3316 Box
5496 3315 Box
5496 3315 Box
5496 3307 Box
5587 3366 Box
5587 3368 Box
5587 3377 Box
5587 3373 Box
5587 3380 Box
5679 3404 Box
5679 3422 Box
5679 3424 Box
5679 3429 Box
5679 3430 Box
5771 3484 Box
5771 3475 Box
5771 3436 Box
5771 3473 Box
5771 3490 Box
5863 3489 Box
5863 3497 Box
5863 3491 Box
5863 3482 Box
5863 3531 Box
5955 3565 Box
5955 3575 Box
5955 3585 Box
5955 3570 Box
5955 3580 Box
6046 3620 Box
6046 3619 Box
6046 3613 Box
6046 3584 Box
6046 3617 Box
6138 3669 Box
6138 3663 Box
6138 3660 Box
6138 3667 Box
6138 3679 Box
6230 3676 Box
6230 3718 Box
6230 3688 Box
6230 3690 Box
6230 3703 Box
6322 3755 Box
6322 3757 Box
6322 3759 Box
6322 3738 Box
6322 3753 Box
6414 3806 Box
6414 3790 Box
6414 3775 Box
6414 3805 Box
6414 3795 Box
6505 3843 Box
6505 3845 Box
6505 3844 Box
6505 3859 Box
6505 3845 Box
6597 3898 Box
6597 3899 Box
6597 3901 Box
6597 3895 Box
6597 3892 Box
6689 3908 Box
6689 3938 Box
6689 3957 Box
6689 3912 Box
6689 3906 Box
6129 1097 Box
1.000 UP
1.000 UL
LT2
0.00 0.00 0.00 C LTb
LT2
0.00 0.00 0.00 C 1181 933 Crs
1181 933 Crs
1181 933 Crs
1181 933 Crs
1181 933 Crs
1273 989 Crs
1273 989 Crs
1273 989 Crs
1273 989 Crs
1273 989 Crs
1365 1045 Crs
1365 1045 Crs
1365 1045 Crs
1365 1045 Crs
1365 1045 Crs
1457 1100 Crs
1457 1100 Crs
1457 1099 Crs
1457 1099 Crs
1457 1100 Crs
1548 1153 Crs
1548 1153 Crs
1548 1153 Crs
1548 1153 Crs
1548 1153 Crs
1640 1208 Crs
1640 1208 Crs
1640 1208 Crs
1640 1208 Crs
1640 1208 Crs
1732 1262 Crs
1732 1261 Crs
1732 1262 Crs
1732 1262 Crs
1732 1262 Crs
1824 1313 Crs
1824 1313 Crs
1824 1312 Crs
1824 1314 Crs
1824 1313 Crs
1916 1366 Crs
1916 1367 Crs
1916 1367 Crs
1916 1367 Crs
1916 1366 Crs
2007 1420 Crs
2007 1420 Crs
2007 1419 Crs
2007 1419 Crs
2007 1419 Crs
2099 1471 Crs
2099 1471 Crs
2099 1472 Crs
2099 1472 Crs
2099 1472 Crs
2191 1523 Crs
2191 1525 Crs
2191 1525 Crs
2191 1524 Crs
2191 1524 Crs
2283 1569 Crs
2283 1566 Crs
2283 1569 Crs
2283 1568 Crs
2283 1570 Crs
2375 1617 Crs
2375 1618 Crs
2375 1620 Crs
2375 1617 Crs
2375 1618 Crs
2466 1671 Crs
2466 1669 Crs
2466 1670 Crs
2466 1670 Crs
2466 1673 Crs
2558 1722 Crs
2558 1721 Crs
2558 1722 Crs
2558 1723 Crs
2558 1721 Crs
2650 1771 Crs
2650 1769 Crs
2650 1770 Crs
2650 1772 Crs
2650 1771 Crs
2742 1822 Crs
2742 1824 Crs
2742 1823 Crs
2742 1819 Crs
2742 1825 Crs
2834 1876 Crs
2834 1871 Crs
2834 1873 Crs
2834 1872 Crs
2834 1873 Crs
2925 1917 Crs
2925 1919 Crs
2925 1920 Crs
2925 1917 Crs
2925 1917 Crs
3017 1966 Crs
3017 1964 Crs
3017 1965 Crs
3017 1963 Crs
3017 1963 Crs
3109 2018 Crs
3109 2018 Crs
3109 2017 Crs
3109 2013 Crs
3109 2017 Crs
3201 2063 Crs
3201 2064 Crs
3201 2064 Crs
3201 2061 Crs
3201 2060 Crs
3293 2109 Crs
3293 2106 Crs
3293 2112 Crs
3293 2115 Crs
3293 2110 Crs
3384 2158 Crs
3384 2160 Crs
3384 2156 Crs
3384 2158 Crs
3384 2158 Crs
3476 2209 Crs
3476 2210 Crs
3476 2207 Crs
3476 2209 Crs
3476 2220 Crs
3568 2253 Crs
3568 2249 Crs
3568 2253 Crs
3568 2254 Crs
3568 2252 Crs
3660 2291 Crs
3660 2291 Crs
3660 2289 Crs
3660 2290 Crs
3660 2291 Crs
3752 2307 Crs
3752 2306 Crs
3752 2309 Crs
3752 2313 Crs
3752 2307 Crs
3843 2319 Crs
3843 2322 Crs
3843 2320 Crs
3843 2314 Crs
3843 2322 Crs
3935 2363 Crs
3935 2363 Crs
3935 2366 Crs
3935 2367 Crs
3935 2362 Crs
4027 2409 Crs
4027 2409 Crs
4027 2410 Crs
4027 2408 Crs
4027 2409 Crs
4119 2457 Crs
4119 2462 Crs
4119 2452 Crs
4119 2459 Crs
4119 2463 Crs
4210 2498 Crs
4210 2498 Crs
4210 2504 Crs
4210 2502 Crs
4210 2502 Crs
4302 2540 Crs
4302 2541 Crs
4302 2543 Crs
4302 2540 Crs
4302 2546 Crs
4394 2582 Crs
4394 2589 Crs
4394 2579 Crs
4394 2577 Crs
4394 2592 Crs
4486 2627 Crs
4486 2623 Crs
4486 2619 Crs
4486 2620 Crs
4486 2629 Crs
4578 2668 Crs
4578 2670 Crs
4578 2666 Crs
4578 2662 Crs
4578 2664 Crs
4669 2707 Crs
4669 2711 Crs
4669 2707 Crs
4669 2713 Crs
4669 2715 Crs
4761 2757 Crs
4761 2754 Crs
4761 2764 Crs
4761 2759 Crs
4761 2759 Crs
4853 2808 Crs
4853 2802 Crs
4853 2798 Crs
4853 2802 Crs
4853 2801 Crs
4945 2850 Crs
4945 2824 Crs
4945 2849 Crs
4945 2832 Crs
4945 2846 Crs
5037 2880 Crs
5037 2881 Crs
5037 2878 Crs
5037 2877 Crs
5037 2884 Crs
5128 2929 Crs
5128 2932 Crs
5128 2927 Crs
5128 2925 Crs
5128 2912 Crs
5220 2966 Crs
5220 2975 Crs
5220 2969 Crs
5220 2942 Crs
5220 2945 Crs
5312 3011 Crs
5312 3003 Crs
5312 3016 Crs
5312 2998 Crs
5312 2996 Crs
5404 3040 Crs
5404 3056 Crs
5404 3054 Crs
5404 3050 Crs
5404 3046 Crs
5496 3098 Crs
5496 3091 Crs
5496 3104 Crs
5496 3107 Crs
5496 3093 Crs
5587 3136 Crs
5587 3152 Crs
5587 3144 Crs
5587 3136 Crs
5587 3148 Crs
5679 3180 Crs
5679 3191 Crs
5679 3209 Crs
5679 3198 Crs
5679 3195 Crs
5771 3262 Crs
5771 3212 Crs
5771 3196 Crs
5771 3240 Crs
5771 3219 Crs
5863 3298 Crs
5863 3248 Crs
5863 3273 Crs
5863 3274 Crs
5863 3279 Crs
5955 3307 Crs
5955 3308 Crs
5955 3294 Crs
5955 3313 Crs
5955 3321 Crs
6046 3349 Crs
6046 3323 Crs
6046 3332 Crs
6046 3325 Crs
6046 3354 Crs
6138 3392 Crs
6138 3400 Crs
6138 3361 Crs
6138 3410 Crs
6138 3399 Crs
6230 3434 Crs
6230 3436 Crs
6230 3441 Crs
6230 3436 Crs
6230 3445 Crs
6322 3484 Crs
6322 3467 Crs
6322 3474 Crs
6322 3451 Crs
6322 3468 Crs
6414 3508 Crs
6414 3490 Crs
6414 3491 Crs
6414 3514 Crs
6414 3500 Crs
6505 3553 Crs
6505 3510 Crs
6505 3535 Crs
6505 3576 Crs
6505 3544 Crs
6597 3605 Crs
6597 3604 Crs
6597 3605 Crs
6597 3546 Crs
6597 3600 Crs
6689 3646 Crs
6689 3639 Crs
6689 3597 Crs
6689 3641 Crs
6689 3583 Crs
6129 877 Crs
1.000 UL
LTb
814 4269 N
814 704 L
5875 0 V
0 3565 V
-5875 0 V
Z stroke
1.000 UP
1.000 UL
LTb
stroke
grestore
end
showpage
%%Trailer
