%!PS-Adobe-2.0 EPSF-2.0
%%Title: pots2_adj_top_q.tex
%%Creator: gnuplot 4.6 patchlevel 5
%%CreationDate: Mon Jan 11 00:46:18 2016
%%DocumentFonts: 
%%BoundingBox: 50 50 758 305
%%EndComments
%%BeginProlog
/gnudict 256 dict def
gnudict begin
%
% The following true/false flags may be edited by hand if desired.
% The unit line width and grayscale image gamma correction may also be changed.
%
/Color false def
/Blacktext true def
/Solid false def
/Dashlength 1 def
/Landscape false def
/Level1 false def
/Rounded false def
/ClipToBoundingBox false def
/SuppressPDFMark false def
/TransparentPatterns false def
/gnulinewidth 5.000 def
/userlinewidth gnulinewidth def
/Gamma 1.0 def
/BackgroundColor {-1.000 -1.000 -1.000} def
%
/vshift -73 def
/dl1 {
  10.0 Dashlength mul mul
  Rounded { currentlinewidth 0.75 mul sub dup 0 le { pop 0.01 } if } if
} def
/dl2 {
  10.0 Dashlength mul mul
  Rounded { currentlinewidth 0.75 mul add } if
} def
/hpt_ 31.5 def
/vpt_ 31.5 def
/hpt hpt_ def
/vpt vpt_ def
/doclip {
  ClipToBoundingBox {
    newpath 50 50 moveto 758 50 lineto 758 305 lineto 50 305 lineto closepath
    clip
  } if
} def
%
% Gnuplot Prolog Version 4.6 (September 2012)
%
%/SuppressPDFMark true def
%
/M {moveto} bind def
/L {lineto} bind def
/R {rmoveto} bind def
/V {rlineto} bind def
/N {newpath moveto} bind def
/Z {closepath} bind def
/C {setrgbcolor} bind def
/f {rlineto fill} bind def
/g {setgray} bind def
/Gshow {show} def   % May be redefined later in the file to support UTF-8
/vpt2 vpt 2 mul def
/hpt2 hpt 2 mul def
/Lshow {currentpoint stroke M 0 vshift R 
	Blacktext {gsave 0 setgray show grestore} {show} ifelse} def
/Rshow {currentpoint stroke M dup stringwidth pop neg vshift R
	Blacktext {gsave 0 setgray show grestore} {show} ifelse} def
/Cshow {currentpoint stroke M dup stringwidth pop -2 div vshift R 
	Blacktext {gsave 0 setgray show grestore} {show} ifelse} def
/UP {dup vpt_ mul /vpt exch def hpt_ mul /hpt exch def
  /hpt2 hpt 2 mul def /vpt2 vpt 2 mul def} def
/DL {Color {setrgbcolor Solid {pop []} if 0 setdash}
 {pop pop pop 0 setgray Solid {pop []} if 0 setdash} ifelse} def
/BL {stroke userlinewidth 2 mul setlinewidth
	Rounded {1 setlinejoin 1 setlinecap} if} def
/AL {stroke userlinewidth 2 div setlinewidth
	Rounded {1 setlinejoin 1 setlinecap} if} def
/UL {dup gnulinewidth mul /userlinewidth exch def
	dup 1 lt {pop 1} if 10 mul /udl exch def} def
/PL {stroke userlinewidth setlinewidth
	Rounded {1 setlinejoin 1 setlinecap} if} def
3.8 setmiterlimit
% Default Line colors
/LCw {1 1 1} def
/LCb {0 0 0} def
/LCa {0 0 0} def
/LC0 {1 0 0} def
/LC1 {0 1 0} def
/LC2 {0 0 1} def
/LC3 {1 0 1} def
/LC4 {0 1 1} def
/LC5 {1 1 0} def
/LC6 {0 0 0} def
/LC7 {1 0.3 0} def
/LC8 {0.5 0.5 0.5} def
% Default Line Types
/LTw {PL [] 1 setgray} def
/LTb {BL [] LCb DL} def
/LTa {AL [1 udl mul 2 udl mul] 0 setdash LCa setrgbcolor} def
/LT0 {PL [] LC0 DL} def
/LT1 {PL [4 dl1 2 dl2] LC1 DL} def
/LT2 {PL [2 dl1 3 dl2] LC2 DL} def
/LT3 {PL [1 dl1 1.5 dl2] LC3 DL} def
/LT4 {PL [6 dl1 2 dl2 1 dl1 2 dl2] LC4 DL} def
/LT5 {PL [3 dl1 3 dl2 1 dl1 3 dl2] LC5 DL} def
/LT6 {PL [2 dl1 2 dl2 2 dl1 6 dl2] LC6 DL} def
/LT7 {PL [1 dl1 2 dl2 6 dl1 2 dl2 1 dl1 2 dl2] LC7 DL} def
/LT8 {PL [2 dl1 2 dl2 2 dl1 2 dl2 2 dl1 2 dl2 2 dl1 4 dl2] LC8 DL} def
/Pnt {stroke [] 0 setdash gsave 1 setlinecap M 0 0 V stroke grestore} def
/Dia {stroke [] 0 setdash 2 copy vpt add M
  hpt neg vpt neg V hpt vpt neg V
  hpt vpt V hpt neg vpt V closepath stroke
  Pnt} def
/Pls {stroke [] 0 setdash vpt sub M 0 vpt2 V
  currentpoint stroke M
  hpt neg vpt neg R hpt2 0 V stroke
 } def
/Box {stroke [] 0 setdash 2 copy exch hpt sub exch vpt add M
  0 vpt2 neg V hpt2 0 V 0 vpt2 V
  hpt2 neg 0 V closepath stroke
  Pnt} def
/Crs {stroke [] 0 setdash exch hpt sub exch vpt add M
  hpt2 vpt2 neg V currentpoint stroke M
  hpt2 neg 0 R hpt2 vpt2 V stroke} def
/TriU {stroke [] 0 setdash 2 copy vpt 1.12 mul add M
  hpt neg vpt -1.62 mul V
  hpt 2 mul 0 V
  hpt neg vpt 1.62 mul V closepath stroke
  Pnt} def
/Star {2 copy Pls Crs} def
/BoxF {stroke [] 0 setdash exch hpt sub exch vpt add M
  0 vpt2 neg V hpt2 0 V 0 vpt2 V
  hpt2 neg 0 V closepath fill} def
/TriUF {stroke [] 0 setdash vpt 1.12 mul add M
  hpt neg vpt -1.62 mul V
  hpt 2 mul 0 V
  hpt neg vpt 1.62 mul V closepath fill} def
/TriD {stroke [] 0 setdash 2 copy vpt 1.12 mul sub M
  hpt neg vpt 1.62 mul V
  hpt 2 mul 0 V
  hpt neg vpt -1.62 mul V closepath stroke
  Pnt} def
/TriDF {stroke [] 0 setdash vpt 1.12 mul sub M
  hpt neg vpt 1.62 mul V
  hpt 2 mul 0 V
  hpt neg vpt -1.62 mul V closepath fill} def
/DiaF {stroke [] 0 setdash vpt add M
  hpt neg vpt neg V hpt vpt neg V
  hpt vpt V hpt neg vpt V closepath fill} def
/Pent {stroke [] 0 setdash 2 copy gsave
  translate 0 hpt M 4 {72 rotate 0 hpt L} repeat
  closepath stroke grestore Pnt} def
/PentF {stroke [] 0 setdash gsave
  translate 0 hpt M 4 {72 rotate 0 hpt L} repeat
  closepath fill grestore} def
/Circle {stroke [] 0 setdash 2 copy
  hpt 0 360 arc stroke Pnt} def
/CircleF {stroke [] 0 setdash hpt 0 360 arc fill} def
/C0 {BL [] 0 setdash 2 copy moveto vpt 90 450 arc} bind def
/C1 {BL [] 0 setdash 2 copy moveto
	2 copy vpt 0 90 arc closepath fill
	vpt 0 360 arc closepath} bind def
/C2 {BL [] 0 setdash 2 copy moveto
	2 copy vpt 90 180 arc closepath fill
	vpt 0 360 arc closepath} bind def
/C3 {BL [] 0 setdash 2 copy moveto
	2 copy vpt 0 180 arc closepath fill
	vpt 0 360 arc closepath} bind def
/C4 {BL [] 0 setdash 2 copy moveto
	2 copy vpt 180 270 arc closepath fill
	vpt 0 360 arc closepath} bind def
/C5 {BL [] 0 setdash 2 copy moveto
	2 copy vpt 0 90 arc
	2 copy moveto
	2 copy vpt 180 270 arc closepath fill
	vpt 0 360 arc} bind def
/C6 {BL [] 0 setdash 2 copy moveto
	2 copy vpt 90 270 arc closepath fill
	vpt 0 360 arc closepath} bind def
/C7 {BL [] 0 setdash 2 copy moveto
	2 copy vpt 0 270 arc closepath fill
	vpt 0 360 arc closepath} bind def
/C8 {BL [] 0 setdash 2 copy moveto
	2 copy vpt 270 360 arc closepath fill
	vpt 0 360 arc closepath} bind def
/C9 {BL [] 0 setdash 2 copy moveto
	2 copy vpt 270 450 arc closepath fill
	vpt 0 360 arc closepath} bind def
/C10 {BL [] 0 setdash 2 copy 2 copy moveto vpt 270 360 arc closepath fill
	2 copy moveto
	2 copy vpt 90 180 arc closepath fill
	vpt 0 360 arc closepath} bind def
/C11 {BL [] 0 setdash 2 copy moveto
	2 copy vpt 0 180 arc closepath fill
	2 copy moveto
	2 copy vpt 270 360 arc closepath fill
	vpt 0 360 arc closepath} bind def
/C12 {BL [] 0 setdash 2 copy moveto
	2 copy vpt 180 360 arc closepath fill
	vpt 0 360 arc closepath} bind def
/C13 {BL [] 0 setdash 2 copy moveto
	2 copy vpt 0 90 arc closepath fill
	2 copy moveto
	2 copy vpt 180 360 arc closepath fill
	vpt 0 360 arc closepath} bind def
/C14 {BL [] 0 setdash 2 copy moveto
	2 copy vpt 90 360 arc closepath fill
	vpt 0 360 arc} bind def
/C15 {BL [] 0 setdash 2 copy vpt 0 360 arc closepath fill
	vpt 0 360 arc closepath} bind def
/Rec {newpath 4 2 roll moveto 1 index 0 rlineto 0 exch rlineto
	neg 0 rlineto closepath} bind def
/Square {dup Rec} bind def
/Bsquare {vpt sub exch vpt sub exch vpt2 Square} bind def
/S0 {BL [] 0 setdash 2 copy moveto 0 vpt rlineto BL Bsquare} bind def
/S1 {BL [] 0 setdash 2 copy vpt Square fill Bsquare} bind def
/S2 {BL [] 0 setdash 2 copy exch vpt sub exch vpt Square fill Bsquare} bind def
/S3 {BL [] 0 setdash 2 copy exch vpt sub exch vpt2 vpt Rec fill Bsquare} bind def
/S4 {BL [] 0 setdash 2 copy exch vpt sub exch vpt sub vpt Square fill Bsquare} bind def
/S5 {BL [] 0 setdash 2 copy 2 copy vpt Square fill
	exch vpt sub exch vpt sub vpt Square fill Bsquare} bind def
/S6 {BL [] 0 setdash 2 copy exch vpt sub exch vpt sub vpt vpt2 Rec fill Bsquare} bind def
/S7 {BL [] 0 setdash 2 copy exch vpt sub exch vpt sub vpt vpt2 Rec fill
	2 copy vpt Square fill Bsquare} bind def
/S8 {BL [] 0 setdash 2 copy vpt sub vpt Square fill Bsquare} bind def
/S9 {BL [] 0 setdash 2 copy vpt sub vpt vpt2 Rec fill Bsquare} bind def
/S10 {BL [] 0 setdash 2 copy vpt sub vpt Square fill 2 copy exch vpt sub exch vpt Square fill
	Bsquare} bind def
/S11 {BL [] 0 setdash 2 copy vpt sub vpt Square fill 2 copy exch vpt sub exch vpt2 vpt Rec fill
	Bsquare} bind def
/S12 {BL [] 0 setdash 2 copy exch vpt sub exch vpt sub vpt2 vpt Rec fill Bsquare} bind def
/S13 {BL [] 0 setdash 2 copy exch vpt sub exch vpt sub vpt2 vpt Rec fill
	2 copy vpt Square fill Bsquare} bind def
/S14 {BL [] 0 setdash 2 copy exch vpt sub exch vpt sub vpt2 vpt Rec fill
	2 copy exch vpt sub exch vpt Square fill Bsquare} bind def
/S15 {BL [] 0 setdash 2 copy Bsquare fill Bsquare} bind def
/D0 {gsave translate 45 rotate 0 0 S0 stroke grestore} bind def
/D1 {gsave translate 45 rotate 0 0 S1 stroke grestore} bind def
/D2 {gsave translate 45 rotate 0 0 S2 stroke grestore} bind def
/D3 {gsave translate 45 rotate 0 0 S3 stroke grestore} bind def
/D4 {gsave translate 45 rotate 0 0 S4 stroke grestore} bind def
/D5 {gsave translate 45 rotate 0 0 S5 stroke grestore} bind def
/D6 {gsave translate 45 rotate 0 0 S6 stroke grestore} bind def
/D7 {gsave translate 45 rotate 0 0 S7 stroke grestore} bind def
/D8 {gsave translate 45 rotate 0 0 S8 stroke grestore} bind def
/D9 {gsave translate 45 rotate 0 0 S9 stroke grestore} bind def
/D10 {gsave translate 45 rotate 0 0 S10 stroke grestore} bind def
/D11 {gsave translate 45 rotate 0 0 S11 stroke grestore} bind def
/D12 {gsave translate 45 rotate 0 0 S12 stroke grestore} bind def
/D13 {gsave translate 45 rotate 0 0 S13 stroke grestore} bind def
/D14 {gsave translate 45 rotate 0 0 S14 stroke grestore} bind def
/D15 {gsave translate 45 rotate 0 0 S15 stroke grestore} bind def
/DiaE {stroke [] 0 setdash vpt add M
  hpt neg vpt neg V hpt vpt neg V
  hpt vpt V hpt neg vpt V closepath stroke} def
/BoxE {stroke [] 0 setdash exch hpt sub exch vpt add M
  0 vpt2 neg V hpt2 0 V 0 vpt2 V
  hpt2 neg 0 V closepath stroke} def
/TriUE {stroke [] 0 setdash vpt 1.12 mul add M
  hpt neg vpt -1.62 mul V
  hpt 2 mul 0 V
  hpt neg vpt 1.62 mul V closepath stroke} def
/TriDE {stroke [] 0 setdash vpt 1.12 mul sub M
  hpt neg vpt 1.62 mul V
  hpt 2 mul 0 V
  hpt neg vpt -1.62 mul V closepath stroke} def
/PentE {stroke [] 0 setdash gsave
  translate 0 hpt M 4 {72 rotate 0 hpt L} repeat
  closepath stroke grestore} def
/CircE {stroke [] 0 setdash 
  hpt 0 360 arc stroke} def
/Opaque {gsave closepath 1 setgray fill grestore 0 setgray closepath} def
/DiaW {stroke [] 0 setdash vpt add M
  hpt neg vpt neg V hpt vpt neg V
  hpt vpt V hpt neg vpt V Opaque stroke} def
/BoxW {stroke [] 0 setdash exch hpt sub exch vpt add M
  0 vpt2 neg V hpt2 0 V 0 vpt2 V
  hpt2 neg 0 V Opaque stroke} def
/TriUW {stroke [] 0 setdash vpt 1.12 mul add M
  hpt neg vpt -1.62 mul V
  hpt 2 mul 0 V
  hpt neg vpt 1.62 mul V Opaque stroke} def
/TriDW {stroke [] 0 setdash vpt 1.12 mul sub M
  hpt neg vpt 1.62 mul V
  hpt 2 mul 0 V
  hpt neg vpt -1.62 mul V Opaque stroke} def
/PentW {stroke [] 0 setdash gsave
  translate 0 hpt M 4 {72 rotate 0 hpt L} repeat
  Opaque stroke grestore} def
/CircW {stroke [] 0 setdash 
  hpt 0 360 arc Opaque stroke} def
/BoxFill {gsave Rec 1 setgray fill grestore} def
/Density {
  /Fillden exch def
  currentrgbcolor
  /ColB exch def /ColG exch def /ColR exch def
  /ColR ColR Fillden mul Fillden sub 1 add def
  /ColG ColG Fillden mul Fillden sub 1 add def
  /ColB ColB Fillden mul Fillden sub 1 add def
  ColR ColG ColB setrgbcolor} def
/BoxColFill {gsave Rec PolyFill} def
/PolyFill {gsave Density fill grestore grestore} def
/h {rlineto rlineto rlineto gsave closepath fill grestore} bind def
%
% PostScript Level 1 Pattern Fill routine for rectangles
% Usage: x y w h s a XX PatternFill
%	x,y = lower left corner of box to be filled
%	w,h = width and height of box
%	  a = angle in degrees between lines and x-axis
%	 XX = 0/1 for no/yes cross-hatch
%
/PatternFill {gsave /PFa [ 9 2 roll ] def
  PFa 0 get PFa 2 get 2 div add PFa 1 get PFa 3 get 2 div add translate
  PFa 2 get -2 div PFa 3 get -2 div PFa 2 get PFa 3 get Rec
  TransparentPatterns {} {gsave 1 setgray fill grestore} ifelse
  clip
  currentlinewidth 0.5 mul setlinewidth
  /PFs PFa 2 get dup mul PFa 3 get dup mul add sqrt def
  0 0 M PFa 5 get rotate PFs -2 div dup translate
  0 1 PFs PFa 4 get div 1 add floor cvi
	{PFa 4 get mul 0 M 0 PFs V} for
  0 PFa 6 get ne {
	0 1 PFs PFa 4 get div 1 add floor cvi
	{PFa 4 get mul 0 2 1 roll M PFs 0 V} for
 } if
  stroke grestore} def
%
/languagelevel where
 {pop languagelevel} {1} ifelse
 2 lt
	{/InterpretLevel1 true def}
	{/InterpretLevel1 Level1 def}
 ifelse
%
% PostScript level 2 pattern fill definitions
%
/Level2PatternFill {
/Tile8x8 {/PaintType 2 /PatternType 1 /TilingType 1 /BBox [0 0 8 8] /XStep 8 /YStep 8}
	bind def
/KeepColor {currentrgbcolor [/Pattern /DeviceRGB] setcolorspace} bind def
<< Tile8x8
 /PaintProc {0.5 setlinewidth pop 0 0 M 8 8 L 0 8 M 8 0 L stroke} 
>> matrix makepattern
/Pat1 exch def
<< Tile8x8
 /PaintProc {0.5 setlinewidth pop 0 0 M 8 8 L 0 8 M 8 0 L stroke
	0 4 M 4 8 L 8 4 L 4 0 L 0 4 L stroke}
>> matrix makepattern
/Pat2 exch def
<< Tile8x8
 /PaintProc {0.5 setlinewidth pop 0 0 M 0 8 L
	8 8 L 8 0 L 0 0 L fill}
>> matrix makepattern
/Pat3 exch def
<< Tile8x8
 /PaintProc {0.5 setlinewidth pop -4 8 M 8 -4 L
	0 12 M 12 0 L stroke}
>> matrix makepattern
/Pat4 exch def
<< Tile8x8
 /PaintProc {0.5 setlinewidth pop -4 0 M 8 12 L
	0 -4 M 12 8 L stroke}
>> matrix makepattern
/Pat5 exch def
<< Tile8x8
 /PaintProc {0.5 setlinewidth pop -2 8 M 4 -4 L
	0 12 M 8 -4 L 4 12 M 10 0 L stroke}
>> matrix makepattern
/Pat6 exch def
<< Tile8x8
 /PaintProc {0.5 setlinewidth pop -2 0 M 4 12 L
	0 -4 M 8 12 L 4 -4 M 10 8 L stroke}
>> matrix makepattern
/Pat7 exch def
<< Tile8x8
 /PaintProc {0.5 setlinewidth pop 8 -2 M -4 4 L
	12 0 M -4 8 L 12 4 M 0 10 L stroke}
>> matrix makepattern
/Pat8 exch def
<< Tile8x8
 /PaintProc {0.5 setlinewidth pop 0 -2 M 12 4 L
	-4 0 M 12 8 L -4 4 M 8 10 L stroke}
>> matrix makepattern
/Pat9 exch def
/Pattern1 {PatternBgnd KeepColor Pat1 setpattern} bind def
/Pattern2 {PatternBgnd KeepColor Pat2 setpattern} bind def
/Pattern3 {PatternBgnd KeepColor Pat3 setpattern} bind def
/Pattern4 {PatternBgnd KeepColor Landscape {Pat5} {Pat4} ifelse setpattern} bind def
/Pattern5 {PatternBgnd KeepColor Landscape {Pat4} {Pat5} ifelse setpattern} bind def
/Pattern6 {PatternBgnd KeepColor Landscape {Pat9} {Pat6} ifelse setpattern} bind def
/Pattern7 {PatternBgnd KeepColor Landscape {Pat8} {Pat7} ifelse setpattern} bind def
} def
%
%
%End of PostScript Level 2 code
%
/PatternBgnd {
  TransparentPatterns {} {gsave 1 setgray fill grestore} ifelse
} def
%
% Substitute for Level 2 pattern fill codes with
% grayscale if Level 2 support is not selected.
%
/Level1PatternFill {
/Pattern1 {0.250 Density} bind def
/Pattern2 {0.500 Density} bind def
/Pattern3 {0.750 Density} bind def
/Pattern4 {0.125 Density} bind def
/Pattern5 {0.375 Density} bind def
/Pattern6 {0.625 Density} bind def
/Pattern7 {0.875 Density} bind def
} def
%
% Now test for support of Level 2 code
%
Level1 {Level1PatternFill} {Level2PatternFill} ifelse
%
/Symbol-Oblique /Symbol findfont [1 0 .167 1 0 0] makefont
dup length dict begin {1 index /FID eq {pop pop} {def} ifelse} forall
currentdict end definefont pop
Level1 SuppressPDFMark or 
{} {
/SDict 10 dict def
systemdict /pdfmark known not {
  userdict /pdfmark systemdict /cleartomark get put
} if
SDict begin [
  /Title (pots2_adj_top_q.tex)
  /Subject (gnuplot plot)
  /Creator (gnuplot 4.6 patchlevel 5)
  /Author (yummiii)
%  /Producer (gnuplot)
%  /Keywords ()
  /CreationDate (Mon Jan 11 00:46:18 2016)
  /DOCINFO pdfmark
end
} ifelse
end
%%EndProlog
%%Page: 1 1
gnudict begin
gsave
doclip
50 50 translate
0.050 0.050 scale
0 setgray
newpath
1.000 UL
LTb
814 704 M
63 0 V
12898 0 R
-63 0 V
814 1531 M
63 0 V
12898 0 R
-63 0 V
814 2357 M
63 0 V
12898 0 R
-63 0 V
814 3184 M
63 0 V
12898 0 R
-63 0 V
814 4010 M
63 0 V
12898 0 R
-63 0 V
814 4837 M
63 0 V
12898 0 R
-63 0 V
814 704 M
0 63 V
0 4070 R
0 -63 V
2434 704 M
0 63 V
0 4070 R
0 -63 V
4054 704 M
0 63 V
0 4070 R
0 -63 V
5674 704 M
0 63 V
0 4070 R
0 -63 V
7295 704 M
0 63 V
0 4070 R
0 -63 V
8915 704 M
0 63 V
0 4070 R
0 -63 V
10535 704 M
0 63 V
0 4070 R
0 -63 V
12155 704 M
0 63 V
0 4070 R
0 -63 V
13775 704 M
0 63 V
0 4070 R
0 -63 V
stroke
814 4837 N
814 704 L
12961 0 V
0 4133 V
814 4837 L
Z stroke
1.000 UP
1.000 UL
LTb
1.000 UL
LT2
946 3894 N
0 880 V
2703 0 V
0 -880 V
-2703 0 V
Z stroke
946 4554 M
2703 0 V
1.000 UP
stroke
LT0
LTb
LT0
2926 4444 M
591 0 V
1462 1197 M
162 109 V
162 76 V
162 33 V
162 34 V
162 3 V
162 1 V
162 36 V
162 1 V
162 1 V
162 1 V
162 0 V
162 38 V
162 1 V
162 0 V
162 0 V
162 0 V
162 0 V
162 0 V
162 1 V
162 0 V
162 0 V
162 0 V
162 0 V
162 0 V
162 0 V
162 0 V
162 0 V
162 41 V
162 0 V
162 0 V
162 0 V
162 0 V
162 0 V
162 0 V
162 0 V
163 0 V
162 0 V
162 0 V
162 0 V
162 0 V
162 0 V
162 0 V
162 0 V
162 0 V
162 0 V
162 0 V
162 0 V
162 0 V
162 0 V
162 0 V
162 0 V
162 0 V
162 0 V
162 0 V
162 0 V
162 0 V
162 0 V
162 0 V
162 0 V
162 0 V
162 0 V
162 0 V
162 0 V
162 0 V
162 0 V
162 0 V
162 0 V
162 0 V
162 0 V
162 0 V
162 0 V
162 0 V
162 0 V
162 0 V
162 0 V
162 0 V
1462 1197 Pls
1624 1306 Pls
1786 1382 Pls
1948 1415 Pls
2110 1449 Pls
2272 1452 Pls
2434 1453 Pls
2596 1489 Pls
2758 1490 Pls
2920 1491 Pls
3082 1492 Pls
3244 1492 Pls
3406 1530 Pls
3568 1531 Pls
3730 1531 Pls
3892 1531 Pls
4054 1531 Pls
4216 1531 Pls
4378 1531 Pls
4540 1532 Pls
4702 1532 Pls
4864 1532 Pls
5026 1532 Pls
5188 1532 Pls
5350 1532 Pls
5512 1532 Pls
5674 1532 Pls
5836 1532 Pls
5998 1573 Pls
6160 1573 Pls
6322 1573 Pls
6484 1573 Pls
6646 1573 Pls
6808 1573 Pls
6970 1573 Pls
7132 1573 Pls
7295 1573 Pls
7457 1573 Pls
7619 1573 Pls
7781 1573 Pls
7943 1573 Pls
8105 1573 Pls
8267 1573 Pls
8429 1573 Pls
8591 1573 Pls
8753 1573 Pls
8915 1573 Pls
9077 1573 Pls
9239 1573 Pls
9401 1573 Pls
9563 1573 Pls
9725 1573 Pls
9887 1573 Pls
10049 1573 Pls
10211 1573 Pls
10373 1573 Pls
10535 1573 Pls
10697 1573 Pls
10859 1573 Pls
11021 1573 Pls
11183 1573 Pls
11345 1573 Pls
11507 1573 Pls
11669 1573 Pls
11831 1573 Pls
11993 1573 Pls
12155 1573 Pls
12317 1573 Pls
12479 1573 Pls
12641 1573 Pls
12803 1573 Pls
12965 1573 Pls
13127 1573 Pls
13289 1573 Pls
13451 1573 Pls
13613 1573 Pls
13775 1573 Pls
3221 4444 Pls
1.000 UP
1.000 UL
LT1
LTb
LT1
2926 4224 M
591 0 V
1462 1107 M
162 83 V
162 86 V
162 38 V
162 103 V
162 41 V
162 44 V
162 54 V
162 67 V
162 61 V
162 21 V
162 112 V
162 79 V
162 9 V
162 60 V
162 1 V
162 0 V
162 0 V
162 99 V
162 0 V
162 0 V
162 0 V
162 0 V
162 0 V
162 0 V
162 0 V
162 0 V
162 0 V
162 116 V
162 0 V
162 0 V
162 0 V
162 0 V
162 0 V
162 0 V
162 0 V
163 0 V
162 0 V
162 0 V
162 0 V
162 0 V
162 0 V
162 0 V
162 0 V
162 0 V
162 0 V
162 0 V
162 0 V
162 0 V
162 0 V
162 0 V
162 0 V
162 0 V
162 0 V
162 0 V
162 0 V
162 0 V
162 0 V
162 0 V
162 0 V
162 137 V
162 0 V
162 0 V
162 0 V
162 0 V
162 0 V
162 0 V
162 0 V
162 0 V
162 0 V
162 0 V
162 0 V
162 0 V
162 0 V
162 0 V
162 0 V
162 0 V
1462 1107 Crs
1624 1190 Crs
1786 1276 Crs
1948 1314 Crs
2110 1417 Crs
2272 1458 Crs
2434 1502 Crs
2596 1556 Crs
2758 1623 Crs
2920 1684 Crs
3082 1705 Crs
3244 1817 Crs
3406 1896 Crs
3568 1905 Crs
3730 1965 Crs
3892 1966 Crs
4054 1966 Crs
4216 1966 Crs
4378 2065 Crs
4540 2065 Crs
4702 2065 Crs
4864 2065 Crs
5026 2065 Crs
5188 2065 Crs
5350 2065 Crs
5512 2065 Crs
5674 2065 Crs
5836 2065 Crs
5998 2181 Crs
6160 2181 Crs
6322 2181 Crs
6484 2181 Crs
6646 2181 Crs
6808 2181 Crs
6970 2181 Crs
7132 2181 Crs
7295 2181 Crs
7457 2181 Crs
7619 2181 Crs
7781 2181 Crs
7943 2181 Crs
8105 2181 Crs
8267 2181 Crs
8429 2181 Crs
8591 2181 Crs
8753 2181 Crs
8915 2181 Crs
9077 2181 Crs
9239 2181 Crs
9401 2181 Crs
9563 2181 Crs
9725 2181 Crs
9887 2181 Crs
10049 2181 Crs
10211 2181 Crs
10373 2181 Crs
10535 2181 Crs
10697 2181 Crs
10859 2181 Crs
11021 2181 Crs
11183 2318 Crs
11345 2318 Crs
11507 2318 Crs
11669 2318 Crs
11831 2318 Crs
11993 2318 Crs
12155 2318 Crs
12317 2318 Crs
12479 2318 Crs
12641 2318 Crs
12803 2318 Crs
12965 2318 Crs
13127 2318 Crs
13289 2318 Crs
13451 2318 Crs
13613 2318 Crs
13775 2318 Crs
3221 4224 Crs
1.000 UP
1.000 UL
LT2
LTb
LT2
2926 4004 M
591 0 V
1462 1325 M
162 142 V
162 126 V
162 118 V
162 105 V
162 98 V
162 104 V
162 95 V
162 91 V
162 96 V
162 86 V
162 74 V
162 75 V
162 81 V
162 66 V
162 61 V
162 54 V
162 48 V
162 55 V
162 46 V
162 53 V
162 62 V
162 37 V
162 60 V
162 57 V
162 71 V
162 71 V
162 68 V
162 72 V
162 27 V
162 31 V
162 33 V
162 25 V
162 32 V
162 29 V
162 30 V
163 24 V
162 35 V
162 30 V
162 19 V
162 34 V
162 24 V
162 17 V
162 17 V
162 25 V
162 25 V
162 15 V
162 28 V
162 21 V
162 24 V
162 20 V
162 19 V
162 21 V
162 18 V
162 10 V
162 24 V
162 1 V
162 27 V
162 14 V
162 17 V
162 12 V
162 32 V
162 9 V
162 28 V
162 20 V
162 13 V
162 26 V
162 18 V
162 21 V
162 21 V
162 25 V
162 15 V
162 16 V
162 20 V
162 31 V
162 21 V
162 15 V
1462 1325 Star
1624 1467 Star
1786 1593 Star
1948 1711 Star
2110 1816 Star
2272 1914 Star
2434 2018 Star
2596 2113 Star
2758 2204 Star
2920 2300 Star
3082 2386 Star
3244 2460 Star
3406 2535 Star
3568 2616 Star
3730 2682 Star
3892 2743 Star
4054 2797 Star
4216 2845 Star
4378 2900 Star
4540 2946 Star
4702 2999 Star
4864 3061 Star
5026 3098 Star
5188 3158 Star
5350 3215 Star
5512 3286 Star
5674 3357 Star
5836 3425 Star
5998 3497 Star
6160 3524 Star
6322 3555 Star
6484 3588 Star
6646 3613 Star
6808 3645 Star
6970 3674 Star
7132 3704 Star
7295 3728 Star
7457 3763 Star
7619 3793 Star
7781 3812 Star
7943 3846 Star
8105 3870 Star
8267 3887 Star
8429 3904 Star
8591 3929 Star
8753 3954 Star
8915 3969 Star
9077 3997 Star
9239 4018 Star
9401 4042 Star
9563 4062 Star
9725 4081 Star
9887 4102 Star
10049 4120 Star
10211 4130 Star
10373 4154 Star
10535 4155 Star
10697 4182 Star
10859 4196 Star
11021 4213 Star
11183 4225 Star
11345 4257 Star
11507 4266 Star
11669 4294 Star
11831 4314 Star
11993 4327 Star
12155 4353 Star
12317 4371 Star
12479 4392 Star
12641 4413 Star
12803 4438 Star
12965 4453 Star
13127 4469 Star
13289 4489 Star
13451 4520 Star
13613 4541 Star
13775 4556 Star
3221 4004 Star
1.000 UL
LTb
814 4837 N
814 704 L
12961 0 V
0 4133 V
814 4837 L
Z stroke
1.000 UP
1.000 UL
LTb
stroke
grestore
end
showpage
%%Trailer
