%!PS-Adobe-2.0 EPSF-2.0
%%Title: /home/yummiii/Masterarbeit/Thesis/document/bilder/pots2_depth_top_s.tex
%%Creator: gnuplot 4.6 patchlevel 5
%%CreationDate: Mon Jan 11 00:45:11 2016
%%DocumentFonts: 
%%BoundingBox: 50 50 758 305
%%EndComments
%%BeginProlog
/gnudict 256 dict def
gnudict begin
%
% The following true/false flags may be edited by hand if desired.
% The unit line width and grayscale image gamma correction may also be changed.
%
/Color false def
/Blacktext true def
/Solid false def
/Dashlength 1 def
/Landscape false def
/Level1 false def
/Rounded false def
/ClipToBoundingBox false def
/SuppressPDFMark false def
/TransparentPatterns false def
/gnulinewidth 5.000 def
/userlinewidth gnulinewidth def
/Gamma 1.0 def
/BackgroundColor {-1.000 -1.000 -1.000} def
%
/vshift -73 def
/dl1 {
  10.0 Dashlength mul mul
  Rounded { currentlinewidth 0.75 mul sub dup 0 le { pop 0.01 } if } if
} def
/dl2 {
  10.0 Dashlength mul mul
  Rounded { currentlinewidth 0.75 mul add } if
} def
/hpt_ 31.5 def
/vpt_ 31.5 def
/hpt hpt_ def
/vpt vpt_ def
/doclip {
  ClipToBoundingBox {
    newpath 50 50 moveto 758 50 lineto 758 305 lineto 50 305 lineto closepath
    clip
  } if
} def
%
% Gnuplot Prolog Version 4.6 (September 2012)
%
%/SuppressPDFMark true def
%
/M {moveto} bind def
/L {lineto} bind def
/R {rmoveto} bind def
/V {rlineto} bind def
/N {newpath moveto} bind def
/Z {closepath} bind def
/C {setrgbcolor} bind def
/f {rlineto fill} bind def
/g {setgray} bind def
/Gshow {show} def   % May be redefined later in the file to support UTF-8
/vpt2 vpt 2 mul def
/hpt2 hpt 2 mul def
/Lshow {currentpoint stroke M 0 vshift R 
	Blacktext {gsave 0 setgray show grestore} {show} ifelse} def
/Rshow {currentpoint stroke M dup stringwidth pop neg vshift R
	Blacktext {gsave 0 setgray show grestore} {show} ifelse} def
/Cshow {currentpoint stroke M dup stringwidth pop -2 div vshift R 
	Blacktext {gsave 0 setgray show grestore} {show} ifelse} def
/UP {dup vpt_ mul /vpt exch def hpt_ mul /hpt exch def
  /hpt2 hpt 2 mul def /vpt2 vpt 2 mul def} def
/DL {Color {setrgbcolor Solid {pop []} if 0 setdash}
 {pop pop pop 0 setgray Solid {pop []} if 0 setdash} ifelse} def
/BL {stroke userlinewidth 2 mul setlinewidth
	Rounded {1 setlinejoin 1 setlinecap} if} def
/AL {stroke userlinewidth 2 div setlinewidth
	Rounded {1 setlinejoin 1 setlinecap} if} def
/UL {dup gnulinewidth mul /userlinewidth exch def
	dup 1 lt {pop 1} if 10 mul /udl exch def} def
/PL {stroke userlinewidth setlinewidth
	Rounded {1 setlinejoin 1 setlinecap} if} def
3.8 setmiterlimit
% Default Line colors
/LCw {1 1 1} def
/LCb {0 0 0} def
/LCa {0 0 0} def
/LC0 {1 0 0} def
/LC1 {0 1 0} def
/LC2 {0 0 1} def
/LC3 {1 0 1} def
/LC4 {0 1 1} def
/LC5 {1 1 0} def
/LC6 {0 0 0} def
/LC7 {1 0.3 0} def
/LC8 {0.5 0.5 0.5} def
% Default Line Types
/LTw {PL [] 1 setgray} def
/LTb {BL [] LCb DL} def
/LTa {AL [1 udl mul 2 udl mul] 0 setdash LCa setrgbcolor} def
/LT0 {PL [] LC0 DL} def
/LT1 {PL [4 dl1 2 dl2] LC1 DL} def
/LT2 {PL [2 dl1 3 dl2] LC2 DL} def
/LT3 {PL [1 dl1 1.5 dl2] LC3 DL} def
/LT4 {PL [6 dl1 2 dl2 1 dl1 2 dl2] LC4 DL} def
/LT5 {PL [3 dl1 3 dl2 1 dl1 3 dl2] LC5 DL} def
/LT6 {PL [2 dl1 2 dl2 2 dl1 6 dl2] LC6 DL} def
/LT7 {PL [1 dl1 2 dl2 6 dl1 2 dl2 1 dl1 2 dl2] LC7 DL} def
/LT8 {PL [2 dl1 2 dl2 2 dl1 2 dl2 2 dl1 2 dl2 2 dl1 4 dl2] LC8 DL} def
/Pnt {stroke [] 0 setdash gsave 1 setlinecap M 0 0 V stroke grestore} def
/Dia {stroke [] 0 setdash 2 copy vpt add M
  hpt neg vpt neg V hpt vpt neg V
  hpt vpt V hpt neg vpt V closepath stroke
  Pnt} def
/Pls {stroke [] 0 setdash vpt sub M 0 vpt2 V
  currentpoint stroke M
  hpt neg vpt neg R hpt2 0 V stroke
 } def
/Box {stroke [] 0 setdash 2 copy exch hpt sub exch vpt add M
  0 vpt2 neg V hpt2 0 V 0 vpt2 V
  hpt2 neg 0 V closepath stroke
  Pnt} def
/Crs {stroke [] 0 setdash exch hpt sub exch vpt add M
  hpt2 vpt2 neg V currentpoint stroke M
  hpt2 neg 0 R hpt2 vpt2 V stroke} def
/TriU {stroke [] 0 setdash 2 copy vpt 1.12 mul add M
  hpt neg vpt -1.62 mul V
  hpt 2 mul 0 V
  hpt neg vpt 1.62 mul V closepath stroke
  Pnt} def
/Star {2 copy Pls Crs} def
/BoxF {stroke [] 0 setdash exch hpt sub exch vpt add M
  0 vpt2 neg V hpt2 0 V 0 vpt2 V
  hpt2 neg 0 V closepath fill} def
/TriUF {stroke [] 0 setdash vpt 1.12 mul add M
  hpt neg vpt -1.62 mul V
  hpt 2 mul 0 V
  hpt neg vpt 1.62 mul V closepath fill} def
/TriD {stroke [] 0 setdash 2 copy vpt 1.12 mul sub M
  hpt neg vpt 1.62 mul V
  hpt 2 mul 0 V
  hpt neg vpt -1.62 mul V closepath stroke
  Pnt} def
/TriDF {stroke [] 0 setdash vpt 1.12 mul sub M
  hpt neg vpt 1.62 mul V
  hpt 2 mul 0 V
  hpt neg vpt -1.62 mul V closepath fill} def
/DiaF {stroke [] 0 setdash vpt add M
  hpt neg vpt neg V hpt vpt neg V
  hpt vpt V hpt neg vpt V closepath fill} def
/Pent {stroke [] 0 setdash 2 copy gsave
  translate 0 hpt M 4 {72 rotate 0 hpt L} repeat
  closepath stroke grestore Pnt} def
/PentF {stroke [] 0 setdash gsave
  translate 0 hpt M 4 {72 rotate 0 hpt L} repeat
  closepath fill grestore} def
/Circle {stroke [] 0 setdash 2 copy
  hpt 0 360 arc stroke Pnt} def
/CircleF {stroke [] 0 setdash hpt 0 360 arc fill} def
/C0 {BL [] 0 setdash 2 copy moveto vpt 90 450 arc} bind def
/C1 {BL [] 0 setdash 2 copy moveto
	2 copy vpt 0 90 arc closepath fill
	vpt 0 360 arc closepath} bind def
/C2 {BL [] 0 setdash 2 copy moveto
	2 copy vpt 90 180 arc closepath fill
	vpt 0 360 arc closepath} bind def
/C3 {BL [] 0 setdash 2 copy moveto
	2 copy vpt 0 180 arc closepath fill
	vpt 0 360 arc closepath} bind def
/C4 {BL [] 0 setdash 2 copy moveto
	2 copy vpt 180 270 arc closepath fill
	vpt 0 360 arc closepath} bind def
/C5 {BL [] 0 setdash 2 copy moveto
	2 copy vpt 0 90 arc
	2 copy moveto
	2 copy vpt 180 270 arc closepath fill
	vpt 0 360 arc} bind def
/C6 {BL [] 0 setdash 2 copy moveto
	2 copy vpt 90 270 arc closepath fill
	vpt 0 360 arc closepath} bind def
/C7 {BL [] 0 setdash 2 copy moveto
	2 copy vpt 0 270 arc closepath fill
	vpt 0 360 arc closepath} bind def
/C8 {BL [] 0 setdash 2 copy moveto
	2 copy vpt 270 360 arc closepath fill
	vpt 0 360 arc closepath} bind def
/C9 {BL [] 0 setdash 2 copy moveto
	2 copy vpt 270 450 arc closepath fill
	vpt 0 360 arc closepath} bind def
/C10 {BL [] 0 setdash 2 copy 2 copy moveto vpt 270 360 arc closepath fill
	2 copy moveto
	2 copy vpt 90 180 arc closepath fill
	vpt 0 360 arc closepath} bind def
/C11 {BL [] 0 setdash 2 copy moveto
	2 copy vpt 0 180 arc closepath fill
	2 copy moveto
	2 copy vpt 270 360 arc closepath fill
	vpt 0 360 arc closepath} bind def
/C12 {BL [] 0 setdash 2 copy moveto
	2 copy vpt 180 360 arc closepath fill
	vpt 0 360 arc closepath} bind def
/C13 {BL [] 0 setdash 2 copy moveto
	2 copy vpt 0 90 arc closepath fill
	2 copy moveto
	2 copy vpt 180 360 arc closepath fill
	vpt 0 360 arc closepath} bind def
/C14 {BL [] 0 setdash 2 copy moveto
	2 copy vpt 90 360 arc closepath fill
	vpt 0 360 arc} bind def
/C15 {BL [] 0 setdash 2 copy vpt 0 360 arc closepath fill
	vpt 0 360 arc closepath} bind def
/Rec {newpath 4 2 roll moveto 1 index 0 rlineto 0 exch rlineto
	neg 0 rlineto closepath} bind def
/Square {dup Rec} bind def
/Bsquare {vpt sub exch vpt sub exch vpt2 Square} bind def
/S0 {BL [] 0 setdash 2 copy moveto 0 vpt rlineto BL Bsquare} bind def
/S1 {BL [] 0 setdash 2 copy vpt Square fill Bsquare} bind def
/S2 {BL [] 0 setdash 2 copy exch vpt sub exch vpt Square fill Bsquare} bind def
/S3 {BL [] 0 setdash 2 copy exch vpt sub exch vpt2 vpt Rec fill Bsquare} bind def
/S4 {BL [] 0 setdash 2 copy exch vpt sub exch vpt sub vpt Square fill Bsquare} bind def
/S5 {BL [] 0 setdash 2 copy 2 copy vpt Square fill
	exch vpt sub exch vpt sub vpt Square fill Bsquare} bind def
/S6 {BL [] 0 setdash 2 copy exch vpt sub exch vpt sub vpt vpt2 Rec fill Bsquare} bind def
/S7 {BL [] 0 setdash 2 copy exch vpt sub exch vpt sub vpt vpt2 Rec fill
	2 copy vpt Square fill Bsquare} bind def
/S8 {BL [] 0 setdash 2 copy vpt sub vpt Square fill Bsquare} bind def
/S9 {BL [] 0 setdash 2 copy vpt sub vpt vpt2 Rec fill Bsquare} bind def
/S10 {BL [] 0 setdash 2 copy vpt sub vpt Square fill 2 copy exch vpt sub exch vpt Square fill
	Bsquare} bind def
/S11 {BL [] 0 setdash 2 copy vpt sub vpt Square fill 2 copy exch vpt sub exch vpt2 vpt Rec fill
	Bsquare} bind def
/S12 {BL [] 0 setdash 2 copy exch vpt sub exch vpt sub vpt2 vpt Rec fill Bsquare} bind def
/S13 {BL [] 0 setdash 2 copy exch vpt sub exch vpt sub vpt2 vpt Rec fill
	2 copy vpt Square fill Bsquare} bind def
/S14 {BL [] 0 setdash 2 copy exch vpt sub exch vpt sub vpt2 vpt Rec fill
	2 copy exch vpt sub exch vpt Square fill Bsquare} bind def
/S15 {BL [] 0 setdash 2 copy Bsquare fill Bsquare} bind def
/D0 {gsave translate 45 rotate 0 0 S0 stroke grestore} bind def
/D1 {gsave translate 45 rotate 0 0 S1 stroke grestore} bind def
/D2 {gsave translate 45 rotate 0 0 S2 stroke grestore} bind def
/D3 {gsave translate 45 rotate 0 0 S3 stroke grestore} bind def
/D4 {gsave translate 45 rotate 0 0 S4 stroke grestore} bind def
/D5 {gsave translate 45 rotate 0 0 S5 stroke grestore} bind def
/D6 {gsave translate 45 rotate 0 0 S6 stroke grestore} bind def
/D7 {gsave translate 45 rotate 0 0 S7 stroke grestore} bind def
/D8 {gsave translate 45 rotate 0 0 S8 stroke grestore} bind def
/D9 {gsave translate 45 rotate 0 0 S9 stroke grestore} bind def
/D10 {gsave translate 45 rotate 0 0 S10 stroke grestore} bind def
/D11 {gsave translate 45 rotate 0 0 S11 stroke grestore} bind def
/D12 {gsave translate 45 rotate 0 0 S12 stroke grestore} bind def
/D13 {gsave translate 45 rotate 0 0 S13 stroke grestore} bind def
/D14 {gsave translate 45 rotate 0 0 S14 stroke grestore} bind def
/D15 {gsave translate 45 rotate 0 0 S15 stroke grestore} bind def
/DiaE {stroke [] 0 setdash vpt add M
  hpt neg vpt neg V hpt vpt neg V
  hpt vpt V hpt neg vpt V closepath stroke} def
/BoxE {stroke [] 0 setdash exch hpt sub exch vpt add M
  0 vpt2 neg V hpt2 0 V 0 vpt2 V
  hpt2 neg 0 V closepath stroke} def
/TriUE {stroke [] 0 setdash vpt 1.12 mul add M
  hpt neg vpt -1.62 mul V
  hpt 2 mul 0 V
  hpt neg vpt 1.62 mul V closepath stroke} def
/TriDE {stroke [] 0 setdash vpt 1.12 mul sub M
  hpt neg vpt 1.62 mul V
  hpt 2 mul 0 V
  hpt neg vpt -1.62 mul V closepath stroke} def
/PentE {stroke [] 0 setdash gsave
  translate 0 hpt M 4 {72 rotate 0 hpt L} repeat
  closepath stroke grestore} def
/CircE {stroke [] 0 setdash 
  hpt 0 360 arc stroke} def
/Opaque {gsave closepath 1 setgray fill grestore 0 setgray closepath} def
/DiaW {stroke [] 0 setdash vpt add M
  hpt neg vpt neg V hpt vpt neg V
  hpt vpt V hpt neg vpt V Opaque stroke} def
/BoxW {stroke [] 0 setdash exch hpt sub exch vpt add M
  0 vpt2 neg V hpt2 0 V 0 vpt2 V
  hpt2 neg 0 V Opaque stroke} def
/TriUW {stroke [] 0 setdash vpt 1.12 mul add M
  hpt neg vpt -1.62 mul V
  hpt 2 mul 0 V
  hpt neg vpt 1.62 mul V Opaque stroke} def
/TriDW {stroke [] 0 setdash vpt 1.12 mul sub M
  hpt neg vpt 1.62 mul V
  hpt 2 mul 0 V
  hpt neg vpt -1.62 mul V Opaque stroke} def
/PentW {stroke [] 0 setdash gsave
  translate 0 hpt M 4 {72 rotate 0 hpt L} repeat
  Opaque stroke grestore} def
/CircW {stroke [] 0 setdash 
  hpt 0 360 arc Opaque stroke} def
/BoxFill {gsave Rec 1 setgray fill grestore} def
/Density {
  /Fillden exch def
  currentrgbcolor
  /ColB exch def /ColG exch def /ColR exch def
  /ColR ColR Fillden mul Fillden sub 1 add def
  /ColG ColG Fillden mul Fillden sub 1 add def
  /ColB ColB Fillden mul Fillden sub 1 add def
  ColR ColG ColB setrgbcolor} def
/BoxColFill {gsave Rec PolyFill} def
/PolyFill {gsave Density fill grestore grestore} def
/h {rlineto rlineto rlineto gsave closepath fill grestore} bind def
%
% PostScript Level 1 Pattern Fill routine for rectangles
% Usage: x y w h s a XX PatternFill
%	x,y = lower left corner of box to be filled
%	w,h = width and height of box
%	  a = angle in degrees between lines and x-axis
%	 XX = 0/1 for no/yes cross-hatch
%
/PatternFill {gsave /PFa [ 9 2 roll ] def
  PFa 0 get PFa 2 get 2 div add PFa 1 get PFa 3 get 2 div add translate
  PFa 2 get -2 div PFa 3 get -2 div PFa 2 get PFa 3 get Rec
  TransparentPatterns {} {gsave 1 setgray fill grestore} ifelse
  clip
  currentlinewidth 0.5 mul setlinewidth
  /PFs PFa 2 get dup mul PFa 3 get dup mul add sqrt def
  0 0 M PFa 5 get rotate PFs -2 div dup translate
  0 1 PFs PFa 4 get div 1 add floor cvi
	{PFa 4 get mul 0 M 0 PFs V} for
  0 PFa 6 get ne {
	0 1 PFs PFa 4 get div 1 add floor cvi
	{PFa 4 get mul 0 2 1 roll M PFs 0 V} for
 } if
  stroke grestore} def
%
/languagelevel where
 {pop languagelevel} {1} ifelse
 2 lt
	{/InterpretLevel1 true def}
	{/InterpretLevel1 Level1 def}
 ifelse
%
% PostScript level 2 pattern fill definitions
%
/Level2PatternFill {
/Tile8x8 {/PaintType 2 /PatternType 1 /TilingType 1 /BBox [0 0 8 8] /XStep 8 /YStep 8}
	bind def
/KeepColor {currentrgbcolor [/Pattern /DeviceRGB] setcolorspace} bind def
<< Tile8x8
 /PaintProc {0.5 setlinewidth pop 0 0 M 8 8 L 0 8 M 8 0 L stroke} 
>> matrix makepattern
/Pat1 exch def
<< Tile8x8
 /PaintProc {0.5 setlinewidth pop 0 0 M 8 8 L 0 8 M 8 0 L stroke
	0 4 M 4 8 L 8 4 L 4 0 L 0 4 L stroke}
>> matrix makepattern
/Pat2 exch def
<< Tile8x8
 /PaintProc {0.5 setlinewidth pop 0 0 M 0 8 L
	8 8 L 8 0 L 0 0 L fill}
>> matrix makepattern
/Pat3 exch def
<< Tile8x8
 /PaintProc {0.5 setlinewidth pop -4 8 M 8 -4 L
	0 12 M 12 0 L stroke}
>> matrix makepattern
/Pat4 exch def
<< Tile8x8
 /PaintProc {0.5 setlinewidth pop -4 0 M 8 12 L
	0 -4 M 12 8 L stroke}
>> matrix makepattern
/Pat5 exch def
<< Tile8x8
 /PaintProc {0.5 setlinewidth pop -2 8 M 4 -4 L
	0 12 M 8 -4 L 4 12 M 10 0 L stroke}
>> matrix makepattern
/Pat6 exch def
<< Tile8x8
 /PaintProc {0.5 setlinewidth pop -2 0 M 4 12 L
	0 -4 M 8 12 L 4 -4 M 10 8 L stroke}
>> matrix makepattern
/Pat7 exch def
<< Tile8x8
 /PaintProc {0.5 setlinewidth pop 8 -2 M -4 4 L
	12 0 M -4 8 L 12 4 M 0 10 L stroke}
>> matrix makepattern
/Pat8 exch def
<< Tile8x8
 /PaintProc {0.5 setlinewidth pop 0 -2 M 12 4 L
	-4 0 M 12 8 L -4 4 M 8 10 L stroke}
>> matrix makepattern
/Pat9 exch def
/Pattern1 {PatternBgnd KeepColor Pat1 setpattern} bind def
/Pattern2 {PatternBgnd KeepColor Pat2 setpattern} bind def
/Pattern3 {PatternBgnd KeepColor Pat3 setpattern} bind def
/Pattern4 {PatternBgnd KeepColor Landscape {Pat5} {Pat4} ifelse setpattern} bind def
/Pattern5 {PatternBgnd KeepColor Landscape {Pat4} {Pat5} ifelse setpattern} bind def
/Pattern6 {PatternBgnd KeepColor Landscape {Pat9} {Pat6} ifelse setpattern} bind def
/Pattern7 {PatternBgnd KeepColor Landscape {Pat8} {Pat7} ifelse setpattern} bind def
} def
%
%
%End of PostScript Level 2 code
%
/PatternBgnd {
  TransparentPatterns {} {gsave 1 setgray fill grestore} ifelse
} def
%
% Substitute for Level 2 pattern fill codes with
% grayscale if Level 2 support is not selected.
%
/Level1PatternFill {
/Pattern1 {0.250 Density} bind def
/Pattern2 {0.500 Density} bind def
/Pattern3 {0.750 Density} bind def
/Pattern4 {0.125 Density} bind def
/Pattern5 {0.375 Density} bind def
/Pattern6 {0.625 Density} bind def
/Pattern7 {0.875 Density} bind def
} def
%
% Now test for support of Level 2 code
%
Level1 {Level1PatternFill} {Level2PatternFill} ifelse
%
/Symbol-Oblique /Symbol findfont [1 0 .167 1 0 0] makefont
dup length dict begin {1 index /FID eq {pop pop} {def} ifelse} forall
currentdict end definefont pop
Level1 SuppressPDFMark or 
{} {
/SDict 10 dict def
systemdict /pdfmark known not {
  userdict /pdfmark systemdict /cleartomark get put
} if
SDict begin [
  /Title (/home/yummiii/Masterarbeit/Thesis/document/bilder/pots2_depth_top_s.tex)
  /Subject (gnuplot plot)
  /Creator (gnuplot 4.6 patchlevel 5)
  /Author (yummiii)
%  /Producer (gnuplot)
%  /Keywords ()
  /CreationDate (Mon Jan 11 00:45:11 2016)
  /DOCINFO pdfmark
end
} ifelse
end
%%EndProlog
%%Page: 1 1
gnudict begin
gsave
doclip
50 50 translate
0.050 0.050 scale
0 setgray
newpath
1.000 UL
LTb
814 704 M
63 0 V
12898 0 R
-63 0 V
814 1393 M
63 0 V
12898 0 R
-63 0 V
814 2082 M
63 0 V
12898 0 R
-63 0 V
814 2771 M
63 0 V
12898 0 R
-63 0 V
814 3459 M
63 0 V
12898 0 R
-63 0 V
814 4148 M
63 0 V
12898 0 R
-63 0 V
814 4837 M
63 0 V
12898 0 R
-63 0 V
814 704 M
0 63 V
0 4070 R
0 -63 V
2434 704 M
0 63 V
0 4070 R
0 -63 V
4054 704 M
0 63 V
0 4070 R
0 -63 V
5674 704 M
0 63 V
0 4070 R
0 -63 V
7295 704 M
0 63 V
0 4070 R
0 -63 V
8915 704 M
0 63 V
0 4070 R
0 -63 V
10535 704 M
0 63 V
0 4070 R
0 -63 V
12155 704 M
0 63 V
0 4070 R
0 -63 V
13775 704 M
0 63 V
0 4070 R
0 -63 V
stroke
814 4837 N
814 704 L
12961 0 V
0 4133 V
814 4837 L
Z stroke
1.000 UP
1.000 UL
LTb
1.000 UL
LT2
11864 767 N
0 1320 V
1779 0 V
0 -1320 V
-1779 0 V
Z stroke
11864 1867 M
1779 0 V
1.000 UP
stroke
LT0
LTb
LT0
12920 1757 M
591 0 V
1462 1707 M
162 220 V
162 147 V
162 58 V
162 57 V
162 5 V
162 3 V
162 60 V
162 1 V
162 2 V
162 1 V
162 1 V
162 63 V
162 1 V
162 0 V
162 1 V
162 -1 V
162 1 V
162 0 V
162 0 V
162 0 V
162 0 V
162 0 V
162 0 V
162 0 V
162 0 V
162 0 V
162 0 V
162 68 V
162 0 V
162 0 V
162 0 V
162 0 V
162 0 V
162 0 V
162 0 V
163 0 V
162 0 V
162 0 V
162 0 V
162 0 V
162 0 V
162 0 V
162 0 V
162 0 V
162 0 V
162 0 V
162 0 V
162 0 V
162 0 V
162 0 V
162 0 V
162 0 V
162 0 V
162 0 V
162 0 V
162 0 V
162 0 V
162 0 V
162 0 V
162 0 V
162 0 V
162 0 V
162 0 V
162 0 V
162 0 V
162 0 V
162 0 V
162 0 V
162 0 V
162 0 V
162 0 V
162 0 V
162 0 V
162 0 V
162 0 V
162 0 V
1462 1707 Pls
1624 1927 Pls
1786 2074 Pls
1948 2132 Pls
2110 2189 Pls
2272 2194 Pls
2434 2197 Pls
2596 2257 Pls
2758 2258 Pls
2920 2260 Pls
3082 2261 Pls
3244 2262 Pls
3406 2325 Pls
3568 2326 Pls
3730 2326 Pls
3892 2327 Pls
4054 2326 Pls
4216 2327 Pls
4378 2327 Pls
4540 2327 Pls
4702 2327 Pls
4864 2327 Pls
5026 2327 Pls
5188 2327 Pls
5350 2327 Pls
5512 2327 Pls
5674 2327 Pls
5836 2327 Pls
5998 2395 Pls
6160 2395 Pls
6322 2395 Pls
6484 2395 Pls
6646 2395 Pls
6808 2395 Pls
6970 2395 Pls
7132 2395 Pls
7295 2395 Pls
7457 2395 Pls
7619 2395 Pls
7781 2395 Pls
7943 2395 Pls
8105 2395 Pls
8267 2395 Pls
8429 2395 Pls
8591 2395 Pls
8753 2395 Pls
8915 2395 Pls
9077 2395 Pls
9239 2395 Pls
9401 2395 Pls
9563 2395 Pls
9725 2395 Pls
9887 2395 Pls
10049 2395 Pls
10211 2395 Pls
10373 2395 Pls
10535 2395 Pls
10697 2395 Pls
10859 2395 Pls
11021 2395 Pls
11183 2395 Pls
11345 2395 Pls
11507 2395 Pls
11669 2395 Pls
11831 2395 Pls
11993 2395 Pls
12155 2395 Pls
12317 2395 Pls
12479 2395 Pls
12641 2395 Pls
12803 2395 Pls
12965 2395 Pls
13127 2395 Pls
13289 2395 Pls
13451 2395 Pls
13613 2395 Pls
13775 2395 Pls
13215 1757 Pls
1.000 UP
1.000 UL
LT1
LTb
LT1
12920 1537 M
591 0 V
1462 1526 M
162 164 V
162 172 V
162 78 V
162 196 V
162 86 V
162 79 V
162 105 V
162 133 V
162 108 V
162 43 V
162 216 V
162 147 V
162 16 V
162 116 V
162 1 V
162 0 V
162 0 V
162 163 V
162 0 V
162 0 V
162 0 V
162 0 V
162 0 V
162 0 V
162 0 V
162 0 V
162 0 V
162 206 V
162 0 V
162 0 V
162 0 V
162 0 V
162 0 V
162 0 V
162 0 V
163 0 V
162 0 V
162 0 V
162 0 V
162 0 V
162 0 V
162 0 V
162 0 V
162 0 V
162 0 V
162 0 V
162 0 V
162 0 V
162 0 V
162 0 V
162 0 V
162 0 V
162 0 V
162 0 V
162 0 V
162 0 V
162 0 V
162 0 V
162 0 V
162 217 V
162 0 V
162 0 V
162 0 V
162 0 V
162 0 V
162 0 V
162 0 V
162 0 V
162 0 V
162 0 V
162 0 V
162 0 V
162 0 V
162 0 V
162 0 V
162 0 V
1462 1526 Crs
1624 1690 Crs
1786 1862 Crs
1948 1940 Crs
2110 2136 Crs
2272 2222 Crs
2434 2301 Crs
2596 2406 Crs
2758 2539 Crs
2920 2647 Crs
3082 2690 Crs
3244 2906 Crs
3406 3053 Crs
3568 3069 Crs
3730 3185 Crs
3892 3186 Crs
4054 3186 Crs
4216 3186 Crs
4378 3349 Crs
4540 3349 Crs
4702 3349 Crs
4864 3349 Crs
5026 3349 Crs
5188 3349 Crs
5350 3349 Crs
5512 3349 Crs
5674 3349 Crs
5836 3349 Crs
5998 3555 Crs
6160 3555 Crs
6322 3555 Crs
6484 3555 Crs
6646 3555 Crs
6808 3555 Crs
6970 3555 Crs
7132 3555 Crs
7295 3555 Crs
7457 3555 Crs
7619 3555 Crs
7781 3555 Crs
7943 3555 Crs
8105 3555 Crs
8267 3555 Crs
8429 3555 Crs
8591 3555 Crs
8753 3555 Crs
8915 3555 Crs
9077 3555 Crs
9239 3555 Crs
9401 3555 Crs
9563 3555 Crs
9725 3555 Crs
9887 3555 Crs
10049 3555 Crs
10211 3555 Crs
10373 3555 Crs
10535 3555 Crs
10697 3555 Crs
10859 3555 Crs
11021 3555 Crs
11183 3772 Crs
11345 3772 Crs
11507 3772 Crs
11669 3772 Crs
11831 3772 Crs
11993 3772 Crs
12155 3772 Crs
12317 3772 Crs
12479 3772 Crs
12641 3772 Crs
12803 3772 Crs
12965 3772 Crs
13127 3772 Crs
13289 3772 Crs
13451 3772 Crs
13613 3772 Crs
13775 3772 Crs
13215 1537 Crs
1.000 UP
1.000 UL
LT2
LTb
LT2
12920 1317 M
591 0 V
1462 1252 M
162 122 V
162 119 V
162 123 V
162 113 V
162 95 V
162 115 V
162 89 V
162 111 V
162 95 V
162 64 V
162 106 V
162 108 V
162 27 V
162 70 V
162 114 V
162 14 V
162 61 V
162 131 V
162 22 V
162 26 V
162 25 V
162 183 V
162 27 V
162 63 V
162 19 V
162 33 V
162 21 V
162 225 V
162 18 V
162 25 V
162 132 V
162 13 V
162 9 V
162 6 V
162 2 V
163 4 V
162 5 V
162 71 V
162 267 V
162 0 V
162 0 V
162 0 V
162 0 V
162 1 V
162 0 V
162 0 V
162 0 V
162 0 V
162 0 V
162 0 V
162 0 V
162 0 V
162 0 V
162 0 V
162 0 V
162 0 V
162 0 V
162 0 V
162 29 V
162 323 V
162 0 V
162 0 V
162 0 V
162 0 V
162 0 V
162 0 V
162 0 V
162 0 V
162 0 V
162 0 V
162 0 V
162 0 V
162 0 V
162 0 V
162 0 V
162 0 V
1462 1252 Star
1624 1374 Star
1786 1493 Star
1948 1616 Star
2110 1729 Star
2272 1824 Star
2434 1939 Star
2596 2028 Star
2758 2139 Star
2920 2234 Star
3082 2298 Star
3244 2404 Star
3406 2512 Star
3568 2539 Star
3730 2609 Star
3892 2723 Star
4054 2737 Star
4216 2798 Star
4378 2929 Star
4540 2951 Star
4702 2977 Star
4864 3002 Star
5026 3185 Star
5188 3212 Star
5350 3275 Star
5512 3294 Star
5674 3327 Star
5836 3348 Star
5998 3573 Star
6160 3591 Star
6322 3616 Star
6484 3748 Star
6646 3761 Star
6808 3770 Star
6970 3776 Star
7132 3778 Star
7295 3782 Star
7457 3787 Star
7619 3858 Star
7781 4125 Star
7943 4125 Star
8105 4125 Star
8267 4125 Star
8429 4125 Star
8591 4126 Star
8753 4126 Star
8915 4126 Star
9077 4126 Star
9239 4126 Star
9401 4126 Star
9563 4126 Star
9725 4126 Star
9887 4126 Star
10049 4126 Star
10211 4126 Star
10373 4126 Star
10535 4126 Star
10697 4126 Star
10859 4126 Star
11021 4155 Star
11183 4478 Star
11345 4478 Star
11507 4478 Star
11669 4478 Star
11831 4478 Star
11993 4478 Star
12155 4478 Star
12317 4478 Star
12479 4478 Star
12641 4478 Star
12803 4478 Star
12965 4478 Star
13127 4478 Star
13289 4478 Star
13451 4478 Star
13613 4478 Star
13775 4478 Star
13215 1317 Star
1.000 UP
1.000 UL
LT3
LTb
LT3
12920 1097 M
591 0 V
1462 1071 M
162 87 V
162 82 V
162 89 V
162 82 V
162 80 V
162 71 V
162 74 V
162 80 V
162 63 V
162 96 V
162 80 V
162 67 V
162 24 V
162 77 V
162 89 V
162 23 V
162 90 V
162 22 V
162 106 V
162 21 V
162 128 V
162 17 V
162 18 V
162 129 V
162 15 V
162 41 V
162 14 V
162 152 V
162 12 V
162 13 V
162 25 V
162 12 V
162 18 V
162 186 V
162 11 V
163 11 V
162 13 V
162 18 V
162 16 V
162 25 V
162 224 V
162 15 V
162 9 V
162 6 V
162 12 V
162 15 V
162 11 V
162 8 V
162 13 V
162 12 V
162 11 V
162 280 V
162 11 V
162 9 V
162 19 V
162 28 V
162 8 V
162 14 V
162 5 V
162 21 V
162 3 V
162 12 V
162 7 V
162 10 V
162 5 V
162 24 V
162 10 V
162 4 V
162 3 V
162 48 V
162 401 V
162 1 V
162 5 V
162 8 V
162 2 V
162 2 V
1462 1071 Box
1624 1158 Box
1786 1240 Box
1948 1329 Box
2110 1411 Box
2272 1491 Box
2434 1562 Box
2596 1636 Box
2758 1716 Box
2920 1779 Box
3082 1875 Box
3244 1955 Box
3406 2022 Box
3568 2046 Box
3730 2123 Box
3892 2212 Box
4054 2235 Box
4216 2325 Box
4378 2347 Box
4540 2453 Box
4702 2474 Box
4864 2602 Box
5026 2619 Box
5188 2637 Box
5350 2766 Box
5512 2781 Box
5674 2822 Box
5836 2836 Box
5998 2988 Box
6160 3000 Box
6322 3013 Box
6484 3038 Box
6646 3050 Box
6808 3068 Box
6970 3254 Box
7132 3265 Box
7295 3276 Box
7457 3289 Box
7619 3307 Box
7781 3323 Box
7943 3348 Box
8105 3572 Box
8267 3587 Box
8429 3596 Box
8591 3602 Box
8753 3614 Box
8915 3629 Box
9077 3640 Box
9239 3648 Box
9401 3661 Box
9563 3673 Box
9725 3684 Box
9887 3964 Box
10049 3975 Box
10211 3984 Box
10373 4003 Box
10535 4031 Box
10697 4039 Box
10859 4053 Box
11021 4058 Box
11183 4079 Box
11345 4082 Box
11507 4094 Box
11669 4101 Box
11831 4111 Box
11993 4116 Box
12155 4140 Box
12317 4150 Box
12479 4154 Box
12641 4157 Box
12803 4205 Box
12965 4606 Box
13127 4607 Box
13289 4612 Box
13451 4620 Box
13613 4622 Box
13775 4624 Box
13215 1097 Box
1.000 UP
1.000 UL
LT4
LTb
LT4
12920 877 M
591 0 V
1462 943 M
162 56 V
162 57 V
162 57 V
162 60 V
162 50 V
162 57 V
162 56 V
162 52 V
162 57 V
162 49 V
162 51 V
162 58 V
162 37 V
162 41 V
162 67 V
162 49 V
162 47 V
162 48 V
162 16 V
162 63 V
162 59 V
162 58 V
162 11 V
162 72 V
162 15 V
162 75 V
162 11 V
162 86 V
162 9 V
162 13 V
162 88 V
162 13 V
162 21 V
162 94 V
162 11 V
163 14 V
162 17 V
162 106 V
162 9 V
162 8 V
162 8 V
162 25 V
162 129 V
162 20 V
162 10 V
162 8 V
162 5 V
162 153 V
162 5 V
162 8 V
162 12 V
162 13 V
162 7 V
162 15 V
162 7 V
162 194 V
162 6 V
162 12 V
162 6 V
162 8 V
162 4 V
162 5 V
162 9 V
162 8 V
162 33 V
162 223 V
162 14 V
162 14 V
162 8 V
162 7 V
162 9 V
162 7 V
162 3 V
162 4 V
162 6 V
162 4 V
1462 943 BoxF
1624 999 BoxF
1786 1056 BoxF
1948 1113 BoxF
2110 1173 BoxF
2272 1223 BoxF
2434 1280 BoxF
2596 1336 BoxF
2758 1388 BoxF
2920 1445 BoxF
3082 1494 BoxF
3244 1545 BoxF
3406 1603 BoxF
3568 1640 BoxF
3730 1681 BoxF
3892 1748 BoxF
4054 1797 BoxF
4216 1844 BoxF
4378 1892 BoxF
4540 1908 BoxF
4702 1971 BoxF
4864 2030 BoxF
5026 2088 BoxF
5188 2099 BoxF
5350 2171 BoxF
5512 2186 BoxF
5674 2261 BoxF
5836 2272 BoxF
5998 2358 BoxF
6160 2367 BoxF
6322 2380 BoxF
6484 2468 BoxF
6646 2481 BoxF
6808 2502 BoxF
6970 2596 BoxF
7132 2607 BoxF
7295 2621 BoxF
7457 2638 BoxF
7619 2744 BoxF
7781 2753 BoxF
7943 2761 BoxF
8105 2769 BoxF
8267 2794 BoxF
8429 2923 BoxF
8591 2943 BoxF
8753 2953 BoxF
8915 2961 BoxF
9077 2966 BoxF
9239 3119 BoxF
9401 3124 BoxF
9563 3132 BoxF
9725 3144 BoxF
9887 3157 BoxF
10049 3164 BoxF
10211 3179 BoxF
10373 3186 BoxF
10535 3380 BoxF
10697 3386 BoxF
10859 3398 BoxF
11021 3404 BoxF
11183 3412 BoxF
11345 3416 BoxF
11507 3421 BoxF
11669 3430 BoxF
11831 3438 BoxF
11993 3471 BoxF
12155 3694 BoxF
12317 3708 BoxF
12479 3722 BoxF
12641 3730 BoxF
12803 3737 BoxF
12965 3746 BoxF
13127 3753 BoxF
13289 3756 BoxF
13451 3760 BoxF
13613 3766 BoxF
13775 3770 BoxF
13215 877 BoxF
1.000 UL
LTb
814 4837 N
814 704 L
12961 0 V
0 4133 V
814 4837 L
Z stroke
1.000 UP
1.000 UL
LTb
stroke
grestore
end
showpage
%%Trailer
