%!PS-Adobe-2.0 EPSF-2.0
%%Title: speedup_adj_input_qt.tex
%%Creator: gnuplot 4.6 patchlevel 5
%%CreationDate: Mon Jan 11 03:14:22 2016
%%DocumentFonts: 
%%BoundingBox: 50 50 758 276
%%EndComments
%%BeginProlog
/gnudict 256 dict def
gnudict begin
%
% The following true/false flags may be edited by hand if desired.
% The unit line width and grayscale image gamma correction may also be changed.
%
/Color false def
/Blacktext true def
/Solid false def
/Dashlength 1 def
/Landscape false def
/Level1 false def
/Rounded false def
/ClipToBoundingBox false def
/SuppressPDFMark false def
/TransparentPatterns false def
/gnulinewidth 5.000 def
/userlinewidth gnulinewidth def
/Gamma 1.0 def
/BackgroundColor {-1.000 -1.000 -1.000} def
%
/vshift -73 def
/dl1 {
  10.0 Dashlength mul mul
  Rounded { currentlinewidth 0.75 mul sub dup 0 le { pop 0.01 } if } if
} def
/dl2 {
  10.0 Dashlength mul mul
  Rounded { currentlinewidth 0.75 mul add } if
} def
/hpt_ 31.5 def
/vpt_ 31.5 def
/hpt hpt_ def
/vpt vpt_ def
/doclip {
  ClipToBoundingBox {
    newpath 50 50 moveto 758 50 lineto 758 276 lineto 50 276 lineto closepath
    clip
  } if
} def
%
% Gnuplot Prolog Version 4.6 (September 2012)
%
%/SuppressPDFMark true def
%
/M {moveto} bind def
/L {lineto} bind def
/R {rmoveto} bind def
/V {rlineto} bind def
/N {newpath moveto} bind def
/Z {closepath} bind def
/C {setrgbcolor} bind def
/f {rlineto fill} bind def
/g {setgray} bind def
/Gshow {show} def   % May be redefined later in the file to support UTF-8
/vpt2 vpt 2 mul def
/hpt2 hpt 2 mul def
/Lshow {currentpoint stroke M 0 vshift R 
	Blacktext {gsave 0 setgray show grestore} {show} ifelse} def
/Rshow {currentpoint stroke M dup stringwidth pop neg vshift R
	Blacktext {gsave 0 setgray show grestore} {show} ifelse} def
/Cshow {currentpoint stroke M dup stringwidth pop -2 div vshift R 
	Blacktext {gsave 0 setgray show grestore} {show} ifelse} def
/UP {dup vpt_ mul /vpt exch def hpt_ mul /hpt exch def
  /hpt2 hpt 2 mul def /vpt2 vpt 2 mul def} def
/DL {Color {setrgbcolor Solid {pop []} if 0 setdash}
 {pop pop pop 0 setgray Solid {pop []} if 0 setdash} ifelse} def
/BL {stroke userlinewidth 2 mul setlinewidth
	Rounded {1 setlinejoin 1 setlinecap} if} def
/AL {stroke userlinewidth 2 div setlinewidth
	Rounded {1 setlinejoin 1 setlinecap} if} def
/UL {dup gnulinewidth mul /userlinewidth exch def
	dup 1 lt {pop 1} if 10 mul /udl exch def} def
/PL {stroke userlinewidth setlinewidth
	Rounded {1 setlinejoin 1 setlinecap} if} def
3.8 setmiterlimit
% Default Line colors
/LCw {1 1 1} def
/LCb {0 0 0} def
/LCa {0 0 0} def
/LC0 {1 0 0} def
/LC1 {0 1 0} def
/LC2 {0 0 1} def
/LC3 {1 0 1} def
/LC4 {0 1 1} def
/LC5 {1 1 0} def
/LC6 {0 0 0} def
/LC7 {1 0.3 0} def
/LC8 {0.5 0.5 0.5} def
% Default Line Types
/LTw {PL [] 1 setgray} def
/LTb {BL [] LCb DL} def
/LTa {AL [1 udl mul 2 udl mul] 0 setdash LCa setrgbcolor} def
/LT0 {PL [] LC0 DL} def
/LT1 {PL [4 dl1 2 dl2] LC1 DL} def
/LT2 {PL [2 dl1 3 dl2] LC2 DL} def
/LT3 {PL [1 dl1 1.5 dl2] LC3 DL} def
/LT4 {PL [6 dl1 2 dl2 1 dl1 2 dl2] LC4 DL} def
/LT5 {PL [3 dl1 3 dl2 1 dl1 3 dl2] LC5 DL} def
/LT6 {PL [2 dl1 2 dl2 2 dl1 6 dl2] LC6 DL} def
/LT7 {PL [1 dl1 2 dl2 6 dl1 2 dl2 1 dl1 2 dl2] LC7 DL} def
/LT8 {PL [2 dl1 2 dl2 2 dl1 2 dl2 2 dl1 2 dl2 2 dl1 4 dl2] LC8 DL} def
/Pnt {stroke [] 0 setdash gsave 1 setlinecap M 0 0 V stroke grestore} def
/Dia {stroke [] 0 setdash 2 copy vpt add M
  hpt neg vpt neg V hpt vpt neg V
  hpt vpt V hpt neg vpt V closepath stroke
  Pnt} def
/Pls {stroke [] 0 setdash vpt sub M 0 vpt2 V
  currentpoint stroke M
  hpt neg vpt neg R hpt2 0 V stroke
 } def
/Box {stroke [] 0 setdash 2 copy exch hpt sub exch vpt add M
  0 vpt2 neg V hpt2 0 V 0 vpt2 V
  hpt2 neg 0 V closepath stroke
  Pnt} def
/Crs {stroke [] 0 setdash exch hpt sub exch vpt add M
  hpt2 vpt2 neg V currentpoint stroke M
  hpt2 neg 0 R hpt2 vpt2 V stroke} def
/TriU {stroke [] 0 setdash 2 copy vpt 1.12 mul add M
  hpt neg vpt -1.62 mul V
  hpt 2 mul 0 V
  hpt neg vpt 1.62 mul V closepath stroke
  Pnt} def
/Star {2 copy Pls Crs} def
/BoxF {stroke [] 0 setdash exch hpt sub exch vpt add M
  0 vpt2 neg V hpt2 0 V 0 vpt2 V
  hpt2 neg 0 V closepath fill} def
/TriUF {stroke [] 0 setdash vpt 1.12 mul add M
  hpt neg vpt -1.62 mul V
  hpt 2 mul 0 V
  hpt neg vpt 1.62 mul V closepath fill} def
/TriD {stroke [] 0 setdash 2 copy vpt 1.12 mul sub M
  hpt neg vpt 1.62 mul V
  hpt 2 mul 0 V
  hpt neg vpt -1.62 mul V closepath stroke
  Pnt} def
/TriDF {stroke [] 0 setdash vpt 1.12 mul sub M
  hpt neg vpt 1.62 mul V
  hpt 2 mul 0 V
  hpt neg vpt -1.62 mul V closepath fill} def
/DiaF {stroke [] 0 setdash vpt add M
  hpt neg vpt neg V hpt vpt neg V
  hpt vpt V hpt neg vpt V closepath fill} def
/Pent {stroke [] 0 setdash 2 copy gsave
  translate 0 hpt M 4 {72 rotate 0 hpt L} repeat
  closepath stroke grestore Pnt} def
/PentF {stroke [] 0 setdash gsave
  translate 0 hpt M 4 {72 rotate 0 hpt L} repeat
  closepath fill grestore} def
/Circle {stroke [] 0 setdash 2 copy
  hpt 0 360 arc stroke Pnt} def
/CircleF {stroke [] 0 setdash hpt 0 360 arc fill} def
/C0 {BL [] 0 setdash 2 copy moveto vpt 90 450 arc} bind def
/C1 {BL [] 0 setdash 2 copy moveto
	2 copy vpt 0 90 arc closepath fill
	vpt 0 360 arc closepath} bind def
/C2 {BL [] 0 setdash 2 copy moveto
	2 copy vpt 90 180 arc closepath fill
	vpt 0 360 arc closepath} bind def
/C3 {BL [] 0 setdash 2 copy moveto
	2 copy vpt 0 180 arc closepath fill
	vpt 0 360 arc closepath} bind def
/C4 {BL [] 0 setdash 2 copy moveto
	2 copy vpt 180 270 arc closepath fill
	vpt 0 360 arc closepath} bind def
/C5 {BL [] 0 setdash 2 copy moveto
	2 copy vpt 0 90 arc
	2 copy moveto
	2 copy vpt 180 270 arc closepath fill
	vpt 0 360 arc} bind def
/C6 {BL [] 0 setdash 2 copy moveto
	2 copy vpt 90 270 arc closepath fill
	vpt 0 360 arc closepath} bind def
/C7 {BL [] 0 setdash 2 copy moveto
	2 copy vpt 0 270 arc closepath fill
	vpt 0 360 arc closepath} bind def
/C8 {BL [] 0 setdash 2 copy moveto
	2 copy vpt 270 360 arc closepath fill
	vpt 0 360 arc closepath} bind def
/C9 {BL [] 0 setdash 2 copy moveto
	2 copy vpt 270 450 arc closepath fill
	vpt 0 360 arc closepath} bind def
/C10 {BL [] 0 setdash 2 copy 2 copy moveto vpt 270 360 arc closepath fill
	2 copy moveto
	2 copy vpt 90 180 arc closepath fill
	vpt 0 360 arc closepath} bind def
/C11 {BL [] 0 setdash 2 copy moveto
	2 copy vpt 0 180 arc closepath fill
	2 copy moveto
	2 copy vpt 270 360 arc closepath fill
	vpt 0 360 arc closepath} bind def
/C12 {BL [] 0 setdash 2 copy moveto
	2 copy vpt 180 360 arc closepath fill
	vpt 0 360 arc closepath} bind def
/C13 {BL [] 0 setdash 2 copy moveto
	2 copy vpt 0 90 arc closepath fill
	2 copy moveto
	2 copy vpt 180 360 arc closepath fill
	vpt 0 360 arc closepath} bind def
/C14 {BL [] 0 setdash 2 copy moveto
	2 copy vpt 90 360 arc closepath fill
	vpt 0 360 arc} bind def
/C15 {BL [] 0 setdash 2 copy vpt 0 360 arc closepath fill
	vpt 0 360 arc closepath} bind def
/Rec {newpath 4 2 roll moveto 1 index 0 rlineto 0 exch rlineto
	neg 0 rlineto closepath} bind def
/Square {dup Rec} bind def
/Bsquare {vpt sub exch vpt sub exch vpt2 Square} bind def
/S0 {BL [] 0 setdash 2 copy moveto 0 vpt rlineto BL Bsquare} bind def
/S1 {BL [] 0 setdash 2 copy vpt Square fill Bsquare} bind def
/S2 {BL [] 0 setdash 2 copy exch vpt sub exch vpt Square fill Bsquare} bind def
/S3 {BL [] 0 setdash 2 copy exch vpt sub exch vpt2 vpt Rec fill Bsquare} bind def
/S4 {BL [] 0 setdash 2 copy exch vpt sub exch vpt sub vpt Square fill Bsquare} bind def
/S5 {BL [] 0 setdash 2 copy 2 copy vpt Square fill
	exch vpt sub exch vpt sub vpt Square fill Bsquare} bind def
/S6 {BL [] 0 setdash 2 copy exch vpt sub exch vpt sub vpt vpt2 Rec fill Bsquare} bind def
/S7 {BL [] 0 setdash 2 copy exch vpt sub exch vpt sub vpt vpt2 Rec fill
	2 copy vpt Square fill Bsquare} bind def
/S8 {BL [] 0 setdash 2 copy vpt sub vpt Square fill Bsquare} bind def
/S9 {BL [] 0 setdash 2 copy vpt sub vpt vpt2 Rec fill Bsquare} bind def
/S10 {BL [] 0 setdash 2 copy vpt sub vpt Square fill 2 copy exch vpt sub exch vpt Square fill
	Bsquare} bind def
/S11 {BL [] 0 setdash 2 copy vpt sub vpt Square fill 2 copy exch vpt sub exch vpt2 vpt Rec fill
	Bsquare} bind def
/S12 {BL [] 0 setdash 2 copy exch vpt sub exch vpt sub vpt2 vpt Rec fill Bsquare} bind def
/S13 {BL [] 0 setdash 2 copy exch vpt sub exch vpt sub vpt2 vpt Rec fill
	2 copy vpt Square fill Bsquare} bind def
/S14 {BL [] 0 setdash 2 copy exch vpt sub exch vpt sub vpt2 vpt Rec fill
	2 copy exch vpt sub exch vpt Square fill Bsquare} bind def
/S15 {BL [] 0 setdash 2 copy Bsquare fill Bsquare} bind def
/D0 {gsave translate 45 rotate 0 0 S0 stroke grestore} bind def
/D1 {gsave translate 45 rotate 0 0 S1 stroke grestore} bind def
/D2 {gsave translate 45 rotate 0 0 S2 stroke grestore} bind def
/D3 {gsave translate 45 rotate 0 0 S3 stroke grestore} bind def
/D4 {gsave translate 45 rotate 0 0 S4 stroke grestore} bind def
/D5 {gsave translate 45 rotate 0 0 S5 stroke grestore} bind def
/D6 {gsave translate 45 rotate 0 0 S6 stroke grestore} bind def
/D7 {gsave translate 45 rotate 0 0 S7 stroke grestore} bind def
/D8 {gsave translate 45 rotate 0 0 S8 stroke grestore} bind def
/D9 {gsave translate 45 rotate 0 0 S9 stroke grestore} bind def
/D10 {gsave translate 45 rotate 0 0 S10 stroke grestore} bind def
/D11 {gsave translate 45 rotate 0 0 S11 stroke grestore} bind def
/D12 {gsave translate 45 rotate 0 0 S12 stroke grestore} bind def
/D13 {gsave translate 45 rotate 0 0 S13 stroke grestore} bind def
/D14 {gsave translate 45 rotate 0 0 S14 stroke grestore} bind def
/D15 {gsave translate 45 rotate 0 0 S15 stroke grestore} bind def
/DiaE {stroke [] 0 setdash vpt add M
  hpt neg vpt neg V hpt vpt neg V
  hpt vpt V hpt neg vpt V closepath stroke} def
/BoxE {stroke [] 0 setdash exch hpt sub exch vpt add M
  0 vpt2 neg V hpt2 0 V 0 vpt2 V
  hpt2 neg 0 V closepath stroke} def
/TriUE {stroke [] 0 setdash vpt 1.12 mul add M
  hpt neg vpt -1.62 mul V
  hpt 2 mul 0 V
  hpt neg vpt 1.62 mul V closepath stroke} def
/TriDE {stroke [] 0 setdash vpt 1.12 mul sub M
  hpt neg vpt 1.62 mul V
  hpt 2 mul 0 V
  hpt neg vpt -1.62 mul V closepath stroke} def
/PentE {stroke [] 0 setdash gsave
  translate 0 hpt M 4 {72 rotate 0 hpt L} repeat
  closepath stroke grestore} def
/CircE {stroke [] 0 setdash 
  hpt 0 360 arc stroke} def
/Opaque {gsave closepath 1 setgray fill grestore 0 setgray closepath} def
/DiaW {stroke [] 0 setdash vpt add M
  hpt neg vpt neg V hpt vpt neg V
  hpt vpt V hpt neg vpt V Opaque stroke} def
/BoxW {stroke [] 0 setdash exch hpt sub exch vpt add M
  0 vpt2 neg V hpt2 0 V 0 vpt2 V
  hpt2 neg 0 V Opaque stroke} def
/TriUW {stroke [] 0 setdash vpt 1.12 mul add M
  hpt neg vpt -1.62 mul V
  hpt 2 mul 0 V
  hpt neg vpt 1.62 mul V Opaque stroke} def
/TriDW {stroke [] 0 setdash vpt 1.12 mul sub M
  hpt neg vpt 1.62 mul V
  hpt 2 mul 0 V
  hpt neg vpt -1.62 mul V Opaque stroke} def
/PentW {stroke [] 0 setdash gsave
  translate 0 hpt M 4 {72 rotate 0 hpt L} repeat
  Opaque stroke grestore} def
/CircW {stroke [] 0 setdash 
  hpt 0 360 arc Opaque stroke} def
/BoxFill {gsave Rec 1 setgray fill grestore} def
/Density {
  /Fillden exch def
  currentrgbcolor
  /ColB exch def /ColG exch def /ColR exch def
  /ColR ColR Fillden mul Fillden sub 1 add def
  /ColG ColG Fillden mul Fillden sub 1 add def
  /ColB ColB Fillden mul Fillden sub 1 add def
  ColR ColG ColB setrgbcolor} def
/BoxColFill {gsave Rec PolyFill} def
/PolyFill {gsave Density fill grestore grestore} def
/h {rlineto rlineto rlineto gsave closepath fill grestore} bind def
%
% PostScript Level 1 Pattern Fill routine for rectangles
% Usage: x y w h s a XX PatternFill
%	x,y = lower left corner of box to be filled
%	w,h = width and height of box
%	  a = angle in degrees between lines and x-axis
%	 XX = 0/1 for no/yes cross-hatch
%
/PatternFill {gsave /PFa [ 9 2 roll ] def
  PFa 0 get PFa 2 get 2 div add PFa 1 get PFa 3 get 2 div add translate
  PFa 2 get -2 div PFa 3 get -2 div PFa 2 get PFa 3 get Rec
  TransparentPatterns {} {gsave 1 setgray fill grestore} ifelse
  clip
  currentlinewidth 0.5 mul setlinewidth
  /PFs PFa 2 get dup mul PFa 3 get dup mul add sqrt def
  0 0 M PFa 5 get rotate PFs -2 div dup translate
  0 1 PFs PFa 4 get div 1 add floor cvi
	{PFa 4 get mul 0 M 0 PFs V} for
  0 PFa 6 get ne {
	0 1 PFs PFa 4 get div 1 add floor cvi
	{PFa 4 get mul 0 2 1 roll M PFs 0 V} for
 } if
  stroke grestore} def
%
/languagelevel where
 {pop languagelevel} {1} ifelse
 2 lt
	{/InterpretLevel1 true def}
	{/InterpretLevel1 Level1 def}
 ifelse
%
% PostScript level 2 pattern fill definitions
%
/Level2PatternFill {
/Tile8x8 {/PaintType 2 /PatternType 1 /TilingType 1 /BBox [0 0 8 8] /XStep 8 /YStep 8}
	bind def
/KeepColor {currentrgbcolor [/Pattern /DeviceRGB] setcolorspace} bind def
<< Tile8x8
 /PaintProc {0.5 setlinewidth pop 0 0 M 8 8 L 0 8 M 8 0 L stroke} 
>> matrix makepattern
/Pat1 exch def
<< Tile8x8
 /PaintProc {0.5 setlinewidth pop 0 0 M 8 8 L 0 8 M 8 0 L stroke
	0 4 M 4 8 L 8 4 L 4 0 L 0 4 L stroke}
>> matrix makepattern
/Pat2 exch def
<< Tile8x8
 /PaintProc {0.5 setlinewidth pop 0 0 M 0 8 L
	8 8 L 8 0 L 0 0 L fill}
>> matrix makepattern
/Pat3 exch def
<< Tile8x8
 /PaintProc {0.5 setlinewidth pop -4 8 M 8 -4 L
	0 12 M 12 0 L stroke}
>> matrix makepattern
/Pat4 exch def
<< Tile8x8
 /PaintProc {0.5 setlinewidth pop -4 0 M 8 12 L
	0 -4 M 12 8 L stroke}
>> matrix makepattern
/Pat5 exch def
<< Tile8x8
 /PaintProc {0.5 setlinewidth pop -2 8 M 4 -4 L
	0 12 M 8 -4 L 4 12 M 10 0 L stroke}
>> matrix makepattern
/Pat6 exch def
<< Tile8x8
 /PaintProc {0.5 setlinewidth pop -2 0 M 4 12 L
	0 -4 M 8 12 L 4 -4 M 10 8 L stroke}
>> matrix makepattern
/Pat7 exch def
<< Tile8x8
 /PaintProc {0.5 setlinewidth pop 8 -2 M -4 4 L
	12 0 M -4 8 L 12 4 M 0 10 L stroke}
>> matrix makepattern
/Pat8 exch def
<< Tile8x8
 /PaintProc {0.5 setlinewidth pop 0 -2 M 12 4 L
	-4 0 M 12 8 L -4 4 M 8 10 L stroke}
>> matrix makepattern
/Pat9 exch def
/Pattern1 {PatternBgnd KeepColor Pat1 setpattern} bind def
/Pattern2 {PatternBgnd KeepColor Pat2 setpattern} bind def
/Pattern3 {PatternBgnd KeepColor Pat3 setpattern} bind def
/Pattern4 {PatternBgnd KeepColor Landscape {Pat5} {Pat4} ifelse setpattern} bind def
/Pattern5 {PatternBgnd KeepColor Landscape {Pat4} {Pat5} ifelse setpattern} bind def
/Pattern6 {PatternBgnd KeepColor Landscape {Pat9} {Pat6} ifelse setpattern} bind def
/Pattern7 {PatternBgnd KeepColor Landscape {Pat8} {Pat7} ifelse setpattern} bind def
} def
%
%
%End of PostScript Level 2 code
%
/PatternBgnd {
  TransparentPatterns {} {gsave 1 setgray fill grestore} ifelse
} def
%
% Substitute for Level 2 pattern fill codes with
% grayscale if Level 2 support is not selected.
%
/Level1PatternFill {
/Pattern1 {0.250 Density} bind def
/Pattern2 {0.500 Density} bind def
/Pattern3 {0.750 Density} bind def
/Pattern4 {0.125 Density} bind def
/Pattern5 {0.375 Density} bind def
/Pattern6 {0.625 Density} bind def
/Pattern7 {0.875 Density} bind def
} def
%
% Now test for support of Level 2 code
%
Level1 {Level1PatternFill} {Level2PatternFill} ifelse
%
/Symbol-Oblique /Symbol findfont [1 0 .167 1 0 0] makefont
dup length dict begin {1 index /FID eq {pop pop} {def} ifelse} forall
currentdict end definefont pop
Level1 SuppressPDFMark or 
{} {
/SDict 10 dict def
systemdict /pdfmark known not {
  userdict /pdfmark systemdict /cleartomark get put
} if
SDict begin [
  /Title (speedup_adj_input_qt.tex)
  /Subject (gnuplot plot)
  /Creator (gnuplot 4.6 patchlevel 5)
  /Author (yummiii)
%  /Producer (gnuplot)
%  /Keywords ()
  /CreationDate (Mon Jan 11 03:14:22 2016)
  /DOCINFO pdfmark
end
} ifelse
end
%%EndProlog
%%Page: 1 1
gnudict begin
gsave
doclip
50 50 translate
0.050 0.050 scale
0 setgray
newpath
1.000 UL
LTb
814 704 M
63 0 V
12898 0 R
-63 0 V
814 1213 M
63 0 V
12898 0 R
-63 0 V
814 1723 M
63 0 V
12898 0 R
-63 0 V
814 2232 M
63 0 V
12898 0 R
-63 0 V
814 2741 M
63 0 V
12898 0 R
-63 0 V
814 3250 M
63 0 V
12898 0 R
-63 0 V
814 3760 M
63 0 V
12898 0 R
-63 0 V
814 4269 M
63 0 V
12898 0 R
-63 0 V
814 704 M
0 63 V
0 3502 R
0 -63 V
3307 704 M
0 63 V
0 3502 R
0 -63 V
5799 704 M
0 63 V
0 3502 R
0 -63 V
8292 704 M
0 63 V
0 3502 R
0 -63 V
10784 704 M
0 63 V
0 3502 R
0 -63 V
13277 704 M
0 63 V
0 3502 R
0 -63 V
stroke
814 4269 N
814 704 L
12961 0 V
0 3565 V
814 4269 L
Z stroke
1.000 UP
1.000 UL
LTb
1.000 UL
LT2
10940 767 N
0 660 V
2703 0 V
0 -660 V
-2703 0 V
Z stroke
10940 1207 M
2703 0 V
1.000 UP
stroke
LT0
0.00 0.00 0.00 C LTb
LT0
0.00 0.00 0.00 C 914 1020 Pls
939 1098 Pls
964 1178 Pls
988 1253 Pls
1013 1327 Pls
1038 1403 Pls
1063 1475 Pls
1088 1539 Pls
1113 1613 Pls
1138 1675 Pls
1163 1760 Pls
1188 1822 Pls
1213 1893 Pls
1238 1956 Pls
1263 2021 Pls
1288 2086 Pls
1313 2154 Pls
1337 2222 Pls
1362 2276 Pls
1387 2308 Pls
1412 2385 Pls
1437 2436 Pls
1462 2523 Pls
1487 2569 Pls
1512 2650 Pls
1537 2701 Pls
1562 2754 Pls
1587 2829 Pls
1612 2865 Pls
1637 2304 Pls
1661 2319 Pls
1686 2340 Pls
1711 2376 Pls
1736 2403 Pls
1761 2442 Pls
1786 2483 Pls
1811 2512 Pls
1836 2528 Pls
1861 2580 Pls
1886 2616 Pls
1911 2659 Pls
1936 2697 Pls
1961 2709 Pls
1985 2757 Pls
2010 2794 Pls
2035 2815 Pls
2060 2833 Pls
2085 2888 Pls
2110 2923 Pls
2135 2954 Pls
2160 2982 Pls
2185 3024 Pls
2210 3054 Pls
2235 3075 Pls
2260 3108 Pls
2285 3159 Pls
2310 3174 Pls
2334 3223 Pls
2359 3227 Pls
2384 3268 Pls
2409 3301 Pls
2434 2831 Pls
2459 2859 Pls
2484 2867 Pls
2509 2882 Pls
2534 2903 Pls
2559 2929 Pls
2584 2945 Pls
2609 2976 Pls
2634 2993 Pls
2658 3012 Pls
2683 3045 Pls
2708 3059 Pls
2733 3087 Pls
2758 3101 Pls
2783 3124 Pls
2808 3146 Pls
2833 3177 Pls
2858 3183 Pls
2883 3220 Pls
2908 3230 Pls
2933 3263 Pls
2958 3284 Pls
2982 3298 Pls
3007 3318 Pls
3032 3356 Pls
3057 3371 Pls
3082 3401 Pls
3107 3411 Pls
3132 3438 Pls
3157 3450 Pls
3182 3485 Pls
3207 3456 Pls
3232 3118 Pls
3257 3128 Pls
3282 3144 Pls
3307 3163 Pls
3331 3175 Pls
3356 3199 Pls
3381 3215 Pls
3406 3217 Pls
3431 3241 Pls
3456 3257 Pls
3481 3259 Pls
3506 3294 Pls
3531 3303 Pls
3556 3307 Pls
3581 3322 Pls
3606 3344 Pls
3631 3360 Pls
3655 3378 Pls
3680 3400 Pls
3705 3420 Pls
3730 3428 Pls
3755 3444 Pls
3780 3450 Pls
3805 3473 Pls
3830 3481 Pls
3855 3508 Pls
3880 3511 Pls
3905 3546 Pls
3930 3564 Pls
3955 3568 Pls
3979 3594 Pls
4004 3595 Pls
4029 3278 Pls
4054 3302 Pls
4079 3314 Pls
4104 3320 Pls
4129 3333 Pls
4154 3356 Pls
4179 3350 Pls
4204 3358 Pls
4229 3389 Pls
4254 3397 Pls
4279 3410 Pls
4304 3426 Pls
4328 3430 Pls
4353 3442 Pls
4378 3464 Pls
4403 3470 Pls
4428 3482 Pls
4453 3505 Pls
4478 3508 Pls
4503 3521 Pls
4528 3524 Pls
4553 3544 Pls
4578 3554 Pls
4603 3570 Pls
4628 3579 Pls
4652 3601 Pls
4677 3610 Pls
4702 3624 Pls
4727 3626 Pls
4752 3649 Pls
4777 3681 Pls
4802 3670 Pls
4827 3391 Pls
4852 3412 Pls
4877 3418 Pls
4902 3432 Pls
4927 3435 Pls
4952 3453 Pls
4976 3464 Pls
5001 3470 Pls
5026 3481 Pls
5051 3491 Pls
5076 3504 Pls
5101 3508 Pls
5126 3522 Pls
5151 3529 Pls
5176 3542 Pls
5201 3557 Pls
5226 3561 Pls
5251 3575 Pls
5276 3588 Pls
5301 3594 Pls
5325 3612 Pls
5350 3619 Pls
5375 3628 Pls
5400 3639 Pls
5425 3651 Pls
5450 3665 Pls
5475 3668 Pls
5500 3683 Pls
5525 3685 Pls
5550 3703 Pls
5575 3714 Pls
5600 3724 Pls
5625 3471 Pls
5649 3488 Pls
5674 3492 Pls
5699 3509 Pls
5724 3512 Pls
5749 3529 Pls
5774 3535 Pls
5799 3547 Pls
5824 3561 Pls
5849 3561 Pls
5874 3572 Pls
5899 3579 Pls
5924 3588 Pls
5949 3596 Pls
5973 3608 Pls
5998 3609 Pls
6023 3619 Pls
6048 3635 Pls
6073 3638 Pls
6098 3651 Pls
6123 3658 Pls
6148 3669 Pls
6173 3675 Pls
6198 3693 Pls
6223 3696 Pls
6248 3707 Pls
6273 3713 Pls
6298 3716 Pls
6322 3731 Pls
6347 3742 Pls
6372 3749 Pls
6397 3752 Pls
6422 3542 Pls
6447 3547 Pls
6472 3572 Pls
6497 3573 Pls
6522 3578 Pls
6547 3587 Pls
6572 3592 Pls
6597 3595 Pls
6622 3610 Pls
6646 3621 Pls
6671 3625 Pls
6696 3635 Pls
6721 3637 Pls
6746 3644 Pls
6771 3648 Pls
6796 3663 Pls
6821 3671 Pls
6846 3678 Pls
6871 3688 Pls
6896 3680 Pls
6921 3701 Pls
6946 3711 Pls
6970 3719 Pls
6995 3724 Pls
7020 3732 Pls
7045 3741 Pls
7070 3746 Pls
7095 3756 Pls
7120 3763 Pls
7145 3774 Pls
7170 3782 Pls
7195 3781 Pls
7220 3591 Pls
7245 3598 Pls
7270 3608 Pls
7295 3611 Pls
7319 3624 Pls
7344 3630 Pls
7369 3635 Pls
7394 3644 Pls
7419 3651 Pls
7444 3662 Pls
7469 3657 Pls
7494 3671 Pls
7519 3682 Pls
7544 3682 Pls
7569 3684 Pls
7594 3699 Pls
7619 3702 Pls
7643 3710 Pls
7668 3723 Pls
7693 3726 Pls
7718 3733 Pls
7743 3734 Pls
7768 3743 Pls
7793 3743 Pls
7818 3760 Pls
7843 3767 Pls
7868 3769 Pls
7893 3778 Pls
7918 3789 Pls
7943 3790 Pls
7967 3797 Pls
7992 3806 Pls
8017 3634 Pls
8042 3649 Pls
8067 3643 Pls
8092 3649 Pls
8117 3653 Pls
8142 3659 Pls
8167 3672 Pls
8192 3676 Pls
8217 3684 Pls
8242 3689 Pls
8267 3697 Pls
8292 3702 Pls
8316 3706 Pls
8341 3712 Pls
8366 3720 Pls
8391 3724 Pls
8416 3733 Pls
8441 3741 Pls
8466 3744 Pls
8491 3745 Pls
8516 3753 Pls
8541 3763 Pls
8566 3764 Pls
8591 3775 Pls
8616 3777 Pls
8640 3779 Pls
8665 3787 Pls
8690 3803 Pls
8715 3804 Pls
8740 3812 Pls
8765 3812 Pls
8790 3818 Pls
8815 3666 Pls
8840 3667 Pls
8865 3677 Pls
8890 3682 Pls
8915 3682 Pls
8940 3690 Pls
8964 3699 Pls
8989 3700 Pls
9014 3709 Pls
9039 3709 Pls
9064 3717 Pls
9089 3724 Pls
9114 3730 Pls
9139 3727 Pls
9164 3744 Pls
9189 3751 Pls
9214 3753 Pls
9239 3759 Pls
9264 3766 Pls
9289 3774 Pls
9313 3775 Pls
9338 3777 Pls
9363 3789 Pls
9388 3793 Pls
9413 3796 Pls
9438 3805 Pls
9463 3806 Pls
9488 3818 Pls
9513 3824 Pls
9538 3821 Pls
9563 3828 Pls
9588 3836 Pls
9613 3685 Pls
9637 3701 Pls
9662 3701 Pls
9687 3702 Pls
9712 3713 Pls
9737 3714 Pls
9762 3721 Pls
9787 3721 Pls
9812 3733 Pls
9837 3738 Pls
9862 3742 Pls
9887 3744 Pls
9912 3750 Pls
9937 3759 Pls
9961 3762 Pls
9986 3770 Pls
10011 3772 Pls
10036 3774 Pls
10061 3779 Pls
10086 3784 Pls
10111 3789 Pls
10136 3797 Pls
10161 3801 Pls
10186 3803 Pls
10211 3809 Pls
10236 3817 Pls
10261 3823 Pls
10286 3825 Pls
10310 3831 Pls
10335 3835 Pls
10360 3841 Pls
10385 3851 Pls
10410 3711 Pls
10435 3721 Pls
10460 3721 Pls
10485 3728 Pls
10510 3732 Pls
10535 3735 Pls
10560 3741 Pls
10585 3746 Pls
10610 3744 Pls
10634 3756 Pls
10659 3757 Pls
10684 3759 Pls
10709 3768 Pls
10734 3769 Pls
10759 3780 Pls
10784 3779 Pls
10809 3786 Pls
10834 3790 Pls
10859 3797 Pls
10884 3801 Pls
10909 3806 Pls
10934 3808 Pls
10958 3815 Pls
10983 3819 Pls
11008 3821 Pls
11033 3826 Pls
11058 3833 Pls
11083 3838 Pls
11108 3840 Pls
11133 3845 Pls
11158 3849 Pls
11183 3859 Pls
11208 3730 Pls
11233 3734 Pls
11258 3741 Pls
11283 3747 Pls
11307 3747 Pls
11332 3752 Pls
11357 3760 Pls
11382 3757 Pls
11407 3767 Pls
11432 3770 Pls
11457 3772 Pls
11482 3775 Pls
11507 3781 Pls
11532 3785 Pls
11557 3793 Pls
11582 3796 Pls
11607 3802 Pls
11631 3807 Pls
11656 3805 Pls
11681 3809 Pls
11706 3808 Pls
11731 3821 Pls
11756 3819 Pls
11781 3830 Pls
11806 3836 Pls
11831 3840 Pls
11856 3846 Pls
11881 3850 Pls
11906 3852 Pls
11931 3857 Pls
11955 3860 Pls
11980 3861 Pls
12005 3745 Pls
12030 3751 Pls
12055 3756 Pls
12080 3759 Pls
12105 3761 Pls
12130 3767 Pls
12155 3772 Pls
12180 3774 Pls
12205 3780 Pls
12230 3784 Pls
12255 3787 Pls
12280 3794 Pls
12304 3794 Pls
12329 3800 Pls
12354 3803 Pls
12379 3807 Pls
12404 3810 Pls
12429 3816 Pls
12454 3820 Pls
12479 3819 Pls
12504 3826 Pls
12529 3831 Pls
12554 3831 Pls
12579 3831 Pls
12604 3843 Pls
12628 3846 Pls
12653 3855 Pls
12678 3858 Pls
12703 3858 Pls
12728 3866 Pls
12753 3865 Pls
12778 3872 Pls
12803 3763 Pls
12828 3767 Pls
12853 3770 Pls
12878 3773 Pls
12903 3776 Pls
12928 3779 Pls
12952 3785 Pls
12977 3787 Pls
13002 3791 Pls
13027 3797 Pls
13052 3801 Pls
13077 3804 Pls
13102 3801 Pls
13127 3808 Pls
13152 3815 Pls
13177 3817 Pls
13202 3821 Pls
13227 3822 Pls
13252 3827 Pls
13277 3835 Pls
13301 3835 Pls
13326 3842 Pls
13351 3841 Pls
13376 3844 Pls
13401 3851 Pls
13426 3854 Pls
13451 3864 Pls
13476 3860 Pls
13501 3867 Pls
13526 3867 Pls
13551 3873 Pls
13576 3879 Pls
13215 1097 Pls
1.000 UP
1.000 UL
LT1
0.00 0.00 0.00 C LTb
LT1
0.00 0.00 0.00 C 914 1566 Crs
939 1737 Crs
964 1832 Crs
988 1939 Crs
1013 2041 Crs
1038 2160 Crs
1063 2221 Crs
1088 2325 Crs
1113 2382 Crs
1138 2448 Crs
1163 2525 Crs
1188 2568 Crs
1213 2692 Crs
1238 2700 Crs
1263 2733 Crs
1288 2780 Crs
1313 2788 Crs
1337 2847 Crs
1362 2872 Crs
1387 2920 Crs
1412 2954 Crs
1437 3006 Crs
1462 3044 Crs
1487 3079 Crs
1512 3115 Crs
1537 3170 Crs
1562 3205 Crs
1587 3252 Crs
1612 3298 Crs
1637 3282 Crs
1661 3277 Crs
1686 3275 Crs
1711 3279 Crs
1736 3274 Crs
1761 3270 Crs
1786 3283 Crs
1811 3288 Crs
1836 3297 Crs
1861 3304 Crs
1886 3327 Crs
1911 3336 Crs
1936 3337 Crs
1961 3346 Crs
1985 3340 Crs
2010 3361 Crs
2035 3383 Crs
2060 3385 Crs
2085 3398 Crs
2110 3412 Crs
2135 3419 Crs
2160 3434 Crs
2185 3438 Crs
2210 3453 Crs
2235 3466 Crs
2260 3487 Crs
2285 3492 Crs
2310 3505 Crs
2334 3520 Crs
2359 3544 Crs
2384 3553 Crs
2409 3571 Crs
2434 3562 Crs
2459 3555 Crs
2484 3552 Crs
2509 3553 Crs
2534 3550 Crs
2559 3556 Crs
2584 3560 Crs
2609 3548 Crs
2634 3557 Crs
2658 3562 Crs
2683 3569 Crs
2708 3561 Crs
2733 3570 Crs
2758 3574 Crs
2783 3582 Crs
2808 3580 Crs
2833 3580 Crs
2858 3589 Crs
2883 3593 Crs
2908 3595 Crs
2933 3608 Crs
2958 3618 Crs
2982 3615 Crs
3007 3621 Crs
3032 3632 Crs
3057 3638 Crs
3082 3643 Crs
3107 3646 Crs
3132 3654 Crs
3157 3669 Crs
3182 3670 Crs
3207 3671 Crs
3232 3671 Crs
3257 3674 Crs
3282 3676 Crs
3307 3671 Crs
3331 3670 Crs
3356 3669 Crs
3381 3667 Crs
3406 3678 Crs
3431 3674 Crs
3456 3678 Crs
3481 3677 Crs
3506 3682 Crs
3531 3681 Crs
3556 3680 Crs
3581 3676 Crs
3606 3683 Crs
3631 3691 Crs
3655 3682 Crs
3680 3695 Crs
3705 3696 Crs
3730 3695 Crs
3755 3704 Crs
3780 3705 Crs
3805 3704 Crs
3830 3718 Crs
3855 3717 Crs
3880 3714 Crs
3905 3723 Crs
3930 3725 Crs
3955 3729 Crs
3979 3733 Crs
4004 3738 Crs
4029 3738 Crs
4054 3734 Crs
4079 3732 Crs
4104 3736 Crs
4129 3738 Crs
4154 3738 Crs
4179 3744 Crs
4204 3735 Crs
4229 3739 Crs
4254 3736 Crs
4279 3740 Crs
4304 3735 Crs
4328 3743 Crs
4353 3739 Crs
4378 3740 Crs
4403 3748 Crs
4428 3742 Crs
4453 3743 Crs
4478 3747 Crs
4503 3749 Crs
4528 3753 Crs
4553 3755 Crs
4578 3755 Crs
4603 3756 Crs
4628 3760 Crs
4652 3763 Crs
4677 3765 Crs
4702 3766 Crs
4727 3770 Crs
4752 3768 Crs
4777 3775 Crs
4802 3777 Crs
4827 3775 Crs
4852 3780 Crs
4877 3777 Crs
4902 3779 Crs
4927 3774 Crs
4952 3780 Crs
4976 3772 Crs
5001 3779 Crs
5026 3781 Crs
5051 3780 Crs
5076 3783 Crs
5101 3778 Crs
5126 3781 Crs
5151 3784 Crs
5176 3784 Crs
5201 3781 Crs
5226 3785 Crs
5251 3783 Crs
5276 3790 Crs
5301 3787 Crs
5325 3789 Crs
5350 3792 Crs
5375 3791 Crs
5400 3794 Crs
5425 3789 Crs
5450 3797 Crs
5475 3795 Crs
5500 3800 Crs
5525 3800 Crs
5550 3801 Crs
5575 3801 Crs
5600 3803 Crs
5625 3807 Crs
5649 3803 Crs
5674 3804 Crs
5699 3808 Crs
5724 3806 Crs
5749 3805 Crs
5774 3811 Crs
5799 3803 Crs
5824 3810 Crs
5849 3807 Crs
5874 3810 Crs
5899 3806 Crs
5924 3812 Crs
5949 3808 Crs
5973 3810 Crs
5998 3810 Crs
6023 3815 Crs
6048 3812 Crs
6073 3812 Crs
6098 3812 Crs
6123 3810 Crs
6148 3814 Crs
6173 3817 Crs
6198 3815 Crs
6223 3819 Crs
6248 3821 Crs
6273 3817 Crs
6298 3817 Crs
6322 3819 Crs
6347 3826 Crs
6372 3825 Crs
6397 3826 Crs
6422 3824 Crs
6447 3821 Crs
6472 3825 Crs
6497 3824 Crs
6522 3823 Crs
6547 3826 Crs
6572 3829 Crs
6597 3826 Crs
6622 3826 Crs
6646 3829 Crs
6671 3828 Crs
6696 3827 Crs
6721 3823 Crs
6746 3827 Crs
6771 3829 Crs
6796 3830 Crs
6821 3827 Crs
6846 3828 Crs
6871 3831 Crs
6896 3831 Crs
6921 3835 Crs
6946 3835 Crs
6970 3833 Crs
6995 3836 Crs
7020 3833 Crs
7045 3835 Crs
7070 3839 Crs
7095 3837 Crs
7120 3838 Crs
7145 3839 Crs
7170 3843 Crs
7195 3843 Crs
7220 3837 Crs
7245 3844 Crs
7270 3843 Crs
7295 3842 Crs
7319 3839 Crs
7344 3850 Crs
7369 3845 Crs
7394 3837 Crs
7419 3844 Crs
7444 3842 Crs
7469 3844 Crs
7494 3836 Crs
7519 3842 Crs
7544 3846 Crs
7569 3847 Crs
7594 3847 Crs
7619 3845 Crs
7643 3845 Crs
7668 3849 Crs
7693 3850 Crs
7718 3840 Crs
7743 3847 Crs
7768 3848 Crs
7793 3851 Crs
7818 3853 Crs
7843 3849 Crs
7868 3849 Crs
7893 3854 Crs
7918 3858 Crs
7943 3851 Crs
7967 3849 Crs
7992 3849 Crs
8017 3858 Crs
8042 3853 Crs
8067 3855 Crs
8092 3850 Crs
8117 3855 Crs
8142 3850 Crs
8167 3855 Crs
8192 3857 Crs
8217 3854 Crs
8242 3859 Crs
8267 3858 Crs
8292 3862 Crs
8316 3857 Crs
8341 3858 Crs
8366 3854 Crs
8391 3856 Crs
8416 3859 Crs
8441 3853 Crs
8466 3861 Crs
8491 3860 Crs
8516 3857 Crs
8541 3853 Crs
8566 3858 Crs
8591 3860 Crs
8616 3865 Crs
8640 3863 Crs
8665 3857 Crs
8690 3866 Crs
8715 3864 Crs
8740 3863 Crs
8765 3863 Crs
8790 3864 Crs
8815 3866 Crs
8840 3865 Crs
8865 3863 Crs
8890 3866 Crs
8915 3857 Crs
8940 3862 Crs
8964 3863 Crs
8989 3861 Crs
9014 3863 Crs
9039 3857 Crs
9064 3865 Crs
9089 3868 Crs
9114 3872 Crs
9139 3862 Crs
9164 3867 Crs
9189 3865 Crs
9214 3867 Crs
9239 3867 Crs
9264 3869 Crs
9289 3868 Crs
9313 3866 Crs
9338 3871 Crs
9363 3872 Crs
9388 3870 Crs
9413 3868 Crs
9438 3865 Crs
9463 3874 Crs
9488 3872 Crs
9513 3878 Crs
9538 3867 Crs
9563 3871 Crs
9588 3870 Crs
9613 3869 Crs
9637 3870 Crs
9662 3870 Crs
9687 3875 Crs
9712 3876 Crs
9737 3871 Crs
9762 3874 Crs
9787 3873 Crs
9812 3872 Crs
9837 3869 Crs
9862 3872 Crs
9887 3875 Crs
9912 3870 Crs
9937 3873 Crs
9961 3874 Crs
9986 3876 Crs
10011 3875 Crs
10036 3876 Crs
10061 3881 Crs
10086 3884 Crs
10111 3878 Crs
10136 3877 Crs
10161 3875 Crs
10186 3872 Crs
10211 3875 Crs
10236 3882 Crs
10261 3883 Crs
10286 3876 Crs
10310 3876 Crs
10335 3879 Crs
10360 3881 Crs
10385 3878 Crs
10410 3881 Crs
10435 3881 Crs
10460 3877 Crs
10485 3884 Crs
10510 3882 Crs
10535 3880 Crs
10560 3885 Crs
10585 3881 Crs
10610 3884 Crs
10634 3883 Crs
10659 3891 Crs
10684 3885 Crs
10709 3883 Crs
10734 3885 Crs
10759 3883 Crs
10784 3879 Crs
10809 3882 Crs
10834 3878 Crs
10859 3873 Crs
10884 3883 Crs
10909 3883 Crs
10934 3883 Crs
10958 3879 Crs
10983 3883 Crs
11008 3879 Crs
11033 3884 Crs
11058 3883 Crs
11083 3886 Crs
11108 3884 Crs
11133 3883 Crs
11158 3886 Crs
11183 3882 Crs
11208 3882 Crs
11233 3887 Crs
11258 3889 Crs
11283 3884 Crs
11307 3889 Crs
11332 3886 Crs
11357 3886 Crs
11382 3885 Crs
11407 3881 Crs
11432 3887 Crs
11457 3886 Crs
11482 3881 Crs
11507 3890 Crs
11532 3888 Crs
11557 3883 Crs
11582 3886 Crs
11607 3885 Crs
11631 3892 Crs
11656 3886 Crs
11681 3889 Crs
11706 3890 Crs
11731 3881 Crs
11756 3889 Crs
11781 3883 Crs
11806 3891 Crs
11831 3893 Crs
11856 3886 Crs
11881 3895 Crs
11906 3893 Crs
11931 3890 Crs
11955 3889 Crs
11980 3889 Crs
12005 3895 Crs
12030 3895 Crs
12055 3894 Crs
12080 3893 Crs
12105 3890 Crs
12130 3895 Crs
12155 3890 Crs
12180 3895 Crs
12205 3893 Crs
12230 3889 Crs
12255 3890 Crs
12280 3892 Crs
12304 3884 Crs
12329 3895 Crs
12354 3893 Crs
12379 3896 Crs
12404 3892 Crs
12429 3893 Crs
12454 3898 Crs
12479 3893 Crs
12504 3896 Crs
12529 3890 Crs
12554 3888 Crs
12579 3898 Crs
12604 3894 Crs
12628 3899 Crs
12653 3897 Crs
12678 3889 Crs
12703 3896 Crs
12728 3897 Crs
12753 3896 Crs
12778 3897 Crs
12803 3893 Crs
12828 3894 Crs
12853 3893 Crs
12878 3899 Crs
12903 3897 Crs
12928 3896 Crs
12952 3896 Crs
12977 3897 Crs
13002 3894 Crs
13027 3898 Crs
13052 3900 Crs
13077 3897 Crs
13102 3900 Crs
13127 3899 Crs
13152 3894 Crs
13177 3888 Crs
13202 3905 Crs
13227 3897 Crs
13252 3893 Crs
13277 3897 Crs
13301 3897 Crs
13326 3899 Crs
13351 3898 Crs
13376 3901 Crs
13401 3899 Crs
13426 3901 Crs
13451 3898 Crs
13476 3905 Crs
13501 3902 Crs
13526 3895 Crs
13551 3901 Crs
13576 3897 Crs
13215 877 Crs
1.000 UL
LT1
0.50 0.50 0.50 C 814 3963 M
131 0 V
131 0 V
131 0 V
131 0 V
131 0 V
131 0 V
130 0 V
131 0 V
131 0 V
131 0 V
131 0 V
131 0 V
131 0 V
131 0 V
131 0 V
131 0 V
131 0 V
131 0 V
130 0 V
131 0 V
131 0 V
131 0 V
131 0 V
131 0 V
131 0 V
131 0 V
131 0 V
131 0 V
131 0 V
131 0 V
130 0 V
131 0 V
131 0 V
131 0 V
131 0 V
131 0 V
131 0 V
131 0 V
131 0 V
131 0 V
131 0 V
131 0 V
131 0 V
130 0 V
131 0 V
131 0 V
131 0 V
131 0 V
131 0 V
131 0 V
131 0 V
131 0 V
131 0 V
131 0 V
131 0 V
130 0 V
131 0 V
131 0 V
131 0 V
131 0 V
131 0 V
131 0 V
131 0 V
131 0 V
131 0 V
131 0 V
131 0 V
131 0 V
130 0 V
131 0 V
131 0 V
131 0 V
131 0 V
131 0 V
131 0 V
131 0 V
131 0 V
131 0 V
131 0 V
131 0 V
130 0 V
131 0 V
131 0 V
131 0 V
131 0 V
131 0 V
131 0 V
131 0 V
131 0 V
131 0 V
131 0 V
131 0 V
130 0 V
131 0 V
131 0 V
131 0 V
131 0 V
131 0 V
131 0 V
stroke
LTb
814 4269 N
814 704 L
12961 0 V
0 3565 V
814 4269 L
Z stroke
1.000 UP
1.000 UL
LTb
stroke
grestore
end
showpage
%%Trailer
