%!PS-Adobe-2.0 EPSF-2.0
%%Title: speedup_adj_input_s.tex
%%Creator: gnuplot 4.6 patchlevel 5
%%CreationDate: Mon Jan 11 03:14:22 2016
%%DocumentFonts: 
%%BoundingBox: 50 50 758 276
%%EndComments
%%BeginProlog
/gnudict 256 dict def
gnudict begin
%
% The following true/false flags may be edited by hand if desired.
% The unit line width and grayscale image gamma correction may also be changed.
%
/Color false def
/Blacktext true def
/Solid false def
/Dashlength 1 def
/Landscape false def
/Level1 false def
/Rounded false def
/ClipToBoundingBox false def
/SuppressPDFMark false def
/TransparentPatterns false def
/gnulinewidth 5.000 def
/userlinewidth gnulinewidth def
/Gamma 1.0 def
/BackgroundColor {-1.000 -1.000 -1.000} def
%
/vshift -73 def
/dl1 {
  10.0 Dashlength mul mul
  Rounded { currentlinewidth 0.75 mul sub dup 0 le { pop 0.01 } if } if
} def
/dl2 {
  10.0 Dashlength mul mul
  Rounded { currentlinewidth 0.75 mul add } if
} def
/hpt_ 31.5 def
/vpt_ 31.5 def
/hpt hpt_ def
/vpt vpt_ def
/doclip {
  ClipToBoundingBox {
    newpath 50 50 moveto 758 50 lineto 758 276 lineto 50 276 lineto closepath
    clip
  } if
} def
%
% Gnuplot Prolog Version 4.6 (September 2012)
%
%/SuppressPDFMark true def
%
/M {moveto} bind def
/L {lineto} bind def
/R {rmoveto} bind def
/V {rlineto} bind def
/N {newpath moveto} bind def
/Z {closepath} bind def
/C {setrgbcolor} bind def
/f {rlineto fill} bind def
/g {setgray} bind def
/Gshow {show} def   % May be redefined later in the file to support UTF-8
/vpt2 vpt 2 mul def
/hpt2 hpt 2 mul def
/Lshow {currentpoint stroke M 0 vshift R 
	Blacktext {gsave 0 setgray show grestore} {show} ifelse} def
/Rshow {currentpoint stroke M dup stringwidth pop neg vshift R
	Blacktext {gsave 0 setgray show grestore} {show} ifelse} def
/Cshow {currentpoint stroke M dup stringwidth pop -2 div vshift R 
	Blacktext {gsave 0 setgray show grestore} {show} ifelse} def
/UP {dup vpt_ mul /vpt exch def hpt_ mul /hpt exch def
  /hpt2 hpt 2 mul def /vpt2 vpt 2 mul def} def
/DL {Color {setrgbcolor Solid {pop []} if 0 setdash}
 {pop pop pop 0 setgray Solid {pop []} if 0 setdash} ifelse} def
/BL {stroke userlinewidth 2 mul setlinewidth
	Rounded {1 setlinejoin 1 setlinecap} if} def
/AL {stroke userlinewidth 2 div setlinewidth
	Rounded {1 setlinejoin 1 setlinecap} if} def
/UL {dup gnulinewidth mul /userlinewidth exch def
	dup 1 lt {pop 1} if 10 mul /udl exch def} def
/PL {stroke userlinewidth setlinewidth
	Rounded {1 setlinejoin 1 setlinecap} if} def
3.8 setmiterlimit
% Default Line colors
/LCw {1 1 1} def
/LCb {0 0 0} def
/LCa {0 0 0} def
/LC0 {1 0 0} def
/LC1 {0 1 0} def
/LC2 {0 0 1} def
/LC3 {1 0 1} def
/LC4 {0 1 1} def
/LC5 {1 1 0} def
/LC6 {0 0 0} def
/LC7 {1 0.3 0} def
/LC8 {0.5 0.5 0.5} def
% Default Line Types
/LTw {PL [] 1 setgray} def
/LTb {BL [] LCb DL} def
/LTa {AL [1 udl mul 2 udl mul] 0 setdash LCa setrgbcolor} def
/LT0 {PL [] LC0 DL} def
/LT1 {PL [4 dl1 2 dl2] LC1 DL} def
/LT2 {PL [2 dl1 3 dl2] LC2 DL} def
/LT3 {PL [1 dl1 1.5 dl2] LC3 DL} def
/LT4 {PL [6 dl1 2 dl2 1 dl1 2 dl2] LC4 DL} def
/LT5 {PL [3 dl1 3 dl2 1 dl1 3 dl2] LC5 DL} def
/LT6 {PL [2 dl1 2 dl2 2 dl1 6 dl2] LC6 DL} def
/LT7 {PL [1 dl1 2 dl2 6 dl1 2 dl2 1 dl1 2 dl2] LC7 DL} def
/LT8 {PL [2 dl1 2 dl2 2 dl1 2 dl2 2 dl1 2 dl2 2 dl1 4 dl2] LC8 DL} def
/Pnt {stroke [] 0 setdash gsave 1 setlinecap M 0 0 V stroke grestore} def
/Dia {stroke [] 0 setdash 2 copy vpt add M
  hpt neg vpt neg V hpt vpt neg V
  hpt vpt V hpt neg vpt V closepath stroke
  Pnt} def
/Pls {stroke [] 0 setdash vpt sub M 0 vpt2 V
  currentpoint stroke M
  hpt neg vpt neg R hpt2 0 V stroke
 } def
/Box {stroke [] 0 setdash 2 copy exch hpt sub exch vpt add M
  0 vpt2 neg V hpt2 0 V 0 vpt2 V
  hpt2 neg 0 V closepath stroke
  Pnt} def
/Crs {stroke [] 0 setdash exch hpt sub exch vpt add M
  hpt2 vpt2 neg V currentpoint stroke M
  hpt2 neg 0 R hpt2 vpt2 V stroke} def
/TriU {stroke [] 0 setdash 2 copy vpt 1.12 mul add M
  hpt neg vpt -1.62 mul V
  hpt 2 mul 0 V
  hpt neg vpt 1.62 mul V closepath stroke
  Pnt} def
/Star {2 copy Pls Crs} def
/BoxF {stroke [] 0 setdash exch hpt sub exch vpt add M
  0 vpt2 neg V hpt2 0 V 0 vpt2 V
  hpt2 neg 0 V closepath fill} def
/TriUF {stroke [] 0 setdash vpt 1.12 mul add M
  hpt neg vpt -1.62 mul V
  hpt 2 mul 0 V
  hpt neg vpt 1.62 mul V closepath fill} def
/TriD {stroke [] 0 setdash 2 copy vpt 1.12 mul sub M
  hpt neg vpt 1.62 mul V
  hpt 2 mul 0 V
  hpt neg vpt -1.62 mul V closepath stroke
  Pnt} def
/TriDF {stroke [] 0 setdash vpt 1.12 mul sub M
  hpt neg vpt 1.62 mul V
  hpt 2 mul 0 V
  hpt neg vpt -1.62 mul V closepath fill} def
/DiaF {stroke [] 0 setdash vpt add M
  hpt neg vpt neg V hpt vpt neg V
  hpt vpt V hpt neg vpt V closepath fill} def
/Pent {stroke [] 0 setdash 2 copy gsave
  translate 0 hpt M 4 {72 rotate 0 hpt L} repeat
  closepath stroke grestore Pnt} def
/PentF {stroke [] 0 setdash gsave
  translate 0 hpt M 4 {72 rotate 0 hpt L} repeat
  closepath fill grestore} def
/Circle {stroke [] 0 setdash 2 copy
  hpt 0 360 arc stroke Pnt} def
/CircleF {stroke [] 0 setdash hpt 0 360 arc fill} def
/C0 {BL [] 0 setdash 2 copy moveto vpt 90 450 arc} bind def
/C1 {BL [] 0 setdash 2 copy moveto
	2 copy vpt 0 90 arc closepath fill
	vpt 0 360 arc closepath} bind def
/C2 {BL [] 0 setdash 2 copy moveto
	2 copy vpt 90 180 arc closepath fill
	vpt 0 360 arc closepath} bind def
/C3 {BL [] 0 setdash 2 copy moveto
	2 copy vpt 0 180 arc closepath fill
	vpt 0 360 arc closepath} bind def
/C4 {BL [] 0 setdash 2 copy moveto
	2 copy vpt 180 270 arc closepath fill
	vpt 0 360 arc closepath} bind def
/C5 {BL [] 0 setdash 2 copy moveto
	2 copy vpt 0 90 arc
	2 copy moveto
	2 copy vpt 180 270 arc closepath fill
	vpt 0 360 arc} bind def
/C6 {BL [] 0 setdash 2 copy moveto
	2 copy vpt 90 270 arc closepath fill
	vpt 0 360 arc closepath} bind def
/C7 {BL [] 0 setdash 2 copy moveto
	2 copy vpt 0 270 arc closepath fill
	vpt 0 360 arc closepath} bind def
/C8 {BL [] 0 setdash 2 copy moveto
	2 copy vpt 270 360 arc closepath fill
	vpt 0 360 arc closepath} bind def
/C9 {BL [] 0 setdash 2 copy moveto
	2 copy vpt 270 450 arc closepath fill
	vpt 0 360 arc closepath} bind def
/C10 {BL [] 0 setdash 2 copy 2 copy moveto vpt 270 360 arc closepath fill
	2 copy moveto
	2 copy vpt 90 180 arc closepath fill
	vpt 0 360 arc closepath} bind def
/C11 {BL [] 0 setdash 2 copy moveto
	2 copy vpt 0 180 arc closepath fill
	2 copy moveto
	2 copy vpt 270 360 arc closepath fill
	vpt 0 360 arc closepath} bind def
/C12 {BL [] 0 setdash 2 copy moveto
	2 copy vpt 180 360 arc closepath fill
	vpt 0 360 arc closepath} bind def
/C13 {BL [] 0 setdash 2 copy moveto
	2 copy vpt 0 90 arc closepath fill
	2 copy moveto
	2 copy vpt 180 360 arc closepath fill
	vpt 0 360 arc closepath} bind def
/C14 {BL [] 0 setdash 2 copy moveto
	2 copy vpt 90 360 arc closepath fill
	vpt 0 360 arc} bind def
/C15 {BL [] 0 setdash 2 copy vpt 0 360 arc closepath fill
	vpt 0 360 arc closepath} bind def
/Rec {newpath 4 2 roll moveto 1 index 0 rlineto 0 exch rlineto
	neg 0 rlineto closepath} bind def
/Square {dup Rec} bind def
/Bsquare {vpt sub exch vpt sub exch vpt2 Square} bind def
/S0 {BL [] 0 setdash 2 copy moveto 0 vpt rlineto BL Bsquare} bind def
/S1 {BL [] 0 setdash 2 copy vpt Square fill Bsquare} bind def
/S2 {BL [] 0 setdash 2 copy exch vpt sub exch vpt Square fill Bsquare} bind def
/S3 {BL [] 0 setdash 2 copy exch vpt sub exch vpt2 vpt Rec fill Bsquare} bind def
/S4 {BL [] 0 setdash 2 copy exch vpt sub exch vpt sub vpt Square fill Bsquare} bind def
/S5 {BL [] 0 setdash 2 copy 2 copy vpt Square fill
	exch vpt sub exch vpt sub vpt Square fill Bsquare} bind def
/S6 {BL [] 0 setdash 2 copy exch vpt sub exch vpt sub vpt vpt2 Rec fill Bsquare} bind def
/S7 {BL [] 0 setdash 2 copy exch vpt sub exch vpt sub vpt vpt2 Rec fill
	2 copy vpt Square fill Bsquare} bind def
/S8 {BL [] 0 setdash 2 copy vpt sub vpt Square fill Bsquare} bind def
/S9 {BL [] 0 setdash 2 copy vpt sub vpt vpt2 Rec fill Bsquare} bind def
/S10 {BL [] 0 setdash 2 copy vpt sub vpt Square fill 2 copy exch vpt sub exch vpt Square fill
	Bsquare} bind def
/S11 {BL [] 0 setdash 2 copy vpt sub vpt Square fill 2 copy exch vpt sub exch vpt2 vpt Rec fill
	Bsquare} bind def
/S12 {BL [] 0 setdash 2 copy exch vpt sub exch vpt sub vpt2 vpt Rec fill Bsquare} bind def
/S13 {BL [] 0 setdash 2 copy exch vpt sub exch vpt sub vpt2 vpt Rec fill
	2 copy vpt Square fill Bsquare} bind def
/S14 {BL [] 0 setdash 2 copy exch vpt sub exch vpt sub vpt2 vpt Rec fill
	2 copy exch vpt sub exch vpt Square fill Bsquare} bind def
/S15 {BL [] 0 setdash 2 copy Bsquare fill Bsquare} bind def
/D0 {gsave translate 45 rotate 0 0 S0 stroke grestore} bind def
/D1 {gsave translate 45 rotate 0 0 S1 stroke grestore} bind def
/D2 {gsave translate 45 rotate 0 0 S2 stroke grestore} bind def
/D3 {gsave translate 45 rotate 0 0 S3 stroke grestore} bind def
/D4 {gsave translate 45 rotate 0 0 S4 stroke grestore} bind def
/D5 {gsave translate 45 rotate 0 0 S5 stroke grestore} bind def
/D6 {gsave translate 45 rotate 0 0 S6 stroke grestore} bind def
/D7 {gsave translate 45 rotate 0 0 S7 stroke grestore} bind def
/D8 {gsave translate 45 rotate 0 0 S8 stroke grestore} bind def
/D9 {gsave translate 45 rotate 0 0 S9 stroke grestore} bind def
/D10 {gsave translate 45 rotate 0 0 S10 stroke grestore} bind def
/D11 {gsave translate 45 rotate 0 0 S11 stroke grestore} bind def
/D12 {gsave translate 45 rotate 0 0 S12 stroke grestore} bind def
/D13 {gsave translate 45 rotate 0 0 S13 stroke grestore} bind def
/D14 {gsave translate 45 rotate 0 0 S14 stroke grestore} bind def
/D15 {gsave translate 45 rotate 0 0 S15 stroke grestore} bind def
/DiaE {stroke [] 0 setdash vpt add M
  hpt neg vpt neg V hpt vpt neg V
  hpt vpt V hpt neg vpt V closepath stroke} def
/BoxE {stroke [] 0 setdash exch hpt sub exch vpt add M
  0 vpt2 neg V hpt2 0 V 0 vpt2 V
  hpt2 neg 0 V closepath stroke} def
/TriUE {stroke [] 0 setdash vpt 1.12 mul add M
  hpt neg vpt -1.62 mul V
  hpt 2 mul 0 V
  hpt neg vpt 1.62 mul V closepath stroke} def
/TriDE {stroke [] 0 setdash vpt 1.12 mul sub M
  hpt neg vpt 1.62 mul V
  hpt 2 mul 0 V
  hpt neg vpt -1.62 mul V closepath stroke} def
/PentE {stroke [] 0 setdash gsave
  translate 0 hpt M 4 {72 rotate 0 hpt L} repeat
  closepath stroke grestore} def
/CircE {stroke [] 0 setdash 
  hpt 0 360 arc stroke} def
/Opaque {gsave closepath 1 setgray fill grestore 0 setgray closepath} def
/DiaW {stroke [] 0 setdash vpt add M
  hpt neg vpt neg V hpt vpt neg V
  hpt vpt V hpt neg vpt V Opaque stroke} def
/BoxW {stroke [] 0 setdash exch hpt sub exch vpt add M
  0 vpt2 neg V hpt2 0 V 0 vpt2 V
  hpt2 neg 0 V Opaque stroke} def
/TriUW {stroke [] 0 setdash vpt 1.12 mul add M
  hpt neg vpt -1.62 mul V
  hpt 2 mul 0 V
  hpt neg vpt 1.62 mul V Opaque stroke} def
/TriDW {stroke [] 0 setdash vpt 1.12 mul sub M
  hpt neg vpt 1.62 mul V
  hpt 2 mul 0 V
  hpt neg vpt -1.62 mul V Opaque stroke} def
/PentW {stroke [] 0 setdash gsave
  translate 0 hpt M 4 {72 rotate 0 hpt L} repeat
  Opaque stroke grestore} def
/CircW {stroke [] 0 setdash 
  hpt 0 360 arc Opaque stroke} def
/BoxFill {gsave Rec 1 setgray fill grestore} def
/Density {
  /Fillden exch def
  currentrgbcolor
  /ColB exch def /ColG exch def /ColR exch def
  /ColR ColR Fillden mul Fillden sub 1 add def
  /ColG ColG Fillden mul Fillden sub 1 add def
  /ColB ColB Fillden mul Fillden sub 1 add def
  ColR ColG ColB setrgbcolor} def
/BoxColFill {gsave Rec PolyFill} def
/PolyFill {gsave Density fill grestore grestore} def
/h {rlineto rlineto rlineto gsave closepath fill grestore} bind def
%
% PostScript Level 1 Pattern Fill routine for rectangles
% Usage: x y w h s a XX PatternFill
%	x,y = lower left corner of box to be filled
%	w,h = width and height of box
%	  a = angle in degrees between lines and x-axis
%	 XX = 0/1 for no/yes cross-hatch
%
/PatternFill {gsave /PFa [ 9 2 roll ] def
  PFa 0 get PFa 2 get 2 div add PFa 1 get PFa 3 get 2 div add translate
  PFa 2 get -2 div PFa 3 get -2 div PFa 2 get PFa 3 get Rec
  TransparentPatterns {} {gsave 1 setgray fill grestore} ifelse
  clip
  currentlinewidth 0.5 mul setlinewidth
  /PFs PFa 2 get dup mul PFa 3 get dup mul add sqrt def
  0 0 M PFa 5 get rotate PFs -2 div dup translate
  0 1 PFs PFa 4 get div 1 add floor cvi
	{PFa 4 get mul 0 M 0 PFs V} for
  0 PFa 6 get ne {
	0 1 PFs PFa 4 get div 1 add floor cvi
	{PFa 4 get mul 0 2 1 roll M PFs 0 V} for
 } if
  stroke grestore} def
%
/languagelevel where
 {pop languagelevel} {1} ifelse
 2 lt
	{/InterpretLevel1 true def}
	{/InterpretLevel1 Level1 def}
 ifelse
%
% PostScript level 2 pattern fill definitions
%
/Level2PatternFill {
/Tile8x8 {/PaintType 2 /PatternType 1 /TilingType 1 /BBox [0 0 8 8] /XStep 8 /YStep 8}
	bind def
/KeepColor {currentrgbcolor [/Pattern /DeviceRGB] setcolorspace} bind def
<< Tile8x8
 /PaintProc {0.5 setlinewidth pop 0 0 M 8 8 L 0 8 M 8 0 L stroke} 
>> matrix makepattern
/Pat1 exch def
<< Tile8x8
 /PaintProc {0.5 setlinewidth pop 0 0 M 8 8 L 0 8 M 8 0 L stroke
	0 4 M 4 8 L 8 4 L 4 0 L 0 4 L stroke}
>> matrix makepattern
/Pat2 exch def
<< Tile8x8
 /PaintProc {0.5 setlinewidth pop 0 0 M 0 8 L
	8 8 L 8 0 L 0 0 L fill}
>> matrix makepattern
/Pat3 exch def
<< Tile8x8
 /PaintProc {0.5 setlinewidth pop -4 8 M 8 -4 L
	0 12 M 12 0 L stroke}
>> matrix makepattern
/Pat4 exch def
<< Tile8x8
 /PaintProc {0.5 setlinewidth pop -4 0 M 8 12 L
	0 -4 M 12 8 L stroke}
>> matrix makepattern
/Pat5 exch def
<< Tile8x8
 /PaintProc {0.5 setlinewidth pop -2 8 M 4 -4 L
	0 12 M 8 -4 L 4 12 M 10 0 L stroke}
>> matrix makepattern
/Pat6 exch def
<< Tile8x8
 /PaintProc {0.5 setlinewidth pop -2 0 M 4 12 L
	0 -4 M 8 12 L 4 -4 M 10 8 L stroke}
>> matrix makepattern
/Pat7 exch def
<< Tile8x8
 /PaintProc {0.5 setlinewidth pop 8 -2 M -4 4 L
	12 0 M -4 8 L 12 4 M 0 10 L stroke}
>> matrix makepattern
/Pat8 exch def
<< Tile8x8
 /PaintProc {0.5 setlinewidth pop 0 -2 M 12 4 L
	-4 0 M 12 8 L -4 4 M 8 10 L stroke}
>> matrix makepattern
/Pat9 exch def
/Pattern1 {PatternBgnd KeepColor Pat1 setpattern} bind def
/Pattern2 {PatternBgnd KeepColor Pat2 setpattern} bind def
/Pattern3 {PatternBgnd KeepColor Pat3 setpattern} bind def
/Pattern4 {PatternBgnd KeepColor Landscape {Pat5} {Pat4} ifelse setpattern} bind def
/Pattern5 {PatternBgnd KeepColor Landscape {Pat4} {Pat5} ifelse setpattern} bind def
/Pattern6 {PatternBgnd KeepColor Landscape {Pat9} {Pat6} ifelse setpattern} bind def
/Pattern7 {PatternBgnd KeepColor Landscape {Pat8} {Pat7} ifelse setpattern} bind def
} def
%
%
%End of PostScript Level 2 code
%
/PatternBgnd {
  TransparentPatterns {} {gsave 1 setgray fill grestore} ifelse
} def
%
% Substitute for Level 2 pattern fill codes with
% grayscale if Level 2 support is not selected.
%
/Level1PatternFill {
/Pattern1 {0.250 Density} bind def
/Pattern2 {0.500 Density} bind def
/Pattern3 {0.750 Density} bind def
/Pattern4 {0.125 Density} bind def
/Pattern5 {0.375 Density} bind def
/Pattern6 {0.625 Density} bind def
/Pattern7 {0.875 Density} bind def
} def
%
% Now test for support of Level 2 code
%
Level1 {Level1PatternFill} {Level2PatternFill} ifelse
%
/Symbol-Oblique /Symbol findfont [1 0 .167 1 0 0] makefont
dup length dict begin {1 index /FID eq {pop pop} {def} ifelse} forall
currentdict end definefont pop
Level1 SuppressPDFMark or 
{} {
/SDict 10 dict def
systemdict /pdfmark known not {
  userdict /pdfmark systemdict /cleartomark get put
} if
SDict begin [
  /Title (speedup_adj_input_s.tex)
  /Subject (gnuplot plot)
  /Creator (gnuplot 4.6 patchlevel 5)
  /Author (yummiii)
%  /Producer (gnuplot)
%  /Keywords ()
  /CreationDate (Mon Jan 11 03:14:22 2016)
  /DOCINFO pdfmark
end
} ifelse
end
%%EndProlog
%%Page: 1 1
gnudict begin
gsave
doclip
50 50 translate
0.050 0.050 scale
0 setgray
newpath
1.000 UL
LTb
814 704 M
63 0 V
12898 0 R
-63 0 V
814 1213 M
63 0 V
12898 0 R
-63 0 V
814 1723 M
63 0 V
12898 0 R
-63 0 V
814 2232 M
63 0 V
12898 0 R
-63 0 V
814 2741 M
63 0 V
12898 0 R
-63 0 V
814 3250 M
63 0 V
12898 0 R
-63 0 V
814 3760 M
63 0 V
12898 0 R
-63 0 V
814 4269 M
63 0 V
12898 0 R
-63 0 V
814 704 M
0 63 V
0 3502 R
0 -63 V
3307 704 M
0 63 V
0 3502 R
0 -63 V
5799 704 M
0 63 V
0 3502 R
0 -63 V
8292 704 M
0 63 V
0 3502 R
0 -63 V
10784 704 M
0 63 V
0 3502 R
0 -63 V
13277 704 M
0 63 V
0 3502 R
0 -63 V
stroke
814 4269 N
814 704 L
12961 0 V
0 3565 V
814 4269 L
Z stroke
1.000 UP
1.000 UL
LTb
1.000 UL
LT2
10940 767 N
0 660 V
2703 0 V
0 -660 V
-2703 0 V
Z stroke
10940 1207 M
2703 0 V
1.000 UP
stroke
LT0
0.00 0.00 0.00 C LTb
LT0
0.00 0.00 0.00 C 914 1018 Pls
939 1095 Pls
964 1177 Pls
988 1259 Pls
1013 1341 Pls
1038 1421 Pls
1063 1497 Pls
1088 1561 Pls
1113 1640 Pls
1138 1702 Pls
1163 1791 Pls
1188 1856 Pls
1213 1928 Pls
1238 1993 Pls
1263 2059 Pls
1288 2128 Pls
1313 2200 Pls
1337 2269 Pls
1362 2324 Pls
1387 2354 Pls
1412 2433 Pls
1437 2484 Pls
1462 2575 Pls
1487 2620 Pls
1512 2705 Pls
1537 2757 Pls
1562 2809 Pls
1587 2884 Pls
1612 2917 Pls
1637 2334 Pls
1661 2347 Pls
1686 2366 Pls
1711 2402 Pls
1736 2427 Pls
1761 2467 Pls
1786 2506 Pls
1811 2535 Pls
1836 2549 Pls
1861 2602 Pls
1886 2638 Pls
1911 2682 Pls
1936 2719 Pls
1961 2730 Pls
1985 2779 Pls
2010 2817 Pls
2035 2834 Pls
2060 2852 Pls
2085 2908 Pls
2110 2943 Pls
2135 2975 Pls
2160 3002 Pls
2185 3044 Pls
2210 3074 Pls
2235 3095 Pls
2260 3126 Pls
2285 3179 Pls
2310 3195 Pls
2334 3241 Pls
2359 3243 Pls
2384 3287 Pls
2409 3320 Pls
2434 2843 Pls
2459 2870 Pls
2484 2878 Pls
2509 2890 Pls
2534 2910 Pls
2559 2935 Pls
2584 2952 Pls
2609 2985 Pls
2634 2999 Pls
2658 3017 Pls
2683 3051 Pls
2708 3065 Pls
2733 3096 Pls
2758 3108 Pls
2783 3129 Pls
2808 3151 Pls
2833 3185 Pls
2858 3187 Pls
2883 3226 Pls
2908 3235 Pls
2933 3269 Pls
2958 3289 Pls
2982 3302 Pls
3007 3324 Pls
3032 3363 Pls
3057 3376 Pls
3082 3406 Pls
3107 3417 Pls
3132 3444 Pls
3157 3456 Pls
3182 3490 Pls
3207 3460 Pls
3232 3122 Pls
3257 3131 Pls
3282 3144 Pls
3307 3166 Pls
3331 3177 Pls
3356 3202 Pls
3381 3218 Pls
3406 3218 Pls
3431 3242 Pls
3456 3259 Pls
3481 3259 Pls
3506 3293 Pls
3531 3302 Pls
3556 3308 Pls
3581 3323 Pls
3606 3346 Pls
3631 3358 Pls
3655 3376 Pls
3680 3400 Pls
3705 3421 Pls
3730 3428 Pls
3755 3443 Pls
3780 3451 Pls
3805 3473 Pls
3830 3481 Pls
3855 3509 Pls
3880 3512 Pls
3905 3548 Pls
3930 3565 Pls
3955 3571 Pls
3979 3595 Pls
4004 3597 Pls
4029 3278 Pls
4054 3303 Pls
4079 3314 Pls
4104 3319 Pls
4129 3332 Pls
4154 3355 Pls
4179 3349 Pls
4204 3356 Pls
4229 3387 Pls
4254 3395 Pls
4279 3408 Pls
4304 3426 Pls
4328 3429 Pls
4353 3442 Pls
4378 3464 Pls
4403 3471 Pls
4428 3482 Pls
4453 3504 Pls
4478 3507 Pls
4503 3520 Pls
4528 3523 Pls
4553 3544 Pls
4578 3553 Pls
4603 3571 Pls
4628 3577 Pls
4652 3599 Pls
4677 3609 Pls
4702 3625 Pls
4727 3626 Pls
4752 3649 Pls
4777 3681 Pls
4802 3670 Pls
4827 3392 Pls
4852 3413 Pls
4877 3418 Pls
4902 3432 Pls
4927 3434 Pls
4952 3452 Pls
4976 3464 Pls
5001 3469 Pls
5026 3481 Pls
5051 3490 Pls
5076 3503 Pls
5101 3506 Pls
5126 3520 Pls
5151 3528 Pls
5176 3542 Pls
5201 3554 Pls
5226 3560 Pls
5251 3574 Pls
5276 3587 Pls
5301 3594 Pls
5325 3611 Pls
5350 3618 Pls
5375 3628 Pls
5400 3638 Pls
5425 3650 Pls
5450 3665 Pls
5475 3666 Pls
5500 3682 Pls
5525 3684 Pls
5550 3703 Pls
5575 3715 Pls
5600 3726 Pls
5625 3470 Pls
5649 3489 Pls
5674 3492 Pls
5699 3509 Pls
5724 3511 Pls
5749 3528 Pls
5774 3535 Pls
5799 3546 Pls
5824 3562 Pls
5849 3562 Pls
5874 3571 Pls
5899 3580 Pls
5924 3587 Pls
5949 3595 Pls
5973 3608 Pls
5998 3609 Pls
6023 3618 Pls
6048 3635 Pls
6073 3637 Pls
6098 3651 Pls
6123 3657 Pls
6148 3668 Pls
6173 3675 Pls
6198 3695 Pls
6223 3696 Pls
6248 3707 Pls
6273 3713 Pls
6298 3716 Pls
6322 3731 Pls
6347 3741 Pls
6372 3749 Pls
6397 3752 Pls
6422 3543 Pls
6447 3547 Pls
6472 3574 Pls
6497 3574 Pls
6522 3578 Pls
6547 3587 Pls
6572 3591 Pls
6597 3595 Pls
6622 3611 Pls
6646 3621 Pls
6671 3626 Pls
6696 3635 Pls
6721 3638 Pls
6746 3644 Pls
6771 3648 Pls
6796 3663 Pls
6821 3671 Pls
6846 3679 Pls
6871 3688 Pls
6896 3678 Pls
6921 3701 Pls
6946 3711 Pls
6970 3720 Pls
6995 3724 Pls
7020 3733 Pls
7045 3741 Pls
7070 3746 Pls
7095 3755 Pls
7120 3763 Pls
7145 3775 Pls
7170 3782 Pls
7195 3781 Pls
7220 3593 Pls
7245 3599 Pls
7270 3609 Pls
7295 3613 Pls
7319 3627 Pls
7344 3632 Pls
7369 3635 Pls
7394 3645 Pls
7419 3652 Pls
7444 3663 Pls
7469 3659 Pls
7494 3673 Pls
7519 3684 Pls
7544 3684 Pls
7569 3683 Pls
7594 3700 Pls
7619 3703 Pls
7643 3712 Pls
7668 3725 Pls
7693 3728 Pls
7718 3734 Pls
7743 3734 Pls
7768 3744 Pls
7793 3745 Pls
7818 3760 Pls
7843 3768 Pls
7868 3769 Pls
7893 3778 Pls
7918 3790 Pls
7943 3791 Pls
7967 3798 Pls
7992 3806 Pls
8017 3637 Pls
8042 3652 Pls
8067 3646 Pls
8092 3651 Pls
8117 3655 Pls
8142 3660 Pls
8167 3675 Pls
8192 3677 Pls
8217 3687 Pls
8242 3691 Pls
8267 3698 Pls
8292 3704 Pls
8316 3708 Pls
8341 3713 Pls
8366 3721 Pls
8391 3726 Pls
8416 3735 Pls
8441 3743 Pls
8466 3745 Pls
8491 3746 Pls
8516 3755 Pls
8541 3764 Pls
8566 3766 Pls
8591 3776 Pls
8616 3778 Pls
8640 3780 Pls
8665 3787 Pls
8690 3803 Pls
8715 3805 Pls
8740 3814 Pls
8765 3813 Pls
8790 3818 Pls
8815 3670 Pls
8840 3669 Pls
8865 3680 Pls
8890 3684 Pls
8915 3684 Pls
8940 3691 Pls
8964 3700 Pls
8989 3703 Pls
9014 3711 Pls
9039 3711 Pls
9064 3718 Pls
9089 3726 Pls
9114 3732 Pls
9139 3728 Pls
9164 3747 Pls
9189 3753 Pls
9214 3755 Pls
9239 3761 Pls
9264 3767 Pls
9289 3776 Pls
9313 3777 Pls
9338 3778 Pls
9363 3790 Pls
9388 3794 Pls
9413 3797 Pls
9438 3807 Pls
9463 3807 Pls
9488 3819 Pls
9513 3826 Pls
9538 3821 Pls
9563 3829 Pls
9588 3836 Pls
9613 3687 Pls
9637 3704 Pls
9662 3704 Pls
9687 3705 Pls
9712 3715 Pls
9737 3717 Pls
9762 3723 Pls
9787 3724 Pls
9812 3735 Pls
9837 3741 Pls
9862 3744 Pls
9887 3746 Pls
9912 3752 Pls
9937 3761 Pls
9961 3764 Pls
9986 3772 Pls
10011 3774 Pls
10036 3776 Pls
10061 3780 Pls
10086 3785 Pls
10111 3790 Pls
10136 3798 Pls
10161 3803 Pls
10186 3804 Pls
10211 3809 Pls
10236 3818 Pls
10261 3824 Pls
10286 3826 Pls
10310 3832 Pls
10335 3836 Pls
10360 3842 Pls
10385 3852 Pls
10410 3714 Pls
10435 3724 Pls
10460 3723 Pls
10485 3730 Pls
10510 3735 Pls
10535 3737 Pls
10560 3744 Pls
10585 3749 Pls
10610 3747 Pls
10634 3759 Pls
10659 3759 Pls
10684 3762 Pls
10709 3770 Pls
10734 3771 Pls
10759 3782 Pls
10784 3781 Pls
10809 3788 Pls
10834 3793 Pls
10859 3799 Pls
10884 3803 Pls
10909 3807 Pls
10934 3809 Pls
10958 3817 Pls
10983 3820 Pls
11008 3822 Pls
11033 3828 Pls
11058 3834 Pls
11083 3839 Pls
11108 3841 Pls
11133 3847 Pls
11158 3850 Pls
11183 3861 Pls
11208 3733 Pls
11233 3737 Pls
11258 3744 Pls
11283 3750 Pls
11307 3750 Pls
11332 3755 Pls
11357 3763 Pls
11382 3760 Pls
11407 3769 Pls
11432 3772 Pls
11457 3774 Pls
11482 3777 Pls
11507 3783 Pls
11532 3787 Pls
11557 3796 Pls
11582 3798 Pls
11607 3803 Pls
11631 3810 Pls
11656 3806 Pls
11681 3811 Pls
11706 3810 Pls
11731 3823 Pls
11756 3821 Pls
11781 3832 Pls
11806 3837 Pls
11831 3841 Pls
11856 3847 Pls
11881 3851 Pls
11906 3854 Pls
11931 3858 Pls
11955 3861 Pls
11980 3862 Pls
12005 3748 Pls
12030 3754 Pls
12055 3759 Pls
12080 3762 Pls
12105 3764 Pls
12130 3770 Pls
12155 3774 Pls
12180 3776 Pls
12205 3782 Pls
12230 3786 Pls
12255 3789 Pls
12280 3795 Pls
12304 3796 Pls
12329 3802 Pls
12354 3805 Pls
12379 3809 Pls
12404 3812 Pls
12429 3818 Pls
12454 3822 Pls
12479 3820 Pls
12504 3828 Pls
12529 3833 Pls
12554 3833 Pls
12579 3832 Pls
12604 3845 Pls
12628 3848 Pls
12653 3856 Pls
12678 3859 Pls
12703 3859 Pls
12728 3867 Pls
12753 3866 Pls
12778 3873 Pls
12803 3766 Pls
12828 3771 Pls
12853 3773 Pls
12878 3776 Pls
12903 3779 Pls
12928 3781 Pls
12952 3787 Pls
12977 3790 Pls
13002 3794 Pls
13027 3800 Pls
13052 3803 Pls
13077 3806 Pls
13102 3803 Pls
13127 3811 Pls
13152 3817 Pls
13177 3819 Pls
13202 3823 Pls
13227 3824 Pls
13252 3829 Pls
13277 3837 Pls
13301 3836 Pls
13326 3844 Pls
13351 3842 Pls
13376 3845 Pls
13401 3852 Pls
13426 3855 Pls
13451 3866 Pls
13476 3861 Pls
13501 3869 Pls
13526 3868 Pls
13551 3874 Pls
13576 3880 Pls
13215 1097 Pls
1.000 UP
1.000 UL
LT1
0.00 0.00 0.00 C LTb
LT1
0.00 0.00 0.00 C 914 1511 Crs
939 1656 Crs
964 1769 Crs
988 1888 Crs
1013 2020 Crs
1038 2149 Crs
1063 2214 Crs
1088 2318 Crs
1113 2378 Crs
1138 2437 Crs
1163 2510 Crs
1188 2556 Crs
1213 2679 Crs
1238 2681 Crs
1263 2712 Crs
1288 2758 Crs
1313 2763 Crs
1337 2821 Crs
1362 2844 Crs
1387 2889 Crs
1412 2923 Crs
1437 2971 Crs
1462 3007 Crs
1487 3040 Crs
1512 3074 Crs
1537 3127 Crs
1562 3160 Crs
1587 3204 Crs
1612 3315 Crs
1637 3294 Crs
1661 3285 Crs
1686 3279 Crs
1711 3277 Crs
1736 3268 Crs
1761 3261 Crs
1786 3270 Crs
1811 3272 Crs
1836 3277 Crs
1861 3281 Crs
1886 3302 Crs
1911 3309 Crs
1936 3308 Crs
1961 3312 Crs
1985 3305 Crs
2010 3324 Crs
2035 3344 Crs
2060 3343 Crs
2085 3354 Crs
2110 3366 Crs
2135 3371 Crs
2160 3386 Crs
2185 3387 Crs
2210 3399 Crs
2235 3411 Crs
2260 3431 Crs
2285 3435 Crs
2310 3446 Crs
2334 3457 Crs
2359 3481 Crs
2384 3488 Crs
2409 3507 Crs
2434 3497 Crs
2459 3488 Crs
2484 3483 Crs
2509 3482 Crs
2534 3476 Crs
2559 3479 Crs
2584 3484 Crs
2609 3472 Crs
2634 3477 Crs
2658 3481 Crs
2683 3487 Crs
2708 3477 Crs
2733 3487 Crs
2758 3488 Crs
2783 3495 Crs
2808 3493 Crs
2833 3490 Crs
2858 3499 Crs
2883 3502 Crs
2908 3502 Crs
2933 3515 Crs
2958 3523 Crs
2982 3520 Crs
3007 3526 Crs
3032 3536 Crs
3057 3539 Crs
3082 3545 Crs
3107 3547 Crs
3132 3554 Crs
3157 3569 Crs
3182 3569 Crs
3207 3568 Crs
3232 3568 Crs
3257 3569 Crs
3282 3571 Crs
3307 3566 Crs
3331 3564 Crs
3356 3562 Crs
3381 3559 Crs
3406 3570 Crs
3431 3565 Crs
3456 3570 Crs
3481 3567 Crs
3506 3572 Crs
3531 3569 Crs
3556 3568 Crs
3581 3564 Crs
3606 3569 Crs
3631 3577 Crs
3655 3567 Crs
3680 3579 Crs
3705 3580 Crs
3730 3579 Crs
3755 3587 Crs
3780 3588 Crs
3805 3587 Crs
3830 3600 Crs
3855 3598 Crs
3880 3593 Crs
3905 3603 Crs
3930 3604 Crs
3955 3608 Crs
3979 3612 Crs
4004 3616 Crs
4029 3616 Crs
4054 3613 Crs
4079 3611 Crs
4104 3613 Crs
4129 3616 Crs
4154 3615 Crs
4179 3619 Crs
4204 3612 Crs
4229 3614 Crs
4254 3611 Crs
4279 3614 Crs
4304 3609 Crs
4328 3616 Crs
4353 3613 Crs
4378 3612 Crs
4403 3621 Crs
4428 3615 Crs
4453 3614 Crs
4478 3618 Crs
4503 3619 Crs
4528 3624 Crs
4553 3626 Crs
4578 3625 Crs
4603 3624 Crs
4628 3628 Crs
4652 3632 Crs
4677 3633 Crs
4702 3636 Crs
4727 3638 Crs
4752 3636 Crs
4777 3643 Crs
4802 3646 Crs
4827 3643 Crs
4852 3647 Crs
4877 3644 Crs
4902 3645 Crs
4927 3641 Crs
4952 3646 Crs
4976 3638 Crs
5001 3646 Crs
5026 3649 Crs
5051 3645 Crs
5076 3648 Crs
5101 3643 Crs
5126 3647 Crs
5151 3651 Crs
5176 3648 Crs
5201 3645 Crs
5226 3650 Crs
5251 3648 Crs
5276 3655 Crs
5301 3649 Crs
5325 3652 Crs
5350 3656 Crs
5375 3654 Crs
5400 3657 Crs
5425 3652 Crs
5450 3660 Crs
5475 3658 Crs
5500 3665 Crs
5525 3663 Crs
5550 3664 Crs
5575 3666 Crs
5600 3666 Crs
5625 3670 Crs
5649 3666 Crs
5674 3667 Crs
5699 3671 Crs
5724 3667 Crs
5749 3667 Crs
5774 3672 Crs
5799 3664 Crs
5824 3670 Crs
5849 3668 Crs
5874 3671 Crs
5899 3668 Crs
5924 3673 Crs
5949 3669 Crs
5973 3672 Crs
5998 3670 Crs
6023 3677 Crs
6048 3675 Crs
6073 3673 Crs
6098 3673 Crs
6123 3669 Crs
6148 3673 Crs
6173 3677 Crs
6198 3677 Crs
6223 3679 Crs
6248 3681 Crs
6273 3675 Crs
6298 3678 Crs
6322 3680 Crs
6347 3686 Crs
6372 3686 Crs
6397 3686 Crs
6422 3684 Crs
6447 3681 Crs
6472 3688 Crs
6497 3688 Crs
6522 3683 Crs
6547 3685 Crs
6572 3690 Crs
6597 3686 Crs
6622 3686 Crs
6646 3689 Crs
6671 3689 Crs
6696 3686 Crs
6721 3683 Crs
6746 3686 Crs
6771 3687 Crs
6796 3689 Crs
6821 3685 Crs
6846 3687 Crs
6871 3691 Crs
6896 3691 Crs
6921 3695 Crs
6946 3697 Crs
6970 3694 Crs
6995 3696 Crs
7020 3693 Crs
7045 3697 Crs
7070 3702 Crs
7095 3695 Crs
7120 3699 Crs
7145 3700 Crs
7170 3702 Crs
7195 3704 Crs
7220 3697 Crs
7245 3703 Crs
7270 3705 Crs
7295 3702 Crs
7319 3701 Crs
7344 3712 Crs
7369 3705 Crs
7394 3698 Crs
7419 3704 Crs
7444 3702 Crs
7469 3707 Crs
7494 3696 Crs
7519 3704 Crs
7544 3708 Crs
7569 3707 Crs
7594 3707 Crs
7619 3705 Crs
7643 3705 Crs
7668 3710 Crs
7693 3710 Crs
7718 3701 Crs
7743 3707 Crs
7768 3710 Crs
7793 3713 Crs
7818 3713 Crs
7843 3710 Crs
7868 3710 Crs
7893 3713 Crs
7918 3720 Crs
7943 3712 Crs
7967 3710 Crs
7992 3708 Crs
8017 3719 Crs
8042 3715 Crs
8067 3714 Crs
8092 3711 Crs
8117 3716 Crs
8142 3710 Crs
8167 3717 Crs
8192 3717 Crs
8217 3719 Crs
8242 3719 Crs
8267 3719 Crs
8292 3725 Crs
8316 3718 Crs
8341 3719 Crs
8366 3712 Crs
8391 3717 Crs
8416 3720 Crs
8441 3716 Crs
8466 3722 Crs
8491 3720 Crs
8516 3718 Crs
8541 3714 Crs
8566 3722 Crs
8591 3723 Crs
8616 3727 Crs
8640 3724 Crs
8665 3718 Crs
8690 3726 Crs
8715 3726 Crs
8740 3727 Crs
8765 3724 Crs
8790 3723 Crs
8815 3731 Crs
8840 3729 Crs
8865 3727 Crs
8890 3729 Crs
8915 3716 Crs
8940 3723 Crs
8964 3726 Crs
8989 3722 Crs
9014 3726 Crs
9039 3720 Crs
9064 3726 Crs
9089 3732 Crs
9114 3733 Crs
9139 3725 Crs
9164 3731 Crs
9189 3731 Crs
9214 3729 Crs
9239 3730 Crs
9264 3729 Crs
9289 3730 Crs
9313 3729 Crs
9338 3734 Crs
9363 3732 Crs
9388 3733 Crs
9413 3732 Crs
9438 3731 Crs
9463 3737 Crs
9488 3734 Crs
9513 3742 Crs
9538 3728 Crs
9563 3733 Crs
9588 3736 Crs
9613 3733 Crs
9637 3734 Crs
9662 3734 Crs
9687 3739 Crs
9712 3740 Crs
9737 3734 Crs
9762 3738 Crs
9787 3736 Crs
9812 3736 Crs
9837 3736 Crs
9862 3736 Crs
9887 3738 Crs
9912 3735 Crs
9937 3736 Crs
9961 3738 Crs
9986 3741 Crs
10011 3741 Crs
10036 3739 Crs
10061 3746 Crs
10086 3750 Crs
10111 3743 Crs
10136 3741 Crs
10161 3740 Crs
10186 3739 Crs
10211 3737 Crs
10236 3749 Crs
10261 3748 Crs
10286 3742 Crs
10310 3742 Crs
10335 3743 Crs
10360 3748 Crs
10385 3745 Crs
10410 3748 Crs
10435 3745 Crs
10460 3742 Crs
10485 3748 Crs
10510 3750 Crs
10535 3745 Crs
10560 3751 Crs
10585 3749 Crs
10610 3751 Crs
10634 3750 Crs
10659 3755 Crs
10684 3752 Crs
10709 3748 Crs
10734 3751 Crs
10759 3747 Crs
10784 3745 Crs
10809 3750 Crs
10834 3748 Crs
10859 3741 Crs
10884 3747 Crs
10909 3746 Crs
10934 3748 Crs
10958 3747 Crs
10983 3750 Crs
11008 3744 Crs
11033 3749 Crs
11058 3749 Crs
11083 3752 Crs
11108 3748 Crs
11133 3751 Crs
11158 3753 Crs
11183 3750 Crs
11208 3748 Crs
11233 3753 Crs
11258 3757 Crs
11283 3751 Crs
11307 3756 Crs
11332 3754 Crs
11357 3751 Crs
11382 3751 Crs
11407 3746 Crs
11432 3753 Crs
11457 3750 Crs
11482 3748 Crs
11507 3756 Crs
11532 3752 Crs
11557 3752 Crs
11582 3755 Crs
11607 3752 Crs
11631 3761 Crs
11656 3753 Crs
11681 3756 Crs
11706 3757 Crs
11731 3747 Crs
11756 3759 Crs
11781 3748 Crs
11806 3759 Crs
11831 3758 Crs
11856 3753 Crs
11881 3762 Crs
11906 3761 Crs
11931 3755 Crs
11955 3755 Crs
11980 3756 Crs
12005 3763 Crs
12030 3763 Crs
12055 3762 Crs
12080 3762 Crs
12105 3759 Crs
12130 3763 Crs
12155 3757 Crs
12180 3764 Crs
12205 3758 Crs
12230 3756 Crs
12255 3757 Crs
12280 3757 Crs
12304 3750 Crs
12329 3761 Crs
12354 3762 Crs
12379 3766 Crs
12404 3761 Crs
12429 3763 Crs
12454 3764 Crs
12479 3763 Crs
12504 3765 Crs
12529 3760 Crs
12554 3757 Crs
12579 3768 Crs
12604 3762 Crs
12628 3766 Crs
12653 3766 Crs
12678 3757 Crs
12703 3762 Crs
12728 3767 Crs
12753 3764 Crs
12778 3768 Crs
12803 3761 Crs
12828 3764 Crs
12853 3763 Crs
12878 3770 Crs
12903 3767 Crs
12928 3764 Crs
12952 3766 Crs
12977 3766 Crs
13002 3761 Crs
13027 3770 Crs
13052 3771 Crs
13077 3765 Crs
13102 3770 Crs
13127 3769 Crs
13152 3765 Crs
13177 3758 Crs
13202 3773 Crs
13227 3767 Crs
13252 3763 Crs
13277 3766 Crs
13301 3765 Crs
13326 3769 Crs
13351 3768 Crs
13376 3771 Crs
13401 3769 Crs
13426 3772 Crs
13451 3769 Crs
13476 3776 Crs
13501 3774 Crs
13526 3765 Crs
13551 3771 Crs
13576 3768 Crs
13215 877 Crs
1.000 UL
LT1
0.50 0.50 0.50 C 814 3963 M
131 0 V
131 0 V
131 0 V
131 0 V
131 0 V
131 0 V
130 0 V
131 0 V
131 0 V
131 0 V
131 0 V
131 0 V
131 0 V
131 0 V
131 0 V
131 0 V
131 0 V
131 0 V
130 0 V
131 0 V
131 0 V
131 0 V
131 0 V
131 0 V
131 0 V
131 0 V
131 0 V
131 0 V
131 0 V
131 0 V
130 0 V
131 0 V
131 0 V
131 0 V
131 0 V
131 0 V
131 0 V
131 0 V
131 0 V
131 0 V
131 0 V
131 0 V
131 0 V
130 0 V
131 0 V
131 0 V
131 0 V
131 0 V
131 0 V
131 0 V
131 0 V
131 0 V
131 0 V
131 0 V
131 0 V
130 0 V
131 0 V
131 0 V
131 0 V
131 0 V
131 0 V
131 0 V
131 0 V
131 0 V
131 0 V
131 0 V
131 0 V
131 0 V
130 0 V
131 0 V
131 0 V
131 0 V
131 0 V
131 0 V
131 0 V
131 0 V
131 0 V
131 0 V
131 0 V
131 0 V
130 0 V
131 0 V
131 0 V
131 0 V
131 0 V
131 0 V
131 0 V
131 0 V
131 0 V
131 0 V
131 0 V
131 0 V
130 0 V
131 0 V
131 0 V
131 0 V
131 0 V
131 0 V
131 0 V
stroke
LTb
814 4269 N
814 704 L
12961 0 V
0 3565 V
814 4269 L
Z stroke
1.000 UP
1.000 UL
LTb
stroke
grestore
end
showpage
%%Trailer
