%!PS-Adobe-2.0 EPSF-2.0
%%Title: /home/yummiii/Masterarbeit/Thesis/document/bilder/speedupNormalWorkers_q.tex
%%Creator: gnuplot 4.6 patchlevel 5
%%CreationDate: Tue Jan  5 11:02:34 2016
%%DocumentFonts: 
%%BoundingBox: 50 50 404 361
%%EndComments
%%BeginProlog
/gnudict 256 dict def
gnudict begin
%
% The following true/false flags may be edited by hand if desired.
% The unit line width and grayscale image gamma correction may also be changed.
%
/Color true def
/Blacktext true def
/Solid false def
/Dashlength 1 def
/Landscape false def
/Level1 false def
/Rounded false def
/ClipToBoundingBox false def
/SuppressPDFMark false def
/TransparentPatterns false def
/gnulinewidth 5.000 def
/userlinewidth gnulinewidth def
/Gamma 1.0 def
/BackgroundColor {-1.000 -1.000 -1.000} def
%
/vshift -73 def
/dl1 {
  10.0 Dashlength mul mul
  Rounded { currentlinewidth 0.75 mul sub dup 0 le { pop 0.01 } if } if
} def
/dl2 {
  10.0 Dashlength mul mul
  Rounded { currentlinewidth 0.75 mul add } if
} def
/hpt_ 31.5 def
/vpt_ 31.5 def
/hpt hpt_ def
/vpt vpt_ def
/doclip {
  ClipToBoundingBox {
    newpath 50 50 moveto 404 50 lineto 404 361 lineto 50 361 lineto closepath
    clip
  } if
} def
%
% Gnuplot Prolog Version 4.6 (September 2012)
%
%/SuppressPDFMark true def
%
/M {moveto} bind def
/L {lineto} bind def
/R {rmoveto} bind def
/V {rlineto} bind def
/N {newpath moveto} bind def
/Z {closepath} bind def
/C {setrgbcolor} bind def
/f {rlineto fill} bind def
/g {setgray} bind def
/Gshow {show} def   % May be redefined later in the file to support UTF-8
/vpt2 vpt 2 mul def
/hpt2 hpt 2 mul def
/Lshow {currentpoint stroke M 0 vshift R 
	Blacktext {gsave 0 setgray show grestore} {show} ifelse} def
/Rshow {currentpoint stroke M dup stringwidth pop neg vshift R
	Blacktext {gsave 0 setgray show grestore} {show} ifelse} def
/Cshow {currentpoint stroke M dup stringwidth pop -2 div vshift R 
	Blacktext {gsave 0 setgray show grestore} {show} ifelse} def
/UP {dup vpt_ mul /vpt exch def hpt_ mul /hpt exch def
  /hpt2 hpt 2 mul def /vpt2 vpt 2 mul def} def
/DL {Color {setrgbcolor Solid {pop []} if 0 setdash}
 {pop pop pop 0 setgray Solid {pop []} if 0 setdash} ifelse} def
/BL {stroke userlinewidth 2 mul setlinewidth
	Rounded {1 setlinejoin 1 setlinecap} if} def
/AL {stroke userlinewidth 2 div setlinewidth
	Rounded {1 setlinejoin 1 setlinecap} if} def
/UL {dup gnulinewidth mul /userlinewidth exch def
	dup 1 lt {pop 1} if 10 mul /udl exch def} def
/PL {stroke userlinewidth setlinewidth
	Rounded {1 setlinejoin 1 setlinecap} if} def
3.8 setmiterlimit
% Default Line colors
/LCw {1 1 1} def
/LCb {0 0 0} def
/LCa {0 0 0} def
/LC0 {1 0 0} def
/LC1 {0 1 0} def
/LC2 {0 0 1} def
/LC3 {1 0 1} def
/LC4 {0 1 1} def
/LC5 {1 1 0} def
/LC6 {0 0 0} def
/LC7 {1 0.3 0} def
/LC8 {0.5 0.5 0.5} def
% Default Line Types
/LTw {PL [] 1 setgray} def
/LTb {BL [] LCb DL} def
/LTa {AL [1 udl mul 2 udl mul] 0 setdash LCa setrgbcolor} def
/LT0 {PL [] LC0 DL} def
/LT1 {PL [4 dl1 2 dl2] LC1 DL} def
/LT2 {PL [2 dl1 3 dl2] LC2 DL} def
/LT3 {PL [1 dl1 1.5 dl2] LC3 DL} def
/LT4 {PL [6 dl1 2 dl2 1 dl1 2 dl2] LC4 DL} def
/LT5 {PL [3 dl1 3 dl2 1 dl1 3 dl2] LC5 DL} def
/LT6 {PL [2 dl1 2 dl2 2 dl1 6 dl2] LC6 DL} def
/LT7 {PL [1 dl1 2 dl2 6 dl1 2 dl2 1 dl1 2 dl2] LC7 DL} def
/LT8 {PL [2 dl1 2 dl2 2 dl1 2 dl2 2 dl1 2 dl2 2 dl1 4 dl2] LC8 DL} def
/Pnt {stroke [] 0 setdash gsave 1 setlinecap M 0 0 V stroke grestore} def
/Dia {stroke [] 0 setdash 2 copy vpt add M
  hpt neg vpt neg V hpt vpt neg V
  hpt vpt V hpt neg vpt V closepath stroke
  Pnt} def
/Pls {stroke [] 0 setdash vpt sub M 0 vpt2 V
  currentpoint stroke M
  hpt neg vpt neg R hpt2 0 V stroke
 } def
/Box {stroke [] 0 setdash 2 copy exch hpt sub exch vpt add M
  0 vpt2 neg V hpt2 0 V 0 vpt2 V
  hpt2 neg 0 V closepath stroke
  Pnt} def
/Crs {stroke [] 0 setdash exch hpt sub exch vpt add M
  hpt2 vpt2 neg V currentpoint stroke M
  hpt2 neg 0 R hpt2 vpt2 V stroke} def
/TriU {stroke [] 0 setdash 2 copy vpt 1.12 mul add M
  hpt neg vpt -1.62 mul V
  hpt 2 mul 0 V
  hpt neg vpt 1.62 mul V closepath stroke
  Pnt} def
/Star {2 copy Pls Crs} def
/BoxF {stroke [] 0 setdash exch hpt sub exch vpt add M
  0 vpt2 neg V hpt2 0 V 0 vpt2 V
  hpt2 neg 0 V closepath fill} def
/TriUF {stroke [] 0 setdash vpt 1.12 mul add M
  hpt neg vpt -1.62 mul V
  hpt 2 mul 0 V
  hpt neg vpt 1.62 mul V closepath fill} def
/TriD {stroke [] 0 setdash 2 copy vpt 1.12 mul sub M
  hpt neg vpt 1.62 mul V
  hpt 2 mul 0 V
  hpt neg vpt -1.62 mul V closepath stroke
  Pnt} def
/TriDF {stroke [] 0 setdash vpt 1.12 mul sub M
  hpt neg vpt 1.62 mul V
  hpt 2 mul 0 V
  hpt neg vpt -1.62 mul V closepath fill} def
/DiaF {stroke [] 0 setdash vpt add M
  hpt neg vpt neg V hpt vpt neg V
  hpt vpt V hpt neg vpt V closepath fill} def
/Pent {stroke [] 0 setdash 2 copy gsave
  translate 0 hpt M 4 {72 rotate 0 hpt L} repeat
  closepath stroke grestore Pnt} def
/PentF {stroke [] 0 setdash gsave
  translate 0 hpt M 4 {72 rotate 0 hpt L} repeat
  closepath fill grestore} def
/Circle {stroke [] 0 setdash 2 copy
  hpt 0 360 arc stroke Pnt} def
/CircleF {stroke [] 0 setdash hpt 0 360 arc fill} def
/C0 {BL [] 0 setdash 2 copy moveto vpt 90 450 arc} bind def
/C1 {BL [] 0 setdash 2 copy moveto
	2 copy vpt 0 90 arc closepath fill
	vpt 0 360 arc closepath} bind def
/C2 {BL [] 0 setdash 2 copy moveto
	2 copy vpt 90 180 arc closepath fill
	vpt 0 360 arc closepath} bind def
/C3 {BL [] 0 setdash 2 copy moveto
	2 copy vpt 0 180 arc closepath fill
	vpt 0 360 arc closepath} bind def
/C4 {BL [] 0 setdash 2 copy moveto
	2 copy vpt 180 270 arc closepath fill
	vpt 0 360 arc closepath} bind def
/C5 {BL [] 0 setdash 2 copy moveto
	2 copy vpt 0 90 arc
	2 copy moveto
	2 copy vpt 180 270 arc closepath fill
	vpt 0 360 arc} bind def
/C6 {BL [] 0 setdash 2 copy moveto
	2 copy vpt 90 270 arc closepath fill
	vpt 0 360 arc closepath} bind def
/C7 {BL [] 0 setdash 2 copy moveto
	2 copy vpt 0 270 arc closepath fill
	vpt 0 360 arc closepath} bind def
/C8 {BL [] 0 setdash 2 copy moveto
	2 copy vpt 270 360 arc closepath fill
	vpt 0 360 arc closepath} bind def
/C9 {BL [] 0 setdash 2 copy moveto
	2 copy vpt 270 450 arc closepath fill
	vpt 0 360 arc closepath} bind def
/C10 {BL [] 0 setdash 2 copy 2 copy moveto vpt 270 360 arc closepath fill
	2 copy moveto
	2 copy vpt 90 180 arc closepath fill
	vpt 0 360 arc closepath} bind def
/C11 {BL [] 0 setdash 2 copy moveto
	2 copy vpt 0 180 arc closepath fill
	2 copy moveto
	2 copy vpt 270 360 arc closepath fill
	vpt 0 360 arc closepath} bind def
/C12 {BL [] 0 setdash 2 copy moveto
	2 copy vpt 180 360 arc closepath fill
	vpt 0 360 arc closepath} bind def
/C13 {BL [] 0 setdash 2 copy moveto
	2 copy vpt 0 90 arc closepath fill
	2 copy moveto
	2 copy vpt 180 360 arc closepath fill
	vpt 0 360 arc closepath} bind def
/C14 {BL [] 0 setdash 2 copy moveto
	2 copy vpt 90 360 arc closepath fill
	vpt 0 360 arc} bind def
/C15 {BL [] 0 setdash 2 copy vpt 0 360 arc closepath fill
	vpt 0 360 arc closepath} bind def
/Rec {newpath 4 2 roll moveto 1 index 0 rlineto 0 exch rlineto
	neg 0 rlineto closepath} bind def
/Square {dup Rec} bind def
/Bsquare {vpt sub exch vpt sub exch vpt2 Square} bind def
/S0 {BL [] 0 setdash 2 copy moveto 0 vpt rlineto BL Bsquare} bind def
/S1 {BL [] 0 setdash 2 copy vpt Square fill Bsquare} bind def
/S2 {BL [] 0 setdash 2 copy exch vpt sub exch vpt Square fill Bsquare} bind def
/S3 {BL [] 0 setdash 2 copy exch vpt sub exch vpt2 vpt Rec fill Bsquare} bind def
/S4 {BL [] 0 setdash 2 copy exch vpt sub exch vpt sub vpt Square fill Bsquare} bind def
/S5 {BL [] 0 setdash 2 copy 2 copy vpt Square fill
	exch vpt sub exch vpt sub vpt Square fill Bsquare} bind def
/S6 {BL [] 0 setdash 2 copy exch vpt sub exch vpt sub vpt vpt2 Rec fill Bsquare} bind def
/S7 {BL [] 0 setdash 2 copy exch vpt sub exch vpt sub vpt vpt2 Rec fill
	2 copy vpt Square fill Bsquare} bind def
/S8 {BL [] 0 setdash 2 copy vpt sub vpt Square fill Bsquare} bind def
/S9 {BL [] 0 setdash 2 copy vpt sub vpt vpt2 Rec fill Bsquare} bind def
/S10 {BL [] 0 setdash 2 copy vpt sub vpt Square fill 2 copy exch vpt sub exch vpt Square fill
	Bsquare} bind def
/S11 {BL [] 0 setdash 2 copy vpt sub vpt Square fill 2 copy exch vpt sub exch vpt2 vpt Rec fill
	Bsquare} bind def
/S12 {BL [] 0 setdash 2 copy exch vpt sub exch vpt sub vpt2 vpt Rec fill Bsquare} bind def
/S13 {BL [] 0 setdash 2 copy exch vpt sub exch vpt sub vpt2 vpt Rec fill
	2 copy vpt Square fill Bsquare} bind def
/S14 {BL [] 0 setdash 2 copy exch vpt sub exch vpt sub vpt2 vpt Rec fill
	2 copy exch vpt sub exch vpt Square fill Bsquare} bind def
/S15 {BL [] 0 setdash 2 copy Bsquare fill Bsquare} bind def
/D0 {gsave translate 45 rotate 0 0 S0 stroke grestore} bind def
/D1 {gsave translate 45 rotate 0 0 S1 stroke grestore} bind def
/D2 {gsave translate 45 rotate 0 0 S2 stroke grestore} bind def
/D3 {gsave translate 45 rotate 0 0 S3 stroke grestore} bind def
/D4 {gsave translate 45 rotate 0 0 S4 stroke grestore} bind def
/D5 {gsave translate 45 rotate 0 0 S5 stroke grestore} bind def
/D6 {gsave translate 45 rotate 0 0 S6 stroke grestore} bind def
/D7 {gsave translate 45 rotate 0 0 S7 stroke grestore} bind def
/D8 {gsave translate 45 rotate 0 0 S8 stroke grestore} bind def
/D9 {gsave translate 45 rotate 0 0 S9 stroke grestore} bind def
/D10 {gsave translate 45 rotate 0 0 S10 stroke grestore} bind def
/D11 {gsave translate 45 rotate 0 0 S11 stroke grestore} bind def
/D12 {gsave translate 45 rotate 0 0 S12 stroke grestore} bind def
/D13 {gsave translate 45 rotate 0 0 S13 stroke grestore} bind def
/D14 {gsave translate 45 rotate 0 0 S14 stroke grestore} bind def
/D15 {gsave translate 45 rotate 0 0 S15 stroke grestore} bind def
/DiaE {stroke [] 0 setdash vpt add M
  hpt neg vpt neg V hpt vpt neg V
  hpt vpt V hpt neg vpt V closepath stroke} def
/BoxE {stroke [] 0 setdash exch hpt sub exch vpt add M
  0 vpt2 neg V hpt2 0 V 0 vpt2 V
  hpt2 neg 0 V closepath stroke} def
/TriUE {stroke [] 0 setdash vpt 1.12 mul add M
  hpt neg vpt -1.62 mul V
  hpt 2 mul 0 V
  hpt neg vpt 1.62 mul V closepath stroke} def
/TriDE {stroke [] 0 setdash vpt 1.12 mul sub M
  hpt neg vpt 1.62 mul V
  hpt 2 mul 0 V
  hpt neg vpt -1.62 mul V closepath stroke} def
/PentE {stroke [] 0 setdash gsave
  translate 0 hpt M 4 {72 rotate 0 hpt L} repeat
  closepath stroke grestore} def
/CircE {stroke [] 0 setdash 
  hpt 0 360 arc stroke} def
/Opaque {gsave closepath 1 setgray fill grestore 0 setgray closepath} def
/DiaW {stroke [] 0 setdash vpt add M
  hpt neg vpt neg V hpt vpt neg V
  hpt vpt V hpt neg vpt V Opaque stroke} def
/BoxW {stroke [] 0 setdash exch hpt sub exch vpt add M
  0 vpt2 neg V hpt2 0 V 0 vpt2 V
  hpt2 neg 0 V Opaque stroke} def
/TriUW {stroke [] 0 setdash vpt 1.12 mul add M
  hpt neg vpt -1.62 mul V
  hpt 2 mul 0 V
  hpt neg vpt 1.62 mul V Opaque stroke} def
/TriDW {stroke [] 0 setdash vpt 1.12 mul sub M
  hpt neg vpt 1.62 mul V
  hpt 2 mul 0 V
  hpt neg vpt -1.62 mul V Opaque stroke} def
/PentW {stroke [] 0 setdash gsave
  translate 0 hpt M 4 {72 rotate 0 hpt L} repeat
  Opaque stroke grestore} def
/CircW {stroke [] 0 setdash 
  hpt 0 360 arc Opaque stroke} def
/BoxFill {gsave Rec 1 setgray fill grestore} def
/Density {
  /Fillden exch def
  currentrgbcolor
  /ColB exch def /ColG exch def /ColR exch def
  /ColR ColR Fillden mul Fillden sub 1 add def
  /ColG ColG Fillden mul Fillden sub 1 add def
  /ColB ColB Fillden mul Fillden sub 1 add def
  ColR ColG ColB setrgbcolor} def
/BoxColFill {gsave Rec PolyFill} def
/PolyFill {gsave Density fill grestore grestore} def
/h {rlineto rlineto rlineto gsave closepath fill grestore} bind def
%
% PostScript Level 1 Pattern Fill routine for rectangles
% Usage: x y w h s a XX PatternFill
%	x,y = lower left corner of box to be filled
%	w,h = width and height of box
%	  a = angle in degrees between lines and x-axis
%	 XX = 0/1 for no/yes cross-hatch
%
/PatternFill {gsave /PFa [ 9 2 roll ] def
  PFa 0 get PFa 2 get 2 div add PFa 1 get PFa 3 get 2 div add translate
  PFa 2 get -2 div PFa 3 get -2 div PFa 2 get PFa 3 get Rec
  TransparentPatterns {} {gsave 1 setgray fill grestore} ifelse
  clip
  currentlinewidth 0.5 mul setlinewidth
  /PFs PFa 2 get dup mul PFa 3 get dup mul add sqrt def
  0 0 M PFa 5 get rotate PFs -2 div dup translate
  0 1 PFs PFa 4 get div 1 add floor cvi
	{PFa 4 get mul 0 M 0 PFs V} for
  0 PFa 6 get ne {
	0 1 PFs PFa 4 get div 1 add floor cvi
	{PFa 4 get mul 0 2 1 roll M PFs 0 V} for
 } if
  stroke grestore} def
%
/languagelevel where
 {pop languagelevel} {1} ifelse
 2 lt
	{/InterpretLevel1 true def}
	{/InterpretLevel1 Level1 def}
 ifelse
%
% PostScript level 2 pattern fill definitions
%
/Level2PatternFill {
/Tile8x8 {/PaintType 2 /PatternType 1 /TilingType 1 /BBox [0 0 8 8] /XStep 8 /YStep 8}
	bind def
/KeepColor {currentrgbcolor [/Pattern /DeviceRGB] setcolorspace} bind def
<< Tile8x8
 /PaintProc {0.5 setlinewidth pop 0 0 M 8 8 L 0 8 M 8 0 L stroke} 
>> matrix makepattern
/Pat1 exch def
<< Tile8x8
 /PaintProc {0.5 setlinewidth pop 0 0 M 8 8 L 0 8 M 8 0 L stroke
	0 4 M 4 8 L 8 4 L 4 0 L 0 4 L stroke}
>> matrix makepattern
/Pat2 exch def
<< Tile8x8
 /PaintProc {0.5 setlinewidth pop 0 0 M 0 8 L
	8 8 L 8 0 L 0 0 L fill}
>> matrix makepattern
/Pat3 exch def
<< Tile8x8
 /PaintProc {0.5 setlinewidth pop -4 8 M 8 -4 L
	0 12 M 12 0 L stroke}
>> matrix makepattern
/Pat4 exch def
<< Tile8x8
 /PaintProc {0.5 setlinewidth pop -4 0 M 8 12 L
	0 -4 M 12 8 L stroke}
>> matrix makepattern
/Pat5 exch def
<< Tile8x8
 /PaintProc {0.5 setlinewidth pop -2 8 M 4 -4 L
	0 12 M 8 -4 L 4 12 M 10 0 L stroke}
>> matrix makepattern
/Pat6 exch def
<< Tile8x8
 /PaintProc {0.5 setlinewidth pop -2 0 M 4 12 L
	0 -4 M 8 12 L 4 -4 M 10 8 L stroke}
>> matrix makepattern
/Pat7 exch def
<< Tile8x8
 /PaintProc {0.5 setlinewidth pop 8 -2 M -4 4 L
	12 0 M -4 8 L 12 4 M 0 10 L stroke}
>> matrix makepattern
/Pat8 exch def
<< Tile8x8
 /PaintProc {0.5 setlinewidth pop 0 -2 M 12 4 L
	-4 0 M 12 8 L -4 4 M 8 10 L stroke}
>> matrix makepattern
/Pat9 exch def
/Pattern1 {PatternBgnd KeepColor Pat1 setpattern} bind def
/Pattern2 {PatternBgnd KeepColor Pat2 setpattern} bind def
/Pattern3 {PatternBgnd KeepColor Pat3 setpattern} bind def
/Pattern4 {PatternBgnd KeepColor Landscape {Pat5} {Pat4} ifelse setpattern} bind def
/Pattern5 {PatternBgnd KeepColor Landscape {Pat4} {Pat5} ifelse setpattern} bind def
/Pattern6 {PatternBgnd KeepColor Landscape {Pat9} {Pat6} ifelse setpattern} bind def
/Pattern7 {PatternBgnd KeepColor Landscape {Pat8} {Pat7} ifelse setpattern} bind def
} def
%
%
%End of PostScript Level 2 code
%
/PatternBgnd {
  TransparentPatterns {} {gsave 1 setgray fill grestore} ifelse
} def
%
% Substitute for Level 2 pattern fill codes with
% grayscale if Level 2 support is not selected.
%
/Level1PatternFill {
/Pattern1 {0.250 Density} bind def
/Pattern2 {0.500 Density} bind def
/Pattern3 {0.750 Density} bind def
/Pattern4 {0.125 Density} bind def
/Pattern5 {0.375 Density} bind def
/Pattern6 {0.625 Density} bind def
/Pattern7 {0.875 Density} bind def
} def
%
% Now test for support of Level 2 code
%
Level1 {Level1PatternFill} {Level2PatternFill} ifelse
%
/Symbol-Oblique /Symbol findfont [1 0 .167 1 0 0] makefont
dup length dict begin {1 index /FID eq {pop pop} {def} ifelse} forall
currentdict end definefont pop
Level1 SuppressPDFMark or 
{} {
/SDict 10 dict def
systemdict /pdfmark known not {
  userdict /pdfmark systemdict /cleartomark get put
} if
SDict begin [
  /Title (/home/yummiii/Masterarbeit/Thesis/document/bilder/speedupNormalWorkers_q.tex)
  /Subject (gnuplot plot)
  /Creator (gnuplot 4.6 patchlevel 5)
  /Author (yummiii)
%  /Producer (gnuplot)
%  /Keywords ()
  /CreationDate (Tue Jan  5 11:02:34 2016)
  /DOCINFO pdfmark
end
} ifelse
end
%%EndProlog
%%Page: 1 1
gnudict begin
gsave
doclip
50 50 translate
0.050 0.050 scale
0 setgray
newpath
1.000 UL
LTb
LCb setrgbcolor
814 704 M
63 0 V
5812 0 R
-63 0 V
stroke
LTb
814 1502 M
63 0 V
5812 0 R
-63 0 V
814 2300 M
63 0 V
5812 0 R
-63 0 V
814 3098 M
63 0 V
5812 0 R
-63 0 V
814 3896 M
63 0 V
5812 0 R
-63 0 V
814 4694 M
63 0 V
5812 0 R
-63 0 V
814 5492 M
63 0 V
5812 0 R
-63 0 V
1572 704 M
0 63 V
0 5204 R
0 -63 V
2520 704 M
0 63 V
0 5204 R
0 -63 V
3467 704 M
0 63 V
0 5204 R
0 -63 V
4415 704 M
0 63 V
0 5204 R
0 -63 V
5362 704 M
0 63 V
0 5204 R
0 -63 V
6310 704 M
0 63 V
0 5204 R
0 -63 V
stroke
814 5971 N
814 704 L
5875 0 V
0 5267 V
-5875 0 V
Z stroke
1.000 UP
1.000 UL
LTb
1.000 UP
1.000 UL
LT0
LC0 setrgbcolor
0.00 0.00 0.00 C 814 1019 Box
814 1018 Box
814 1019 Box
814 1019 Box
814 1019 Box
814 1019 Box
814 1019 Box
814 1018 Box
814 1019 Box
814 1019 Box
814 1019 Box
814 1019 Box
814 1019 Box
814 1018 Box
814 1019 Box
814 1019 Box
814 1019 Box
814 1019 Box
814 1019 Box
814 1019 Box
814 1019 Box
814 1019 Box
814 1019 Box
814 1018 Box
814 1018 Box
814 1018 Box
814 1019 Box
814 1019 Box
814 1018 Box
814 1019 Box
909 1160 Box
909 1160 Box
909 1160 Box
909 1160 Box
909 1160 Box
909 1160 Box
909 1160 Box
909 1160 Box
909 1161 Box
909 1160 Box
909 1160 Box
909 1160 Box
909 1161 Box
909 1160 Box
909 1160 Box
909 1160 Box
909 1161 Box
909 1161 Box
909 1160 Box
909 1160 Box
909 1160 Box
909 1160 Box
909 1160 Box
909 1160 Box
909 1160 Box
909 1160 Box
909 1160 Box
909 1160 Box
909 1160 Box
909 1160 Box
1004 1317 Box
1004 1315 Box
1004 1315 Box
1004 1316 Box
1004 1316 Box
1004 1316 Box
1004 1314 Box
1004 1316 Box
1004 1314 Box
1004 1316 Box
1004 1317 Box
1004 1314 Box
1004 1316 Box
1004 1315 Box
1004 1316 Box
1004 1314 Box
1004 1316 Box
1004 1316 Box
1004 1315 Box
1004 1316 Box
1004 1316 Box
1004 1316 Box
1004 1315 Box
1004 1315 Box
1004 1316 Box
1004 1315 Box
1004 1316 Box
1004 1316 Box
1004 1315 Box
1004 1317 Box
1098 1418 Box
1098 1417 Box
1098 1416 Box
1098 1417 Box
1098 1416 Box
1098 1417 Box
1098 1416 Box
1098 1416 Box
1098 1416 Box
1098 1417 Box
1098 1417 Box
1098 1417 Box
1098 1417 Box
1098 1417 Box
1098 1417 Box
1098 1417 Box
1098 1416 Box
1098 1417 Box
1098 1417 Box
1098 1416 Box
1098 1417 Box
1098 1416 Box
1098 1418 Box
1098 1417 Box
1098 1416 Box
1098 1417 Box
1098 1415 Box
1098 1416 Box
1098 1416 Box
1098 1416 Box
1193 1533 Box
1193 1532 Box
1193 1534 Box
1193 1532 Box
1193 1534 Box
1193 1533 Box
1193 1534 Box
1193 1534 Box
1193 1534 Box
1193 1535 Box
1193 1534 Box
1193 1533 Box
1193 1534 Box
1193 1534 Box
1193 1532 Box
1193 1531 Box
1193 1533 Box
1193 1535 Box
1193 1534 Box
1193 1532 Box
1193 1532 Box
1193 1533 Box
1193 1535 Box
1193 1533 Box
1193 1534 Box
1193 1533 Box
1193 1531 Box
1193 1533 Box
1193 1533 Box
1193 1533 Box
1288 1676 Box
1288 1674 Box
1288 1673 Box
1288 1672 Box
1288 1675 Box
1288 1675 Box
1288 1673 Box
1288 1674 Box
1288 1673 Box
1288 1674 Box
1288 1672 Box
1288 1673 Box
1288 1674 Box
1288 1671 Box
1288 1675 Box
1288 1672 Box
1288 1671 Box
1288 1674 Box
1288 1674 Box
1288 1676 Box
1288 1674 Box
1288 1673 Box
1288 1674 Box
1288 1675 Box
1288 1675 Box
1288 1674 Box
1288 1675 Box
1288 1675 Box
1288 1675 Box
1288 1674 Box
1383 1861 Box
1383 1857 Box
1383 1859 Box
1383 1863 Box
1383 1865 Box
1383 1864 Box
1383 1859 Box
1383 1867 Box
1383 1863 Box
1383 1863 Box
1383 1863 Box
1383 1856 Box
1383 1865 Box
1383 1863 Box
1383 1860 Box
1383 1864 Box
1383 1868 Box
1383 1859 Box
1383 1863 Box
1383 1866 Box
1383 1855 Box
1383 1864 Box
1383 1861 Box
1383 1858 Box
1383 1867 Box
1383 1858 Box
1383 1863 Box
1383 1862 Box
1383 1858 Box
1383 1863 Box
1477 1899 Box
1477 1898 Box
1477 1896 Box
1477 1901 Box
1477 1900 Box
1477 1892 Box
1477 1900 Box
1477 1896 Box
1477 1895 Box
1477 1901 Box
1477 1896 Box
1477 1898 Box
1477 1898 Box
1477 1893 Box
1477 1900 Box
1477 1902 Box
1477 1898 Box
1477 1896 Box
1477 1898 Box
1477 1888 Box
1477 1899 Box
1477 1895 Box
1477 1896 Box
1477 1899 Box
1477 1893 Box
1477 1896 Box
1477 1902 Box
1477 1896 Box
1477 1896 Box
1477 1900 Box
1572 1943 Box
1572 1935 Box
1572 1934 Box
1572 1930 Box
1572 1939 Box
1572 1930 Box
1572 1937 Box
1572 1939 Box
1572 1937 Box
1572 1939 Box
1572 1938 Box
1572 1937 Box
1572 1942 Box
1572 1938 Box
1572 1935 Box
1572 1936 Box
1572 1935 Box
1572 1938 Box
1572 1936 Box
1572 1934 Box
1572 1935 Box
1572 1933 Box
1572 1941 Box
1572 1935 Box
1572 1938 Box
1572 1938 Box
1572 1936 Box
1572 1937 Box
1572 1937 Box
1572 1938 Box
1667 2207 Box
1667 2204 Box
1667 2203 Box
1667 2204 Box
1667 2210 Box
1667 2205 Box
1667 2209 Box
1667 2209 Box
1667 2205 Box
1667 2202 Box
1667 2206 Box
1667 2199 Box
1667 2208 Box
1667 2207 Box
1667 2201 Box
1667 2205 Box
1667 2216 Box
1667 2205 Box
1667 2208 Box
1667 2197 Box
1667 2204 Box
1667 2205 Box
1667 2208 Box
1667 2191 Box
1667 2213 Box
1667 2200 Box
1667 2206 Box
1667 2193 Box
1667 2197 Box
1667 2214 Box
1762 2235 Box
1762 2240 Box
1762 2237 Box
1762 2235 Box
1762 2241 Box
1762 2230 Box
1762 2236 Box
1762 2231 Box
1762 2240 Box
1762 2239 Box
1762 2237 Box
1762 2235 Box
1762 2240 Box
1762 2241 Box
1762 2241 Box
1762 2235 Box
1762 2234 Box
1762 2242 Box
1762 2240 Box
1762 2235 Box
1762 2236 Box
1762 2234 Box
1762 2243 Box
1762 2236 Box
1762 2242 Box
1762 2230 Box
1762 2245 Box
1762 2238 Box
1762 2240 Box
1762 2232 Box
1856 2262 Box
1856 2267 Box
1856 2269 Box
1856 2258 Box
1856 2266 Box
1856 2268 Box
1856 2275 Box
1856 2262 Box
1856 2268 Box
1856 2265 Box
1856 2270 Box
1856 2269 Box
1856 2264 Box
1856 2259 Box
1856 2275 Box
1856 2278 Box
1856 2264 Box
1856 2272 Box
1856 2271 Box
1856 2269 Box
1856 2261 Box
1856 2267 Box
1856 2265 Box
1856 2264 Box
1856 2272 Box
1856 2261 Box
1856 2270 Box
1856 2267 Box
1856 2272 Box
1856 2264 Box
1951 2294 Box
1951 2292 Box
1951 2291 Box
1951 2291 Box
1951 2303 Box
1951 2297 Box
1951 2300 Box
1951 2299 Box
1951 2297 Box
1951 2296 Box
1951 2294 Box
1951 2288 Box
1951 2299 Box
1951 2298 Box
1951 2284 Box
1951 2303 Box
1951 2290 Box
1951 2292 Box
1951 2299 Box
1951 2299 Box
1951 2289 Box
1951 2294 Box
1951 2302 Box
1951 2296 Box
1951 2290 Box
1951 2297 Box
1951 2295 Box
1951 2305 Box
1951 2294 Box
1951 2296 Box
2046 2338 Box
2046 2330 Box
2046 2335 Box
2046 2339 Box
2046 2337 Box
2046 2334 Box
2046 2326 Box
2046 2322 Box
2046 2322 Box
2046 2331 Box
2046 2332 Box
2046 2337 Box
2046 2322 Box
2046 2322 Box
2046 2330 Box
2046 2332 Box
2046 2334 Box
2046 2329 Box
2046 2335 Box
2046 2332 Box
2046 2322 Box
2046 2331 Box
2046 2333 Box
2046 2331 Box
2046 2334 Box
2046 2326 Box
2046 2318 Box
2046 2328 Box
2046 2331 Box
2046 2333 Box
2141 2806 Box
2141 2803 Box
2141 2797 Box
2141 2815 Box
2141 2810 Box
2141 2800 Box
2141 2808 Box
2141 2806 Box
2141 2810 Box
2141 2790 Box
2141 2792 Box
2141 2796 Box
2141 2810 Box
2141 2802 Box
2141 2802 Box
2141 2788 Box
2141 2801 Box
2141 2783 Box
2141 2802 Box
2141 2802 Box
2141 2804 Box
2141 2789 Box
2141 2793 Box
2141 2794 Box
2141 2801 Box
2141 2757 Box
2141 2782 Box
2141 2779 Box
2141 2807 Box
2141 2793 Box
2235 2814 Box
2235 2840 Box
2235 2842 Box
2235 2845 Box
2235 2834 Box
2235 2832 Box
2235 2813 Box
2235 2829 Box
2235 2823 Box
2235 2827 Box
2235 2817 Box
2235 2842 Box
2235 2821 Box
2235 2822 Box
2235 2835 Box
2235 2844 Box
2235 2836 Box
2235 2818 Box
2235 2809 Box
2235 2818 Box
2235 2823 Box
2235 2825 Box
2235 2820 Box
2235 2821 Box
2235 2817 Box
2235 2815 Box
2235 2833 Box
2235 2825 Box
2235 2829 Box
2235 2822 Box
2330 2855 Box
2330 2842 Box
2330 2843 Box
2330 2846 Box
2330 2836 Box
2330 2859 Box
2330 2838 Box
2330 2844 Box
2330 2852 Box
2330 2857 Box
2330 2848 Box
2330 2854 Box
2330 2830 Box
2330 2869 Box
2330 2868 Box
2330 2842 Box
2330 2842 Box
2330 2853 Box
2330 2835 Box
2330 2851 Box
2330 2861 Box
2330 2852 Box
2330 2824 Box
2330 2854 Box
2330 2857 Box
2330 2856 Box
2330 2841 Box
2330 2832 Box
2330 2836 Box
2330 2858 Box
2425 2858 Box
2425 2879 Box
2425 2859 Box
2425 2860 Box
2425 2869 Box
2425 2867 Box
2425 2846 Box
2425 2877 Box
2425 2842 Box
2425 2862 Box
2425 2857 Box
2425 2873 Box
2425 2859 Box
2425 2879 Box
2425 2868 Box
2425 2871 Box
2425 2862 Box
2425 2846 Box
2425 2861 Box
2425 2874 Box
2425 2855 Box
2425 2878 Box
2425 2850 Box
2425 2843 Box
2425 2877 Box
2425 2860 Box
2425 2862 Box
2425 2888 Box
2425 2871 Box
2425 2880 Box
2520 2891 Box
2520 2883 Box
2520 2889 Box
2520 2883 Box
2520 2863 Box
2520 2892 Box
2520 2894 Box
2520 2891 Box
2520 2879 Box
2520 2897 Box
2520 2888 Box
2520 2889 Box
2520 2891 Box
2520 2874 Box
2520 2889 Box
2520 2891 Box
2520 2893 Box
2520 2897 Box
2520 2877 Box
2520 2892 Box
2520 2898 Box
2520 2892 Box
2520 2874 Box
2520 2879 Box
2520 2879 Box
2520 2886 Box
2520 2893 Box
2520 2892 Box
2520 2874 Box
2520 2884 Box
2614 2934 Box
2614 2896 Box
2614 2903 Box
2614 2891 Box
2614 2924 Box
2614 2906 Box
2614 2914 Box
2614 2909 Box
2614 2896 Box
2614 2901 Box
2614 2903 Box
2614 2899 Box
2614 2907 Box
2614 2894 Box
2614 2909 Box
2614 2903 Box
2614 2904 Box
2614 2886 Box
2614 2890 Box
2614 2894 Box
2614 2909 Box
2614 2904 Box
2614 2906 Box
2614 2896 Box
2614 2906 Box
2614 2922 Box
2614 2906 Box
2614 2928 Box
2614 2904 Box
2614 2903 Box
2709 2917 Box
2709 2919 Box
2709 2928 Box
2709 2938 Box
2709 2915 Box
2709 2902 Box
2709 2932 Box
2709 2947 Box
2709 2931 Box
2709 2932 Box
2709 2930 Box
2709 2924 Box
2709 2937 Box
2709 2925 Box
2709 2933 Box
2709 2920 Box
2709 2936 Box
2709 2931 Box
2709 2916 Box
2709 2923 Box
2709 2930 Box
2709 2913 Box
2709 2925 Box
2709 2910 Box
2709 2922 Box
2709 2930 Box
2709 2937 Box
2709 2909 Box
2709 2915 Box
2709 2946 Box
2804 2958 Box
2804 2941 Box
2804 2939 Box
2804 2953 Box
2804 2968 Box
2804 2956 Box
2804 2942 Box
2804 2949 Box
2804 2935 Box
2804 2938 Box
2804 2939 Box
2804 2954 Box
2804 2946 Box
2804 2937 Box
2804 2922 Box
2804 2935 Box
2804 2931 Box
2804 2961 Box
2804 2957 Box
2804 2942 Box
2804 2952 Box
2804 2956 Box
2804 2945 Box
2804 2938 Box
2804 2950 Box
2804 2938 Box
2804 2949 Box
2804 2939 Box
2804 2951 Box
2804 2940 Box
2899 2977 Box
2899 2964 Box
2899 2954 Box
2899 2952 Box
2899 2942 Box
2899 2975 Box
2899 2959 Box
2899 2956 Box
2899 2959 Box
2899 2970 Box
2899 2973 Box
2899 2955 Box
2899 2979 Box
2899 2952 Box
2899 2983 Box
2899 2941 Box
2899 2946 Box
2899 2965 Box
2899 2934 Box
2899 2981 Box
2899 2950 Box
2899 2980 Box
2899 2976 Box
2899 2948 Box
2899 2970 Box
2899 2974 Box
2899 2968 Box
2899 2930 Box
2899 2981 Box
2899 2972 Box
2993 2981 Box
2993 2986 Box
2993 3009 Box
2993 3001 Box
2993 2985 Box
2993 2989 Box
2993 2963 Box
2993 2992 Box
2993 2958 Box
2993 2993 Box
2993 2988 Box
2993 3000 Box
2993 2980 Box
2993 2976 Box
2993 2995 Box
2993 2977 Box
2993 2996 Box
2993 2999 Box
2993 2984 Box
2993 2988 Box
2993 3008 Box
2993 2976 Box
2993 2998 Box
2993 2976 Box
2993 2979 Box
2993 2960 Box
2993 2965 Box
2993 2985 Box
2993 2982 Box
2993 2987 Box
3088 3011 Box
3088 2993 Box
3088 2998 Box
3088 3013 Box
3088 3003 Box
3088 3022 Box
3088 3012 Box
3088 3001 Box
3088 3003 Box
3088 2988 Box
3088 3003 Box
3088 3006 Box
3088 2986 Box
3088 3008 Box
3088 3016 Box
3088 3003 Box
3088 3010 Box
3088 2991 Box
3088 3014 Box
3088 3009 Box
3088 2990 Box
3088 3001 Box
3088 2991 Box
3088 3023 Box
3088 3022 Box
3088 2996 Box
3088 3003 Box
3088 3009 Box
3088 3008 Box
3088 3008 Box
3183 3031 Box
3183 3051 Box
3183 3025 Box
3183 3048 Box
3183 3018 Box
3183 3015 Box
3183 2995 Box
3183 3002 Box
3183 3029 Box
3183 2999 Box
3183 3006 Box
3183 3021 Box
3183 3039 Box
3183 3024 Box
3183 3025 Box
3183 3007 Box
3183 3043 Box
3183 2992 Box
3183 3007 Box
3183 3036 Box
3183 3025 Box
3183 3036 Box
3183 3023 Box
3183 3004 Box
3183 2992 Box
3183 3017 Box
3183 3005 Box
3183 3019 Box
3183 3033 Box
3183 3034 Box
3278 3035 Box
3278 3016 Box
3278 3072 Box
3278 3057 Box
3278 3046 Box
3278 3031 Box
3278 3040 Box
3278 3054 Box
3278 3034 Box
3278 3032 Box
3278 3050 Box
3278 3045 Box
3278 3072 Box
3278 3034 Box
3278 3047 Box
3278 3034 Box
3278 3052 Box
3278 3039 Box
3278 3046 Box
3278 3027 Box
3278 3053 Box
3278 3033 Box
3278 3045 Box
3278 3039 Box
3278 3041 Box
3278 3053 Box
3278 3073 Box
3278 3036 Box
3278 3038 Box
3278 3036 Box
3372 3077 Box
3372 3081 Box
3372 3040 Box
3372 3059 Box
3372 3073 Box
3372 3062 Box
3372 3047 Box
3372 3022 Box
3372 3062 Box
3372 3056 Box
3372 3023 Box
3372 3087 Box
3372 3066 Box
3372 3098 Box
3372 3077 Box
3372 3070 Box
3372 3090 Box
3372 3057 Box
3372 3050 Box
3372 3048 Box
3372 3067 Box
3372 3056 Box
3372 3056 Box
3372 3062 Box
3372 3087 Box
3372 3062 Box
3372 3089 Box
3372 3060 Box
3372 3052 Box
3372 3070 Box
3467 3102 Box
3467 3113 Box
3467 3091 Box
3467 3084 Box
3467 3106 Box
3467 3091 Box
3467 3098 Box
3467 3085 Box
3467 3109 Box
3467 3091 Box
3467 3119 Box
3467 3089 Box
3467 3117 Box
3467 3102 Box
3467 3078 Box
3467 3090 Box
3467 3095 Box
3467 3106 Box
3467 3102 Box
3467 3102 Box
3467 3090 Box
3467 3109 Box
3467 3085 Box
3467 3118 Box
3467 3073 Box
3467 3082 Box
3467 3091 Box
3467 3106 Box
3467 3076 Box
3467 3110 Box
3562 3142 Box
3562 3107 Box
3562 3126 Box
3562 3164 Box
3562 3136 Box
3562 3125 Box
3562 3141 Box
3562 3126 Box
3562 3131 Box
3562 3078 Box
3562 3110 Box
3562 3169 Box
3562 3131 Box
3562 3162 Box
3562 3132 Box
3562 3134 Box
3562 3158 Box
3562 3146 Box
3562 3121 Box
3562 3134 Box
3562 3110 Box
3562 3127 Box
3562 3152 Box
3562 3107 Box
3562 3175 Box
3562 3132 Box
3562 3164 Box
3562 3152 Box
3562 3150 Box
3562 3160 Box
3657 4242 Box
3657 4278 Box
3657 4225 Box
3657 4249 Box
3657 4232 Box
3657 4261 Box
3657 4181 Box
3657 4226 Box
3657 4207 Box
3657 4197 Box
3657 4220 Box
3657 4249 Box
3657 4237 Box
3657 4193 Box
3657 4227 Box
3657 4191 Box
3657 4213 Box
3657 4215 Box
3657 4212 Box
3657 4215 Box
3657 4181 Box
3657 4264 Box
3657 4171 Box
3657 4197 Box
3657 4247 Box
3657 4211 Box
3657 4249 Box
3657 4258 Box
3657 4184 Box
3657 4222 Box
3752 4191 Box
3752 4185 Box
3752 4246 Box
3752 4239 Box
3752 4205 Box
3752 4244 Box
3752 4266 Box
3752 4134 Box
3752 4230 Box
3752 4258 Box
3752 4237 Box
3752 4249 Box
3752 4235 Box
3752 4216 Box
3752 4253 Box
3752 4208 Box
3752 4187 Box
3752 4266 Box
3752 4201 Box
3752 4219 Box
3752 4240 Box
3752 4220 Box
3752 4237 Box
3752 4194 Box
3752 4181 Box
3752 4151 Box
3752 4183 Box
3752 4207 Box
3752 4175 Box
3752 4247 Box
3846 4244 Box
3846 4261 Box
3846 4186 Box
3846 4229 Box
3846 4238 Box
3846 4213 Box
3846 4267 Box
3846 4264 Box
3846 4279 Box
3846 4244 Box
3846 4280 Box
3846 4226 Box
3846 4255 Box
3846 4248 Box
3846 4198 Box
3846 4275 Box
3846 4285 Box
3846 4287 Box
3846 4231 Box
3846 4225 Box
3846 4162 Box
3846 4248 Box
3846 4237 Box
3846 4202 Box
3846 4230 Box
3846 4192 Box
3846 4233 Box
3846 4269 Box
3846 4222 Box
3846 4244 Box
3941 4318 Box
3941 4254 Box
3941 4204 Box
3941 4275 Box
3941 4264 Box
3941 4254 Box
3941 4175 Box
3941 4226 Box
3941 4201 Box
3941 4262 Box
3941 4302 Box
3941 4194 Box
3941 4301 Box
3941 4239 Box
3941 4304 Box
3941 4133 Box
3941 4283 Box
3941 4260 Box
3941 4217 Box
3941 4295 Box
3941 4265 Box
3941 4263 Box
3941 4218 Box
3941 4225 Box
3941 4246 Box
3941 4249 Box
3941 4259 Box
3941 4227 Box
3941 4260 Box
3941 4278 Box
4036 4304 Box
4036 4253 Box
4036 4251 Box
4036 4269 Box
4036 4239 Box
4036 4296 Box
4036 4189 Box
4036 4214 Box
4036 4243 Box
4036 4261 Box
4036 4287 Box
4036 4251 Box
4036 4301 Box
4036 4225 Box
4036 4259 Box
4036 4229 Box
4036 4218 Box
4036 4252 Box
4036 4278 Box
4036 4220 Box
4036 4282 Box
4036 4267 Box
4036 4295 Box
4036 4285 Box
4036 4264 Box
4036 4237 Box
4036 4247 Box
4036 4233 Box
4036 4254 Box
4036 4245 Box
4131 4234 Box
4131 4261 Box
4131 4247 Box
4131 4251 Box
4131 4266 Box
4131 4263 Box
4131 4283 Box
4131 4298 Box
4131 4278 Box
4131 4267 Box
4131 4303 Box
4131 4276 Box
4131 4281 Box
4131 4283 Box
4131 4245 Box
4131 4265 Box
4131 4255 Box
4131 4289 Box
4131 4288 Box
4131 4278 Box
4131 4208 Box
4131 4252 Box
4131 4299 Box
4131 4247 Box
4131 4314 Box
4131 4272 Box
4131 4238 Box
4131 4271 Box
4131 4262 Box
4131 4278 Box
4225 4317 Box
4225 4226 Box
4225 4242 Box
4225 4343 Box
4225 4303 Box
4225 4282 Box
4225 4269 Box
4225 4276 Box
4225 4271 Box
4225 4254 Box
4225 4238 Box
4225 4272 Box
4225 4248 Box
4225 4215 Box
4225 4317 Box
4225 4249 Box
4225 4202 Box
4225 4286 Box
4225 4285 Box
4225 4291 Box
4225 4270 Box
4225 4256 Box
4225 4258 Box
4225 4300 Box
4225 4307 Box
4225 4264 Box
4225 4276 Box
4225 4317 Box
4225 4303 Box
4225 4269 Box
4320 4317 Box
4320 4274 Box
4320 4246 Box
4320 4268 Box
4320 4323 Box
4320 4328 Box
4320 4271 Box
4320 4340 Box
4320 4302 Box
4320 4293 Box
4320 4303 Box
4320 4223 Box
4320 4331 Box
4320 4311 Box
4320 4255 Box
4320 4315 Box
4320 4336 Box
4320 4227 Box
4320 4319 Box
4320 4342 Box
4320 4226 Box
4320 4306 Box
4320 4270 Box
4320 4264 Box
4320 4312 Box
4320 4253 Box
4320 4303 Box
4320 4274 Box
4320 4252 Box
4320 4279 Box
4415 4324 Box
4415 4304 Box
4415 4292 Box
4415 4308 Box
4415 4284 Box
4415 4243 Box
4415 4329 Box
4415 4287 Box
4415 4243 Box
4415 4330 Box
4415 4267 Box
4415 4296 Box
4415 4315 Box
4415 4239 Box
4415 4315 Box
4415 4322 Box
4415 4303 Box
4415 4286 Box
4415 4316 Box
4415 4191 Box
4415 4310 Box
4415 4278 Box
4415 4288 Box
4415 4309 Box
4415 4237 Box
4415 4278 Box
4415 4345 Box
4415 4303 Box
4415 4270 Box
4415 4345 Box
4510 4361 Box
4510 4344 Box
4510 4294 Box
4510 4213 Box
4510 4309 Box
4510 4244 Box
4510 4343 Box
4510 4359 Box
4510 4303 Box
4510 4358 Box
4510 4290 Box
4510 4326 Box
4510 4340 Box
4510 4309 Box
4510 4279 Box
4510 4328 Box
4510 4309 Box
4510 4341 Box
4510 4322 Box
4510 4302 Box
4510 4267 Box
4510 4312 Box
4510 4346 Box
4510 4261 Box
4510 4313 Box
4510 4308 Box
4510 4285 Box
4510 4349 Box
4510 4323 Box
4510 4331 Box
4604 4315 Box
4604 4318 Box
4604 4286 Box
4604 4279 Box
4604 4347 Box
4604 4305 Box
4604 4347 Box
4604 4324 Box
4604 4299 Box
4604 4291 Box
4604 4319 Box
4604 4273 Box
4604 4325 Box
4604 4328 Box
4604 4277 Box
4604 4306 Box
4604 4366 Box
4604 4308 Box
4604 4319 Box
4604 4246 Box
4604 4310 Box
4604 4290 Box
4604 4344 Box
4604 4192 Box
4604 4348 Box
4604 4238 Box
4604 4329 Box
4604 4234 Box
4604 4253 Box
4604 4359 Box
4699 4305 Box
4699 4365 Box
4699 4323 Box
4699 4333 Box
4699 4366 Box
4699 4281 Box
4699 4315 Box
4699 4282 Box
4699 4324 Box
4699 4329 Box
4699 4327 Box
4699 4332 Box
4699 4328 Box
4699 4347 Box
4699 4335 Box
4699 4319 Box
4699 4315 Box
4699 4342 Box
4699 4313 Box
4699 4264 Box
4699 4286 Box
4699 4316 Box
4699 4356 Box
4699 4328 Box
4699 4351 Box
4699 4229 Box
4699 4377 Box
4699 4332 Box
4699 4355 Box
4699 4310 Box
4794 4303 Box
4794 4348 Box
4794 4361 Box
4794 4326 Box
4794 4309 Box
4794 4330 Box
4794 4371 Box
4794 4289 Box
4794 4356 Box
4794 4341 Box
4794 4379 Box
4794 4355 Box
4794 4318 Box
4794 4292 Box
4794 4399 Box
4794 4385 Box
4794 4305 Box
4794 4382 Box
4794 4342 Box
4794 4354 Box
4794 4282 Box
4794 4361 Box
4794 4311 Box
4794 4304 Box
4794 4357 Box
4794 4281 Box
4794 4364 Box
4794 4307 Box
4794 4350 Box
4794 4322 Box
4889 4349 Box
4889 4317 Box
4889 4280 Box
4889 4323 Box
4889 4385 Box
4889 4340 Box
4889 4327 Box
4889 4356 Box
4889 4337 Box
4889 4336 Box
4889 4348 Box
4889 4289 Box
4889 4377 Box
4889 4338 Box
4889 4264 Box
4889 4353 Box
4889 4317 Box
4889 4336 Box
4889 4362 Box
4889 4341 Box
4889 4299 Box
4889 4279 Box
4889 4384 Box
4889 4338 Box
4889 4307 Box
4889 4356 Box
4889 4297 Box
4889 4416 Box
4889 4329 Box
4889 4357 Box
4983 4333 Box
4983 4294 Box
4983 4340 Box
4983 4339 Box
4983 4367 Box
4983 4343 Box
4983 4335 Box
4983 4300 Box
4983 4298 Box
4983 4348 Box
4983 4426 Box
4983 4347 Box
4983 4330 Box
4983 4302 Box
4983 4359 Box
4983 4355 Box
4983 4370 Box
4983 4341 Box
4983 4365 Box
4983 4371 Box
4983 4337 Box
4983 4371 Box
4983 4354 Box
4983 4378 Box
4983 4324 Box
4983 4306 Box
4983 4301 Box
4983 4359 Box
4983 4327 Box
4983 4337 Box
5078 4385 Box
5078 4364 Box
5078 4358 Box
5078 4379 Box
5078 4394 Box
5078 4401 Box
5078 4377 Box
5078 4373 Box
5078 4398 Box
5078 4337 Box
5078 4361 Box
5078 4367 Box
5078 4401 Box
5078 4378 Box
5078 4376 Box
5078 4347 Box
5078 4340 Box
5078 4313 Box
5078 4365 Box
5078 4384 Box
5078 4384 Box
5078 4371 Box
5078 4390 Box
5078 4342 Box
5078 4381 Box
5078 4227 Box
5078 4311 Box
5078 4320 Box
5078 4383 Box
5078 4341 Box
5173 4328 Box
5173 4449 Box
5173 4431 Box
5173 4432 Box
5173 4424 Box
5173 4375 Box
5173 4335 Box
5173 4394 Box
5173 4379 Box
5173 4383 Box
5173 4351 Box
5173 4416 Box
5173 4368 Box
5173 4379 Box
5173 4409 Box
5173 4416 Box
5173 4417 Box
5173 4392 Box
5173 4336 Box
5173 4364 Box
5173 4343 Box
5173 4397 Box
5173 4382 Box
5173 4340 Box
5173 4318 Box
5173 4342 Box
5173 4396 Box
5173 4355 Box
5173 4382 Box
5173 4377 Box
5268 4378 Box
5268 4343 Box
5268 4366 Box
5268 4401 Box
5268 4343 Box
5268 4386 Box
5268 4353 Box
5268 4380 Box
5268 4382 Box
5268 4421 Box
5268 4373 Box
5268 4392 Box
5268 4339 Box
5268 4403 Box
5268 4456 Box
5268 4372 Box
5268 4364 Box
5268 4429 Box
5268 4357 Box
5268 4373 Box
5268 4408 Box
5268 4374 Box
5268 4324 Box
5268 4371 Box
5268 4421 Box
5268 4414 Box
5268 4368 Box
5268 4336 Box
5268 4330 Box
5268 4413 Box
5362 4357 Box
5362 4431 Box
5362 4361 Box
5362 4357 Box
5362 4393 Box
5362 4360 Box
5362 4327 Box
5362 4412 Box
5362 4314 Box
5362 4368 Box
5362 4358 Box
5362 4414 Box
5362 4341 Box
5362 4408 Box
5362 4408 Box
5362 4409 Box
5362 4383 Box
5362 4330 Box
5362 4363 Box
5362 4410 Box
5362 4343 Box
5362 4337 Box
5362 4317 Box
5362 4319 Box
5362 4391 Box
5362 4363 Box
5362 4345 Box
5362 4449 Box
5362 4405 Box
5362 4437 Box
5457 4403 Box
5457 4373 Box
5457 4394 Box
5457 4373 Box
5457 4261 Box
5457 4384 Box
5457 4399 Box
5457 4360 Box
5457 4378 Box
5457 4412 Box
5457 4384 Box
5457 4401 Box
5457 4424 Box
5457 4354 Box
5457 4402 Box
5457 4399 Box
5457 4410 Box
5457 4442 Box
5457 4381 Box
5457 4381 Box
5457 4411 Box
5457 4366 Box
5457 4359 Box
5457 4346 Box
5457 4372 Box
5457 4393 Box
5457 4438 Box
5457 4399 Box
5457 4330 Box
5457 4396 Box
5552 4443 Box
5552 4373 Box
5552 4392 Box
5552 4353 Box
5552 4471 Box
5552 4447 Box
5552 4408 Box
5552 4391 Box
5552 4365 Box
5552 4381 Box
5552 4382 Box
5552 4410 Box
5552 4378 Box
5552 4361 Box
5552 4395 Box
5552 4371 Box
5552 4391 Box
5552 4328 Box
5552 4334 Box
5552 4364 Box
5552 4394 Box
5552 4383 Box
5552 4379 Box
5552 4346 Box
5552 4394 Box
5552 4439 Box
5552 4399 Box
5552 4430 Box
5552 4412 Box
5552 4382 Box
5647 4355 Box
5647 4361 Box
5647 4423 Box
5647 4467 Box
5647 4371 Box
5647 4318 Box
5647 4421 Box
5647 4471 Box
5647 4407 Box
5647 4434 Box
5647 4423 Box
5647 4398 Box
5647 4415 Box
5647 4389 Box
5647 4378 Box
5647 4360 Box
5647 4408 Box
5647 4412 Box
5647 4400 Box
5647 4408 Box
5647 4387 Box
5647 4352 Box
5647 4391 Box
5647 4400 Box
5647 4399 Box
5647 4400 Box
5647 4454 Box
5647 4364 Box
5647 4372 Box
5647 4439 Box
5741 4444 Box
5741 4396 Box
5741 4401 Box
5741 4435 Box
5741 4440 Box
5741 4423 Box
5741 4406 Box
5741 4398 Box
5741 4377 Box
5741 4400 Box
5741 4395 Box
5741 4441 Box
5741 4387 Box
5741 4354 Box
5741 4344 Box
5741 4364 Box
5741 4372 Box
5741 4412 Box
5741 4434 Box
5741 4396 Box
5741 4437 Box
5741 4420 Box
5741 4402 Box
5741 4414 Box
5741 4399 Box
5741 4397 Box
5741 4422 Box
5741 4365 Box
5741 4420 Box
5741 4407 Box
5836 4441 Box
5836 4423 Box
5836 4410 Box
5836 4330 Box
5836 4341 Box
5836 4435 Box
5836 4388 Box
5836 4410 Box
5836 4394 Box
5836 4466 Box
5836 4421 Box
5836 4403 Box
5836 4470 Box
5836 4403 Box
5836 4416 Box
5836 4342 Box
5836 4346 Box
5836 4427 Box
5836 4323 Box
5836 4438 Box
5836 4385 Box
5836 4467 Box
5836 4457 Box
5836 4341 Box
5836 4438 Box
5836 4430 Box
5836 4405 Box
5836 4312 Box
5836 4466 Box
5836 4413 Box
5931 4406 Box
5931 4423 Box
5931 4492 Box
5931 4455 Box
5931 4417 Box
5931 4440 Box
5931 4370 Box
5931 4438 Box
5931 4348 Box
5931 4444 Box
5931 4433 Box
5931 4444 Box
5931 4424 Box
5931 4404 Box
5931 4444 Box
5931 4394 Box
5931 4460 Box
5931 4466 Box
5931 4444 Box
5931 4428 Box
5931 4491 Box
5931 4392 Box
5931 4449 Box
5931 4420 Box
5931 4362 Box
5931 4326 Box
5931 4390 Box
5931 4433 Box
5931 4396 Box
5931 4418 Box
6026 4423 Box
6026 4390 Box
6026 4433 Box
6026 4437 Box
6026 4454 Box
6026 4472 Box
6026 4452 Box
6026 4422 Box
6026 4430 Box
6026 4381 Box
6026 4430 Box
6026 4407 Box
6026 4347 Box
6026 4407 Box
6026 4491 Box
6026 4436 Box
6026 4460 Box
6026 4386 Box
6026 4428 Box
6026 4454 Box
6026 4433 Box
6026 4407 Box
6026 4422 Box
6026 4476 Box
6026 4396 Box
6026 4400 Box
6026 4433 Box
6026 4457 Box
6026 4402 Box
6026 4484 Box
6120 4482 Box
6120 4508 Box
6120 4451 Box
6120 4517 Box
6120 4448 Box
6120 4413 Box
6120 4357 Box
6120 4351 Box
6120 4471 Box
6120 4339 Box
6120 4370 Box
6120 4433 Box
6120 4479 Box
6120 4434 Box
6120 4451 Box
6120 4373 Box
6120 4514 Box
6120 4330 Box
6120 4410 Box
6120 4494 Box
6120 4402 Box
6120 4460 Box
6120 4444 Box
6120 4410 Box
6120 4341 Box
6120 4424 Box
6120 4359 Box
6120 4454 Box
6120 4433 Box
6120 4460 Box
6215 4446 Box
6215 4389 Box
6215 4417 Box
6215 4455 Box
6215 4430 Box
6215 4445 Box
6215 4432 Box
6215 4434 Box
6215 4434 Box
6215 4391 Box
6215 4438 Box
6215 4469 Box
6215 4508 Box
6215 4398 Box
6215 4441 Box
6215 4408 Box
6215 4445 Box
6215 4412 Box
6215 4439 Box
6215 4377 Box
6215 4474 Box
6215 4418 Box
6215 4448 Box
6215 4444 Box
6215 4386 Box
6215 4461 Box
6215 4511 Box
6215 4407 Box
6215 4419 Box
6215 4446 Box
6310 4473 Box
6310 4483 Box
6310 4387 Box
6310 4434 Box
6310 4498 Box
6310 4414 Box
6310 4445 Box
6310 4342 Box
6310 4422 Box
6310 4426 Box
6310 4331 Box
6310 4437 Box
6310 4429 Box
6310 4469 Box
6310 4450 Box
6310 4435 Box
6310 4510 Box
6310 4412 Box
6310 4405 Box
6310 4370 Box
6310 4387 Box
6310 4360 Box
6310 4420 Box
6310 4408 Box
6310 4513 Box
6310 4474 Box
6310 4467 Box
6310 4407 Box
6310 4380 Box
6310 4477 Box
6405 4428 Box
6405 4511 Box
6405 4466 Box
6405 4434 Box
6405 4524 Box
6405 4443 Box
6405 4453 Box
6405 4437 Box
6405 4547 Box
6405 4410 Box
6405 4485 Box
6405 4462 Box
6405 4528 Box
6405 4475 Box
6405 4439 Box
6405 4431 Box
6405 4446 Box
6405 4429 Box
6405 4452 Box
6405 4479 Box
6405 4492 Box
6405 4446 Box
6405 4459 Box
6405 4492 Box
6405 4402 Box
6405 4465 Box
6405 4480 Box
6405 4500 Box
6405 4410 Box
6405 4368 Box
6499 4430 Box
6499 4432 Box
6499 4472 Box
6499 4445 Box
6499 4447 Box
6499 4420 Box
6499 4469 Box
6499 4423 Box
6499 4486 Box
6499 4423 Box
6499 4416 Box
6499 4490 Box
6499 4432 Box
6499 4519 Box
6499 4468 Box
6499 4467 Box
6499 4541 Box
6499 4502 Box
6499 4461 Box
6499 4489 Box
6499 4391 Box
6499 4456 Box
6499 4485 Box
6499 4395 Box
6499 4493 Box
6499 4473 Box
6499 4445 Box
6499 4490 Box
6499 4477 Box
6499 4414 Box
6594 4488 Box
6594 4525 Box
6594 4484 Box
6594 4480 Box
6594 4479 Box
6594 4445 Box
6594 4423 Box
6594 4470 Box
6594 4446 Box
6594 4437 Box
6594 4461 Box
6594 4478 Box
6594 4481 Box
6594 4446 Box
6594 4469 Box
6594 4433 Box
6594 4442 Box
6594 4450 Box
6594 4468 Box
6594 4459 Box
6594 4435 Box
6594 4492 Box
6594 4410 Box
6594 4443 Box
6594 4487 Box
6594 4438 Box
6594 4495 Box
6594 4493 Box
6594 4417 Box
6594 4465 Box
6689 4494 Box
6689 4422 Box
6689 4467 Box
6689 4436 Box
6689 4455 Box
6689 4399 Box
6689 4490 Box
6689 4356 Box
6689 4461 Box
6689 4478 Box
6689 4491 Box
6689 4443 Box
6689 4480 Box
6689 4462 Box
6689 4488 Box
6689 4441 Box
6689 4476 Box
6689 4551 Box
6689 4431 Box
6689 4439 Box
6689 4483 Box
6689 4498 Box
6689 4408 Box
6689 4408 Box
6689 4486 Box
6689 4458 Box
6689 4448 Box
6689 4501 Box
6689 4458 Box
6689 4441 Box
2.000 UL
LT0
LC0 setrgbcolor
0.50 0.50 0.50 C 814 1023 M
59 0 V
60 160 V
59 0 V
59 159 V
60 0 V
59 160 V
59 0 V
60 160 V
59 0 V
59 319 V
60 0 V
59 0 V
59 0 V
60 319 V
59 0 V
59 0 V
60 0 V
59 0 V
60 0 V
59 0 V
59 0 V
60 0 V
59 958 V
59 0 V
60 0 V
59 0 V
59 0 V
60 0 V
59 0 V
59 0 V
60 0 V
59 0 V
59 0 V
60 0 V
59 0 V
59 0 V
60 0 V
59 0 V
59 0 V
60 0 V
59 0 V
59 0 V
60 0 V
59 0 V
59 0 V
60 0 V
59 0 V
59 2553 V
60 0 V
59 0 V
60 0 V
59 0 V
59 0 V
60 0 V
59 0 V
59 0 V
60 0 V
59 0 V
59 0 V
60 0 V
59 0 V
59 0 V
60 0 V
59 0 V
59 0 V
60 0 V
59 0 V
59 0 V
60 0 V
59 0 V
59 0 V
60 0 V
59 0 V
59 0 V
60 0 V
59 0 V
59 0 V
60 0 V
59 0 V
59 0 V
60 0 V
59 0 V
60 0 V
59 0 V
59 0 V
60 0 V
59 0 V
59 0 V
60 0 V
59 0 V
59 0 V
60 0 V
59 0 V
59 0 V
60 0 V
59 0 V
59 0 V
60 0 V
59 0 V
stroke
LT1
LC1 setrgbcolor
0.50 0.50 0.50 C 814 1023 M
59 100 V
60 100 V
59 100 V
59 100 V
60 100 V
59 100 V
59 100 V
60 100 V
59 100 V
59 100 V
60 100 V
59 100 V
59 100 V
60 100 V
59 100 V
59 99 V
60 100 V
59 100 V
60 100 V
59 100 V
59 100 V
60 100 V
59 100 V
59 100 V
60 100 V
59 100 V
59 100 V
60 100 V
59 100 V
59 100 V
60 100 V
59 100 V
59 100 V
60 100 V
59 100 V
59 100 V
60 100 V
59 100 V
59 99 V
60 100 V
59 100 V
59 100 V
60 100 V
59 100 V
59 100 V
60 100 V
59 100 V
59 100 V
60 100 V
30 50 V
stroke
1.000 UL
LTb
LCb setrgbcolor
814 5971 N
814 704 L
5875 0 V
0 5267 V
-5875 0 V
Z stroke
1.000 UP
1.000 UL
LTb
stroke
grestore
end
showpage
%%Trailer
