%!PS-Adobe-2.0 EPSF-2.0
%%Title: speedup_adj_input_sac.tex
%%Creator: gnuplot 4.6 patchlevel 5
%%CreationDate: Mon Jan 11 03:14:22 2016
%%DocumentFonts: 
%%BoundingBox: 50 50 758 276
%%EndComments
%%BeginProlog
/gnudict 256 dict def
gnudict begin
%
% The following true/false flags may be edited by hand if desired.
% The unit line width and grayscale image gamma correction may also be changed.
%
/Color false def
/Blacktext true def
/Solid false def
/Dashlength 1 def
/Landscape false def
/Level1 false def
/Rounded false def
/ClipToBoundingBox false def
/SuppressPDFMark false def
/TransparentPatterns false def
/gnulinewidth 5.000 def
/userlinewidth gnulinewidth def
/Gamma 1.0 def
/BackgroundColor {-1.000 -1.000 -1.000} def
%
/vshift -73 def
/dl1 {
  10.0 Dashlength mul mul
  Rounded { currentlinewidth 0.75 mul sub dup 0 le { pop 0.01 } if } if
} def
/dl2 {
  10.0 Dashlength mul mul
  Rounded { currentlinewidth 0.75 mul add } if
} def
/hpt_ 31.5 def
/vpt_ 31.5 def
/hpt hpt_ def
/vpt vpt_ def
/doclip {
  ClipToBoundingBox {
    newpath 50 50 moveto 758 50 lineto 758 276 lineto 50 276 lineto closepath
    clip
  } if
} def
%
% Gnuplot Prolog Version 4.6 (September 2012)
%
%/SuppressPDFMark true def
%
/M {moveto} bind def
/L {lineto} bind def
/R {rmoveto} bind def
/V {rlineto} bind def
/N {newpath moveto} bind def
/Z {closepath} bind def
/C {setrgbcolor} bind def
/f {rlineto fill} bind def
/g {setgray} bind def
/Gshow {show} def   % May be redefined later in the file to support UTF-8
/vpt2 vpt 2 mul def
/hpt2 hpt 2 mul def
/Lshow {currentpoint stroke M 0 vshift R 
	Blacktext {gsave 0 setgray show grestore} {show} ifelse} def
/Rshow {currentpoint stroke M dup stringwidth pop neg vshift R
	Blacktext {gsave 0 setgray show grestore} {show} ifelse} def
/Cshow {currentpoint stroke M dup stringwidth pop -2 div vshift R 
	Blacktext {gsave 0 setgray show grestore} {show} ifelse} def
/UP {dup vpt_ mul /vpt exch def hpt_ mul /hpt exch def
  /hpt2 hpt 2 mul def /vpt2 vpt 2 mul def} def
/DL {Color {setrgbcolor Solid {pop []} if 0 setdash}
 {pop pop pop 0 setgray Solid {pop []} if 0 setdash} ifelse} def
/BL {stroke userlinewidth 2 mul setlinewidth
	Rounded {1 setlinejoin 1 setlinecap} if} def
/AL {stroke userlinewidth 2 div setlinewidth
	Rounded {1 setlinejoin 1 setlinecap} if} def
/UL {dup gnulinewidth mul /userlinewidth exch def
	dup 1 lt {pop 1} if 10 mul /udl exch def} def
/PL {stroke userlinewidth setlinewidth
	Rounded {1 setlinejoin 1 setlinecap} if} def
3.8 setmiterlimit
% Default Line colors
/LCw {1 1 1} def
/LCb {0 0 0} def
/LCa {0 0 0} def
/LC0 {1 0 0} def
/LC1 {0 1 0} def
/LC2 {0 0 1} def
/LC3 {1 0 1} def
/LC4 {0 1 1} def
/LC5 {1 1 0} def
/LC6 {0 0 0} def
/LC7 {1 0.3 0} def
/LC8 {0.5 0.5 0.5} def
% Default Line Types
/LTw {PL [] 1 setgray} def
/LTb {BL [] LCb DL} def
/LTa {AL [1 udl mul 2 udl mul] 0 setdash LCa setrgbcolor} def
/LT0 {PL [] LC0 DL} def
/LT1 {PL [4 dl1 2 dl2] LC1 DL} def
/LT2 {PL [2 dl1 3 dl2] LC2 DL} def
/LT3 {PL [1 dl1 1.5 dl2] LC3 DL} def
/LT4 {PL [6 dl1 2 dl2 1 dl1 2 dl2] LC4 DL} def
/LT5 {PL [3 dl1 3 dl2 1 dl1 3 dl2] LC5 DL} def
/LT6 {PL [2 dl1 2 dl2 2 dl1 6 dl2] LC6 DL} def
/LT7 {PL [1 dl1 2 dl2 6 dl1 2 dl2 1 dl1 2 dl2] LC7 DL} def
/LT8 {PL [2 dl1 2 dl2 2 dl1 2 dl2 2 dl1 2 dl2 2 dl1 4 dl2] LC8 DL} def
/Pnt {stroke [] 0 setdash gsave 1 setlinecap M 0 0 V stroke grestore} def
/Dia {stroke [] 0 setdash 2 copy vpt add M
  hpt neg vpt neg V hpt vpt neg V
  hpt vpt V hpt neg vpt V closepath stroke
  Pnt} def
/Pls {stroke [] 0 setdash vpt sub M 0 vpt2 V
  currentpoint stroke M
  hpt neg vpt neg R hpt2 0 V stroke
 } def
/Box {stroke [] 0 setdash 2 copy exch hpt sub exch vpt add M
  0 vpt2 neg V hpt2 0 V 0 vpt2 V
  hpt2 neg 0 V closepath stroke
  Pnt} def
/Crs {stroke [] 0 setdash exch hpt sub exch vpt add M
  hpt2 vpt2 neg V currentpoint stroke M
  hpt2 neg 0 R hpt2 vpt2 V stroke} def
/TriU {stroke [] 0 setdash 2 copy vpt 1.12 mul add M
  hpt neg vpt -1.62 mul V
  hpt 2 mul 0 V
  hpt neg vpt 1.62 mul V closepath stroke
  Pnt} def
/Star {2 copy Pls Crs} def
/BoxF {stroke [] 0 setdash exch hpt sub exch vpt add M
  0 vpt2 neg V hpt2 0 V 0 vpt2 V
  hpt2 neg 0 V closepath fill} def
/TriUF {stroke [] 0 setdash vpt 1.12 mul add M
  hpt neg vpt -1.62 mul V
  hpt 2 mul 0 V
  hpt neg vpt 1.62 mul V closepath fill} def
/TriD {stroke [] 0 setdash 2 copy vpt 1.12 mul sub M
  hpt neg vpt 1.62 mul V
  hpt 2 mul 0 V
  hpt neg vpt -1.62 mul V closepath stroke
  Pnt} def
/TriDF {stroke [] 0 setdash vpt 1.12 mul sub M
  hpt neg vpt 1.62 mul V
  hpt 2 mul 0 V
  hpt neg vpt -1.62 mul V closepath fill} def
/DiaF {stroke [] 0 setdash vpt add M
  hpt neg vpt neg V hpt vpt neg V
  hpt vpt V hpt neg vpt V closepath fill} def
/Pent {stroke [] 0 setdash 2 copy gsave
  translate 0 hpt M 4 {72 rotate 0 hpt L} repeat
  closepath stroke grestore Pnt} def
/PentF {stroke [] 0 setdash gsave
  translate 0 hpt M 4 {72 rotate 0 hpt L} repeat
  closepath fill grestore} def
/Circle {stroke [] 0 setdash 2 copy
  hpt 0 360 arc stroke Pnt} def
/CircleF {stroke [] 0 setdash hpt 0 360 arc fill} def
/C0 {BL [] 0 setdash 2 copy moveto vpt 90 450 arc} bind def
/C1 {BL [] 0 setdash 2 copy moveto
	2 copy vpt 0 90 arc closepath fill
	vpt 0 360 arc closepath} bind def
/C2 {BL [] 0 setdash 2 copy moveto
	2 copy vpt 90 180 arc closepath fill
	vpt 0 360 arc closepath} bind def
/C3 {BL [] 0 setdash 2 copy moveto
	2 copy vpt 0 180 arc closepath fill
	vpt 0 360 arc closepath} bind def
/C4 {BL [] 0 setdash 2 copy moveto
	2 copy vpt 180 270 arc closepath fill
	vpt 0 360 arc closepath} bind def
/C5 {BL [] 0 setdash 2 copy moveto
	2 copy vpt 0 90 arc
	2 copy moveto
	2 copy vpt 180 270 arc closepath fill
	vpt 0 360 arc} bind def
/C6 {BL [] 0 setdash 2 copy moveto
	2 copy vpt 90 270 arc closepath fill
	vpt 0 360 arc closepath} bind def
/C7 {BL [] 0 setdash 2 copy moveto
	2 copy vpt 0 270 arc closepath fill
	vpt 0 360 arc closepath} bind def
/C8 {BL [] 0 setdash 2 copy moveto
	2 copy vpt 270 360 arc closepath fill
	vpt 0 360 arc closepath} bind def
/C9 {BL [] 0 setdash 2 copy moveto
	2 copy vpt 270 450 arc closepath fill
	vpt 0 360 arc closepath} bind def
/C10 {BL [] 0 setdash 2 copy 2 copy moveto vpt 270 360 arc closepath fill
	2 copy moveto
	2 copy vpt 90 180 arc closepath fill
	vpt 0 360 arc closepath} bind def
/C11 {BL [] 0 setdash 2 copy moveto
	2 copy vpt 0 180 arc closepath fill
	2 copy moveto
	2 copy vpt 270 360 arc closepath fill
	vpt 0 360 arc closepath} bind def
/C12 {BL [] 0 setdash 2 copy moveto
	2 copy vpt 180 360 arc closepath fill
	vpt 0 360 arc closepath} bind def
/C13 {BL [] 0 setdash 2 copy moveto
	2 copy vpt 0 90 arc closepath fill
	2 copy moveto
	2 copy vpt 180 360 arc closepath fill
	vpt 0 360 arc closepath} bind def
/C14 {BL [] 0 setdash 2 copy moveto
	2 copy vpt 90 360 arc closepath fill
	vpt 0 360 arc} bind def
/C15 {BL [] 0 setdash 2 copy vpt 0 360 arc closepath fill
	vpt 0 360 arc closepath} bind def
/Rec {newpath 4 2 roll moveto 1 index 0 rlineto 0 exch rlineto
	neg 0 rlineto closepath} bind def
/Square {dup Rec} bind def
/Bsquare {vpt sub exch vpt sub exch vpt2 Square} bind def
/S0 {BL [] 0 setdash 2 copy moveto 0 vpt rlineto BL Bsquare} bind def
/S1 {BL [] 0 setdash 2 copy vpt Square fill Bsquare} bind def
/S2 {BL [] 0 setdash 2 copy exch vpt sub exch vpt Square fill Bsquare} bind def
/S3 {BL [] 0 setdash 2 copy exch vpt sub exch vpt2 vpt Rec fill Bsquare} bind def
/S4 {BL [] 0 setdash 2 copy exch vpt sub exch vpt sub vpt Square fill Bsquare} bind def
/S5 {BL [] 0 setdash 2 copy 2 copy vpt Square fill
	exch vpt sub exch vpt sub vpt Square fill Bsquare} bind def
/S6 {BL [] 0 setdash 2 copy exch vpt sub exch vpt sub vpt vpt2 Rec fill Bsquare} bind def
/S7 {BL [] 0 setdash 2 copy exch vpt sub exch vpt sub vpt vpt2 Rec fill
	2 copy vpt Square fill Bsquare} bind def
/S8 {BL [] 0 setdash 2 copy vpt sub vpt Square fill Bsquare} bind def
/S9 {BL [] 0 setdash 2 copy vpt sub vpt vpt2 Rec fill Bsquare} bind def
/S10 {BL [] 0 setdash 2 copy vpt sub vpt Square fill 2 copy exch vpt sub exch vpt Square fill
	Bsquare} bind def
/S11 {BL [] 0 setdash 2 copy vpt sub vpt Square fill 2 copy exch vpt sub exch vpt2 vpt Rec fill
	Bsquare} bind def
/S12 {BL [] 0 setdash 2 copy exch vpt sub exch vpt sub vpt2 vpt Rec fill Bsquare} bind def
/S13 {BL [] 0 setdash 2 copy exch vpt sub exch vpt sub vpt2 vpt Rec fill
	2 copy vpt Square fill Bsquare} bind def
/S14 {BL [] 0 setdash 2 copy exch vpt sub exch vpt sub vpt2 vpt Rec fill
	2 copy exch vpt sub exch vpt Square fill Bsquare} bind def
/S15 {BL [] 0 setdash 2 copy Bsquare fill Bsquare} bind def
/D0 {gsave translate 45 rotate 0 0 S0 stroke grestore} bind def
/D1 {gsave translate 45 rotate 0 0 S1 stroke grestore} bind def
/D2 {gsave translate 45 rotate 0 0 S2 stroke grestore} bind def
/D3 {gsave translate 45 rotate 0 0 S3 stroke grestore} bind def
/D4 {gsave translate 45 rotate 0 0 S4 stroke grestore} bind def
/D5 {gsave translate 45 rotate 0 0 S5 stroke grestore} bind def
/D6 {gsave translate 45 rotate 0 0 S6 stroke grestore} bind def
/D7 {gsave translate 45 rotate 0 0 S7 stroke grestore} bind def
/D8 {gsave translate 45 rotate 0 0 S8 stroke grestore} bind def
/D9 {gsave translate 45 rotate 0 0 S9 stroke grestore} bind def
/D10 {gsave translate 45 rotate 0 0 S10 stroke grestore} bind def
/D11 {gsave translate 45 rotate 0 0 S11 stroke grestore} bind def
/D12 {gsave translate 45 rotate 0 0 S12 stroke grestore} bind def
/D13 {gsave translate 45 rotate 0 0 S13 stroke grestore} bind def
/D14 {gsave translate 45 rotate 0 0 S14 stroke grestore} bind def
/D15 {gsave translate 45 rotate 0 0 S15 stroke grestore} bind def
/DiaE {stroke [] 0 setdash vpt add M
  hpt neg vpt neg V hpt vpt neg V
  hpt vpt V hpt neg vpt V closepath stroke} def
/BoxE {stroke [] 0 setdash exch hpt sub exch vpt add M
  0 vpt2 neg V hpt2 0 V 0 vpt2 V
  hpt2 neg 0 V closepath stroke} def
/TriUE {stroke [] 0 setdash vpt 1.12 mul add M
  hpt neg vpt -1.62 mul V
  hpt 2 mul 0 V
  hpt neg vpt 1.62 mul V closepath stroke} def
/TriDE {stroke [] 0 setdash vpt 1.12 mul sub M
  hpt neg vpt 1.62 mul V
  hpt 2 mul 0 V
  hpt neg vpt -1.62 mul V closepath stroke} def
/PentE {stroke [] 0 setdash gsave
  translate 0 hpt M 4 {72 rotate 0 hpt L} repeat
  closepath stroke grestore} def
/CircE {stroke [] 0 setdash 
  hpt 0 360 arc stroke} def
/Opaque {gsave closepath 1 setgray fill grestore 0 setgray closepath} def
/DiaW {stroke [] 0 setdash vpt add M
  hpt neg vpt neg V hpt vpt neg V
  hpt vpt V hpt neg vpt V Opaque stroke} def
/BoxW {stroke [] 0 setdash exch hpt sub exch vpt add M
  0 vpt2 neg V hpt2 0 V 0 vpt2 V
  hpt2 neg 0 V Opaque stroke} def
/TriUW {stroke [] 0 setdash vpt 1.12 mul add M
  hpt neg vpt -1.62 mul V
  hpt 2 mul 0 V
  hpt neg vpt 1.62 mul V Opaque stroke} def
/TriDW {stroke [] 0 setdash vpt 1.12 mul sub M
  hpt neg vpt 1.62 mul V
  hpt 2 mul 0 V
  hpt neg vpt -1.62 mul V Opaque stroke} def
/PentW {stroke [] 0 setdash gsave
  translate 0 hpt M 4 {72 rotate 0 hpt L} repeat
  Opaque stroke grestore} def
/CircW {stroke [] 0 setdash 
  hpt 0 360 arc Opaque stroke} def
/BoxFill {gsave Rec 1 setgray fill grestore} def
/Density {
  /Fillden exch def
  currentrgbcolor
  /ColB exch def /ColG exch def /ColR exch def
  /ColR ColR Fillden mul Fillden sub 1 add def
  /ColG ColG Fillden mul Fillden sub 1 add def
  /ColB ColB Fillden mul Fillden sub 1 add def
  ColR ColG ColB setrgbcolor} def
/BoxColFill {gsave Rec PolyFill} def
/PolyFill {gsave Density fill grestore grestore} def
/h {rlineto rlineto rlineto gsave closepath fill grestore} bind def
%
% PostScript Level 1 Pattern Fill routine for rectangles
% Usage: x y w h s a XX PatternFill
%	x,y = lower left corner of box to be filled
%	w,h = width and height of box
%	  a = angle in degrees between lines and x-axis
%	 XX = 0/1 for no/yes cross-hatch
%
/PatternFill {gsave /PFa [ 9 2 roll ] def
  PFa 0 get PFa 2 get 2 div add PFa 1 get PFa 3 get 2 div add translate
  PFa 2 get -2 div PFa 3 get -2 div PFa 2 get PFa 3 get Rec
  TransparentPatterns {} {gsave 1 setgray fill grestore} ifelse
  clip
  currentlinewidth 0.5 mul setlinewidth
  /PFs PFa 2 get dup mul PFa 3 get dup mul add sqrt def
  0 0 M PFa 5 get rotate PFs -2 div dup translate
  0 1 PFs PFa 4 get div 1 add floor cvi
	{PFa 4 get mul 0 M 0 PFs V} for
  0 PFa 6 get ne {
	0 1 PFs PFa 4 get div 1 add floor cvi
	{PFa 4 get mul 0 2 1 roll M PFs 0 V} for
 } if
  stroke grestore} def
%
/languagelevel where
 {pop languagelevel} {1} ifelse
 2 lt
	{/InterpretLevel1 true def}
	{/InterpretLevel1 Level1 def}
 ifelse
%
% PostScript level 2 pattern fill definitions
%
/Level2PatternFill {
/Tile8x8 {/PaintType 2 /PatternType 1 /TilingType 1 /BBox [0 0 8 8] /XStep 8 /YStep 8}
	bind def
/KeepColor {currentrgbcolor [/Pattern /DeviceRGB] setcolorspace} bind def
<< Tile8x8
 /PaintProc {0.5 setlinewidth pop 0 0 M 8 8 L 0 8 M 8 0 L stroke} 
>> matrix makepattern
/Pat1 exch def
<< Tile8x8
 /PaintProc {0.5 setlinewidth pop 0 0 M 8 8 L 0 8 M 8 0 L stroke
	0 4 M 4 8 L 8 4 L 4 0 L 0 4 L stroke}
>> matrix makepattern
/Pat2 exch def
<< Tile8x8
 /PaintProc {0.5 setlinewidth pop 0 0 M 0 8 L
	8 8 L 8 0 L 0 0 L fill}
>> matrix makepattern
/Pat3 exch def
<< Tile8x8
 /PaintProc {0.5 setlinewidth pop -4 8 M 8 -4 L
	0 12 M 12 0 L stroke}
>> matrix makepattern
/Pat4 exch def
<< Tile8x8
 /PaintProc {0.5 setlinewidth pop -4 0 M 8 12 L
	0 -4 M 12 8 L stroke}
>> matrix makepattern
/Pat5 exch def
<< Tile8x8
 /PaintProc {0.5 setlinewidth pop -2 8 M 4 -4 L
	0 12 M 8 -4 L 4 12 M 10 0 L stroke}
>> matrix makepattern
/Pat6 exch def
<< Tile8x8
 /PaintProc {0.5 setlinewidth pop -2 0 M 4 12 L
	0 -4 M 8 12 L 4 -4 M 10 8 L stroke}
>> matrix makepattern
/Pat7 exch def
<< Tile8x8
 /PaintProc {0.5 setlinewidth pop 8 -2 M -4 4 L
	12 0 M -4 8 L 12 4 M 0 10 L stroke}
>> matrix makepattern
/Pat8 exch def
<< Tile8x8
 /PaintProc {0.5 setlinewidth pop 0 -2 M 12 4 L
	-4 0 M 12 8 L -4 4 M 8 10 L stroke}
>> matrix makepattern
/Pat9 exch def
/Pattern1 {PatternBgnd KeepColor Pat1 setpattern} bind def
/Pattern2 {PatternBgnd KeepColor Pat2 setpattern} bind def
/Pattern3 {PatternBgnd KeepColor Pat3 setpattern} bind def
/Pattern4 {PatternBgnd KeepColor Landscape {Pat5} {Pat4} ifelse setpattern} bind def
/Pattern5 {PatternBgnd KeepColor Landscape {Pat4} {Pat5} ifelse setpattern} bind def
/Pattern6 {PatternBgnd KeepColor Landscape {Pat9} {Pat6} ifelse setpattern} bind def
/Pattern7 {PatternBgnd KeepColor Landscape {Pat8} {Pat7} ifelse setpattern} bind def
} def
%
%
%End of PostScript Level 2 code
%
/PatternBgnd {
  TransparentPatterns {} {gsave 1 setgray fill grestore} ifelse
} def
%
% Substitute for Level 2 pattern fill codes with
% grayscale if Level 2 support is not selected.
%
/Level1PatternFill {
/Pattern1 {0.250 Density} bind def
/Pattern2 {0.500 Density} bind def
/Pattern3 {0.750 Density} bind def
/Pattern4 {0.125 Density} bind def
/Pattern5 {0.375 Density} bind def
/Pattern6 {0.625 Density} bind def
/Pattern7 {0.875 Density} bind def
} def
%
% Now test for support of Level 2 code
%
Level1 {Level1PatternFill} {Level2PatternFill} ifelse
%
/Symbol-Oblique /Symbol findfont [1 0 .167 1 0 0] makefont
dup length dict begin {1 index /FID eq {pop pop} {def} ifelse} forall
currentdict end definefont pop
Level1 SuppressPDFMark or 
{} {
/SDict 10 dict def
systemdict /pdfmark known not {
  userdict /pdfmark systemdict /cleartomark get put
} if
SDict begin [
  /Title (speedup_adj_input_sac.tex)
  /Subject (gnuplot plot)
  /Creator (gnuplot 4.6 patchlevel 5)
  /Author (yummiii)
%  /Producer (gnuplot)
%  /Keywords ()
  /CreationDate (Mon Jan 11 03:14:22 2016)
  /DOCINFO pdfmark
end
} ifelse
end
%%EndProlog
%%Page: 1 1
gnudict begin
gsave
doclip
50 50 translate
0.050 0.050 scale
0 setgray
newpath
1.000 UL
LTb
814 704 M
63 0 V
12898 0 R
-63 0 V
814 1213 M
63 0 V
12898 0 R
-63 0 V
814 1723 M
63 0 V
12898 0 R
-63 0 V
814 2232 M
63 0 V
12898 0 R
-63 0 V
814 2741 M
63 0 V
12898 0 R
-63 0 V
814 3250 M
63 0 V
12898 0 R
-63 0 V
814 3760 M
63 0 V
12898 0 R
-63 0 V
814 4269 M
63 0 V
12898 0 R
-63 0 V
814 704 M
0 63 V
0 3502 R
0 -63 V
3307 704 M
0 63 V
0 3502 R
0 -63 V
5799 704 M
0 63 V
0 3502 R
0 -63 V
8292 704 M
0 63 V
0 3502 R
0 -63 V
10784 704 M
0 63 V
0 3502 R
0 -63 V
13277 704 M
0 63 V
0 3502 R
0 -63 V
stroke
814 4269 N
814 704 L
12961 0 V
0 3565 V
814 4269 L
Z stroke
1.000 UP
1.000 UL
LTb
1.000 UL
LT2
10940 767 N
0 660 V
2703 0 V
0 -660 V
-2703 0 V
Z stroke
10940 1207 M
2703 0 V
1.000 UP
stroke
LT0
0.00 0.00 0.00 C LTb
LT0
0.00 0.00 0.00 C 914 1084 Pls
939 1162 Pls
964 1244 Pls
988 1317 Pls
1013 1395 Pls
1038 1474 Pls
1063 1553 Pls
1088 1619 Pls
1113 1703 Pls
1138 1768 Pls
1163 1863 Pls
1188 1932 Pls
1213 2009 Pls
1238 2078 Pls
1263 2147 Pls
1288 2221 Pls
1313 2297 Pls
1337 2371 Pls
1362 2428 Pls
1387 2458 Pls
1412 2541 Pls
1437 2595 Pls
1462 2692 Pls
1487 2739 Pls
1512 2830 Pls
1537 2883 Pls
1562 2937 Pls
1587 3017 Pls
1612 3048 Pls
1637 2487 Pls
1661 2498 Pls
1686 2513 Pls
1711 2547 Pls
1736 2568 Pls
1761 2597 Pls
1786 2615 Pls
1811 2619 Pls
1836 2621 Pls
1861 2673 Pls
1886 2710 Pls
1911 2756 Pls
1936 2795 Pls
1961 2804 Pls
1985 2855 Pls
2010 2894 Pls
2035 2910 Pls
2060 2927 Pls
2085 2986 Pls
2110 3022 Pls
2135 3054 Pls
2160 3081 Pls
2185 3125 Pls
2210 3156 Pls
2235 3176 Pls
2260 3208 Pls
2285 3263 Pls
2310 3280 Pls
2334 3327 Pls
2359 3327 Pls
2384 3372 Pls
2409 3405 Pls
2434 2969 Pls
2459 2997 Pls
2484 3001 Pls
2509 3009 Pls
2534 3024 Pls
2559 3041 Pls
2584 3040 Pls
2609 3053 Pls
2634 3059 Pls
2658 3075 Pls
2683 3110 Pls
2708 3123 Pls
2733 3155 Pls
2758 3166 Pls
2783 3187 Pls
2808 3210 Pls
2833 3245 Pls
2858 3246 Pls
2883 3286 Pls
2908 3295 Pls
2933 3330 Pls
2958 3350 Pls
2982 3363 Pls
3007 3385 Pls
3032 3425 Pls
3057 3438 Pls
3082 3468 Pls
3107 3480 Pls
3132 3506 Pls
3157 3518 Pls
3182 3554 Pls
3207 3521 Pls
3232 3228 Pls
3257 3235 Pls
3282 3246 Pls
3307 3266 Pls
3331 3271 Pls
3356 3290 Pls
3381 3291 Pls
3406 3273 Pls
3431 3292 Pls
3456 3306 Pls
3481 3306 Pls
3506 3341 Pls
3531 3351 Pls
3556 3356 Pls
3581 3371 Pls
3606 3394 Pls
3631 3407 Pls
3655 3425 Pls
3680 3449 Pls
3705 3470 Pls
3730 3476 Pls
3755 3493 Pls
3780 3500 Pls
3805 3523 Pls
3830 3530 Pls
3855 3558 Pls
3880 3562 Pls
3905 3599 Pls
3930 3615 Pls
3955 3621 Pls
3979 3645 Pls
4004 3647 Pls
4029 3366 Pls
4054 3391 Pls
4079 3401 Pls
4104 3402 Pls
4129 3410 Pls
4154 3427 Pls
4179 3410 Pls
4204 3404 Pls
4229 3429 Pls
4254 3436 Pls
4279 3449 Pls
4304 3467 Pls
4328 3470 Pls
4353 3482 Pls
4378 3505 Pls
4403 3512 Pls
4428 3523 Pls
4453 3546 Pls
4478 3548 Pls
4503 3562 Pls
4528 3564 Pls
4553 3585 Pls
4578 3594 Pls
4603 3613 Pls
4628 3619 Pls
4652 3641 Pls
4677 3651 Pls
4702 3667 Pls
4727 3668 Pls
4752 3692 Pls
4777 3725 Pls
4802 3713 Pls
4827 3469 Pls
4852 3490 Pls
4877 3493 Pls
4902 3504 Pls
4927 3501 Pls
4952 3513 Pls
4976 3516 Pls
5001 3511 Pls
5026 3518 Pls
5051 3526 Pls
5076 3539 Pls
5101 3541 Pls
5126 3556 Pls
5151 3563 Pls
5176 3578 Pls
5201 3590 Pls
5226 3595 Pls
5251 3609 Pls
5276 3623 Pls
5301 3630 Pls
5325 3647 Pls
5350 3654 Pls
5375 3664 Pls
5400 3675 Pls
5425 3686 Pls
5450 3702 Pls
5475 3703 Pls
5500 3719 Pls
5525 3721 Pls
5550 3740 Pls
5575 3752 Pls
5600 3762 Pls
5625 3538 Pls
5649 3556 Pls
5674 3558 Pls
5699 3572 Pls
5724 3570 Pls
5749 3580 Pls
5774 3580 Pls
5799 3583 Pls
5824 3594 Pls
5849 3593 Pls
5874 3603 Pls
5899 3611 Pls
5924 3618 Pls
5949 3627 Pls
5973 3640 Pls
5998 3641 Pls
6023 3649 Pls
6048 3666 Pls
6073 3669 Pls
6098 3683 Pls
6123 3689 Pls
6148 3700 Pls
6173 3707 Pls
6198 3727 Pls
6223 3728 Pls
6248 3739 Pls
6273 3745 Pls
6298 3748 Pls
6322 3763 Pls
6347 3773 Pls
6372 3781 Pls
6397 3784 Pls
6422 3604 Pls
6447 3607 Pls
6472 3634 Pls
6497 3631 Pls
6522 3630 Pls
6547 3634 Pls
6572 3631 Pls
6597 3628 Pls
6622 3640 Pls
6646 3650 Pls
6671 3655 Pls
6696 3663 Pls
6721 3666 Pls
6746 3673 Pls
6771 3676 Pls
6796 3692 Pls
6821 3699 Pls
6846 3707 Pls
6871 3717 Pls
6896 3707 Pls
6921 3730 Pls
6946 3740 Pls
6970 3748 Pls
6995 3753 Pls
7020 3763 Pls
7045 3770 Pls
7070 3774 Pls
7095 3785 Pls
7120 3792 Pls
7145 3804 Pls
7170 3811 Pls
7195 3810 Pls
7220 3648 Pls
7245 3653 Pls
7270 3662 Pls
7295 3664 Pls
7319 3674 Pls
7344 3673 Pls
7369 3671 Pls
7394 3674 Pls
7419 3678 Pls
7444 3689 Pls
7469 3684 Pls
7494 3699 Pls
7519 3710 Pls
7544 3710 Pls
7569 3709 Pls
7594 3726 Pls
7619 3729 Pls
7643 3738 Pls
7668 3751 Pls
7693 3754 Pls
7718 3760 Pls
7743 3760 Pls
7768 3771 Pls
7793 3771 Pls
7818 3786 Pls
7843 3795 Pls
7868 3795 Pls
7893 3804 Pls
7918 3817 Pls
7943 3817 Pls
7967 3824 Pls
7992 3832 Pls
8017 3687 Pls
8042 3702 Pls
8067 3695 Pls
8092 3698 Pls
8117 3698 Pls
8142 3697 Pls
8167 3707 Pls
8192 3704 Pls
8217 3711 Pls
8242 3715 Pls
8267 3722 Pls
8292 3728 Pls
8316 3731 Pls
8341 3737 Pls
8366 3744 Pls
8391 3750 Pls
8416 3759 Pls
8441 3767 Pls
8466 3769 Pls
8491 3770 Pls
8516 3779 Pls
8541 3788 Pls
8566 3790 Pls
8591 3800 Pls
8616 3802 Pls
8640 3804 Pls
8665 3811 Pls
8690 3827 Pls
8715 3829 Pls
8740 3838 Pls
8765 3837 Pls
8790 3842 Pls
8815 3716 Pls
8840 3715 Pls
8865 3725 Pls
8890 3727 Pls
8915 3723 Pls
8940 3725 Pls
8964 3729 Pls
8989 3727 Pls
9014 3733 Pls
9039 3733 Pls
9064 3740 Pls
9089 3748 Pls
9114 3754 Pls
9139 3750 Pls
9164 3769 Pls
9189 3776 Pls
9214 3777 Pls
9239 3783 Pls
9264 3789 Pls
9289 3798 Pls
9313 3799 Pls
9338 3800 Pls
9363 3812 Pls
9388 3817 Pls
9413 3820 Pls
9438 3830 Pls
9463 3829 Pls
9488 3842 Pls
9513 3848 Pls
9538 3843 Pls
9563 3851 Pls
9588 3859 Pls
9613 3729 Pls
9637 3746 Pls
9662 3745 Pls
9687 3744 Pls
9712 3752 Pls
9737 3748 Pls
9762 3749 Pls
9787 3746 Pls
9812 3756 Pls
9837 3761 Pls
9862 3765 Pls
9887 3766 Pls
9912 3772 Pls
9937 3782 Pls
9961 3784 Pls
9986 3793 Pls
10011 3795 Pls
10036 3796 Pls
10061 3801 Pls
10086 3806 Pls
10111 3811 Pls
10136 3819 Pls
10161 3824 Pls
10186 3825 Pls
10211 3830 Pls
10236 3839 Pls
10261 3845 Pls
10286 3847 Pls
10310 3853 Pls
10335 3856 Pls
10360 3863 Pls
10385 3873 Pls
10410 3754 Pls
10435 3764 Pls
10460 3762 Pls
10485 3768 Pls
10510 3769 Pls
10535 3766 Pls
10560 3768 Pls
10585 3770 Pls
10610 3766 Pls
10634 3778 Pls
10659 3778 Pls
10684 3781 Pls
10709 3789 Pls
10734 3790 Pls
10759 3801 Pls
10784 3800 Pls
10809 3808 Pls
10834 3812 Pls
10859 3818 Pls
10884 3822 Pls
10909 3826 Pls
10934 3829 Pls
10958 3836 Pls
10983 3840 Pls
11008 3841 Pls
11033 3847 Pls
11058 3853 Pls
11083 3859 Pls
11108 3860 Pls
11133 3866 Pls
11158 3870 Pls
11183 3880 Pls
11208 3770 Pls
11233 3773 Pls
11258 3780 Pls
11283 3785 Pls
11307 3782 Pls
11332 3782 Pls
11357 3785 Pls
11382 3779 Pls
11407 3788 Pls
11432 3790 Pls
11457 3792 Pls
11482 3795 Pls
11507 3801 Pls
11532 3805 Pls
11557 3814 Pls
11582 3816 Pls
11607 3821 Pls
11631 3828 Pls
11656 3824 Pls
11681 3829 Pls
11706 3828 Pls
11731 3841 Pls
11756 3839 Pls
11781 3850 Pls
11806 3856 Pls
11831 3859 Pls
11856 3865 Pls
11881 3870 Pls
11906 3872 Pls
11931 3876 Pls
11955 3879 Pls
11980 3880 Pls
12005 3783 Pls
12030 3788 Pls
12055 3793 Pls
12080 3795 Pls
12105 3794 Pls
12130 3795 Pls
12155 3795 Pls
12180 3794 Pls
12205 3799 Pls
12230 3804 Pls
12255 3806 Pls
12280 3812 Pls
12304 3813 Pls
12329 3819 Pls
12354 3822 Pls
12379 3826 Pls
12404 3829 Pls
12429 3835 Pls
12454 3839 Pls
12479 3837 Pls
12504 3845 Pls
12529 3850 Pls
12554 3850 Pls
12579 3849 Pls
12604 3862 Pls
12628 3865 Pls
12653 3873 Pls
12678 3876 Pls
12703 3876 Pls
12728 3884 Pls
12753 3883 Pls
12778 3891 Pls
12803 3799 Pls
12828 3803 Pls
12853 3805 Pls
12878 3807 Pls
12903 3807 Pls
12928 3805 Pls
12952 3807 Pls
12977 3807 Pls
13002 3810 Pls
13027 3816 Pls
13052 3819 Pls
13077 3822 Pls
13102 3818 Pls
13127 3827 Pls
13152 3833 Pls
13177 3836 Pls
13202 3839 Pls
13227 3840 Pls
13252 3845 Pls
13277 3853 Pls
13301 3852 Pls
13326 3860 Pls
13351 3858 Pls
13376 3861 Pls
13401 3868 Pls
13426 3871 Pls
13451 3882 Pls
13476 3877 Pls
13501 3885 Pls
13526 3884 Pls
13551 3890 Pls
13576 3896 Pls
13215 1097 Pls
1.000 UP
1.000 UL
LT1
0.00 0.00 0.00 C LTb
LT1
0.00 0.00 0.00 C 914 1677 Crs
939 1796 Crs
964 1897 Crs
988 2010 Crs
1013 2124 Crs
1038 2228 Crs
1063 2288 Crs
1088 2369 Crs
1113 2435 Crs
1138 2480 Crs
1163 2554 Crs
1188 2599 Crs
1213 2709 Crs
1238 2709 Crs
1263 2743 Crs
1288 2776 Crs
1313 2788 Crs
1337 2834 Crs
1362 2859 Crs
1387 2905 Crs
1412 2935 Crs
1437 2981 Crs
1462 3013 Crs
1487 3047 Crs
1512 3078 Crs
1537 3132 Crs
1562 3163 Crs
1587 3207 Crs
1612 3317 Crs
1637 3309 Crs
1661 3309 Crs
1686 3312 Crs
1711 3304 Crs
1736 3295 Crs
1761 3286 Crs
1786 3287 Crs
1811 3290 Crs
1836 3291 Crs
1861 3295 Crs
1886 3313 Crs
1911 3322 Crs
1936 3321 Crs
1961 3323 Crs
1985 3317 Crs
2010 3335 Crs
2035 3358 Crs
2060 3352 Crs
2085 3363 Crs
2110 3373 Crs
2135 3380 Crs
2160 3393 Crs
2185 3394 Crs
2210 3404 Crs
2235 3417 Crs
2260 3437 Crs
2285 3440 Crs
2310 3450 Crs
2334 3460 Crs
2359 3483 Crs
2384 3492 Crs
2409 3512 Crs
2434 3507 Crs
2459 3499 Crs
2484 3497 Crs
2509 3495 Crs
2534 3490 Crs
2559 3489 Crs
2584 3492 Crs
2609 3483 Crs
2634 3486 Crs
2658 3491 Crs
2683 3494 Crs
2708 3484 Crs
2733 3495 Crs
2758 3496 Crs
2783 3501 Crs
2808 3501 Crs
2833 3497 Crs
2858 3504 Crs
2883 3508 Crs
2908 3509 Crs
2933 3520 Crs
2958 3529 Crs
2982 3524 Crs
3007 3530 Crs
3032 3541 Crs
3057 3544 Crs
3082 3550 Crs
3107 3551 Crs
3132 3557 Crs
3157 3572 Crs
3182 3573 Crs
3207 3573 Crs
3232 3575 Crs
3257 3575 Crs
3282 3579 Crs
3307 3575 Crs
3331 3573 Crs
3356 3571 Crs
3381 3568 Crs
3406 3577 Crs
3431 3571 Crs
3456 3577 Crs
3481 3573 Crs
3506 3578 Crs
3531 3575 Crs
3556 3575 Crs
3581 3570 Crs
3606 3575 Crs
3631 3583 Crs
3655 3573 Crs
3680 3584 Crs
3705 3585 Crs
3730 3583 Crs
3755 3591 Crs
3780 3592 Crs
3805 3593 Crs
3830 3604 Crs
3855 3602 Crs
3880 3598 Crs
3905 3607 Crs
3930 3608 Crs
3955 3611 Crs
3979 3616 Crs
4004 3621 Crs
4029 3621 Crs
4054 3618 Crs
4079 3617 Crs
4104 3619 Crs
4129 3621 Crs
4154 3621 Crs
4179 3625 Crs
4204 3617 Crs
4229 3619 Crs
4254 3616 Crs
4279 3618 Crs
4304 3613 Crs
4328 3621 Crs
4353 3617 Crs
4378 3617 Crs
4403 3626 Crs
4428 3620 Crs
4453 3619 Crs
4478 3623 Crs
4503 3623 Crs
4528 3627 Crs
4553 3630 Crs
4578 3629 Crs
4603 3628 Crs
4628 3632 Crs
4652 3635 Crs
4677 3636 Crs
4702 3640 Crs
4727 3640 Crs
4752 3640 Crs
4777 3646 Crs
4802 3650 Crs
4827 3647 Crs
4852 3652 Crs
4877 3649 Crs
4902 3650 Crs
4927 3646 Crs
4952 3650 Crs
4976 3642 Crs
5001 3650 Crs
5026 3653 Crs
5051 3649 Crs
5076 3652 Crs
5101 3646 Crs
5126 3650 Crs
5151 3654 Crs
5176 3651 Crs
5201 3649 Crs
5226 3653 Crs
5251 3651 Crs
5276 3658 Crs
5301 3652 Crs
5325 3655 Crs
5350 3659 Crs
5375 3657 Crs
5400 3660 Crs
5425 3655 Crs
5450 3662 Crs
5475 3660 Crs
5500 3668 Crs
5525 3666 Crs
5550 3667 Crs
5575 3668 Crs
5600 3668 Crs
5625 3673 Crs
5649 3670 Crs
5674 3671 Crs
5699 3674 Crs
5724 3671 Crs
5749 3671 Crs
5774 3676 Crs
5799 3668 Crs
5824 3673 Crs
5849 3671 Crs
5874 3674 Crs
5899 3671 Crs
5924 3675 Crs
5949 3672 Crs
5973 3675 Crs
5998 3673 Crs
6023 3680 Crs
6048 3678 Crs
6073 3676 Crs
6098 3676 Crs
6123 3672 Crs
6148 3676 Crs
6173 3680 Crs
6198 3679 Crs
6223 3682 Crs
6248 3684 Crs
6273 3677 Crs
6298 3681 Crs
6322 3683 Crs
6347 3688 Crs
6372 3689 Crs
6397 3688 Crs
6422 3687 Crs
6447 3684 Crs
6472 3691 Crs
6497 3691 Crs
6522 3686 Crs
6547 3688 Crs
6572 3692 Crs
6597 3688 Crs
6622 3689 Crs
6646 3691 Crs
6671 3692 Crs
6696 3689 Crs
6721 3686 Crs
6746 3689 Crs
6771 3690 Crs
6796 3691 Crs
6821 3687 Crs
6846 3690 Crs
6871 3694 Crs
6896 3694 Crs
6921 3697 Crs
6946 3699 Crs
6970 3697 Crs
6995 3699 Crs
7020 3696 Crs
7045 3699 Crs
7070 3704 Crs
7095 3697 Crs
7120 3702 Crs
7145 3703 Crs
7170 3704 Crs
7195 3707 Crs
7220 3700 Crs
7245 3706 Crs
7270 3707 Crs
7295 3705 Crs
7319 3703 Crs
7344 3714 Crs
7369 3708 Crs
7394 3700 Crs
7419 3707 Crs
7444 3705 Crs
7469 3710 Crs
7494 3699 Crs
7519 3707 Crs
7544 3710 Crs
7569 3709 Crs
7594 3709 Crs
7619 3708 Crs
7643 3707 Crs
7668 3712 Crs
7693 3712 Crs
7718 3703 Crs
7743 3710 Crs
7768 3712 Crs
7793 3715 Crs
7818 3715 Crs
7843 3712 Crs
7868 3711 Crs
7893 3715 Crs
7918 3721 Crs
7943 3714 Crs
7967 3712 Crs
7992 3710 Crs
8017 3722 Crs
8042 3717 Crs
8067 3716 Crs
8092 3713 Crs
8117 3718 Crs
8142 3712 Crs
8167 3719 Crs
8192 3719 Crs
8217 3721 Crs
8242 3722 Crs
8267 3721 Crs
8292 3727 Crs
8316 3720 Crs
8341 3721 Crs
8366 3714 Crs
8391 3720 Crs
8416 3722 Crs
8441 3718 Crs
8466 3724 Crs
8491 3721 Crs
8516 3720 Crs
8541 3716 Crs
8566 3723 Crs
8591 3725 Crs
8616 3729 Crs
8640 3726 Crs
8665 3719 Crs
8690 3728 Crs
8715 3728 Crs
8740 3729 Crs
8765 3726 Crs
8790 3725 Crs
8815 3733 Crs
8840 3731 Crs
8865 3729 Crs
8890 3731 Crs
8915 3718 Crs
8940 3724 Crs
8964 3727 Crs
8989 3724 Crs
9014 3728 Crs
9039 3722 Crs
9064 3728 Crs
9089 3734 Crs
9114 3734 Crs
9139 3727 Crs
9164 3733 Crs
9189 3732 Crs
9214 3731 Crs
9239 3732 Crs
9264 3731 Crs
9289 3732 Crs
9313 3731 Crs
9338 3736 Crs
9363 3734 Crs
9388 3735 Crs
9413 3734 Crs
9438 3732 Crs
9463 3738 Crs
9488 3736 Crs
9513 3744 Crs
9538 3729 Crs
9563 3734 Crs
9588 3737 Crs
9613 3734 Crs
9637 3736 Crs
9662 3735 Crs
9687 3741 Crs
9712 3741 Crs
9737 3736 Crs
9762 3741 Crs
9787 3738 Crs
9812 3738 Crs
9837 3737 Crs
9862 3737 Crs
9887 3740 Crs
9912 3736 Crs
9937 3738 Crs
9961 3739 Crs
9986 3742 Crs
10011 3743 Crs
10036 3740 Crs
10061 3747 Crs
10086 3751 Crs
10111 3745 Crs
10136 3742 Crs
10161 3742 Crs
10186 3740 Crs
10211 3738 Crs
10236 3751 Crs
10261 3749 Crs
10286 3743 Crs
10310 3744 Crs
10335 3744 Crs
10360 3750 Crs
10385 3746 Crs
10410 3750 Crs
10435 3746 Crs
10460 3744 Crs
10485 3749 Crs
10510 3751 Crs
10535 3747 Crs
10560 3753 Crs
10585 3751 Crs
10610 3753 Crs
10634 3752 Crs
10659 3757 Crs
10684 3753 Crs
10709 3749 Crs
10734 3753 Crs
10759 3749 Crs
10784 3746 Crs
10809 3752 Crs
10834 3749 Crs
10859 3743 Crs
10884 3748 Crs
10909 3748 Crs
10934 3750 Crs
10958 3748 Crs
10983 3751 Crs
11008 3745 Crs
11033 3750 Crs
11058 3751 Crs
11083 3753 Crs
11108 3749 Crs
11133 3753 Crs
11158 3755 Crs
11183 3752 Crs
11208 3750 Crs
11233 3755 Crs
11258 3759 Crs
11283 3753 Crs
11307 3758 Crs
11332 3755 Crs
11357 3753 Crs
11382 3752 Crs
11407 3748 Crs
11432 3754 Crs
11457 3751 Crs
11482 3749 Crs
11507 3758 Crs
11532 3753 Crs
11557 3754 Crs
11582 3756 Crs
11607 3754 Crs
11631 3763 Crs
11656 3754 Crs
11681 3758 Crs
11706 3758 Crs
11731 3749 Crs
11756 3761 Crs
11781 3750 Crs
11806 3761 Crs
11831 3759 Crs
11856 3754 Crs
11881 3763 Crs
11906 3762 Crs
11931 3757 Crs
11955 3756 Crs
11980 3757 Crs
12005 3764 Crs
12030 3765 Crs
12055 3763 Crs
12080 3763 Crs
12105 3761 Crs
12130 3765 Crs
12155 3758 Crs
12180 3765 Crs
12205 3760 Crs
12230 3757 Crs
12255 3758 Crs
12280 3758 Crs
12304 3752 Crs
12329 3763 Crs
12354 3763 Crs
12379 3768 Crs
12404 3762 Crs
12429 3764 Crs
12454 3766 Crs
12479 3764 Crs
12504 3767 Crs
12529 3761 Crs
12554 3758 Crs
12579 3770 Crs
12604 3763 Crs
12628 3768 Crs
12653 3767 Crs
12678 3759 Crs
12703 3763 Crs
12728 3768 Crs
12753 3765 Crs
12778 3770 Crs
12803 3762 Crs
12828 3765 Crs
12853 3764 Crs
12878 3771 Crs
12903 3768 Crs
12928 3766 Crs
12952 3767 Crs
12977 3767 Crs
13002 3762 Crs
13027 3771 Crs
13052 3771 Crs
13077 3766 Crs
13102 3771 Crs
13127 3770 Crs
13152 3766 Crs
13177 3759 Crs
13202 3774 Crs
13227 3768 Crs
13252 3764 Crs
13277 3767 Crs
13301 3766 Crs
13326 3770 Crs
13351 3769 Crs
13376 3772 Crs
13401 3770 Crs
13426 3773 Crs
13451 3770 Crs
13476 3777 Crs
13501 3775 Crs
13526 3766 Crs
13551 3772 Crs
13576 3769 Crs
13215 877 Crs
1.000 UL
LTb
814 4269 N
814 704 L
12961 0 V
0 3565 V
814 4269 L
Z stroke
1.000 UP
1.000 UL
LTb
stroke
grestore
end
showpage
%%Trailer
