%!PS-Adobe-2.0 EPSF-2.0
%%Title: speedup_adj_input_qac.tex
%%Creator: gnuplot 4.6 patchlevel 5
%%CreationDate: Mon Jan 11 03:14:22 2016
%%DocumentFonts: 
%%BoundingBox: 50 50 758 276
%%EndComments
%%BeginProlog
/gnudict 256 dict def
gnudict begin
%
% The following true/false flags may be edited by hand if desired.
% The unit line width and grayscale image gamma correction may also be changed.
%
/Color false def
/Blacktext true def
/Solid false def
/Dashlength 1 def
/Landscape false def
/Level1 false def
/Rounded false def
/ClipToBoundingBox false def
/SuppressPDFMark false def
/TransparentPatterns false def
/gnulinewidth 5.000 def
/userlinewidth gnulinewidth def
/Gamma 1.0 def
/BackgroundColor {-1.000 -1.000 -1.000} def
%
/vshift -73 def
/dl1 {
  10.0 Dashlength mul mul
  Rounded { currentlinewidth 0.75 mul sub dup 0 le { pop 0.01 } if } if
} def
/dl2 {
  10.0 Dashlength mul mul
  Rounded { currentlinewidth 0.75 mul add } if
} def
/hpt_ 31.5 def
/vpt_ 31.5 def
/hpt hpt_ def
/vpt vpt_ def
/doclip {
  ClipToBoundingBox {
    newpath 50 50 moveto 758 50 lineto 758 276 lineto 50 276 lineto closepath
    clip
  } if
} def
%
% Gnuplot Prolog Version 4.6 (September 2012)
%
%/SuppressPDFMark true def
%
/M {moveto} bind def
/L {lineto} bind def
/R {rmoveto} bind def
/V {rlineto} bind def
/N {newpath moveto} bind def
/Z {closepath} bind def
/C {setrgbcolor} bind def
/f {rlineto fill} bind def
/g {setgray} bind def
/Gshow {show} def   % May be redefined later in the file to support UTF-8
/vpt2 vpt 2 mul def
/hpt2 hpt 2 mul def
/Lshow {currentpoint stroke M 0 vshift R 
	Blacktext {gsave 0 setgray show grestore} {show} ifelse} def
/Rshow {currentpoint stroke M dup stringwidth pop neg vshift R
	Blacktext {gsave 0 setgray show grestore} {show} ifelse} def
/Cshow {currentpoint stroke M dup stringwidth pop -2 div vshift R 
	Blacktext {gsave 0 setgray show grestore} {show} ifelse} def
/UP {dup vpt_ mul /vpt exch def hpt_ mul /hpt exch def
  /hpt2 hpt 2 mul def /vpt2 vpt 2 mul def} def
/DL {Color {setrgbcolor Solid {pop []} if 0 setdash}
 {pop pop pop 0 setgray Solid {pop []} if 0 setdash} ifelse} def
/BL {stroke userlinewidth 2 mul setlinewidth
	Rounded {1 setlinejoin 1 setlinecap} if} def
/AL {stroke userlinewidth 2 div setlinewidth
	Rounded {1 setlinejoin 1 setlinecap} if} def
/UL {dup gnulinewidth mul /userlinewidth exch def
	dup 1 lt {pop 1} if 10 mul /udl exch def} def
/PL {stroke userlinewidth setlinewidth
	Rounded {1 setlinejoin 1 setlinecap} if} def
3.8 setmiterlimit
% Default Line colors
/LCw {1 1 1} def
/LCb {0 0 0} def
/LCa {0 0 0} def
/LC0 {1 0 0} def
/LC1 {0 1 0} def
/LC2 {0 0 1} def
/LC3 {1 0 1} def
/LC4 {0 1 1} def
/LC5 {1 1 0} def
/LC6 {0 0 0} def
/LC7 {1 0.3 0} def
/LC8 {0.5 0.5 0.5} def
% Default Line Types
/LTw {PL [] 1 setgray} def
/LTb {BL [] LCb DL} def
/LTa {AL [1 udl mul 2 udl mul] 0 setdash LCa setrgbcolor} def
/LT0 {PL [] LC0 DL} def
/LT1 {PL [4 dl1 2 dl2] LC1 DL} def
/LT2 {PL [2 dl1 3 dl2] LC2 DL} def
/LT3 {PL [1 dl1 1.5 dl2] LC3 DL} def
/LT4 {PL [6 dl1 2 dl2 1 dl1 2 dl2] LC4 DL} def
/LT5 {PL [3 dl1 3 dl2 1 dl1 3 dl2] LC5 DL} def
/LT6 {PL [2 dl1 2 dl2 2 dl1 6 dl2] LC6 DL} def
/LT7 {PL [1 dl1 2 dl2 6 dl1 2 dl2 1 dl1 2 dl2] LC7 DL} def
/LT8 {PL [2 dl1 2 dl2 2 dl1 2 dl2 2 dl1 2 dl2 2 dl1 4 dl2] LC8 DL} def
/Pnt {stroke [] 0 setdash gsave 1 setlinecap M 0 0 V stroke grestore} def
/Dia {stroke [] 0 setdash 2 copy vpt add M
  hpt neg vpt neg V hpt vpt neg V
  hpt vpt V hpt neg vpt V closepath stroke
  Pnt} def
/Pls {stroke [] 0 setdash vpt sub M 0 vpt2 V
  currentpoint stroke M
  hpt neg vpt neg R hpt2 0 V stroke
 } def
/Box {stroke [] 0 setdash 2 copy exch hpt sub exch vpt add M
  0 vpt2 neg V hpt2 0 V 0 vpt2 V
  hpt2 neg 0 V closepath stroke
  Pnt} def
/Crs {stroke [] 0 setdash exch hpt sub exch vpt add M
  hpt2 vpt2 neg V currentpoint stroke M
  hpt2 neg 0 R hpt2 vpt2 V stroke} def
/TriU {stroke [] 0 setdash 2 copy vpt 1.12 mul add M
  hpt neg vpt -1.62 mul V
  hpt 2 mul 0 V
  hpt neg vpt 1.62 mul V closepath stroke
  Pnt} def
/Star {2 copy Pls Crs} def
/BoxF {stroke [] 0 setdash exch hpt sub exch vpt add M
  0 vpt2 neg V hpt2 0 V 0 vpt2 V
  hpt2 neg 0 V closepath fill} def
/TriUF {stroke [] 0 setdash vpt 1.12 mul add M
  hpt neg vpt -1.62 mul V
  hpt 2 mul 0 V
  hpt neg vpt 1.62 mul V closepath fill} def
/TriD {stroke [] 0 setdash 2 copy vpt 1.12 mul sub M
  hpt neg vpt 1.62 mul V
  hpt 2 mul 0 V
  hpt neg vpt -1.62 mul V closepath stroke
  Pnt} def
/TriDF {stroke [] 0 setdash vpt 1.12 mul sub M
  hpt neg vpt 1.62 mul V
  hpt 2 mul 0 V
  hpt neg vpt -1.62 mul V closepath fill} def
/DiaF {stroke [] 0 setdash vpt add M
  hpt neg vpt neg V hpt vpt neg V
  hpt vpt V hpt neg vpt V closepath fill} def
/Pent {stroke [] 0 setdash 2 copy gsave
  translate 0 hpt M 4 {72 rotate 0 hpt L} repeat
  closepath stroke grestore Pnt} def
/PentF {stroke [] 0 setdash gsave
  translate 0 hpt M 4 {72 rotate 0 hpt L} repeat
  closepath fill grestore} def
/Circle {stroke [] 0 setdash 2 copy
  hpt 0 360 arc stroke Pnt} def
/CircleF {stroke [] 0 setdash hpt 0 360 arc fill} def
/C0 {BL [] 0 setdash 2 copy moveto vpt 90 450 arc} bind def
/C1 {BL [] 0 setdash 2 copy moveto
	2 copy vpt 0 90 arc closepath fill
	vpt 0 360 arc closepath} bind def
/C2 {BL [] 0 setdash 2 copy moveto
	2 copy vpt 90 180 arc closepath fill
	vpt 0 360 arc closepath} bind def
/C3 {BL [] 0 setdash 2 copy moveto
	2 copy vpt 0 180 arc closepath fill
	vpt 0 360 arc closepath} bind def
/C4 {BL [] 0 setdash 2 copy moveto
	2 copy vpt 180 270 arc closepath fill
	vpt 0 360 arc closepath} bind def
/C5 {BL [] 0 setdash 2 copy moveto
	2 copy vpt 0 90 arc
	2 copy moveto
	2 copy vpt 180 270 arc closepath fill
	vpt 0 360 arc} bind def
/C6 {BL [] 0 setdash 2 copy moveto
	2 copy vpt 90 270 arc closepath fill
	vpt 0 360 arc closepath} bind def
/C7 {BL [] 0 setdash 2 copy moveto
	2 copy vpt 0 270 arc closepath fill
	vpt 0 360 arc closepath} bind def
/C8 {BL [] 0 setdash 2 copy moveto
	2 copy vpt 270 360 arc closepath fill
	vpt 0 360 arc closepath} bind def
/C9 {BL [] 0 setdash 2 copy moveto
	2 copy vpt 270 450 arc closepath fill
	vpt 0 360 arc closepath} bind def
/C10 {BL [] 0 setdash 2 copy 2 copy moveto vpt 270 360 arc closepath fill
	2 copy moveto
	2 copy vpt 90 180 arc closepath fill
	vpt 0 360 arc closepath} bind def
/C11 {BL [] 0 setdash 2 copy moveto
	2 copy vpt 0 180 arc closepath fill
	2 copy moveto
	2 copy vpt 270 360 arc closepath fill
	vpt 0 360 arc closepath} bind def
/C12 {BL [] 0 setdash 2 copy moveto
	2 copy vpt 180 360 arc closepath fill
	vpt 0 360 arc closepath} bind def
/C13 {BL [] 0 setdash 2 copy moveto
	2 copy vpt 0 90 arc closepath fill
	2 copy moveto
	2 copy vpt 180 360 arc closepath fill
	vpt 0 360 arc closepath} bind def
/C14 {BL [] 0 setdash 2 copy moveto
	2 copy vpt 90 360 arc closepath fill
	vpt 0 360 arc} bind def
/C15 {BL [] 0 setdash 2 copy vpt 0 360 arc closepath fill
	vpt 0 360 arc closepath} bind def
/Rec {newpath 4 2 roll moveto 1 index 0 rlineto 0 exch rlineto
	neg 0 rlineto closepath} bind def
/Square {dup Rec} bind def
/Bsquare {vpt sub exch vpt sub exch vpt2 Square} bind def
/S0 {BL [] 0 setdash 2 copy moveto 0 vpt rlineto BL Bsquare} bind def
/S1 {BL [] 0 setdash 2 copy vpt Square fill Bsquare} bind def
/S2 {BL [] 0 setdash 2 copy exch vpt sub exch vpt Square fill Bsquare} bind def
/S3 {BL [] 0 setdash 2 copy exch vpt sub exch vpt2 vpt Rec fill Bsquare} bind def
/S4 {BL [] 0 setdash 2 copy exch vpt sub exch vpt sub vpt Square fill Bsquare} bind def
/S5 {BL [] 0 setdash 2 copy 2 copy vpt Square fill
	exch vpt sub exch vpt sub vpt Square fill Bsquare} bind def
/S6 {BL [] 0 setdash 2 copy exch vpt sub exch vpt sub vpt vpt2 Rec fill Bsquare} bind def
/S7 {BL [] 0 setdash 2 copy exch vpt sub exch vpt sub vpt vpt2 Rec fill
	2 copy vpt Square fill Bsquare} bind def
/S8 {BL [] 0 setdash 2 copy vpt sub vpt Square fill Bsquare} bind def
/S9 {BL [] 0 setdash 2 copy vpt sub vpt vpt2 Rec fill Bsquare} bind def
/S10 {BL [] 0 setdash 2 copy vpt sub vpt Square fill 2 copy exch vpt sub exch vpt Square fill
	Bsquare} bind def
/S11 {BL [] 0 setdash 2 copy vpt sub vpt Square fill 2 copy exch vpt sub exch vpt2 vpt Rec fill
	Bsquare} bind def
/S12 {BL [] 0 setdash 2 copy exch vpt sub exch vpt sub vpt2 vpt Rec fill Bsquare} bind def
/S13 {BL [] 0 setdash 2 copy exch vpt sub exch vpt sub vpt2 vpt Rec fill
	2 copy vpt Square fill Bsquare} bind def
/S14 {BL [] 0 setdash 2 copy exch vpt sub exch vpt sub vpt2 vpt Rec fill
	2 copy exch vpt sub exch vpt Square fill Bsquare} bind def
/S15 {BL [] 0 setdash 2 copy Bsquare fill Bsquare} bind def
/D0 {gsave translate 45 rotate 0 0 S0 stroke grestore} bind def
/D1 {gsave translate 45 rotate 0 0 S1 stroke grestore} bind def
/D2 {gsave translate 45 rotate 0 0 S2 stroke grestore} bind def
/D3 {gsave translate 45 rotate 0 0 S3 stroke grestore} bind def
/D4 {gsave translate 45 rotate 0 0 S4 stroke grestore} bind def
/D5 {gsave translate 45 rotate 0 0 S5 stroke grestore} bind def
/D6 {gsave translate 45 rotate 0 0 S6 stroke grestore} bind def
/D7 {gsave translate 45 rotate 0 0 S7 stroke grestore} bind def
/D8 {gsave translate 45 rotate 0 0 S8 stroke grestore} bind def
/D9 {gsave translate 45 rotate 0 0 S9 stroke grestore} bind def
/D10 {gsave translate 45 rotate 0 0 S10 stroke grestore} bind def
/D11 {gsave translate 45 rotate 0 0 S11 stroke grestore} bind def
/D12 {gsave translate 45 rotate 0 0 S12 stroke grestore} bind def
/D13 {gsave translate 45 rotate 0 0 S13 stroke grestore} bind def
/D14 {gsave translate 45 rotate 0 0 S14 stroke grestore} bind def
/D15 {gsave translate 45 rotate 0 0 S15 stroke grestore} bind def
/DiaE {stroke [] 0 setdash vpt add M
  hpt neg vpt neg V hpt vpt neg V
  hpt vpt V hpt neg vpt V closepath stroke} def
/BoxE {stroke [] 0 setdash exch hpt sub exch vpt add M
  0 vpt2 neg V hpt2 0 V 0 vpt2 V
  hpt2 neg 0 V closepath stroke} def
/TriUE {stroke [] 0 setdash vpt 1.12 mul add M
  hpt neg vpt -1.62 mul V
  hpt 2 mul 0 V
  hpt neg vpt 1.62 mul V closepath stroke} def
/TriDE {stroke [] 0 setdash vpt 1.12 mul sub M
  hpt neg vpt 1.62 mul V
  hpt 2 mul 0 V
  hpt neg vpt -1.62 mul V closepath stroke} def
/PentE {stroke [] 0 setdash gsave
  translate 0 hpt M 4 {72 rotate 0 hpt L} repeat
  closepath stroke grestore} def
/CircE {stroke [] 0 setdash 
  hpt 0 360 arc stroke} def
/Opaque {gsave closepath 1 setgray fill grestore 0 setgray closepath} def
/DiaW {stroke [] 0 setdash vpt add M
  hpt neg vpt neg V hpt vpt neg V
  hpt vpt V hpt neg vpt V Opaque stroke} def
/BoxW {stroke [] 0 setdash exch hpt sub exch vpt add M
  0 vpt2 neg V hpt2 0 V 0 vpt2 V
  hpt2 neg 0 V Opaque stroke} def
/TriUW {stroke [] 0 setdash vpt 1.12 mul add M
  hpt neg vpt -1.62 mul V
  hpt 2 mul 0 V
  hpt neg vpt 1.62 mul V Opaque stroke} def
/TriDW {stroke [] 0 setdash vpt 1.12 mul sub M
  hpt neg vpt 1.62 mul V
  hpt 2 mul 0 V
  hpt neg vpt -1.62 mul V Opaque stroke} def
/PentW {stroke [] 0 setdash gsave
  translate 0 hpt M 4 {72 rotate 0 hpt L} repeat
  Opaque stroke grestore} def
/CircW {stroke [] 0 setdash 
  hpt 0 360 arc Opaque stroke} def
/BoxFill {gsave Rec 1 setgray fill grestore} def
/Density {
  /Fillden exch def
  currentrgbcolor
  /ColB exch def /ColG exch def /ColR exch def
  /ColR ColR Fillden mul Fillden sub 1 add def
  /ColG ColG Fillden mul Fillden sub 1 add def
  /ColB ColB Fillden mul Fillden sub 1 add def
  ColR ColG ColB setrgbcolor} def
/BoxColFill {gsave Rec PolyFill} def
/PolyFill {gsave Density fill grestore grestore} def
/h {rlineto rlineto rlineto gsave closepath fill grestore} bind def
%
% PostScript Level 1 Pattern Fill routine for rectangles
% Usage: x y w h s a XX PatternFill
%	x,y = lower left corner of box to be filled
%	w,h = width and height of box
%	  a = angle in degrees between lines and x-axis
%	 XX = 0/1 for no/yes cross-hatch
%
/PatternFill {gsave /PFa [ 9 2 roll ] def
  PFa 0 get PFa 2 get 2 div add PFa 1 get PFa 3 get 2 div add translate
  PFa 2 get -2 div PFa 3 get -2 div PFa 2 get PFa 3 get Rec
  TransparentPatterns {} {gsave 1 setgray fill grestore} ifelse
  clip
  currentlinewidth 0.5 mul setlinewidth
  /PFs PFa 2 get dup mul PFa 3 get dup mul add sqrt def
  0 0 M PFa 5 get rotate PFs -2 div dup translate
  0 1 PFs PFa 4 get div 1 add floor cvi
	{PFa 4 get mul 0 M 0 PFs V} for
  0 PFa 6 get ne {
	0 1 PFs PFa 4 get div 1 add floor cvi
	{PFa 4 get mul 0 2 1 roll M PFs 0 V} for
 } if
  stroke grestore} def
%
/languagelevel where
 {pop languagelevel} {1} ifelse
 2 lt
	{/InterpretLevel1 true def}
	{/InterpretLevel1 Level1 def}
 ifelse
%
% PostScript level 2 pattern fill definitions
%
/Level2PatternFill {
/Tile8x8 {/PaintType 2 /PatternType 1 /TilingType 1 /BBox [0 0 8 8] /XStep 8 /YStep 8}
	bind def
/KeepColor {currentrgbcolor [/Pattern /DeviceRGB] setcolorspace} bind def
<< Tile8x8
 /PaintProc {0.5 setlinewidth pop 0 0 M 8 8 L 0 8 M 8 0 L stroke} 
>> matrix makepattern
/Pat1 exch def
<< Tile8x8
 /PaintProc {0.5 setlinewidth pop 0 0 M 8 8 L 0 8 M 8 0 L stroke
	0 4 M 4 8 L 8 4 L 4 0 L 0 4 L stroke}
>> matrix makepattern
/Pat2 exch def
<< Tile8x8
 /PaintProc {0.5 setlinewidth pop 0 0 M 0 8 L
	8 8 L 8 0 L 0 0 L fill}
>> matrix makepattern
/Pat3 exch def
<< Tile8x8
 /PaintProc {0.5 setlinewidth pop -4 8 M 8 -4 L
	0 12 M 12 0 L stroke}
>> matrix makepattern
/Pat4 exch def
<< Tile8x8
 /PaintProc {0.5 setlinewidth pop -4 0 M 8 12 L
	0 -4 M 12 8 L stroke}
>> matrix makepattern
/Pat5 exch def
<< Tile8x8
 /PaintProc {0.5 setlinewidth pop -2 8 M 4 -4 L
	0 12 M 8 -4 L 4 12 M 10 0 L stroke}
>> matrix makepattern
/Pat6 exch def
<< Tile8x8
 /PaintProc {0.5 setlinewidth pop -2 0 M 4 12 L
	0 -4 M 8 12 L 4 -4 M 10 8 L stroke}
>> matrix makepattern
/Pat7 exch def
<< Tile8x8
 /PaintProc {0.5 setlinewidth pop 8 -2 M -4 4 L
	12 0 M -4 8 L 12 4 M 0 10 L stroke}
>> matrix makepattern
/Pat8 exch def
<< Tile8x8
 /PaintProc {0.5 setlinewidth pop 0 -2 M 12 4 L
	-4 0 M 12 8 L -4 4 M 8 10 L stroke}
>> matrix makepattern
/Pat9 exch def
/Pattern1 {PatternBgnd KeepColor Pat1 setpattern} bind def
/Pattern2 {PatternBgnd KeepColor Pat2 setpattern} bind def
/Pattern3 {PatternBgnd KeepColor Pat3 setpattern} bind def
/Pattern4 {PatternBgnd KeepColor Landscape {Pat5} {Pat4} ifelse setpattern} bind def
/Pattern5 {PatternBgnd KeepColor Landscape {Pat4} {Pat5} ifelse setpattern} bind def
/Pattern6 {PatternBgnd KeepColor Landscape {Pat9} {Pat6} ifelse setpattern} bind def
/Pattern7 {PatternBgnd KeepColor Landscape {Pat8} {Pat7} ifelse setpattern} bind def
} def
%
%
%End of PostScript Level 2 code
%
/PatternBgnd {
  TransparentPatterns {} {gsave 1 setgray fill grestore} ifelse
} def
%
% Substitute for Level 2 pattern fill codes with
% grayscale if Level 2 support is not selected.
%
/Level1PatternFill {
/Pattern1 {0.250 Density} bind def
/Pattern2 {0.500 Density} bind def
/Pattern3 {0.750 Density} bind def
/Pattern4 {0.125 Density} bind def
/Pattern5 {0.375 Density} bind def
/Pattern6 {0.625 Density} bind def
/Pattern7 {0.875 Density} bind def
} def
%
% Now test for support of Level 2 code
%
Level1 {Level1PatternFill} {Level2PatternFill} ifelse
%
/Symbol-Oblique /Symbol findfont [1 0 .167 1 0 0] makefont
dup length dict begin {1 index /FID eq {pop pop} {def} ifelse} forall
currentdict end definefont pop
Level1 SuppressPDFMark or 
{} {
/SDict 10 dict def
systemdict /pdfmark known not {
  userdict /pdfmark systemdict /cleartomark get put
} if
SDict begin [
  /Title (speedup_adj_input_qac.tex)
  /Subject (gnuplot plot)
  /Creator (gnuplot 4.6 patchlevel 5)
  /Author (yummiii)
%  /Producer (gnuplot)
%  /Keywords ()
  /CreationDate (Mon Jan 11 03:14:22 2016)
  /DOCINFO pdfmark
end
} ifelse
end
%%EndProlog
%%Page: 1 1
gnudict begin
gsave
doclip
50 50 translate
0.050 0.050 scale
0 setgray
newpath
1.000 UL
LTb
814 704 M
63 0 V
12898 0 R
-63 0 V
814 1213 M
63 0 V
12898 0 R
-63 0 V
814 1723 M
63 0 V
12898 0 R
-63 0 V
814 2232 M
63 0 V
12898 0 R
-63 0 V
814 2741 M
63 0 V
12898 0 R
-63 0 V
814 3250 M
63 0 V
12898 0 R
-63 0 V
814 3760 M
63 0 V
12898 0 R
-63 0 V
814 4269 M
63 0 V
12898 0 R
-63 0 V
814 704 M
0 63 V
0 3502 R
0 -63 V
3307 704 M
0 63 V
0 3502 R
0 -63 V
5799 704 M
0 63 V
0 3502 R
0 -63 V
8292 704 M
0 63 V
0 3502 R
0 -63 V
10784 704 M
0 63 V
0 3502 R
0 -63 V
13277 704 M
0 63 V
0 3502 R
0 -63 V
stroke
814 4269 N
814 704 L
12961 0 V
0 3565 V
814 4269 L
Z stroke
1.000 UP
1.000 UL
LTb
1.000 UL
LT2
10940 767 N
0 660 V
2703 0 V
0 -660 V
-2703 0 V
Z stroke
10940 1207 M
2703 0 V
1.000 UP
stroke
LT0
0.00 0.00 0.00 C LTb
LT0
0.00 0.00 0.00 C 914 1103 Pls
939 1185 Pls
964 1264 Pls
988 1331 Pls
1013 1401 Pls
1038 1478 Pls
1063 1557 Pls
1088 1625 Pls
1113 1707 Pls
1138 1773 Pls
1163 1868 Pls
1188 1935 Pls
1213 2012 Pls
1238 2080 Pls
1263 2150 Pls
1288 2222 Pls
1313 2296 Pls
1337 2370 Pls
1362 2428 Pls
1387 2459 Pls
1412 2542 Pls
1437 2597 Pls
1462 2694 Pls
1487 2742 Pls
1512 2832 Pls
1537 2885 Pls
1562 2942 Pls
1587 3024 Pls
1612 3058 Pls
1637 2518 Pls
1661 2529 Pls
1686 2545 Pls
1711 2576 Pls
1736 2597 Pls
1761 2623 Pls
1786 2636 Pls
1811 2635 Pls
1836 2637 Pls
1861 2689 Pls
1886 2727 Pls
1911 2772 Pls
1936 2811 Pls
1961 2822 Pls
1985 2873 Pls
2010 2912 Pls
2035 2933 Pls
2060 2950 Pls
2085 3009 Pls
2110 3046 Pls
2135 3078 Pls
2160 3106 Pls
2185 3150 Pls
2210 3182 Pls
2235 3203 Pls
2260 3237 Pls
2285 3291 Pls
2310 3306 Pls
2334 3357 Pls
2359 3360 Pls
2384 3403 Pls
2409 3437 Pls
2434 3016 Pls
2459 3044 Pls
2484 3046 Pls
2509 3054 Pls
2534 3064 Pls
2559 3080 Pls
2584 3073 Pls
2609 3081 Pls
2634 3087 Pls
2658 3104 Pls
2683 3139 Pls
2708 3152 Pls
2733 3181 Pls
2758 3195 Pls
2783 3219 Pls
2808 3241 Pls
2833 3274 Pls
2858 3279 Pls
2883 3317 Pls
2908 3327 Pls
2933 3361 Pls
2958 3383 Pls
2982 3396 Pls
3007 3417 Pls
3032 3456 Pls
3057 3471 Pls
3082 3502 Pls
3107 3513 Pls
3132 3540 Pls
3157 3552 Pls
3182 3589 Pls
3207 3556 Pls
3232 3273 Pls
3257 3282 Pls
3282 3295 Pls
3307 3309 Pls
3331 3310 Pls
3356 3325 Pls
3381 3323 Pls
3406 3304 Pls
3431 3320 Pls
3456 3335 Pls
3481 3336 Pls
3506 3372 Pls
3531 3381 Pls
3556 3385 Pls
3581 3400 Pls
3606 3423 Pls
3631 3438 Pls
3655 3457 Pls
3680 3479 Pls
3705 3500 Pls
3730 3507 Pls
3755 3524 Pls
3780 3530 Pls
3805 3554 Pls
3830 3562 Pls
3855 3589 Pls
3880 3592 Pls
3905 3628 Pls
3930 3646 Pls
3955 3650 Pls
3979 3676 Pls
4004 3677 Pls
4029 3409 Pls
4054 3434 Pls
4079 3443 Pls
4104 3443 Pls
4129 3446 Pls
4154 3460 Pls
4179 3440 Pls
4204 3432 Pls
4229 3456 Pls
4254 3463 Pls
4279 3476 Pls
4304 3492 Pls
4328 3496 Pls
4353 3509 Pls
4378 3532 Pls
4403 3537 Pls
4428 3549 Pls
4453 3573 Pls
4478 3575 Pls
4503 3589 Pls
4528 3591 Pls
4553 3612 Pls
4578 3622 Pls
4603 3638 Pls
4628 3647 Pls
4652 3669 Pls
4677 3678 Pls
4702 3693 Pls
4727 3694 Pls
4752 3718 Pls
4777 3751 Pls
4802 3739 Pls
4827 3506 Pls
4852 3526 Pls
4877 3529 Pls
4902 3539 Pls
4927 3534 Pls
4952 3541 Pls
4976 3540 Pls
5001 3534 Pls
5026 3540 Pls
5051 3548 Pls
5076 3561 Pls
5101 3565 Pls
5126 3580 Pls
5151 3586 Pls
5176 3600 Pls
5201 3615 Pls
5226 3618 Pls
5251 3633 Pls
5276 3646 Pls
5301 3653 Pls
5325 3670 Pls
5350 3677 Pls
5375 3687 Pls
5400 3697 Pls
5425 3710 Pls
5450 3724 Pls
5475 3726 Pls
5500 3742 Pls
5525 3744 Pls
5550 3762 Pls
5575 3774 Pls
5600 3783 Pls
5625 3571 Pls
5649 3588 Pls
5674 3590 Pls
5699 3603 Pls
5724 3598 Pls
5749 3606 Pls
5774 3601 Pls
5799 3603 Pls
5824 3613 Pls
5849 3612 Pls
5874 3623 Pls
5899 3629 Pls
5924 3639 Pls
5949 3647 Pls
5973 3659 Pls
5998 3660 Pls
6023 3669 Pls
6048 3686 Pls
6073 3688 Pls
6098 3702 Pls
6123 3709 Pls
6148 3720 Pls
6173 3726 Pls
6198 3745 Pls
6223 3748 Pls
6248 3759 Pls
6273 3765 Pls
6298 3767 Pls
6322 3783 Pls
6347 3794 Pls
6372 3801 Pls
6397 3804 Pls
6422 3632 Pls
6447 3636 Pls
6472 3661 Pls
6497 3657 Pls
6522 3654 Pls
6547 3654 Pls
6572 3650 Pls
6597 3645 Pls
6622 3655 Pls
6646 3666 Pls
6671 3670 Pls
6696 3680 Pls
6721 3682 Pls
6746 3689 Pls
6771 3693 Pls
6796 3708 Pls
6821 3716 Pls
6846 3724 Pls
6871 3734 Pls
6896 3724 Pls
6921 3747 Pls
6946 3756 Pls
6970 3764 Pls
6995 3769 Pls
7020 3778 Pls
7045 3787 Pls
7070 3791 Pls
7095 3802 Pls
7120 3809 Pls
7145 3820 Pls
7170 3828 Pls
7195 3827 Pls
7220 3673 Pls
7245 3678 Pls
7270 3687 Pls
7295 3687 Pls
7319 3694 Pls
7344 3690 Pls
7369 3686 Pls
7394 3688 Pls
7419 3692 Pls
7444 3703 Pls
7469 3697 Pls
7494 3712 Pls
7519 3723 Pls
7544 3723 Pls
7569 3724 Pls
7594 3740 Pls
7619 3743 Pls
7643 3751 Pls
7668 3765 Pls
7693 3767 Pls
7718 3775 Pls
7743 3775 Pls
7768 3785 Pls
7793 3784 Pls
7818 3801 Pls
7843 3809 Pls
7868 3810 Pls
7893 3819 Pls
7918 3830 Pls
7943 3832 Pls
7967 3839 Pls
7992 3848 Pls
8017 3708 Pls
8042 3723 Pls
8067 3715 Pls
8092 3718 Pls
8117 3716 Pls
8142 3713 Pls
8167 3718 Pls
8192 3717 Pls
8217 3722 Pls
8242 3727 Pls
8267 3734 Pls
8292 3739 Pls
8316 3743 Pls
8341 3749 Pls
8366 3757 Pls
8391 3762 Pls
8416 3771 Pls
8441 3778 Pls
8466 3781 Pls
8491 3783 Pls
8516 3791 Pls
8541 3801 Pls
8566 3802 Pls
8591 3813 Pls
8616 3814 Pls
8640 3816 Pls
8665 3824 Pls
8690 3840 Pls
8715 3841 Pls
8740 3850 Pls
8765 3850 Pls
8790 3856 Pls
8815 3734 Pls
8840 3734 Pls
8865 3743 Pls
8890 3746 Pls
8915 3740 Pls
8940 3739 Pls
8964 3740 Pls
8989 3737 Pls
9014 3743 Pls
9039 3743 Pls
9064 3751 Pls
9089 3758 Pls
9114 3764 Pls
9139 3760 Pls
9164 3778 Pls
9189 3785 Pls
9214 3787 Pls
9239 3793 Pls
9264 3800 Pls
9289 3809 Pls
9313 3809 Pls
9338 3812 Pls
9363 3824 Pls
9388 3827 Pls
9413 3830 Pls
9438 3840 Pls
9463 3840 Pls
9488 3853 Pls
9513 3859 Pls
9538 3856 Pls
9563 3862 Pls
9588 3870 Pls
9613 3747 Pls
9637 3763 Pls
9662 3762 Pls
9687 3760 Pls
9712 3766 Pls
9737 3759 Pls
9762 3758 Pls
9787 3755 Pls
9812 3765 Pls
9837 3770 Pls
9862 3774 Pls
9887 3776 Pls
9912 3781 Pls
9937 3791 Pls
9961 3793 Pls
9986 3802 Pls
10011 3803 Pls
10036 3805 Pls
10061 3810 Pls
10086 3815 Pls
10111 3820 Pls
10136 3828 Pls
10161 3833 Pls
10186 3834 Pls
10211 3840 Pls
10236 3848 Pls
10261 3855 Pls
10286 3856 Pls
10310 3863 Pls
10335 3867 Pls
10360 3873 Pls
10385 3883 Pls
10410 3769 Pls
10435 3780 Pls
10460 3777 Pls
10485 3782 Pls
10510 3782 Pls
10535 3777 Pls
10560 3776 Pls
10585 3777 Pls
10610 3774 Pls
10634 3785 Pls
10659 3786 Pls
10684 3789 Pls
10709 3797 Pls
10734 3798 Pls
10759 3809 Pls
10784 3808 Pls
10809 3815 Pls
10834 3820 Pls
10859 3826 Pls
10884 3831 Pls
10909 3836 Pls
10934 3837 Pls
10958 3844 Pls
10983 3848 Pls
11008 3851 Pls
11033 3856 Pls
11058 3862 Pls
11083 3868 Pls
11108 3869 Pls
11133 3875 Pls
11158 3879 Pls
11183 3889 Pls
11208 3785 Pls
11233 3788 Pls
11258 3794 Pls
11283 3798 Pls
11307 3793 Pls
11332 3791 Pls
11357 3793 Pls
11382 3786 Pls
11407 3795 Pls
11432 3797 Pls
11457 3799 Pls
11482 3802 Pls
11507 3808 Pls
11532 3812 Pls
11557 3821 Pls
11582 3823 Pls
11607 3829 Pls
11631 3834 Pls
11656 3832 Pls
11681 3837 Pls
11706 3836 Pls
11731 3849 Pls
11756 3846 Pls
11781 3858 Pls
11806 3863 Pls
11831 3868 Pls
11856 3874 Pls
11881 3878 Pls
11906 3880 Pls
11931 3885 Pls
11955 3887 Pls
11980 3889 Pls
12005 3796 Pls
12030 3801 Pls
12055 3806 Pls
12080 3806 Pls
12105 3805 Pls
12130 3803 Pls
12155 3802 Pls
12180 3801 Pls
12205 3805 Pls
12230 3810 Pls
12255 3812 Pls
12280 3819 Pls
12304 3820 Pls
12329 3826 Pls
12354 3829 Pls
12379 3832 Pls
12404 3836 Pls
12429 3841 Pls
12454 3846 Pls
12479 3844 Pls
12504 3852 Pls
12529 3857 Pls
12554 3857 Pls
12579 3856 Pls
12604 3869 Pls
12628 3872 Pls
12653 3880 Pls
12678 3884 Pls
12703 3884 Pls
12728 3892 Pls
12753 3891 Pls
12778 3898 Pls
12803 3811 Pls
12828 3815 Pls
12853 3817 Pls
12878 3818 Pls
12903 3817 Pls
12928 3813 Pls
12952 3813 Pls
12977 3812 Pls
13002 3815 Pls
13027 3821 Pls
13052 3825 Pls
13077 3828 Pls
13102 3825 Pls
13127 3832 Pls
13152 3839 Pls
13177 3842 Pls
13202 3845 Pls
13227 3846 Pls
13252 3852 Pls
13277 3859 Pls
13301 3859 Pls
13326 3866 Pls
13351 3865 Pls
13376 3868 Pls
13401 3875 Pls
13426 3878 Pls
13451 3889 Pls
13476 3884 Pls
13501 3892 Pls
13526 3891 Pls
13551 3897 Pls
13576 3903 Pls
13215 1097 Pls
1.000 UP
1.000 UL
LT1
0.00 0.00 0.00 C LTb
LT1
0.00 0.00 0.00 C 914 1750 Crs
939 1909 Crs
964 1972 Crs
988 2065 Crs
1013 2151 Crs
1038 2235 Crs
1063 2291 Crs
1088 2373 Crs
1113 2436 Crs
1138 2486 Crs
1163 2566 Crs
1188 2609 Crs
1213 2718 Crs
1238 2726 Crs
1263 2762 Crs
1288 2795 Crs
1313 2812 Crs
1337 2859 Crs
1362 2887 Crs
1387 2935 Crs
1412 2966 Crs
1437 3016 Crs
1462 3051 Crs
1487 3087 Crs
1512 3120 Crs
1537 3175 Crs
1562 3209 Crs
1587 3255 Crs
1612 3300 Crs
1637 3296 Crs
1661 3299 Crs
1686 3305 Crs
1711 3304 Crs
1736 3299 Crs
1761 3292 Crs
1786 3298 Crs
1811 3304 Crs
1836 3310 Crs
1861 3317 Crs
1886 3336 Crs
1911 3347 Crs
1936 3348 Crs
1961 3355 Crs
1985 3351 Crs
2010 3371 Crs
2035 3396 Crs
2060 3392 Crs
2085 3405 Crs
2110 3417 Crs
2135 3426 Crs
2160 3440 Crs
2185 3443 Crs
2210 3456 Crs
2235 3471 Crs
2260 3492 Crs
2285 3497 Crs
2310 3509 Crs
2334 3523 Crs
2359 3546 Crs
2384 3556 Crs
2409 3575 Crs
2434 3572 Crs
2459 3565 Crs
2484 3565 Crs
2509 3565 Crs
2534 3562 Crs
2559 3564 Crs
2584 3567 Crs
2609 3558 Crs
2634 3565 Crs
2658 3571 Crs
2683 3575 Crs
2708 3567 Crs
2733 3577 Crs
2758 3581 Crs
2783 3587 Crs
2808 3587 Crs
2833 3585 Crs
2858 3594 Crs
2883 3598 Crs
2908 3601 Crs
2933 3612 Crs
2958 3622 Crs
2982 3619 Crs
3007 3624 Crs
3032 3636 Crs
3057 3642 Crs
3082 3647 Crs
3107 3650 Crs
3132 3657 Crs
3157 3672 Crs
3182 3674 Crs
3207 3675 Crs
3232 3677 Crs
3257 3679 Crs
3282 3683 Crs
3307 3678 Crs
3331 3677 Crs
3356 3677 Crs
3381 3674 Crs
3406 3684 Crs
3431 3679 Crs
3456 3684 Crs
3481 3682 Crs
3506 3687 Crs
3531 3685 Crs
3556 3685 Crs
3581 3681 Crs
3606 3687 Crs
3631 3696 Crs
3655 3687 Crs
3680 3698 Crs
3705 3700 Crs
3730 3699 Crs
3755 3707 Crs
3780 3708 Crs
3805 3709 Crs
3830 3721 Crs
3855 3721 Crs
3880 3717 Crs
3905 3726 Crs
3930 3728 Crs
3955 3732 Crs
3979 3737 Crs
4004 3743 Crs
4029 3742 Crs
4054 3738 Crs
4079 3737 Crs
4104 3742 Crs
4129 3743 Crs
4154 3744 Crs
4179 3749 Crs
4204 3740 Crs
4229 3743 Crs
4254 3740 Crs
4279 3744 Crs
4304 3738 Crs
4328 3747 Crs
4353 3743 Crs
4378 3745 Crs
4403 3753 Crs
4428 3747 Crs
4453 3747 Crs
4478 3752 Crs
4503 3752 Crs
4528 3756 Crs
4553 3758 Crs
4578 3759 Crs
4603 3758 Crs
4628 3764 Crs
4652 3765 Crs
4677 3767 Crs
4702 3769 Crs
4727 3771 Crs
4752 3771 Crs
4777 3777 Crs
4802 3780 Crs
4827 3778 Crs
4852 3784 Crs
4877 3780 Crs
4902 3783 Crs
4927 3778 Crs
4952 3783 Crs
4976 3775 Crs
5001 3782 Crs
5026 3785 Crs
5051 3783 Crs
5076 3786 Crs
5101 3780 Crs
5126 3783 Crs
5151 3787 Crs
5176 3786 Crs
5201 3784 Crs
5226 3787 Crs
5251 3785 Crs
5276 3793 Crs
5301 3790 Crs
5325 3791 Crs
5350 3795 Crs
5375 3793 Crs
5400 3796 Crs
5425 3792 Crs
5450 3800 Crs
5475 3797 Crs
5500 3803 Crs
5525 3803 Crs
5550 3803 Crs
5575 3803 Crs
5600 3804 Crs
5625 3809 Crs
5649 3806 Crs
5674 3808 Crs
5699 3811 Crs
5724 3809 Crs
5749 3809 Crs
5774 3814 Crs
5799 3806 Crs
5824 3812 Crs
5849 3810 Crs
5874 3812 Crs
5899 3808 Crs
5924 3814 Crs
5949 3810 Crs
5973 3812 Crs
5998 3812 Crs
6023 3818 Crs
6048 3815 Crs
6073 3814 Crs
6098 3814 Crs
6123 3813 Crs
6148 3817 Crs
6173 3819 Crs
6198 3817 Crs
6223 3821 Crs
6248 3823 Crs
6273 3818 Crs
6298 3819 Crs
6322 3821 Crs
6347 3828 Crs
6372 3827 Crs
6397 3828 Crs
6422 3827 Crs
6447 3823 Crs
6472 3827 Crs
6497 3827 Crs
6522 3826 Crs
6547 3829 Crs
6572 3831 Crs
6597 3828 Crs
6622 3828 Crs
6646 3830 Crs
6671 3829 Crs
6696 3830 Crs
6721 3826 Crs
6746 3830 Crs
6771 3831 Crs
6796 3832 Crs
6821 3829 Crs
6846 3831 Crs
6871 3834 Crs
6896 3833 Crs
6921 3837 Crs
6946 3837 Crs
6970 3835 Crs
6995 3838 Crs
7020 3836 Crs
7045 3838 Crs
7070 3842 Crs
7095 3839 Crs
7120 3840 Crs
7145 3842 Crs
7170 3845 Crs
7195 3845 Crs
7220 3839 Crs
7245 3847 Crs
7270 3845 Crs
7295 3845 Crs
7319 3841 Crs
7344 3852 Crs
7369 3848 Crs
7394 3839 Crs
7419 3846 Crs
7444 3845 Crs
7469 3847 Crs
7494 3838 Crs
7519 3844 Crs
7544 3848 Crs
7569 3849 Crs
7594 3849 Crs
7619 3847 Crs
7643 3846 Crs
7668 3851 Crs
7693 3852 Crs
7718 3843 Crs
7743 3849 Crs
7768 3849 Crs
7793 3853 Crs
7818 3854 Crs
7843 3851 Crs
7868 3850 Crs
7893 3856 Crs
7918 3859 Crs
7943 3853 Crs
7967 3851 Crs
7992 3851 Crs
8017 3860 Crs
8042 3855 Crs
8067 3856 Crs
8092 3852 Crs
8117 3857 Crs
8142 3852 Crs
8167 3856 Crs
8192 3859 Crs
8217 3856 Crs
8242 3860 Crs
8267 3859 Crs
8292 3864 Crs
8316 3859 Crs
8341 3859 Crs
8366 3856 Crs
8391 3859 Crs
8416 3861 Crs
8441 3854 Crs
8466 3863 Crs
8491 3862 Crs
8516 3858 Crs
8541 3854 Crs
8566 3860 Crs
8591 3862 Crs
8616 3867 Crs
8640 3864 Crs
8665 3859 Crs
8690 3868 Crs
8715 3866 Crs
8740 3865 Crs
8765 3865 Crs
8790 3866 Crs
8815 3868 Crs
8840 3866 Crs
8865 3865 Crs
8890 3868 Crs
8915 3859 Crs
8940 3864 Crs
8964 3865 Crs
8989 3863 Crs
9014 3865 Crs
9039 3858 Crs
9064 3867 Crs
9089 3870 Crs
9114 3873 Crs
9139 3863 Crs
9164 3868 Crs
9189 3867 Crs
9214 3869 Crs
9239 3869 Crs
9264 3870 Crs
9289 3870 Crs
9313 3868 Crs
9338 3873 Crs
9363 3874 Crs
9388 3872 Crs
9413 3870 Crs
9438 3867 Crs
9463 3876 Crs
9488 3875 Crs
9513 3879 Crs
9538 3869 Crs
9563 3872 Crs
9588 3872 Crs
9613 3871 Crs
9637 3871 Crs
9662 3871 Crs
9687 3876 Crs
9712 3878 Crs
9737 3872 Crs
9762 3876 Crs
9787 3875 Crs
9812 3873 Crs
9837 3871 Crs
9862 3874 Crs
9887 3877 Crs
9912 3871 Crs
9937 3875 Crs
9961 3876 Crs
9986 3878 Crs
10011 3877 Crs
10036 3877 Crs
10061 3883 Crs
10086 3885 Crs
10111 3880 Crs
10136 3879 Crs
10161 3877 Crs
10186 3873 Crs
10211 3876 Crs
10236 3884 Crs
10261 3885 Crs
10286 3877 Crs
10310 3878 Crs
10335 3880 Crs
10360 3883 Crs
10385 3880 Crs
10410 3883 Crs
10435 3882 Crs
10460 3879 Crs
10485 3885 Crs
10510 3884 Crs
10535 3881 Crs
10560 3886 Crs
10585 3882 Crs
10610 3886 Crs
10634 3884 Crs
10659 3892 Crs
10684 3886 Crs
10709 3884 Crs
10734 3887 Crs
10759 3884 Crs
10784 3881 Crs
10809 3883 Crs
10834 3879 Crs
10859 3875 Crs
10884 3884 Crs
10909 3884 Crs
10934 3885 Crs
10958 3881 Crs
10983 3884 Crs
11008 3881 Crs
11033 3885 Crs
11058 3884 Crs
11083 3887 Crs
11108 3885 Crs
11133 3884 Crs
11158 3887 Crs
11183 3883 Crs
11208 3883 Crs
11233 3888 Crs
11258 3891 Crs
11283 3886 Crs
11307 3891 Crs
11332 3888 Crs
11357 3887 Crs
11382 3886 Crs
11407 3882 Crs
11432 3888 Crs
11457 3888 Crs
11482 3882 Crs
11507 3891 Crs
11532 3889 Crs
11557 3885 Crs
11582 3887 Crs
11607 3886 Crs
11631 3893 Crs
11656 3887 Crs
11681 3891 Crs
11706 3891 Crs
11731 3883 Crs
11756 3891 Crs
11781 3884 Crs
11806 3893 Crs
11831 3894 Crs
11856 3888 Crs
11881 3897 Crs
11906 3894 Crs
11931 3892 Crs
11955 3890 Crs
11980 3890 Crs
12005 3896 Crs
12030 3896 Crs
12055 3895 Crs
12080 3894 Crs
12105 3891 Crs
12130 3896 Crs
12155 3891 Crs
12180 3896 Crs
12205 3895 Crs
12230 3891 Crs
12255 3891 Crs
12280 3893 Crs
12304 3886 Crs
12329 3896 Crs
12354 3894 Crs
12379 3898 Crs
12404 3893 Crs
12429 3894 Crs
12454 3899 Crs
12479 3894 Crs
12504 3897 Crs
12529 3891 Crs
12554 3889 Crs
12579 3899 Crs
12604 3895 Crs
12628 3900 Crs
12653 3898 Crs
12678 3891 Crs
12703 3897 Crs
12728 3898 Crs
12753 3897 Crs
12778 3898 Crs
12803 3894 Crs
12828 3895 Crs
12853 3894 Crs
12878 3900 Crs
12903 3899 Crs
12928 3897 Crs
12952 3897 Crs
12977 3898 Crs
13002 3895 Crs
13027 3899 Crs
13052 3901 Crs
13077 3898 Crs
13102 3901 Crs
13127 3900 Crs
13152 3895 Crs
13177 3889 Crs
13202 3907 Crs
13227 3898 Crs
13252 3894 Crs
13277 3898 Crs
13301 3899 Crs
13326 3901 Crs
13351 3899 Crs
13376 3901 Crs
13401 3900 Crs
13426 3902 Crs
13451 3898 Crs
13476 3906 Crs
13501 3903 Crs
13526 3897 Crs
13551 3902 Crs
13576 3899 Crs
13215 877 Crs
1.000 UL
LTb
814 4269 N
814 704 L
12961 0 V
0 3565 V
814 4269 L
Z stroke
1.000 UP
1.000 UL
LTb
stroke
grestore
end
showpage
%%Trailer
