%!PS-Adobe-2.0 EPSF-2.0
%%Title: /home/yummiii/Masterarbeit/Thesis/document/bilder/speedupNormalInputs_q.tex
%%Creator: gnuplot 4.6 patchlevel 5
%%CreationDate: Tue Jan  5 11:02:34 2016
%%DocumentFonts: 
%%BoundingBox: 50 50 758 305
%%EndComments
%%BeginProlog
/gnudict 256 dict def
gnudict begin
%
% The following true/false flags may be edited by hand if desired.
% The unit line width and grayscale image gamma correction may also be changed.
%
/Color true def
/Blacktext true def
/Solid false def
/Dashlength 1 def
/Landscape false def
/Level1 false def
/Rounded false def
/ClipToBoundingBox false def
/SuppressPDFMark false def
/TransparentPatterns false def
/gnulinewidth 5.000 def
/userlinewidth gnulinewidth def
/Gamma 1.0 def
/BackgroundColor {-1.000 -1.000 -1.000} def
%
/vshift -73 def
/dl1 {
  10.0 Dashlength mul mul
  Rounded { currentlinewidth 0.75 mul sub dup 0 le { pop 0.01 } if } if
} def
/dl2 {
  10.0 Dashlength mul mul
  Rounded { currentlinewidth 0.75 mul add } if
} def
/hpt_ 31.5 def
/vpt_ 31.5 def
/hpt hpt_ def
/vpt vpt_ def
/doclip {
  ClipToBoundingBox {
    newpath 50 50 moveto 758 50 lineto 758 305 lineto 50 305 lineto closepath
    clip
  } if
} def
%
% Gnuplot Prolog Version 4.6 (September 2012)
%
%/SuppressPDFMark true def
%
/M {moveto} bind def
/L {lineto} bind def
/R {rmoveto} bind def
/V {rlineto} bind def
/N {newpath moveto} bind def
/Z {closepath} bind def
/C {setrgbcolor} bind def
/f {rlineto fill} bind def
/g {setgray} bind def
/Gshow {show} def   % May be redefined later in the file to support UTF-8
/vpt2 vpt 2 mul def
/hpt2 hpt 2 mul def
/Lshow {currentpoint stroke M 0 vshift R 
	Blacktext {gsave 0 setgray show grestore} {show} ifelse} def
/Rshow {currentpoint stroke M dup stringwidth pop neg vshift R
	Blacktext {gsave 0 setgray show grestore} {show} ifelse} def
/Cshow {currentpoint stroke M dup stringwidth pop -2 div vshift R 
	Blacktext {gsave 0 setgray show grestore} {show} ifelse} def
/UP {dup vpt_ mul /vpt exch def hpt_ mul /hpt exch def
  /hpt2 hpt 2 mul def /vpt2 vpt 2 mul def} def
/DL {Color {setrgbcolor Solid {pop []} if 0 setdash}
 {pop pop pop 0 setgray Solid {pop []} if 0 setdash} ifelse} def
/BL {stroke userlinewidth 2 mul setlinewidth
	Rounded {1 setlinejoin 1 setlinecap} if} def
/AL {stroke userlinewidth 2 div setlinewidth
	Rounded {1 setlinejoin 1 setlinecap} if} def
/UL {dup gnulinewidth mul /userlinewidth exch def
	dup 1 lt {pop 1} if 10 mul /udl exch def} def
/PL {stroke userlinewidth setlinewidth
	Rounded {1 setlinejoin 1 setlinecap} if} def
3.8 setmiterlimit
% Default Line colors
/LCw {1 1 1} def
/LCb {0 0 0} def
/LCa {0 0 0} def
/LC0 {1 0 0} def
/LC1 {0 1 0} def
/LC2 {0 0 1} def
/LC3 {1 0 1} def
/LC4 {0 1 1} def
/LC5 {1 1 0} def
/LC6 {0 0 0} def
/LC7 {1 0.3 0} def
/LC8 {0.5 0.5 0.5} def
% Default Line Types
/LTw {PL [] 1 setgray} def
/LTb {BL [] LCb DL} def
/LTa {AL [1 udl mul 2 udl mul] 0 setdash LCa setrgbcolor} def
/LT0 {PL [] LC0 DL} def
/LT1 {PL [4 dl1 2 dl2] LC1 DL} def
/LT2 {PL [2 dl1 3 dl2] LC2 DL} def
/LT3 {PL [1 dl1 1.5 dl2] LC3 DL} def
/LT4 {PL [6 dl1 2 dl2 1 dl1 2 dl2] LC4 DL} def
/LT5 {PL [3 dl1 3 dl2 1 dl1 3 dl2] LC5 DL} def
/LT6 {PL [2 dl1 2 dl2 2 dl1 6 dl2] LC6 DL} def
/LT7 {PL [1 dl1 2 dl2 6 dl1 2 dl2 1 dl1 2 dl2] LC7 DL} def
/LT8 {PL [2 dl1 2 dl2 2 dl1 2 dl2 2 dl1 2 dl2 2 dl1 4 dl2] LC8 DL} def
/Pnt {stroke [] 0 setdash gsave 1 setlinecap M 0 0 V stroke grestore} def
/Dia {stroke [] 0 setdash 2 copy vpt add M
  hpt neg vpt neg V hpt vpt neg V
  hpt vpt V hpt neg vpt V closepath stroke
  Pnt} def
/Pls {stroke [] 0 setdash vpt sub M 0 vpt2 V
  currentpoint stroke M
  hpt neg vpt neg R hpt2 0 V stroke
 } def
/Box {stroke [] 0 setdash 2 copy exch hpt sub exch vpt add M
  0 vpt2 neg V hpt2 0 V 0 vpt2 V
  hpt2 neg 0 V closepath stroke
  Pnt} def
/Crs {stroke [] 0 setdash exch hpt sub exch vpt add M
  hpt2 vpt2 neg V currentpoint stroke M
  hpt2 neg 0 R hpt2 vpt2 V stroke} def
/TriU {stroke [] 0 setdash 2 copy vpt 1.12 mul add M
  hpt neg vpt -1.62 mul V
  hpt 2 mul 0 V
  hpt neg vpt 1.62 mul V closepath stroke
  Pnt} def
/Star {2 copy Pls Crs} def
/BoxF {stroke [] 0 setdash exch hpt sub exch vpt add M
  0 vpt2 neg V hpt2 0 V 0 vpt2 V
  hpt2 neg 0 V closepath fill} def
/TriUF {stroke [] 0 setdash vpt 1.12 mul add M
  hpt neg vpt -1.62 mul V
  hpt 2 mul 0 V
  hpt neg vpt 1.62 mul V closepath fill} def
/TriD {stroke [] 0 setdash 2 copy vpt 1.12 mul sub M
  hpt neg vpt 1.62 mul V
  hpt 2 mul 0 V
  hpt neg vpt -1.62 mul V closepath stroke
  Pnt} def
/TriDF {stroke [] 0 setdash vpt 1.12 mul sub M
  hpt neg vpt 1.62 mul V
  hpt 2 mul 0 V
  hpt neg vpt -1.62 mul V closepath fill} def
/DiaF {stroke [] 0 setdash vpt add M
  hpt neg vpt neg V hpt vpt neg V
  hpt vpt V hpt neg vpt V closepath fill} def
/Pent {stroke [] 0 setdash 2 copy gsave
  translate 0 hpt M 4 {72 rotate 0 hpt L} repeat
  closepath stroke grestore Pnt} def
/PentF {stroke [] 0 setdash gsave
  translate 0 hpt M 4 {72 rotate 0 hpt L} repeat
  closepath fill grestore} def
/Circle {stroke [] 0 setdash 2 copy
  hpt 0 360 arc stroke Pnt} def
/CircleF {stroke [] 0 setdash hpt 0 360 arc fill} def
/C0 {BL [] 0 setdash 2 copy moveto vpt 90 450 arc} bind def
/C1 {BL [] 0 setdash 2 copy moveto
	2 copy vpt 0 90 arc closepath fill
	vpt 0 360 arc closepath} bind def
/C2 {BL [] 0 setdash 2 copy moveto
	2 copy vpt 90 180 arc closepath fill
	vpt 0 360 arc closepath} bind def
/C3 {BL [] 0 setdash 2 copy moveto
	2 copy vpt 0 180 arc closepath fill
	vpt 0 360 arc closepath} bind def
/C4 {BL [] 0 setdash 2 copy moveto
	2 copy vpt 180 270 arc closepath fill
	vpt 0 360 arc closepath} bind def
/C5 {BL [] 0 setdash 2 copy moveto
	2 copy vpt 0 90 arc
	2 copy moveto
	2 copy vpt 180 270 arc closepath fill
	vpt 0 360 arc} bind def
/C6 {BL [] 0 setdash 2 copy moveto
	2 copy vpt 90 270 arc closepath fill
	vpt 0 360 arc closepath} bind def
/C7 {BL [] 0 setdash 2 copy moveto
	2 copy vpt 0 270 arc closepath fill
	vpt 0 360 arc closepath} bind def
/C8 {BL [] 0 setdash 2 copy moveto
	2 copy vpt 270 360 arc closepath fill
	vpt 0 360 arc closepath} bind def
/C9 {BL [] 0 setdash 2 copy moveto
	2 copy vpt 270 450 arc closepath fill
	vpt 0 360 arc closepath} bind def
/C10 {BL [] 0 setdash 2 copy 2 copy moveto vpt 270 360 arc closepath fill
	2 copy moveto
	2 copy vpt 90 180 arc closepath fill
	vpt 0 360 arc closepath} bind def
/C11 {BL [] 0 setdash 2 copy moveto
	2 copy vpt 0 180 arc closepath fill
	2 copy moveto
	2 copy vpt 270 360 arc closepath fill
	vpt 0 360 arc closepath} bind def
/C12 {BL [] 0 setdash 2 copy moveto
	2 copy vpt 180 360 arc closepath fill
	vpt 0 360 arc closepath} bind def
/C13 {BL [] 0 setdash 2 copy moveto
	2 copy vpt 0 90 arc closepath fill
	2 copy moveto
	2 copy vpt 180 360 arc closepath fill
	vpt 0 360 arc closepath} bind def
/C14 {BL [] 0 setdash 2 copy moveto
	2 copy vpt 90 360 arc closepath fill
	vpt 0 360 arc} bind def
/C15 {BL [] 0 setdash 2 copy vpt 0 360 arc closepath fill
	vpt 0 360 arc closepath} bind def
/Rec {newpath 4 2 roll moveto 1 index 0 rlineto 0 exch rlineto
	neg 0 rlineto closepath} bind def
/Square {dup Rec} bind def
/Bsquare {vpt sub exch vpt sub exch vpt2 Square} bind def
/S0 {BL [] 0 setdash 2 copy moveto 0 vpt rlineto BL Bsquare} bind def
/S1 {BL [] 0 setdash 2 copy vpt Square fill Bsquare} bind def
/S2 {BL [] 0 setdash 2 copy exch vpt sub exch vpt Square fill Bsquare} bind def
/S3 {BL [] 0 setdash 2 copy exch vpt sub exch vpt2 vpt Rec fill Bsquare} bind def
/S4 {BL [] 0 setdash 2 copy exch vpt sub exch vpt sub vpt Square fill Bsquare} bind def
/S5 {BL [] 0 setdash 2 copy 2 copy vpt Square fill
	exch vpt sub exch vpt sub vpt Square fill Bsquare} bind def
/S6 {BL [] 0 setdash 2 copy exch vpt sub exch vpt sub vpt vpt2 Rec fill Bsquare} bind def
/S7 {BL [] 0 setdash 2 copy exch vpt sub exch vpt sub vpt vpt2 Rec fill
	2 copy vpt Square fill Bsquare} bind def
/S8 {BL [] 0 setdash 2 copy vpt sub vpt Square fill Bsquare} bind def
/S9 {BL [] 0 setdash 2 copy vpt sub vpt vpt2 Rec fill Bsquare} bind def
/S10 {BL [] 0 setdash 2 copy vpt sub vpt Square fill 2 copy exch vpt sub exch vpt Square fill
	Bsquare} bind def
/S11 {BL [] 0 setdash 2 copy vpt sub vpt Square fill 2 copy exch vpt sub exch vpt2 vpt Rec fill
	Bsquare} bind def
/S12 {BL [] 0 setdash 2 copy exch vpt sub exch vpt sub vpt2 vpt Rec fill Bsquare} bind def
/S13 {BL [] 0 setdash 2 copy exch vpt sub exch vpt sub vpt2 vpt Rec fill
	2 copy vpt Square fill Bsquare} bind def
/S14 {BL [] 0 setdash 2 copy exch vpt sub exch vpt sub vpt2 vpt Rec fill
	2 copy exch vpt sub exch vpt Square fill Bsquare} bind def
/S15 {BL [] 0 setdash 2 copy Bsquare fill Bsquare} bind def
/D0 {gsave translate 45 rotate 0 0 S0 stroke grestore} bind def
/D1 {gsave translate 45 rotate 0 0 S1 stroke grestore} bind def
/D2 {gsave translate 45 rotate 0 0 S2 stroke grestore} bind def
/D3 {gsave translate 45 rotate 0 0 S3 stroke grestore} bind def
/D4 {gsave translate 45 rotate 0 0 S4 stroke grestore} bind def
/D5 {gsave translate 45 rotate 0 0 S5 stroke grestore} bind def
/D6 {gsave translate 45 rotate 0 0 S6 stroke grestore} bind def
/D7 {gsave translate 45 rotate 0 0 S7 stroke grestore} bind def
/D8 {gsave translate 45 rotate 0 0 S8 stroke grestore} bind def
/D9 {gsave translate 45 rotate 0 0 S9 stroke grestore} bind def
/D10 {gsave translate 45 rotate 0 0 S10 stroke grestore} bind def
/D11 {gsave translate 45 rotate 0 0 S11 stroke grestore} bind def
/D12 {gsave translate 45 rotate 0 0 S12 stroke grestore} bind def
/D13 {gsave translate 45 rotate 0 0 S13 stroke grestore} bind def
/D14 {gsave translate 45 rotate 0 0 S14 stroke grestore} bind def
/D15 {gsave translate 45 rotate 0 0 S15 stroke grestore} bind def
/DiaE {stroke [] 0 setdash vpt add M
  hpt neg vpt neg V hpt vpt neg V
  hpt vpt V hpt neg vpt V closepath stroke} def
/BoxE {stroke [] 0 setdash exch hpt sub exch vpt add M
  0 vpt2 neg V hpt2 0 V 0 vpt2 V
  hpt2 neg 0 V closepath stroke} def
/TriUE {stroke [] 0 setdash vpt 1.12 mul add M
  hpt neg vpt -1.62 mul V
  hpt 2 mul 0 V
  hpt neg vpt 1.62 mul V closepath stroke} def
/TriDE {stroke [] 0 setdash vpt 1.12 mul sub M
  hpt neg vpt 1.62 mul V
  hpt 2 mul 0 V
  hpt neg vpt -1.62 mul V closepath stroke} def
/PentE {stroke [] 0 setdash gsave
  translate 0 hpt M 4 {72 rotate 0 hpt L} repeat
  closepath stroke grestore} def
/CircE {stroke [] 0 setdash 
  hpt 0 360 arc stroke} def
/Opaque {gsave closepath 1 setgray fill grestore 0 setgray closepath} def
/DiaW {stroke [] 0 setdash vpt add M
  hpt neg vpt neg V hpt vpt neg V
  hpt vpt V hpt neg vpt V Opaque stroke} def
/BoxW {stroke [] 0 setdash exch hpt sub exch vpt add M
  0 vpt2 neg V hpt2 0 V 0 vpt2 V
  hpt2 neg 0 V Opaque stroke} def
/TriUW {stroke [] 0 setdash vpt 1.12 mul add M
  hpt neg vpt -1.62 mul V
  hpt 2 mul 0 V
  hpt neg vpt 1.62 mul V Opaque stroke} def
/TriDW {stroke [] 0 setdash vpt 1.12 mul sub M
  hpt neg vpt 1.62 mul V
  hpt 2 mul 0 V
  hpt neg vpt -1.62 mul V Opaque stroke} def
/PentW {stroke [] 0 setdash gsave
  translate 0 hpt M 4 {72 rotate 0 hpt L} repeat
  Opaque stroke grestore} def
/CircW {stroke [] 0 setdash 
  hpt 0 360 arc Opaque stroke} def
/BoxFill {gsave Rec 1 setgray fill grestore} def
/Density {
  /Fillden exch def
  currentrgbcolor
  /ColB exch def /ColG exch def /ColR exch def
  /ColR ColR Fillden mul Fillden sub 1 add def
  /ColG ColG Fillden mul Fillden sub 1 add def
  /ColB ColB Fillden mul Fillden sub 1 add def
  ColR ColG ColB setrgbcolor} def
/BoxColFill {gsave Rec PolyFill} def
/PolyFill {gsave Density fill grestore grestore} def
/h {rlineto rlineto rlineto gsave closepath fill grestore} bind def
%
% PostScript Level 1 Pattern Fill routine for rectangles
% Usage: x y w h s a XX PatternFill
%	x,y = lower left corner of box to be filled
%	w,h = width and height of box
%	  a = angle in degrees between lines and x-axis
%	 XX = 0/1 for no/yes cross-hatch
%
/PatternFill {gsave /PFa [ 9 2 roll ] def
  PFa 0 get PFa 2 get 2 div add PFa 1 get PFa 3 get 2 div add translate
  PFa 2 get -2 div PFa 3 get -2 div PFa 2 get PFa 3 get Rec
  TransparentPatterns {} {gsave 1 setgray fill grestore} ifelse
  clip
  currentlinewidth 0.5 mul setlinewidth
  /PFs PFa 2 get dup mul PFa 3 get dup mul add sqrt def
  0 0 M PFa 5 get rotate PFs -2 div dup translate
  0 1 PFs PFa 4 get div 1 add floor cvi
	{PFa 4 get mul 0 M 0 PFs V} for
  0 PFa 6 get ne {
	0 1 PFs PFa 4 get div 1 add floor cvi
	{PFa 4 get mul 0 2 1 roll M PFs 0 V} for
 } if
  stroke grestore} def
%
/languagelevel where
 {pop languagelevel} {1} ifelse
 2 lt
	{/InterpretLevel1 true def}
	{/InterpretLevel1 Level1 def}
 ifelse
%
% PostScript level 2 pattern fill definitions
%
/Level2PatternFill {
/Tile8x8 {/PaintType 2 /PatternType 1 /TilingType 1 /BBox [0 0 8 8] /XStep 8 /YStep 8}
	bind def
/KeepColor {currentrgbcolor [/Pattern /DeviceRGB] setcolorspace} bind def
<< Tile8x8
 /PaintProc {0.5 setlinewidth pop 0 0 M 8 8 L 0 8 M 8 0 L stroke} 
>> matrix makepattern
/Pat1 exch def
<< Tile8x8
 /PaintProc {0.5 setlinewidth pop 0 0 M 8 8 L 0 8 M 8 0 L stroke
	0 4 M 4 8 L 8 4 L 4 0 L 0 4 L stroke}
>> matrix makepattern
/Pat2 exch def
<< Tile8x8
 /PaintProc {0.5 setlinewidth pop 0 0 M 0 8 L
	8 8 L 8 0 L 0 0 L fill}
>> matrix makepattern
/Pat3 exch def
<< Tile8x8
 /PaintProc {0.5 setlinewidth pop -4 8 M 8 -4 L
	0 12 M 12 0 L stroke}
>> matrix makepattern
/Pat4 exch def
<< Tile8x8
 /PaintProc {0.5 setlinewidth pop -4 0 M 8 12 L
	0 -4 M 12 8 L stroke}
>> matrix makepattern
/Pat5 exch def
<< Tile8x8
 /PaintProc {0.5 setlinewidth pop -2 8 M 4 -4 L
	0 12 M 8 -4 L 4 12 M 10 0 L stroke}
>> matrix makepattern
/Pat6 exch def
<< Tile8x8
 /PaintProc {0.5 setlinewidth pop -2 0 M 4 12 L
	0 -4 M 8 12 L 4 -4 M 10 8 L stroke}
>> matrix makepattern
/Pat7 exch def
<< Tile8x8
 /PaintProc {0.5 setlinewidth pop 8 -2 M -4 4 L
	12 0 M -4 8 L 12 4 M 0 10 L stroke}
>> matrix makepattern
/Pat8 exch def
<< Tile8x8
 /PaintProc {0.5 setlinewidth pop 0 -2 M 12 4 L
	-4 0 M 12 8 L -4 4 M 8 10 L stroke}
>> matrix makepattern
/Pat9 exch def
/Pattern1 {PatternBgnd KeepColor Pat1 setpattern} bind def
/Pattern2 {PatternBgnd KeepColor Pat2 setpattern} bind def
/Pattern3 {PatternBgnd KeepColor Pat3 setpattern} bind def
/Pattern4 {PatternBgnd KeepColor Landscape {Pat5} {Pat4} ifelse setpattern} bind def
/Pattern5 {PatternBgnd KeepColor Landscape {Pat4} {Pat5} ifelse setpattern} bind def
/Pattern6 {PatternBgnd KeepColor Landscape {Pat9} {Pat6} ifelse setpattern} bind def
/Pattern7 {PatternBgnd KeepColor Landscape {Pat8} {Pat7} ifelse setpattern} bind def
} def
%
%
%End of PostScript Level 2 code
%
/PatternBgnd {
  TransparentPatterns {} {gsave 1 setgray fill grestore} ifelse
} def
%
% Substitute for Level 2 pattern fill codes with
% grayscale if Level 2 support is not selected.
%
/Level1PatternFill {
/Pattern1 {0.250 Density} bind def
/Pattern2 {0.500 Density} bind def
/Pattern3 {0.750 Density} bind def
/Pattern4 {0.125 Density} bind def
/Pattern5 {0.375 Density} bind def
/Pattern6 {0.625 Density} bind def
/Pattern7 {0.875 Density} bind def
} def
%
% Now test for support of Level 2 code
%
Level1 {Level1PatternFill} {Level2PatternFill} ifelse
%
/Symbol-Oblique /Symbol findfont [1 0 .167 1 0 0] makefont
dup length dict begin {1 index /FID eq {pop pop} {def} ifelse} forall
currentdict end definefont pop
Level1 SuppressPDFMark or 
{} {
/SDict 10 dict def
systemdict /pdfmark known not {
  userdict /pdfmark systemdict /cleartomark get put
} if
SDict begin [
  /Title (/home/yummiii/Masterarbeit/Thesis/document/bilder/speedupNormalInputs_q.tex)
  /Subject (gnuplot plot)
  /Creator (gnuplot 4.6 patchlevel 5)
  /Author (yummiii)
%  /Producer (gnuplot)
%  /Keywords ()
  /CreationDate (Tue Jan  5 11:02:34 2016)
  /DOCINFO pdfmark
end
} ifelse
end
%%EndProlog
%%Page: 1 1
gnudict begin
gsave
doclip
50 50 translate
0.050 0.050 scale
0 setgray
newpath
1.000 UL
LTb
LCb setrgbcolor
814 704 M
63 0 V
12898 0 R
-63 0 V
stroke
LTb
814 1294 M
63 0 V
12898 0 R
-63 0 V
814 1885 M
63 0 V
12898 0 R
-63 0 V
814 2475 M
63 0 V
12898 0 R
-63 0 V
814 3066 M
63 0 V
12898 0 R
-63 0 V
814 3656 M
63 0 V
12898 0 R
-63 0 V
814 4247 M
63 0 V
12898 0 R
-63 0 V
814 4837 M
63 0 V
12898 0 R
-63 0 V
3263 704 M
0 63 V
0 4070 R
0 -63 V
5815 704 M
0 63 V
0 4070 R
0 -63 V
8366 704 M
0 63 V
0 4070 R
0 -63 V
10917 704 M
0 63 V
0 4070 R
0 -63 V
13469 704 M
0 63 V
0 4070 R
0 -63 V
stroke
814 4837 N
814 704 L
12961 0 V
0 4133 V
814 4837 L
Z stroke
1.000 UP
1.000 UL
LTb
1.000 UP
1.000 UL
LT0
LC0 setrgbcolor
0.00 0.00 0.00 C 814 1072 Box
814 1072 Box
814 1073 Box
814 1069 Box
814 1067 Box
840 1157 Box
840 1162 Box
840 1165 Box
840 1158 Box
840 1159 Box
865 1251 Box
865 1254 Box
865 1252 Box
865 1260 Box
865 1248 Box
891 1345 Box
891 1343 Box
891 1346 Box
891 1325 Box
891 1341 Box
916 1429 Box
916 1433 Box
916 1419 Box
916 1418 Box
916 1432 Box
942 1506 Box
942 1525 Box
942 1516 Box
942 1507 Box
942 1515 Box
967 1602 Box
967 1596 Box
967 1598 Box
967 1598 Box
967 1593 Box
993 1665 Box
993 1670 Box
993 1680 Box
993 1680 Box
993 1665 Box
1018 1751 Box
1018 1781 Box
1018 1753 Box
1018 1739 Box
1018 1759 Box
1044 1803 Box
1044 1863 Box
1044 1812 Box
1044 1824 Box
1044 1861 Box
1069 1935 Box
1069 1929 Box
1069 1944 Box
1069 1920 Box
1069 1917 Box
1095 2033 Box
1095 2021 Box
1095 1992 Box
1095 1985 Box
1095 1995 Box
1120 2100 Box
1120 2057 Box
1120 2087 Box
1120 2082 Box
1120 2100 Box
1146 2174 Box
1146 2136 Box
1146 2154 Box
1146 2157 Box
1146 2170 Box
1171 2238 Box
1171 2227 Box
1171 2202 Box
1171 2217 Box
1171 2216 Box
1197 2303 Box
1197 2343 Box
1197 2299 Box
1197 2280 Box
1197 2305 Box
1222 2393 Box
1222 2411 Box
1222 2337 Box
1222 2420 Box
1222 2377 Box
1248 2460 Box
1248 2458 Box
1248 2461 Box
1248 2456 Box
1248 2491 Box
1273 2548 Box
1273 2548 Box
1273 2487 Box
1273 2550 Box
1273 2518 Box
1299 2601 Box
1299 2587 Box
1299 2556 Box
1299 2577 Box
1299 2579 Box
1324 2679 Box
1324 2691 Box
1324 2661 Box
1324 2682 Box
1324 2569 Box
1350 2760 Box
1350 2730 Box
1350 2646 Box
1350 2698 Box
1350 2750 Box
1375 2814 Box
1375 2818 Box
1375 2829 Box
1375 2832 Box
1375 2793 Box
1401 2870 Box
1401 2888 Box
1401 2744 Box
1401 2872 Box
1401 2892 Box
1426 2974 Box
1426 2971 Box
1426 2985 Box
1426 2888 Box
1426 2938 Box
1452 3020 Box
1452 3058 Box
1452 3004 Box
1452 3026 Box
1452 2987 Box
1477 3070 Box
1477 3060 Box
1477 3084 Box
1477 3089 Box
1477 3085 Box
1503 3108 Box
1503 3131 Box
1503 3163 Box
1503 3168 Box
1503 3165 Box
1528 3198 Box
1528 3191 Box
1528 3248 Box
1528 3222 Box
1528 3166 Box
1528 3278 Box
1528 3225 Box
1528 3239 Box
1528 3170 Box
1528 3111 Box
1554 2531 Box
1554 2544 Box
1554 2541 Box
1554 2566 Box
1554 2550 Box
1579 2567 Box
1579 2591 Box
1579 2571 Box
1579 2579 Box
1579 2587 Box
1605 2651 Box
1605 2628 Box
1605 2614 Box
1605 2612 Box
1605 2629 Box
1630 2662 Box
1630 2662 Box
1630 2642 Box
1630 2659 Box
1630 2634 Box
1656 2715 Box
1656 2708 Box
1656 2678 Box
1656 2676 Box
1656 2680 Box
1681 2715 Box
1681 2717 Box
1681 2717 Box
1681 2744 Box
1681 2738 Box
1707 2771 Box
1707 2750 Box
1707 2809 Box
1707 2771 Box
1707 2781 Box
1732 2809 Box
1732 2768 Box
1732 2800 Box
1732 2782 Box
1732 2820 Box
1758 2853 Box
1758 2843 Box
1758 2822 Box
1758 2852 Box
1758 2860 Box
1784 2893 Box
1784 2881 Box
1784 2883 Box
1784 2863 Box
1784 2878 Box
1809 2906 Box
1809 2926 Box
1809 2895 Box
1809 2927 Box
1809 2919 Box
1835 2930 Box
1835 2946 Box
1835 2932 Box
1835 2963 Box
1835 2963 Box
1860 3021 Box
1860 3007 Box
1860 3025 Box
1860 2979 Box
1860 2993 Box
1886 3031 Box
1886 3027 Box
1886 3032 Box
1886 3049 Box
1886 3049 Box
1911 3075 Box
1911 3055 Box
1911 3083 Box
1911 3087 Box
1911 3024 Box
1937 3114 Box
1937 3080 Box
1937 3118 Box
1937 3136 Box
1937 3052 Box
1962 3152 Box
1962 3121 Box
1962 3163 Box
1962 3156 Box
1962 3172 Box
1988 3134 Box
1988 3211 Box
1988 3189 Box
1988 3209 Box
1988 3192 Box
2013 3233 Box
2013 3272 Box
2013 3253 Box
2013 3220 Box
2013 3236 Box
2039 3238 Box
2039 3254 Box
2039 3254 Box
2039 3308 Box
2039 3272 Box
2064 3342 Box
2064 3347 Box
2064 3240 Box
2064 3285 Box
2064 3297 Box
2090 3387 Box
2090 3315 Box
2090 3287 Box
2090 3353 Box
2090 3291 Box
2115 3349 Box
2115 3367 Box
2115 3411 Box
2115 3375 Box
2115 3375 Box
2141 3441 Box
2141 3433 Box
2141 3411 Box
2141 3427 Box
2141 3407 Box
2166 3481 Box
2166 3487 Box
2166 3424 Box
2166 3480 Box
2166 3507 Box
2192 3518 Box
2192 3496 Box
2192 3500 Box
2192 3484 Box
2192 3516 Box
2217 3555 Box
2217 3508 Box
2217 3510 Box
2217 3512 Box
2217 3533 Box
2243 3582 Box
2243 3536 Box
2243 3577 Box
2243 3572 Box
2243 3585 Box
2268 3537 Box
2268 3560 Box
2268 3603 Box
2268 3669 Box
2268 3586 Box
2294 3707 Box
2294 3576 Box
2294 3693 Box
2294 3636 Box
2294 3636 Box
2319 3731 Box
2319 3742 Box
2319 3596 Box
2319 3683 Box
2319 3699 Box
2345 3717 Box
2345 3719 Box
2345 3720 Box
2345 3751 Box
2345 3750 Box
2370 3182 Box
2370 3191 Box
2370 3175 Box
2370 3164 Box
2370 3166 Box
2396 3196 Box
2396 3236 Box
2396 3190 Box
2396 3214 Box
2396 3221 Box
2421 3215 Box
2421 3239 Box
2421 3178 Box
2421 3231 Box
2421 3212 Box
2447 3243 Box
2447 3187 Box
2447 3226 Box
2447 3252 Box
2447 3232 Box
2472 3260 Box
2472 3259 Box
2472 3275 Box
2472 3258 Box
2472 3258 Box
2498 3290 Box
2498 3299 Box
2498 3257 Box
2498 3299 Box
2498 3305 Box
2523 3299 Box
2523 3312 Box
2523 3319 Box
2523 3321 Box
2523 3314 Box
2549 3338 Box
2549 3313 Box
2549 3350 Box
2549 3340 Box
2549 3330 Box
2574 3346 Box
2574 3370 Box
2574 3358 Box
2574 3342 Box
2574 3369 Box
2600 3393 Box
2600 3377 Box
2600 3401 Box
2600 3372 Box
2600 3362 Box
2625 3408 Box
2625 3414 Box
2625 3405 Box
2625 3365 Box
2625 3348 Box
2651 3429 Box
2651 3424 Box
2651 3448 Box
2651 3436 Box
2651 3439 Box
2677 3465 Box
2677 3439 Box
2677 3478 Box
2677 3471 Box
2677 3460 Box
2702 3459 Box
2702 3495 Box
2702 3474 Box
2702 3486 Box
2702 3479 Box
2728 3490 Box
2728 3507 Box
2728 3522 Box
2728 3534 Box
2728 3468 Box
2753 3543 Box
2753 3537 Box
2753 3566 Box
2753 3539 Box
2753 3527 Box
2779 3565 Box
2779 3573 Box
2779 3554 Box
2779 3553 Box
2779 3586 Box
2804 3587 Box
2804 3566 Box
2804 3534 Box
2804 3598 Box
2804 3585 Box
2830 3629 Box
2830 3598 Box
2830 3559 Box
2830 3631 Box
2830 3621 Box
2855 3654 Box
2855 3646 Box
2855 3639 Box
2855 3638 Box
2855 3625 Box
2881 3662 Box
2881 3629 Box
2881 3670 Box
2881 3666 Box
2881 3622 Box
2906 3697 Box
2906 3688 Box
2906 3674 Box
2906 3684 Box
2906 3685 Box
2932 3725 Box
2932 3683 Box
2932 3740 Box
2932 3718 Box
2932 3664 Box
2957 3742 Box
2957 3751 Box
2957 3710 Box
2957 3742 Box
2957 3715 Box
2983 3778 Box
2983 3800 Box
2983 3791 Box
2983 3768 Box
2983 3761 Box
3008 3830 Box
3008 3812 Box
3008 3760 Box
3008 3802 Box
3008 3825 Box
3034 3800 Box
3034 3839 Box
3034 3812 Box
3034 3826 Box
3034 3788 Box
3059 3866 Box
3059 3829 Box
3059 3822 Box
3059 3819 Box
3059 3857 Box
3085 3828 Box
3085 3827 Box
3085 3862 Box
3085 3845 Box
3085 3852 Box
3110 3882 Box
3110 3914 Box
3110 3882 Box
3110 3863 Box
3110 3871 Box
3136 3927 Box
3136 3890 Box
3136 3913 Box
3136 3943 Box
3136 3961 Box
3161 3952 Box
3161 3926 Box
3161 3958 Box
3161 3966 Box
3161 3957 Box
3187 3499 Box
3187 3502 Box
3187 3488 Box
3187 3522 Box
3187 3511 Box
3212 3476 Box
3212 3536 Box
3212 3548 Box
3212 3469 Box
3212 3532 Box
3238 3517 Box
3238 3541 Box
3238 3534 Box
3238 3509 Box
3238 3525 Box
3263 3553 Box
3263 3550 Box
3263 3552 Box
3263 3560 Box
3263 3573 Box
3289 3591 Box
3289 3584 Box
3289 3540 Box
3289 3552 Box
3289 3585 Box
3314 3547 Box
3314 3585 Box
3314 3572 Box
3314 3563 Box
3314 3585 Box
3340 3606 Box
3340 3620 Box
3340 3566 Box
3340 3604 Box
3340 3597 Box
3365 3639 Box
3365 3612 Box
3365 3624 Box
3365 3625 Box
3365 3646 Box
3391 3641 Box
3391 3636 Box
3391 3632 Box
3391 3611 Box
3391 3646 Box
3416 3668 Box
3416 3659 Box
3416 3657 Box
3416 3665 Box
3416 3677 Box
3442 3677 Box
3442 3689 Box
3442 3674 Box
3442 3657 Box
3442 3667 Box
3467 3685 Box
3467 3698 Box
3467 3671 Box
3467 3696 Box
3467 3701 Box
3493 3713 Box
3493 3753 Box
3493 3726 Box
3493 3750 Box
3493 3693 Box
3518 3720 Box
3518 3751 Box
3518 3732 Box
3518 3740 Box
3518 3723 Box
3544 3690 Box
3544 3758 Box
3544 3749 Box
3544 3748 Box
3544 3763 Box
3569 3780 Box
3569 3755 Box
3569 3761 Box
3569 3767 Box
3569 3768 Box
3595 3804 Box
3595 3818 Box
3595 3794 Box
3595 3804 Box
3595 3792 Box
3621 3806 Box
3621 3799 Box
3621 3809 Box
3621 3813 Box
3621 3743 Box
3646 3818 Box
3646 3813 Box
3646 3824 Box
3646 3827 Box
3646 3831 Box
3672 3856 Box
3672 3818 Box
3672 3840 Box
3672 3835 Box
3672 3840 Box
3697 3860 Box
3697 3885 Box
3697 3874 Box
3697 3874 Box
3697 3860 Box
3723 3891 Box
3723 3872 Box
3723 3870 Box
3723 3872 Box
3723 3871 Box
3748 3889 Box
3748 3921 Box
3748 3916 Box
3748 3907 Box
3748 3913 Box
3774 3907 Box
3774 3907 Box
3774 3912 Box
3774 3929 Box
3774 3896 Box
3799 3938 Box
3799 3963 Box
3799 3936 Box
3799 3940 Box
3799 3953 Box
3825 3945 Box
3825 3987 Box
3825 3972 Box
3825 3921 Box
3825 3939 Box
3850 3976 Box
3850 3957 Box
3850 3968 Box
3850 3990 Box
3850 3984 Box
3876 4010 Box
3876 3971 Box
3876 4000 Box
3876 3966 Box
3876 3983 Box
3901 3992 Box
3901 4006 Box
3901 3973 Box
3901 4011 Box
3901 3970 Box
3927 4044 Box
3927 4037 Box
3927 4009 Box
3927 4036 Box
3927 4039 Box
3952 4067 Box
3952 4038 Box
3952 4061 Box
3952 4058 Box
3952 4028 Box
3978 4080 Box
3978 4084 Box
3978 4074 Box
3978 4063 Box
3978 4064 Box
4003 3695 Box
4003 3701 Box
4003 3740 Box
4003 3673 Box
4003 3706 Box
4029 3707 Box
4029 3713 Box
4029 3730 Box
4029 3725 Box
4029 3723 Box
4054 3724 Box
4054 3747 Box
4054 3756 Box
4054 3738 Box
4054 3703 Box
4080 3728 Box
4080 3738 Box
4080 3715 Box
4080 3736 Box
4080 3761 Box
4105 3736 Box
4105 3772 Box
4105 3764 Box
4105 3758 Box
4105 3759 Box
4131 3794 Box
4131 3770 Box
4131 3778 Box
4131 3738 Box
4131 3779 Box
4156 3777 Box
4156 3786 Box
4156 3780 Box
4156 3797 Box
4156 3792 Box
4182 3765 Box
4182 3797 Box
4182 3786 Box
4182 3801 Box
4182 3792 Box
4207 3804 Box
4207 3820 Box
4207 3823 Box
4207 3834 Box
4207 3820 Box
4233 3835 Box
4233 3830 Box
4233 3830 Box
4233 3763 Box
4233 3840 Box
4258 3820 Box
4258 3859 Box
4258 3839 Box
4258 3838 Box
4258 3833 Box
4284 3847 Box
4284 3872 Box
4284 3861 Box
4284 3822 Box
4284 3842 Box
4309 3852 Box
4309 3860 Box
4309 3853 Box
4309 3873 Box
4309 3840 Box
4335 3894 Box
4335 3864 Box
4335 3890 Box
4335 3867 Box
4335 3899 Box
4360 3909 Box
4360 3912 Box
4360 3913 Box
4360 3919 Box
4360 3893 Box
4386 3932 Box
4386 3912 Box
4386 3904 Box
4386 3934 Box
4386 3908 Box
4411 3935 Box
4411 3927 Box
4411 3935 Box
4411 3929 Box
4411 3928 Box
4437 3949 Box
4437 3939 Box
4437 3900 Box
4437 3944 Box
4437 3927 Box
4462 3953 Box
4462 3949 Box
4462 3972 Box
4462 3960 Box
4462 3957 Box
4488 3971 Box
4488 3973 Box
4488 3960 Box
4488 3989 Box
4488 3976 Box
4513 3992 Box
4513 3980 Box
4513 3952 Box
4513 3975 Box
4513 3998 Box
4539 4002 Box
4539 3976 Box
4539 3983 Box
4539 4017 Box
4539 4026 Box
4565 4045 Box
4565 4002 Box
4565 4022 Box
4565 4015 Box
4565 4026 Box
4590 4051 Box
4590 4044 Box
4590 4029 Box
4590 4012 Box
4590 4035 Box
4616 4038 Box
4616 4027 Box
4616 4053 Box
4616 4038 Box
4616 4069 Box
4641 4030 Box
4641 4055 Box
4641 4049 Box
4641 4058 Box
4641 4070 Box
4667 4064 Box
4667 4083 Box
4667 4088 Box
4667 4084 Box
4667 4080 Box
4692 4084 Box
4692 4105 Box
4692 4127 Box
4692 4092 Box
4692 4102 Box
4718 4102 Box
4718 4107 Box
4718 4078 Box
4718 4100 Box
4718 4082 Box
4743 4093 Box
4743 4118 Box
4743 4122 Box
4743 4121 Box
4743 4130 Box
4769 4130 Box
4769 4141 Box
4769 4127 Box
4769 4137 Box
4769 4137 Box
4794 4160 Box
4794 4130 Box
4794 4167 Box
4794 4145 Box
4794 4097 Box
4820 3839 Box
4820 3852 Box
4820 3822 Box
4820 3781 Box
4820 3816 Box
4845 3837 Box
4845 3856 Box
4845 3843 Box
4845 3819 Box
4845 3843 Box
4871 3852 Box
4871 3835 Box
4871 3846 Box
4871 3861 Box
4871 3859 Box
4896 3873 Box
4896 3867 Box
4896 3879 Box
4896 3873 Box
4896 3848 Box
4922 3892 Box
4922 3871 Box
4922 3886 Box
4922 3880 Box
4922 3884 Box
4947 3905 Box
4947 3887 Box
4947 3901 Box
4947 3851 Box
4947 3886 Box
4973 3889 Box
4973 3915 Box
4973 3903 Box
4973 3903 Box
4973 3895 Box
4998 3929 Box
4998 3906 Box
4998 3892 Box
4998 3913 Box
4998 3912 Box
5024 3913 Box
5024 3926 Box
5024 3932 Box
5024 3913 Box
5024 3907 Box
5049 3928 Box
5049 3931 Box
5049 3955 Box
5049 3935 Box
5049 3938 Box
5075 3927 Box
5075 3932 Box
5075 3959 Box
5075 3948 Box
5075 3961 Box
5100 3964 Box
5100 3969 Box
5100 3951 Box
5100 3961 Box
5100 3929 Box
5126 3973 Box
5126 3976 Box
5126 3990 Box
5126 3974 Box
5126 3982 Box
5151 3980 Box
5151 3993 Box
5151 3985 Box
5151 3970 Box
5151 3982 Box
5177 4008 Box
5177 3986 Box
5177 3976 Box
5177 3995 Box
5177 4010 Box
5202 4030 Box
5202 4011 Box
5202 4008 Box
5202 4013 Box
5202 4015 Box
5228 4022 Box
5228 4012 Box
5228 4008 Box
5228 4030 Box
5228 4026 Box
5253 4047 Box
5253 4003 Box
5253 4032 Box
5253 4044 Box
5253 4031 Box
5279 4067 Box
5279 4050 Box
5279 4051 Box
5279 4057 Box
5279 4038 Box
5304 4044 Box
5304 4064 Box
5304 4059 Box
5304 4066 Box
5304 4054 Box
5330 4062 Box
5330 4073 Box
5330 4063 Box
5330 4076 Box
5330 4063 Box
5355 4099 Box
5355 4072 Box
5355 4096 Box
5355 4084 Box
5355 4090 Box
5381 4101 Box
5381 4115 Box
5381 4087 Box
5381 4090 Box
5381 4088 Box
5406 4098 Box
5406 4113 Box
5406 4108 Box
5406 4095 Box
5406 4089 Box
5432 4124 Box
5432 4091 Box
5432 4109 Box
5432 4131 Box
5432 4123 Box
5458 4122 Box
5458 4129 Box
5458 4119 Box
5458 4125 Box
5458 4140 Box
5483 4145 Box
5483 4156 Box
5483 4131 Box
5483 4163 Box
5483 4109 Box
5509 4172 Box
5509 4130 Box
5509 4165 Box
5509 4168 Box
5509 4162 Box
5534 4174 Box
5534 4138 Box
5534 4178 Box
5534 4170 Box
5534 4179 Box
5560 4151 Box
5560 4182 Box
5560 4188 Box
5560 4169 Box
5560 4190 Box
5585 4179 Box
5585 4208 Box
5585 4198 Box
5585 4179 Box
5585 4203 Box
5611 4221 Box
5611 4191 Box
5611 4205 Box
5611 4213 Box
5611 4222 Box
5636 3943 Box
5636 3935 Box
5636 3934 Box
5636 3894 Box
5636 3946 Box
5662 3944 Box
5662 3954 Box
5662 3953 Box
5662 3939 Box
5662 3949 Box
5687 3951 Box
5687 3956 Box
5687 3935 Box
5687 3941 Box
5687 3958 Box
5713 3953 Box
5713 3934 Box
5713 3928 Box
5713 3971 Box
5713 3941 Box
5738 3952 Box
5738 3978 Box
5738 3957 Box
5738 3970 Box
5738 3984 Box
5764 3989 Box
5764 3963 Box
5764 3968 Box
5764 3976 Box
5764 3961 Box
5789 4010 Box
5789 3992 Box
5789 3965 Box
5789 3988 Box
5789 3997 Box
5815 3997 Box
5815 3989 Box
5815 3987 Box
5815 4007 Box
5815 3980 Box
5840 4006 Box
5840 4004 Box
5840 4013 Box
5840 4012 Box
5840 4017 Box
5866 4010 Box
5866 4029 Box
5866 4011 Box
5866 4031 Box
5866 4004 Box
5891 4042 Box
5891 4044 Box
5891 4026 Box
5891 4038 Box
5891 4023 Box
5917 4022 Box
5917 4035 Box
5917 4043 Box
5917 4024 Box
5917 4033 Box
5942 4059 Box
5942 4052 Box
5942 4048 Box
5942 4053 Box
5942 4029 Box
5968 4056 Box
5968 4014 Box
5968 4032 Box
5968 4043 Box
5968 4050 Box
5993 4066 Box
5993 4061 Box
5993 4070 Box
5993 4063 Box
5993 4076 Box
6019 4076 Box
6019 4083 Box
6019 4044 Box
6019 4088 Box
6019 4089 Box
6044 4087 Box
6044 4102 Box
6044 4090 Box
6044 4095 Box
6044 4063 Box
6070 4091 Box
6070 4102 Box
6070 4086 Box
6070 4099 Box
6070 4111 Box
6095 4111 Box
6095 4122 Box
6095 4118 Box
6095 4117 Box
6095 4119 Box
6121 4117 Box
6121 4121 Box
6121 4117 Box
6121 4132 Box
6121 4122 Box
6146 4115 Box
6146 4144 Box
6146 4132 Box
6146 4116 Box
6146 4141 Box
6172 4130 Box
6172 4144 Box
6172 4129 Box
6172 4160 Box
6172 4120 Box
6197 4152 Box
6197 4138 Box
6197 4150 Box
6197 4111 Box
6197 4140 Box
6223 4152 Box
6223 4155 Box
6223 4163 Box
6223 4171 Box
6223 4163 Box
6248 4184 Box
6248 4162 Box
6248 4155 Box
6248 4171 Box
6248 4170 Box
6274 4172 Box
6274 4166 Box
6274 4180 Box
6274 4190 Box
6274 4195 Box
6299 4175 Box
6299 4199 Box
6299 4172 Box
6299 4167 Box
6299 4196 Box
6325 4220 Box
6325 4227 Box
6325 4180 Box
6325 4199 Box
6325 4211 Box
6350 4206 Box
6350 4217 Box
6350 4198 Box
6350 4228 Box
6350 4188 Box
6376 4238 Box
6376 4194 Box
6376 4229 Box
6376 4207 Box
6376 4217 Box
6402 4235 Box
6402 4218 Box
6402 4225 Box
6402 4251 Box
6402 4234 Box
6427 4232 Box
6427 4253 Box
6427 4225 Box
6427 4250 Box
6427 4243 Box
6453 4008 Box
6453 4003 Box
6453 4000 Box
6453 4011 Box
6453 3981 Box
6478 3992 Box
6478 3999 Box
6478 4022 Box
6478 4005 Box
6478 3995 Box
6504 4020 Box
6504 4027 Box
6504 4015 Box
6504 4015 Box
6504 4005 Box
6529 4032 Box
6529 4021 Box
6529 4022 Box
6529 4031 Box
6529 3999 Box
6555 4031 Box
6555 4024 Box
6555 4037 Box
6555 4047 Box
6555 4030 Box
6580 4050 Box
6580 4041 Box
6580 4057 Box
6580 4038 Box
6580 4024 Box
6606 4058 Box
6606 4062 Box
6606 4043 Box
6606 4055 Box
6606 4058 Box
6631 4050 Box
6631 4071 Box
6631 4061 Box
6631 4032 Box
6631 4050 Box
6657 4075 Box
6657 4074 Box
6657 4055 Box
6657 4058 Box
6657 4070 Box
6682 4084 Box
6682 4072 Box
6682 4071 Box
6682 4063 Box
6682 4075 Box
6708 4100 Box
6708 4084 Box
6708 4089 Box
6708 4094 Box
6708 4090 Box
6733 4095 Box
6733 4101 Box
6733 4113 Box
6733 4110 Box
6733 4107 Box
6759 4098 Box
6759 4106 Box
6759 4115 Box
6759 4109 Box
6759 4109 Box
6784 4114 Box
6784 4109 Box
6784 4115 Box
6784 4115 Box
6784 4112 Box
6810 4128 Box
6810 4123 Box
6810 4126 Box
6810 4118 Box
6810 4125 Box
6835 4130 Box
6835 4122 Box
6835 4139 Box
6835 4134 Box
6835 4127 Box
6861 4142 Box
6861 4143 Box
6861 4145 Box
6861 4146 Box
6861 4134 Box
6886 4142 Box
6886 4140 Box
6886 4143 Box
6886 4148 Box
6886 4156 Box
6912 4162 Box
6912 4170 Box
6912 4158 Box
6912 4154 Box
6912 4177 Box
6937 4169 Box
6937 4181 Box
6937 4167 Box
6937 4157 Box
6937 4180 Box
6963 4170 Box
6963 4162 Box
6963 4167 Box
6963 4152 Box
6963 4175 Box
6988 4172 Box
6988 4185 Box
6988 4170 Box
6988 4166 Box
6988 4187 Box
7014 4193 Box
7014 4193 Box
7014 4203 Box
7014 4192 Box
7014 4198 Box
7039 4205 Box
7039 4212 Box
7039 4204 Box
7039 4214 Box
7039 4198 Box
7065 4211 Box
7065 4213 Box
7065 4218 Box
7065 4213 Box
7065 4201 Box
7090 4213 Box
7090 4229 Box
7090 4207 Box
7090 4227 Box
7090 4230 Box
7116 4241 Box
7116 4231 Box
7116 4219 Box
7116 4228 Box
7116 4230 Box
7141 4265 Box
7141 4242 Box
7141 4240 Box
7141 4228 Box
7141 4235 Box
7167 4251 Box
7167 4248 Box
7167 4265 Box
7167 4231 Box
7167 4262 Box
7192 4252 Box
7192 4240 Box
7192 4243 Box
7192 4260 Box
7192 4260 Box
7218 4272 Box
7218 4231 Box
7218 4275 Box
7218 4263 Box
7218 4276 Box
7243 4278 Box
7243 4285 Box
7243 4280 Box
7243 4280 Box
7243 4274 Box
7269 4058 Box
7269 4069 Box
7269 4051 Box
7269 4054 Box
7269 4073 Box
7295 4064 Box
7295 4068 Box
7295 4064 Box
7295 4059 Box
7295 4059 Box
7320 4058 Box
7320 4072 Box
7320 4080 Box
7320 4070 Box
7320 4059 Box
7346 4087 Box
7346 4084 Box
7346 4076 Box
7346 4083 Box
7346 4081 Box
7371 4096 Box
7371 4077 Box
7371 4077 Box
7371 4071 Box
7371 4091 Box
7397 4083 Box
7397 4099 Box
7397 4089 Box
7397 4074 Box
7397 4097 Box
7422 4113 Box
7422 4106 Box
7422 4100 Box
7422 4116 Box
7422 4103 Box
7448 4110 Box
7448 4110 Box
7448 4113 Box
7448 4114 Box
7448 4105 Box
7473 4131 Box
7473 4112 Box
7473 4126 Box
7473 4114 Box
7473 4108 Box
7499 4139 Box
7499 4133 Box
7499 4132 Box
7499 4129 Box
7499 4134 Box
7524 4137 Box
7524 4134 Box
7524 4135 Box
7524 4143 Box
7524 4112 Box
7550 4144 Box
7550 4141 Box
7550 4150 Box
7550 4148 Box
7550 4136 Box
7575 4150 Box
7575 4156 Box
7575 4134 Box
7575 4144 Box
7575 4148 Box
7601 4159 Box
7601 4146 Box
7601 4165 Box
7601 4147 Box
7601 4159 Box
7626 4133 Box
7626 4173 Box
7626 4169 Box
7626 4165 Box
7626 4177 Box
7652 4179 Box
7652 4181 Box
7652 4175 Box
7652 4173 Box
7652 4175 Box
7677 4185 Box
7677 4178 Box
7677 4178 Box
7677 4193 Box
7677 4184 Box
7703 4164 Box
7703 4193 Box
7703 4191 Box
7703 4196 Box
7703 4196 Box
7728 4201 Box
7728 4193 Box
7728 4195 Box
7728 4197 Box
7728 4178 Box
7754 4198 Box
7754 4196 Box
7754 4201 Box
7754 4205 Box
7754 4206 Box
7779 4205 Box
7779 4217 Box
7779 4217 Box
7779 4221 Box
7779 4203 Box
7805 4217 Box
7805 4226 Box
7805 4218 Box
7805 4211 Box
7805 4218 Box
7830 4221 Box
7830 4208 Box
7830 4238 Box
7830 4226 Box
7830 4235 Box
7856 4237 Box
7856 4242 Box
7856 4235 Box
7856 4244 Box
7856 4232 Box
7881 4241 Box
7881 4249 Box
7881 4244 Box
7881 4256 Box
7881 4254 Box
7907 4260 Box
7907 4256 Box
7907 4263 Box
7907 4253 Box
7907 4238 Box
7932 4270 Box
7932 4257 Box
7932 4255 Box
7932 4272 Box
7932 4259 Box
7958 4270 Box
7958 4259 Box
7958 4247 Box
7958 4275 Box
7958 4268 Box
7983 4276 Box
7983 4274 Box
7983 4264 Box
7983 4254 Box
7983 4281 Box
8009 4284 Box
8009 4291 Box
8009 4280 Box
8009 4282 Box
8009 4274 Box
8034 4296 Box
8034 4301 Box
8034 4293 Box
8034 4300 Box
8034 4302 Box
8060 4304 Box
8060 4313 Box
8060 4308 Box
8060 4310 Box
8060 4307 Box
8085 4099 Box
8085 4088 Box
8085 4108 Box
8085 4095 Box
8085 4098 Box
8111 4125 Box
8111 4120 Box
8111 4120 Box
8111 4100 Box
8111 4117 Box
8136 4105 Box
8136 4122 Box
8136 4118 Box
8136 4109 Box
8136 4129 Box
8162 4121 Box
8162 4112 Box
8162 4111 Box
8162 4105 Box
8162 4116 Box
8187 4131 Box
8187 4134 Box
8187 4127 Box
8187 4129 Box
8187 4129 Box
8213 4134 Box
8213 4144 Box
8213 4120 Box
8213 4134 Box
8213 4128 Box
8239 4146 Box
8239 4143 Box
8239 4133 Box
8239 4143 Box
8239 4151 Box
8264 4131 Box
8264 4161 Box
8264 4152 Box
8264 4139 Box
8264 4136 Box
8290 4163 Box
8290 4157 Box
8290 4164 Box
8290 4156 Box
8290 4158 Box
8315 4166 Box
8315 4167 Box
8315 4162 Box
8315 4171 Box
8315 4170 Box
8341 4175 Box
8341 4158 Box
8341 4169 Box
8341 4181 Box
8341 4162 Box
8366 4174 Box
8366 4180 Box
8366 4167 Box
8366 4173 Box
8366 4182 Box
8392 4189 Box
8392 4185 Box
8392 4181 Box
8392 4182 Box
8392 4189 Box
8417 4184 Box
8417 4191 Box
8417 4201 Box
8417 4189 Box
8417 4187 Box
8443 4206 Box
8443 4197 Box
8443 4182 Box
8443 4212 Box
8443 4203 Box
8468 4215 Box
8468 4205 Box
8468 4197 Box
8468 4217 Box
8468 4218 Box
8494 4215 Box
8494 4221 Box
8494 4199 Box
8494 4211 Box
8494 4218 Box
8519 4217 Box
8519 4210 Box
8519 4219 Box
8519 4230 Box
8519 4224 Box
8545 4231 Box
8545 4228 Box
8545 4227 Box
8545 4197 Box
8545 4231 Box
8570 4245 Box
8570 4222 Box
8570 4239 Box
8570 4215 Box
8570 4241 Box
8596 4243 Box
8596 4242 Box
8596 4237 Box
8596 4247 Box
8596 4248 Box
8621 4234 Box
8621 4241 Box
8621 4254 Box
8621 4244 Box
8621 4242 Box
8647 4235 Box
8647 4249 Box
8647 4252 Box
8647 4243 Box
8647 4255 Box
8672 4274 Box
8672 4263 Box
8672 4264 Box
8672 4264 Box
8672 4268 Box
8698 4263 Box
8698 4268 Box
8698 4248 Box
8698 4262 Box
8698 4263 Box
8723 4259 Box
8723 4283 Box
8723 4281 Box
8723 4279 Box
8723 4284 Box
8749 4279 Box
8749 4282 Box
8749 4288 Box
8749 4298 Box
8749 4280 Box
8774 4291 Box
8774 4285 Box
8774 4291 Box
8774 4298 Box
8774 4286 Box
8800 4302 Box
8800 4306 Box
8800 4304 Box
8800 4286 Box
8800 4297 Box
8825 4314 Box
8825 4302 Box
8825 4313 Box
8825 4298 Box
8825 4302 Box
8851 4309 Box
8851 4313 Box
8851 4329 Box
8851 4288 Box
8851 4316 Box
8876 4303 Box
8876 4327 Box
8876 4323 Box
8876 4317 Box
8876 4313 Box
8902 4154 Box
8902 4127 Box
8902 4132 Box
8902 4152 Box
8902 4149 Box
8927 4151 Box
8927 4147 Box
8927 4136 Box
8927 4144 Box
8927 4133 Box
8953 4151 Box
8953 4157 Box
8953 4157 Box
8953 4158 Box
8953 4145 Box
8978 4165 Box
8978 4158 Box
8978 4165 Box
8978 4159 Box
8978 4150 Box
9004 4158 Box
9004 4165 Box
9004 4152 Box
9004 4164 Box
9004 4146 Box
9029 4177 Box
9029 4176 Box
9029 4160 Box
9029 4179 Box
9029 4183 Box
9055 4170 Box
9055 4165 Box
9055 4181 Box
9055 4176 Box
9055 4176 Box
9080 4178 Box
9080 4155 Box
9080 4188 Box
9080 4174 Box
9080 4181 Box
9106 4186 Box
9106 4184 Box
9106 4188 Box
9106 4189 Box
9106 4178 Box
9131 4197 Box
9131 4199 Box
9131 4204 Box
9131 4200 Box
9131 4192 Box
9157 4194 Box
9157 4198 Box
9157 4211 Box
9157 4204 Box
9157 4206 Box
9183 4208 Box
9183 4213 Box
9183 4218 Box
9183 4205 Box
9183 4202 Box
9208 4210 Box
9208 4218 Box
9208 4215 Box
9208 4200 Box
9208 4200 Box
9234 4204 Box
9234 4208 Box
9234 4225 Box
9234 4219 Box
9234 4216 Box
9259 4222 Box
9259 4227 Box
9259 4223 Box
9259 4230 Box
9259 4223 Box
9285 4240 Box
9285 4229 Box
9285 4234 Box
9285 4233 Box
9285 4223 Box
9310 4245 Box
9310 4239 Box
9310 4233 Box
9310 4247 Box
9310 4236 Box
9336 4244 Box
9336 4240 Box
9336 4259 Box
9336 4252 Box
9336 4249 Box
9361 4257 Box
9361 4250 Box
9361 4254 Box
9361 4234 Box
9361 4260 Box
9387 4256 Box
9387 4263 Box
9387 4259 Box
9387 4259 Box
9387 4246 Box
9412 4263 Box
9412 4276 Box
9412 4261 Box
9412 4276 Box
9412 4255 Box
9438 4272 Box
9438 4277 Box
9438 4247 Box
9438 4263 Box
9438 4263 Box
9463 4276 Box
9463 4276 Box
9463 4283 Box
9463 4280 Box
9463 4267 Box
9489 4273 Box
9489 4284 Box
9489 4289 Box
9489 4289 Box
9489 4277 Box
9514 4296 Box
9514 4302 Box
9514 4256 Box
9514 4271 Box
9514 4281 Box
9540 4282 Box
9540 4302 Box
9540 4291 Box
9540 4298 Box
9540 4296 Box
9565 4305 Box
9565 4309 Box
9565 4301 Box
9565 4296 Box
9565 4303 Box
9591 4312 Box
9591 4307 Box
9591 4290 Box
9591 4305 Box
9591 4313 Box
9616 4318 Box
9616 4312 Box
9616 4314 Box
9616 4328 Box
9616 4321 Box
9642 4315 Box
9642 4322 Box
9642 4325 Box
9642 4324 Box
9642 4297 Box
9667 4329 Box
9667 4318 Box
9667 4322 Box
9667 4322 Box
9667 4305 Box
9693 4344 Box
9693 4340 Box
9693 4321 Box
9693 4344 Box
9693 4291 Box
9718 4168 Box
9718 4164 Box
9718 4172 Box
9718 4176 Box
9718 4176 Box
9744 4167 Box
9744 4186 Box
9744 4154 Box
9744 4171 Box
9744 4167 Box
9769 4163 Box
9769 4169 Box
9769 4173 Box
9769 4169 Box
9769 4183 Box
9795 4182 Box
9795 4189 Box
9795 4177 Box
9795 4185 Box
9795 4191 Box
9820 4191 Box
9820 4176 Box
9820 4194 Box
9820 4193 Box
9820 4199 Box
9846 4194 Box
9846 4190 Box
9846 4208 Box
9846 4191 Box
9846 4193 Box
9871 4197 Box
9871 4201 Box
9871 4199 Box
9871 4190 Box
9871 4190 Box
9897 4210 Box
9897 4219 Box
9897 4213 Box
9897 4206 Box
9897 4204 Box
9922 4218 Box
9922 4215 Box
9922 4206 Box
9922 4209 Box
9922 4205 Box
9948 4221 Box
9948 4212 Box
9948 4223 Box
9948 4228 Box
9948 4228 Box
9973 4223 Box
9973 4231 Box
9973 4218 Box
9973 4221 Box
9973 4229 Box
9999 4233 Box
9999 4229 Box
9999 4218 Box
9999 4229 Box
9999 4241 Box
10024 4233 Box
10024 4235 Box
10024 4226 Box
10024 4241 Box
10024 4234 Box
10050 4241 Box
10050 4240 Box
10050 4247 Box
10050 4243 Box
10050 4235 Box
10076 4259 Box
10076 4241 Box
10076 4234 Box
10076 4250 Box
10076 4249 Box
10101 4250 Box
10101 4251 Box
10101 4262 Box
10101 4237 Box
10101 4258 Box
10127 4247 Box
10127 4258 Box
10127 4259 Box
10127 4263 Box
10127 4254 Box
10152 4269 Box
10152 4269 Box
10152 4257 Box
10152 4264 Box
10152 4273 Box
10178 4273 Box
10178 4264 Box
10178 4275 Box
10178 4259 Box
10178 4273 Box
10203 4269 Box
10203 4274 Box
10203 4279 Box
10203 4270 Box
10203 4262 Box
10229 4274 Box
10229 4285 Box
10229 4291 Box
10229 4281 Box
10229 4280 Box
10254 4289 Box
10254 4290 Box
10254 4293 Box
10254 4281 Box
10254 4290 Box
10280 4299 Box
10280 4300 Box
10280 4297 Box
10280 4302 Box
10280 4298 Box
10305 4285 Box
10305 4309 Box
10305 4309 Box
10305 4297 Box
10305 4299 Box
10331 4304 Box
10331 4299 Box
10331 4295 Box
10331 4307 Box
10331 4311 Box
10356 4307 Box
10356 4316 Box
10356 4304 Box
10356 4303 Box
10356 4315 Box
10382 4309 Box
10382 4319 Box
10382 4312 Box
10382 4312 Box
10382 4324 Box
10407 4328 Box
10407 4322 Box
10407 4321 Box
10407 4322 Box
10407 4325 Box
10433 4337 Box
10433 4324 Box
10433 4333 Box
10433 4325 Box
10433 4325 Box
10458 4343 Box
10458 4327 Box
10458 4334 Box
10458 4337 Box
10458 4330 Box
10484 4350 Box
10484 4336 Box
10484 4348 Box
10484 4350 Box
10484 4334 Box
10509 4355 Box
10509 4351 Box
10509 4339 Box
10509 4350 Box
10509 4356 Box
10535 4183 Box
10535 4200 Box
10535 4195 Box
10535 4189 Box
10535 4191 Box
10560 4191 Box
10560 4194 Box
10560 4198 Box
10560 4203 Box
10560 4199 Box
10586 4195 Box
10586 4200 Box
10586 4199 Box
10586 4205 Box
10586 4204 Box
10611 4209 Box
10611 4204 Box
10611 4205 Box
10611 4203 Box
10611 4201 Box
10637 4218 Box
10637 4218 Box
10637 4215 Box
10637 4216 Box
10637 4216 Box
10662 4223 Box
10662 4221 Box
10662 4220 Box
10662 4224 Box
10662 4221 Box
10688 4231 Box
10688 4218 Box
10688 4225 Box
10688 4231 Box
10688 4216 Box
10713 4229 Box
10713 4217 Box
10713 4229 Box
10713 4229 Box
10713 4224 Box
10739 4240 Box
10739 4234 Box
10739 4229 Box
10739 4230 Box
10739 4244 Box
10764 4236 Box
10764 4244 Box
10764 4232 Box
10764 4238 Box
10764 4245 Box
10790 4245 Box
10790 4248 Box
10790 4246 Box
10790 4248 Box
10790 4253 Box
10815 4253 Box
10815 4252 Box
10815 4254 Box
10815 4247 Box
10815 4254 Box
10841 4260 Box
10841 4261 Box
10841 4261 Box
10841 4251 Box
10841 4252 Box
10866 4271 Box
10866 4260 Box
10866 4257 Box
10866 4263 Box
10866 4260 Box
10892 4270 Box
10892 4246 Box
10892 4243 Box
10892 4262 Box
10892 4269 Box
10917 4276 Box
10917 4271 Box
10917 4270 Box
10917 4274 Box
10917 4272 Box
10943 4279 Box
10943 4272 Box
10943 4277 Box
10943 4280 Box
10943 4282 Box
10968 4284 Box
10968 4275 Box
10968 4290 Box
10968 4287 Box
10968 4271 Box
10994 4271 Box
10994 4298 Box
10994 4296 Box
10994 4290 Box
10994 4299 Box
11020 4279 Box
11020 4295 Box
11020 4296 Box
11020 4293 Box
11020 4292 Box
11045 4298 Box
11045 4294 Box
11045 4305 Box
11045 4304 Box
11045 4286 Box
11071 4300 Box
11071 4299 Box
11071 4301 Box
11071 4312 Box
11071 4292 Box
11096 4296 Box
11096 4311 Box
11096 4315 Box
11096 4303 Box
11096 4314 Box
11122 4313 Box
11122 4321 Box
11122 4313 Box
11122 4304 Box
11122 4315 Box
11147 4321 Box
11147 4312 Box
11147 4322 Box
11147 4325 Box
11147 4325 Box
11173 4325 Box
11173 4328 Box
11173 4312 Box
11173 4321 Box
11173 4325 Box
11198 4340 Box
11198 4336 Box
11198 4336 Box
11198 4337 Box
11198 4336 Box
11224 4335 Box
11224 4336 Box
11224 4345 Box
11224 4337 Box
11224 4334 Box
11249 4347 Box
11249 4334 Box
11249 4346 Box
11249 4345 Box
11249 4338 Box
11275 4348 Box
11275 4348 Box
11275 4345 Box
11275 4353 Box
11275 4344 Box
11300 4355 Box
11300 4363 Box
11300 4340 Box
11300 4350 Box
11300 4357 Box
11326 4352 Box
11326 4337 Box
11326 4358 Box
11326 4356 Box
11326 4346 Box
11351 4217 Box
11351 4209 Box
11351 4219 Box
11351 4218 Box
11351 4209 Box
11377 4225 Box
11377 4221 Box
11377 4220 Box
11377 4215 Box
11377 4216 Box
11402 4226 Box
11402 4218 Box
11402 4232 Box
11402 4224 Box
11402 4243 Box
11428 4230 Box
11428 4231 Box
11428 4222 Box
11428 4227 Box
11428 4233 Box
11453 4213 Box
11453 4238 Box
11453 4244 Box
11453 4227 Box
11453 4234 Box
11479 4239 Box
11479 4237 Box
11479 4241 Box
11479 4246 Box
11479 4240 Box
11504 4239 Box
11504 4238 Box
11504 4245 Box
11504 4248 Box
11504 4238 Box
11530 4238 Box
11530 4250 Box
11530 4249 Box
11530 4243 Box
11530 4255 Box
11555 4254 Box
11555 4261 Box
11555 4242 Box
11555 4249 Box
11555 4248 Box
11581 4254 Box
11581 4257 Box
11581 4259 Box
11581 4261 Box
11581 4247 Box
11606 4262 Box
11606 4263 Box
11606 4270 Box
11606 4261 Box
11606 4271 Box
11632 4249 Box
11632 4272 Box
11632 4264 Box
11632 4269 Box
11632 4261 Box
11657 4274 Box
11657 4268 Box
11657 4279 Box
11657 4272 Box
11657 4252 Box
11683 4269 Box
11683 4277 Box
11683 4280 Box
11683 4277 Box
11683 4276 Box
11708 4277 Box
11708 4292 Box
11708 4271 Box
11708 4272 Box
11708 4289 Box
11734 4292 Box
11734 4292 Box
11734 4281 Box
11734 4276 Box
11734 4289 Box
11759 4283 Box
11759 4302 Box
11759 4296 Box
11759 4300 Box
11759 4293 Box
11785 4299 Box
11785 4293 Box
11785 4303 Box
11785 4301 Box
11785 4298 Box
11810 4292 Box
11810 4301 Box
11810 4312 Box
11810 4300 Box
11810 4309 Box
11836 4306 Box
11836 4310 Box
11836 4315 Box
11836 4307 Box
11836 4311 Box
11861 4321 Box
11861 4320 Box
11861 4312 Box
11861 4308 Box
11861 4317 Box
11887 4312 Box
11887 4313 Box
11887 4315 Box
11887 4313 Box
11887 4328 Box
11912 4325 Box
11912 4334 Box
11912 4317 Box
11912 4321 Box
11912 4322 Box
11938 4320 Box
11938 4318 Box
11938 4335 Box
11938 4326 Box
11938 4333 Box
11964 4331 Box
11964 4333 Box
11964 4329 Box
11964 4337 Box
11964 4334 Box
11989 4338 Box
11989 4343 Box
11989 4335 Box
11989 4342 Box
11989 4337 Box
12015 4343 Box
12015 4336 Box
12015 4339 Box
12015 4342 Box
12015 4345 Box
12040 4351 Box
12040 4348 Box
12040 4354 Box
12040 4340 Box
12040 4342 Box
12066 4348 Box
12066 4361 Box
12066 4355 Box
12066 4345 Box
12066 4353 Box
12091 4370 Box
12091 4356 Box
12091 4365 Box
12091 4358 Box
12091 4345 Box
12117 4349 Box
12117 4372 Box
12117 4353 Box
12117 4363 Box
12117 4366 Box
12142 4362 Box
12142 4371 Box
12142 4367 Box
12142 4364 Box
12142 4361 Box
12168 4227 Box
12168 4240 Box
12168 4232 Box
12168 4227 Box
12168 4226 Box
12193 4230 Box
12193 4239 Box
12193 4243 Box
12193 4242 Box
12193 4248 Box
12219 4247 Box
12219 4246 Box
12219 4244 Box
12219 4231 Box
12219 4240 Box
12244 4248 Box
12244 4242 Box
12244 4243 Box
12244 4246 Box
12244 4248 Box
12270 4243 Box
12270 4245 Box
12270 4256 Box
12270 4253 Box
12270 4252 Box
12295 4250 Box
12295 4255 Box
12295 4255 Box
12295 4252 Box
12295 4263 Box
12321 4240 Box
12321 4253 Box
12321 4254 Box
12321 4257 Box
12321 4259 Box
12346 4268 Box
12346 4256 Box
12346 4275 Box
12346 4278 Box
12346 4259 Box
12372 4275 Box
12372 4272 Box
12372 4271 Box
12372 4273 Box
12372 4272 Box
12397 4280 Box
12397 4282 Box
12397 4272 Box
12397 4274 Box
12397 4270 Box
12423 4275 Box
12423 4272 Box
12423 4276 Box
12423 4281 Box
12423 4283 Box
12448 4273 Box
12448 4282 Box
12448 4286 Box
12448 4288 Box
12448 4286 Box
12474 4286 Box
12474 4292 Box
12474 4290 Box
12474 4292 Box
12474 4278 Box
12499 4293 Box
12499 4300 Box
12499 4290 Box
12499 4298 Box
12499 4297 Box
12525 4299 Box
12525 4304 Box
12525 4298 Box
12525 4299 Box
12525 4301 Box
12550 4308 Box
12550 4300 Box
12550 4300 Box
12550 4279 Box
12550 4302 Box
12576 4307 Box
12576 4305 Box
12576 4309 Box
12576 4293 Box
12576 4275 Box
12601 4306 Box
12601 4310 Box
12601 4302 Box
12601 4310 Box
12601 4315 Box
12627 4315 Box
12627 4315 Box
12627 4313 Box
12627 4314 Box
12627 4324 Box
12652 4318 Box
12652 4320 Box
12652 4323 Box
12652 4315 Box
12652 4314 Box
12678 4324 Box
12678 4317 Box
12678 4325 Box
12678 4313 Box
12678 4322 Box
12703 4330 Box
12703 4340 Box
12703 4327 Box
12703 4337 Box
12703 4318 Box
12729 4334 Box
12729 4339 Box
12729 4328 Box
12729 4338 Box
12729 4335 Box
12754 4345 Box
12754 4343 Box
12754 4335 Box
12754 4337 Box
12754 4340 Box
12780 4337 Box
12780 4349 Box
12780 4346 Box
12780 4352 Box
12780 4343 Box
12805 4351 Box
12805 4352 Box
12805 4341 Box
12805 4350 Box
12805 4355 Box
12831 4361 Box
12831 4353 Box
12831 4346 Box
12831 4352 Box
12831 4346 Box
12857 4352 Box
12857 4363 Box
12857 4361 Box
12857 4362 Box
12857 4359 Box
12882 4368 Box
12882 4357 Box
12882 4362 Box
12882 4361 Box
12882 4365 Box
12908 4362 Box
12908 4362 Box
12908 4375 Box
12908 4370 Box
12908 4369 Box
12933 4378 Box
12933 4377 Box
12933 4384 Box
12933 4365 Box
12933 4359 Box
12959 4362 Box
12959 4376 Box
12959 4381 Box
12959 4377 Box
12959 4375 Box
12984 4248 Box
12984 4254 Box
12984 4258 Box
12984 4246 Box
12984 4252 Box
13010 4242 Box
13010 4252 Box
13010 4246 Box
13010 4250 Box
13010 4269 Box
13035 4252 Box
13035 4273 Box
13035 4265 Box
13035 4260 Box
13035 4240 Box
13061 4265 Box
13061 4265 Box
13061 4269 Box
13061 4272 Box
13061 4262 Box
13086 4270 Box
13086 4270 Box
13086 4268 Box
13086 4265 Box
13086 4275 Box
13112 4265 Box
13112 4269 Box
13112 4275 Box
13112 4269 Box
13112 4273 Box
13137 4258 Box
13137 4272 Box
13137 4271 Box
13137 4270 Box
13137 4280 Box
13163 4285 Box
13163 4277 Box
13163 4271 Box
13163 4282 Box
13163 4279 Box
13188 4281 Box
13188 4285 Box
13188 4279 Box
13188 4286 Box
13188 4288 Box
13214 4282 Box
13214 4293 Box
13214 4290 Box
13214 4285 Box
13214 4292 Box
13239 4297 Box
13239 4294 Box
13239 4292 Box
13239 4292 Box
13239 4293 Box
13265 4298 Box
13265 4288 Box
13265 4295 Box
13265 4294 Box
13265 4293 Box
13290 4295 Box
13290 4303 Box
13290 4298 Box
13290 4304 Box
13290 4308 Box
13316 4310 Box
13316 4303 Box
13316 4305 Box
13316 4304 Box
13316 4301 Box
13341 4304 Box
13341 4314 Box
13341 4313 Box
13341 4313 Box
13341 4304 Box
13367 4314 Box
13367 4315 Box
13367 4314 Box
13367 4310 Box
13367 4308 Box
13392 4315 Box
13392 4324 Box
13392 4313 Box
13392 4320 Box
13392 4318 Box
13418 4324 Box
13418 4321 Box
13418 4323 Box
13418 4320 Box
13418 4327 Box
13443 4329 Box
13443 4326 Box
13443 4322 Box
13443 4327 Box
13443 4326 Box
13469 4326 Box
13469 4329 Box
13469 4331 Box
13469 4329 Box
13469 4330 Box
13494 4332 Box
13494 4330 Box
13494 4329 Box
13494 4336 Box
13494 4339 Box
13520 4340 Box
13520 4338 Box
13520 4341 Box
13520 4337 Box
13520 4337 Box
13545 4346 Box
13545 4334 Box
13545 4343 Box
13545 4342 Box
13545 4342 Box
13571 4333 Box
13571 4346 Box
13571 4346 Box
13571 4343 Box
13571 4356 Box
13596 4360 Box
13596 4353 Box
13596 4354 Box
13596 4348 Box
13596 4358 Box
13622 4359 Box
13622 4352 Box
13622 4362 Box
13622 4353 Box
13622 4357 Box
13647 4363 Box
13647 4368 Box
13647 4361 Box
13647 4359 Box
13647 4359 Box
13673 4364 Box
13673 4373 Box
13673 4363 Box
13673 4364 Box
13673 4365 Box
13698 4362 Box
13698 4377 Box
13698 4373 Box
13698 4373 Box
13698 4369 Box
13724 4373 Box
13724 4375 Box
13724 4376 Box
13724 4374 Box
13724 4381 Box
13749 4378 Box
13749 4379 Box
13749 4375 Box
13749 4373 Box
13749 4379 Box
13775 4384 Box
13775 4388 Box
13775 4375 Box
13775 4391 Box
13775 4386 Box
2.000 UL
LT0
LC0 setrgbcolor
0.50 0.50 0.50 C 814 1176 M
131 606 V
131 606 V
131 606 V
131 606 V
131 606 V
1600 2758 L
130 303 V
131 303 V
131 303 V
131 303 V
131 303 V
131 -988 V
131 202 V
131 202 V
131 202 V
131 202 V
131 202 V
131 -746 V
130 151 V
131 152 V
131 151 V
131 152 V
131 151 V
131 152 V
131 -630 V
131 121 V
131 122 V
131 121 V
131 121 V
131 121 V
130 -521 V
131 101 V
131 101 V
131 101 V
131 101 V
131 101 V
131 -444 V
131 87 V
131 86 V
131 87 V
131 87 V
131 86 V
131 -387 V
130 76 V
131 75 V
131 76 V
131 76 V
131 76 V
131 75 V
131 -351 V
131 67 V
131 67 V
131 68 V
131 67 V
131 67 V
130 -315 V
131 61 V
131 61 V
131 60 V
131 61 V
131 60 V
131 -285 V
131 55 V
131 55 V
131 55 V
131 56 V
131 55 V
131 -261 V
130 50 V
131 51 V
131 50 V
131 51 V
131 50 V
131 51 V
131 -244 V
131 47 V
131 46 V
131 47 V
131 47 V
131 46 V
130 -225 V
131 43 V
131 43 V
131 43 V
131 44 V
131 43 V
131 -210 V
131 40 V
131 41 V
131 40 V
131 40 V
131 41 V
130 -196 V
131 37 V
131 38 V
131 38 V
131 38 V
131 38 V
131 38 V
stroke
LT1
LC1 setrgbcolor
0.50 0.50 0.50 C 814 4483 M
131 0 V
131 0 V
131 0 V
131 0 V
131 0 V
131 0 V
130 0 V
131 0 V
131 0 V
131 0 V
131 0 V
131 0 V
131 0 V
131 0 V
131 0 V
131 0 V
131 0 V
131 0 V
130 0 V
131 0 V
131 0 V
131 0 V
131 0 V
131 0 V
131 0 V
131 0 V
131 0 V
131 0 V
131 0 V
131 0 V
130 0 V
131 0 V
131 0 V
131 0 V
131 0 V
131 0 V
131 0 V
131 0 V
131 0 V
131 0 V
131 0 V
131 0 V
131 0 V
130 0 V
131 0 V
131 0 V
131 0 V
131 0 V
131 0 V
131 0 V
131 0 V
131 0 V
131 0 V
131 0 V
131 0 V
130 0 V
131 0 V
131 0 V
131 0 V
131 0 V
131 0 V
131 0 V
131 0 V
131 0 V
131 0 V
131 0 V
131 0 V
131 0 V
130 0 V
131 0 V
131 0 V
131 0 V
131 0 V
131 0 V
131 0 V
131 0 V
131 0 V
131 0 V
131 0 V
131 0 V
130 0 V
131 0 V
131 0 V
131 0 V
131 0 V
131 0 V
131 0 V
131 0 V
131 0 V
131 0 V
131 0 V
131 0 V
130 0 V
131 0 V
131 0 V
131 0 V
131 0 V
131 0 V
131 0 V
stroke
1.000 UL
LTb
LCb setrgbcolor
814 4837 N
814 704 L
12961 0 V
0 4133 V
814 4837 L
Z stroke
1.000 UP
1.000 UL
LTb
stroke
grestore
end
showpage
%%Trailer
