%!PS-Adobe-2.0 EPSF-2.0
%%Title: /home/yummiii/Masterarbeit/Thesis/document/bilder/speedupNormalWorkers_s.tex
%%Creator: gnuplot 4.6 patchlevel 5
%%CreationDate: Tue Jan  5 11:02:34 2016
%%DocumentFonts: 
%%BoundingBox: 50 50 404 361
%%EndComments
%%BeginProlog
/gnudict 256 dict def
gnudict begin
%
% The following true/false flags may be edited by hand if desired.
% The unit line width and grayscale image gamma correction may also be changed.
%
/Color true def
/Blacktext true def
/Solid false def
/Dashlength 1 def
/Landscape false def
/Level1 false def
/Rounded false def
/ClipToBoundingBox false def
/SuppressPDFMark false def
/TransparentPatterns false def
/gnulinewidth 5.000 def
/userlinewidth gnulinewidth def
/Gamma 1.0 def
/BackgroundColor {-1.000 -1.000 -1.000} def
%
/vshift -73 def
/dl1 {
  10.0 Dashlength mul mul
  Rounded { currentlinewidth 0.75 mul sub dup 0 le { pop 0.01 } if } if
} def
/dl2 {
  10.0 Dashlength mul mul
  Rounded { currentlinewidth 0.75 mul add } if
} def
/hpt_ 31.5 def
/vpt_ 31.5 def
/hpt hpt_ def
/vpt vpt_ def
/doclip {
  ClipToBoundingBox {
    newpath 50 50 moveto 404 50 lineto 404 361 lineto 50 361 lineto closepath
    clip
  } if
} def
%
% Gnuplot Prolog Version 4.6 (September 2012)
%
%/SuppressPDFMark true def
%
/M {moveto} bind def
/L {lineto} bind def
/R {rmoveto} bind def
/V {rlineto} bind def
/N {newpath moveto} bind def
/Z {closepath} bind def
/C {setrgbcolor} bind def
/f {rlineto fill} bind def
/g {setgray} bind def
/Gshow {show} def   % May be redefined later in the file to support UTF-8
/vpt2 vpt 2 mul def
/hpt2 hpt 2 mul def
/Lshow {currentpoint stroke M 0 vshift R 
	Blacktext {gsave 0 setgray show grestore} {show} ifelse} def
/Rshow {currentpoint stroke M dup stringwidth pop neg vshift R
	Blacktext {gsave 0 setgray show grestore} {show} ifelse} def
/Cshow {currentpoint stroke M dup stringwidth pop -2 div vshift R 
	Blacktext {gsave 0 setgray show grestore} {show} ifelse} def
/UP {dup vpt_ mul /vpt exch def hpt_ mul /hpt exch def
  /hpt2 hpt 2 mul def /vpt2 vpt 2 mul def} def
/DL {Color {setrgbcolor Solid {pop []} if 0 setdash}
 {pop pop pop 0 setgray Solid {pop []} if 0 setdash} ifelse} def
/BL {stroke userlinewidth 2 mul setlinewidth
	Rounded {1 setlinejoin 1 setlinecap} if} def
/AL {stroke userlinewidth 2 div setlinewidth
	Rounded {1 setlinejoin 1 setlinecap} if} def
/UL {dup gnulinewidth mul /userlinewidth exch def
	dup 1 lt {pop 1} if 10 mul /udl exch def} def
/PL {stroke userlinewidth setlinewidth
	Rounded {1 setlinejoin 1 setlinecap} if} def
3.8 setmiterlimit
% Default Line colors
/LCw {1 1 1} def
/LCb {0 0 0} def
/LCa {0 0 0} def
/LC0 {1 0 0} def
/LC1 {0 1 0} def
/LC2 {0 0 1} def
/LC3 {1 0 1} def
/LC4 {0 1 1} def
/LC5 {1 1 0} def
/LC6 {0 0 0} def
/LC7 {1 0.3 0} def
/LC8 {0.5 0.5 0.5} def
% Default Line Types
/LTw {PL [] 1 setgray} def
/LTb {BL [] LCb DL} def
/LTa {AL [1 udl mul 2 udl mul] 0 setdash LCa setrgbcolor} def
/LT0 {PL [] LC0 DL} def
/LT1 {PL [4 dl1 2 dl2] LC1 DL} def
/LT2 {PL [2 dl1 3 dl2] LC2 DL} def
/LT3 {PL [1 dl1 1.5 dl2] LC3 DL} def
/LT4 {PL [6 dl1 2 dl2 1 dl1 2 dl2] LC4 DL} def
/LT5 {PL [3 dl1 3 dl2 1 dl1 3 dl2] LC5 DL} def
/LT6 {PL [2 dl1 2 dl2 2 dl1 6 dl2] LC6 DL} def
/LT7 {PL [1 dl1 2 dl2 6 dl1 2 dl2 1 dl1 2 dl2] LC7 DL} def
/LT8 {PL [2 dl1 2 dl2 2 dl1 2 dl2 2 dl1 2 dl2 2 dl1 4 dl2] LC8 DL} def
/Pnt {stroke [] 0 setdash gsave 1 setlinecap M 0 0 V stroke grestore} def
/Dia {stroke [] 0 setdash 2 copy vpt add M
  hpt neg vpt neg V hpt vpt neg V
  hpt vpt V hpt neg vpt V closepath stroke
  Pnt} def
/Pls {stroke [] 0 setdash vpt sub M 0 vpt2 V
  currentpoint stroke M
  hpt neg vpt neg R hpt2 0 V stroke
 } def
/Box {stroke [] 0 setdash 2 copy exch hpt sub exch vpt add M
  0 vpt2 neg V hpt2 0 V 0 vpt2 V
  hpt2 neg 0 V closepath stroke
  Pnt} def
/Crs {stroke [] 0 setdash exch hpt sub exch vpt add M
  hpt2 vpt2 neg V currentpoint stroke M
  hpt2 neg 0 R hpt2 vpt2 V stroke} def
/TriU {stroke [] 0 setdash 2 copy vpt 1.12 mul add M
  hpt neg vpt -1.62 mul V
  hpt 2 mul 0 V
  hpt neg vpt 1.62 mul V closepath stroke
  Pnt} def
/Star {2 copy Pls Crs} def
/BoxF {stroke [] 0 setdash exch hpt sub exch vpt add M
  0 vpt2 neg V hpt2 0 V 0 vpt2 V
  hpt2 neg 0 V closepath fill} def
/TriUF {stroke [] 0 setdash vpt 1.12 mul add M
  hpt neg vpt -1.62 mul V
  hpt 2 mul 0 V
  hpt neg vpt 1.62 mul V closepath fill} def
/TriD {stroke [] 0 setdash 2 copy vpt 1.12 mul sub M
  hpt neg vpt 1.62 mul V
  hpt 2 mul 0 V
  hpt neg vpt -1.62 mul V closepath stroke
  Pnt} def
/TriDF {stroke [] 0 setdash vpt 1.12 mul sub M
  hpt neg vpt 1.62 mul V
  hpt 2 mul 0 V
  hpt neg vpt -1.62 mul V closepath fill} def
/DiaF {stroke [] 0 setdash vpt add M
  hpt neg vpt neg V hpt vpt neg V
  hpt vpt V hpt neg vpt V closepath fill} def
/Pent {stroke [] 0 setdash 2 copy gsave
  translate 0 hpt M 4 {72 rotate 0 hpt L} repeat
  closepath stroke grestore Pnt} def
/PentF {stroke [] 0 setdash gsave
  translate 0 hpt M 4 {72 rotate 0 hpt L} repeat
  closepath fill grestore} def
/Circle {stroke [] 0 setdash 2 copy
  hpt 0 360 arc stroke Pnt} def
/CircleF {stroke [] 0 setdash hpt 0 360 arc fill} def
/C0 {BL [] 0 setdash 2 copy moveto vpt 90 450 arc} bind def
/C1 {BL [] 0 setdash 2 copy moveto
	2 copy vpt 0 90 arc closepath fill
	vpt 0 360 arc closepath} bind def
/C2 {BL [] 0 setdash 2 copy moveto
	2 copy vpt 90 180 arc closepath fill
	vpt 0 360 arc closepath} bind def
/C3 {BL [] 0 setdash 2 copy moveto
	2 copy vpt 0 180 arc closepath fill
	vpt 0 360 arc closepath} bind def
/C4 {BL [] 0 setdash 2 copy moveto
	2 copy vpt 180 270 arc closepath fill
	vpt 0 360 arc closepath} bind def
/C5 {BL [] 0 setdash 2 copy moveto
	2 copy vpt 0 90 arc
	2 copy moveto
	2 copy vpt 180 270 arc closepath fill
	vpt 0 360 arc} bind def
/C6 {BL [] 0 setdash 2 copy moveto
	2 copy vpt 90 270 arc closepath fill
	vpt 0 360 arc closepath} bind def
/C7 {BL [] 0 setdash 2 copy moveto
	2 copy vpt 0 270 arc closepath fill
	vpt 0 360 arc closepath} bind def
/C8 {BL [] 0 setdash 2 copy moveto
	2 copy vpt 270 360 arc closepath fill
	vpt 0 360 arc closepath} bind def
/C9 {BL [] 0 setdash 2 copy moveto
	2 copy vpt 270 450 arc closepath fill
	vpt 0 360 arc closepath} bind def
/C10 {BL [] 0 setdash 2 copy 2 copy moveto vpt 270 360 arc closepath fill
	2 copy moveto
	2 copy vpt 90 180 arc closepath fill
	vpt 0 360 arc closepath} bind def
/C11 {BL [] 0 setdash 2 copy moveto
	2 copy vpt 0 180 arc closepath fill
	2 copy moveto
	2 copy vpt 270 360 arc closepath fill
	vpt 0 360 arc closepath} bind def
/C12 {BL [] 0 setdash 2 copy moveto
	2 copy vpt 180 360 arc closepath fill
	vpt 0 360 arc closepath} bind def
/C13 {BL [] 0 setdash 2 copy moveto
	2 copy vpt 0 90 arc closepath fill
	2 copy moveto
	2 copy vpt 180 360 arc closepath fill
	vpt 0 360 arc closepath} bind def
/C14 {BL [] 0 setdash 2 copy moveto
	2 copy vpt 90 360 arc closepath fill
	vpt 0 360 arc} bind def
/C15 {BL [] 0 setdash 2 copy vpt 0 360 arc closepath fill
	vpt 0 360 arc closepath} bind def
/Rec {newpath 4 2 roll moveto 1 index 0 rlineto 0 exch rlineto
	neg 0 rlineto closepath} bind def
/Square {dup Rec} bind def
/Bsquare {vpt sub exch vpt sub exch vpt2 Square} bind def
/S0 {BL [] 0 setdash 2 copy moveto 0 vpt rlineto BL Bsquare} bind def
/S1 {BL [] 0 setdash 2 copy vpt Square fill Bsquare} bind def
/S2 {BL [] 0 setdash 2 copy exch vpt sub exch vpt Square fill Bsquare} bind def
/S3 {BL [] 0 setdash 2 copy exch vpt sub exch vpt2 vpt Rec fill Bsquare} bind def
/S4 {BL [] 0 setdash 2 copy exch vpt sub exch vpt sub vpt Square fill Bsquare} bind def
/S5 {BL [] 0 setdash 2 copy 2 copy vpt Square fill
	exch vpt sub exch vpt sub vpt Square fill Bsquare} bind def
/S6 {BL [] 0 setdash 2 copy exch vpt sub exch vpt sub vpt vpt2 Rec fill Bsquare} bind def
/S7 {BL [] 0 setdash 2 copy exch vpt sub exch vpt sub vpt vpt2 Rec fill
	2 copy vpt Square fill Bsquare} bind def
/S8 {BL [] 0 setdash 2 copy vpt sub vpt Square fill Bsquare} bind def
/S9 {BL [] 0 setdash 2 copy vpt sub vpt vpt2 Rec fill Bsquare} bind def
/S10 {BL [] 0 setdash 2 copy vpt sub vpt Square fill 2 copy exch vpt sub exch vpt Square fill
	Bsquare} bind def
/S11 {BL [] 0 setdash 2 copy vpt sub vpt Square fill 2 copy exch vpt sub exch vpt2 vpt Rec fill
	Bsquare} bind def
/S12 {BL [] 0 setdash 2 copy exch vpt sub exch vpt sub vpt2 vpt Rec fill Bsquare} bind def
/S13 {BL [] 0 setdash 2 copy exch vpt sub exch vpt sub vpt2 vpt Rec fill
	2 copy vpt Square fill Bsquare} bind def
/S14 {BL [] 0 setdash 2 copy exch vpt sub exch vpt sub vpt2 vpt Rec fill
	2 copy exch vpt sub exch vpt Square fill Bsquare} bind def
/S15 {BL [] 0 setdash 2 copy Bsquare fill Bsquare} bind def
/D0 {gsave translate 45 rotate 0 0 S0 stroke grestore} bind def
/D1 {gsave translate 45 rotate 0 0 S1 stroke grestore} bind def
/D2 {gsave translate 45 rotate 0 0 S2 stroke grestore} bind def
/D3 {gsave translate 45 rotate 0 0 S3 stroke grestore} bind def
/D4 {gsave translate 45 rotate 0 0 S4 stroke grestore} bind def
/D5 {gsave translate 45 rotate 0 0 S5 stroke grestore} bind def
/D6 {gsave translate 45 rotate 0 0 S6 stroke grestore} bind def
/D7 {gsave translate 45 rotate 0 0 S7 stroke grestore} bind def
/D8 {gsave translate 45 rotate 0 0 S8 stroke grestore} bind def
/D9 {gsave translate 45 rotate 0 0 S9 stroke grestore} bind def
/D10 {gsave translate 45 rotate 0 0 S10 stroke grestore} bind def
/D11 {gsave translate 45 rotate 0 0 S11 stroke grestore} bind def
/D12 {gsave translate 45 rotate 0 0 S12 stroke grestore} bind def
/D13 {gsave translate 45 rotate 0 0 S13 stroke grestore} bind def
/D14 {gsave translate 45 rotate 0 0 S14 stroke grestore} bind def
/D15 {gsave translate 45 rotate 0 0 S15 stroke grestore} bind def
/DiaE {stroke [] 0 setdash vpt add M
  hpt neg vpt neg V hpt vpt neg V
  hpt vpt V hpt neg vpt V closepath stroke} def
/BoxE {stroke [] 0 setdash exch hpt sub exch vpt add M
  0 vpt2 neg V hpt2 0 V 0 vpt2 V
  hpt2 neg 0 V closepath stroke} def
/TriUE {stroke [] 0 setdash vpt 1.12 mul add M
  hpt neg vpt -1.62 mul V
  hpt 2 mul 0 V
  hpt neg vpt 1.62 mul V closepath stroke} def
/TriDE {stroke [] 0 setdash vpt 1.12 mul sub M
  hpt neg vpt 1.62 mul V
  hpt 2 mul 0 V
  hpt neg vpt -1.62 mul V closepath stroke} def
/PentE {stroke [] 0 setdash gsave
  translate 0 hpt M 4 {72 rotate 0 hpt L} repeat
  closepath stroke grestore} def
/CircE {stroke [] 0 setdash 
  hpt 0 360 arc stroke} def
/Opaque {gsave closepath 1 setgray fill grestore 0 setgray closepath} def
/DiaW {stroke [] 0 setdash vpt add M
  hpt neg vpt neg V hpt vpt neg V
  hpt vpt V hpt neg vpt V Opaque stroke} def
/BoxW {stroke [] 0 setdash exch hpt sub exch vpt add M
  0 vpt2 neg V hpt2 0 V 0 vpt2 V
  hpt2 neg 0 V Opaque stroke} def
/TriUW {stroke [] 0 setdash vpt 1.12 mul add M
  hpt neg vpt -1.62 mul V
  hpt 2 mul 0 V
  hpt neg vpt 1.62 mul V Opaque stroke} def
/TriDW {stroke [] 0 setdash vpt 1.12 mul sub M
  hpt neg vpt 1.62 mul V
  hpt 2 mul 0 V
  hpt neg vpt -1.62 mul V Opaque stroke} def
/PentW {stroke [] 0 setdash gsave
  translate 0 hpt M 4 {72 rotate 0 hpt L} repeat
  Opaque stroke grestore} def
/CircW {stroke [] 0 setdash 
  hpt 0 360 arc Opaque stroke} def
/BoxFill {gsave Rec 1 setgray fill grestore} def
/Density {
  /Fillden exch def
  currentrgbcolor
  /ColB exch def /ColG exch def /ColR exch def
  /ColR ColR Fillden mul Fillden sub 1 add def
  /ColG ColG Fillden mul Fillden sub 1 add def
  /ColB ColB Fillden mul Fillden sub 1 add def
  ColR ColG ColB setrgbcolor} def
/BoxColFill {gsave Rec PolyFill} def
/PolyFill {gsave Density fill grestore grestore} def
/h {rlineto rlineto rlineto gsave closepath fill grestore} bind def
%
% PostScript Level 1 Pattern Fill routine for rectangles
% Usage: x y w h s a XX PatternFill
%	x,y = lower left corner of box to be filled
%	w,h = width and height of box
%	  a = angle in degrees between lines and x-axis
%	 XX = 0/1 for no/yes cross-hatch
%
/PatternFill {gsave /PFa [ 9 2 roll ] def
  PFa 0 get PFa 2 get 2 div add PFa 1 get PFa 3 get 2 div add translate
  PFa 2 get -2 div PFa 3 get -2 div PFa 2 get PFa 3 get Rec
  TransparentPatterns {} {gsave 1 setgray fill grestore} ifelse
  clip
  currentlinewidth 0.5 mul setlinewidth
  /PFs PFa 2 get dup mul PFa 3 get dup mul add sqrt def
  0 0 M PFa 5 get rotate PFs -2 div dup translate
  0 1 PFs PFa 4 get div 1 add floor cvi
	{PFa 4 get mul 0 M 0 PFs V} for
  0 PFa 6 get ne {
	0 1 PFs PFa 4 get div 1 add floor cvi
	{PFa 4 get mul 0 2 1 roll M PFs 0 V} for
 } if
  stroke grestore} def
%
/languagelevel where
 {pop languagelevel} {1} ifelse
 2 lt
	{/InterpretLevel1 true def}
	{/InterpretLevel1 Level1 def}
 ifelse
%
% PostScript level 2 pattern fill definitions
%
/Level2PatternFill {
/Tile8x8 {/PaintType 2 /PatternType 1 /TilingType 1 /BBox [0 0 8 8] /XStep 8 /YStep 8}
	bind def
/KeepColor {currentrgbcolor [/Pattern /DeviceRGB] setcolorspace} bind def
<< Tile8x8
 /PaintProc {0.5 setlinewidth pop 0 0 M 8 8 L 0 8 M 8 0 L stroke} 
>> matrix makepattern
/Pat1 exch def
<< Tile8x8
 /PaintProc {0.5 setlinewidth pop 0 0 M 8 8 L 0 8 M 8 0 L stroke
	0 4 M 4 8 L 8 4 L 4 0 L 0 4 L stroke}
>> matrix makepattern
/Pat2 exch def
<< Tile8x8
 /PaintProc {0.5 setlinewidth pop 0 0 M 0 8 L
	8 8 L 8 0 L 0 0 L fill}
>> matrix makepattern
/Pat3 exch def
<< Tile8x8
 /PaintProc {0.5 setlinewidth pop -4 8 M 8 -4 L
	0 12 M 12 0 L stroke}
>> matrix makepattern
/Pat4 exch def
<< Tile8x8
 /PaintProc {0.5 setlinewidth pop -4 0 M 8 12 L
	0 -4 M 12 8 L stroke}
>> matrix makepattern
/Pat5 exch def
<< Tile8x8
 /PaintProc {0.5 setlinewidth pop -2 8 M 4 -4 L
	0 12 M 8 -4 L 4 12 M 10 0 L stroke}
>> matrix makepattern
/Pat6 exch def
<< Tile8x8
 /PaintProc {0.5 setlinewidth pop -2 0 M 4 12 L
	0 -4 M 8 12 L 4 -4 M 10 8 L stroke}
>> matrix makepattern
/Pat7 exch def
<< Tile8x8
 /PaintProc {0.5 setlinewidth pop 8 -2 M -4 4 L
	12 0 M -4 8 L 12 4 M 0 10 L stroke}
>> matrix makepattern
/Pat8 exch def
<< Tile8x8
 /PaintProc {0.5 setlinewidth pop 0 -2 M 12 4 L
	-4 0 M 12 8 L -4 4 M 8 10 L stroke}
>> matrix makepattern
/Pat9 exch def
/Pattern1 {PatternBgnd KeepColor Pat1 setpattern} bind def
/Pattern2 {PatternBgnd KeepColor Pat2 setpattern} bind def
/Pattern3 {PatternBgnd KeepColor Pat3 setpattern} bind def
/Pattern4 {PatternBgnd KeepColor Landscape {Pat5} {Pat4} ifelse setpattern} bind def
/Pattern5 {PatternBgnd KeepColor Landscape {Pat4} {Pat5} ifelse setpattern} bind def
/Pattern6 {PatternBgnd KeepColor Landscape {Pat9} {Pat6} ifelse setpattern} bind def
/Pattern7 {PatternBgnd KeepColor Landscape {Pat8} {Pat7} ifelse setpattern} bind def
} def
%
%
%End of PostScript Level 2 code
%
/PatternBgnd {
  TransparentPatterns {} {gsave 1 setgray fill grestore} ifelse
} def
%
% Substitute for Level 2 pattern fill codes with
% grayscale if Level 2 support is not selected.
%
/Level1PatternFill {
/Pattern1 {0.250 Density} bind def
/Pattern2 {0.500 Density} bind def
/Pattern3 {0.750 Density} bind def
/Pattern4 {0.125 Density} bind def
/Pattern5 {0.375 Density} bind def
/Pattern6 {0.625 Density} bind def
/Pattern7 {0.875 Density} bind def
} def
%
% Now test for support of Level 2 code
%
Level1 {Level1PatternFill} {Level2PatternFill} ifelse
%
/Symbol-Oblique /Symbol findfont [1 0 .167 1 0 0] makefont
dup length dict begin {1 index /FID eq {pop pop} {def} ifelse} forall
currentdict end definefont pop
Level1 SuppressPDFMark or 
{} {
/SDict 10 dict def
systemdict /pdfmark known not {
  userdict /pdfmark systemdict /cleartomark get put
} if
SDict begin [
  /Title (/home/yummiii/Masterarbeit/Thesis/document/bilder/speedupNormalWorkers_s.tex)
  /Subject (gnuplot plot)
  /Creator (gnuplot 4.6 patchlevel 5)
  /Author (yummiii)
%  /Producer (gnuplot)
%  /Keywords ()
  /CreationDate (Tue Jan  5 11:02:34 2016)
  /DOCINFO pdfmark
end
} ifelse
end
%%EndProlog
%%Page: 1 1
gnudict begin
gsave
doclip
50 50 translate
0.050 0.050 scale
0 setgray
newpath
1.000 UL
LTb
LCb setrgbcolor
814 704 M
63 0 V
5812 0 R
-63 0 V
stroke
LTb
814 1502 M
63 0 V
5812 0 R
-63 0 V
814 2300 M
63 0 V
5812 0 R
-63 0 V
814 3098 M
63 0 V
5812 0 R
-63 0 V
814 3896 M
63 0 V
5812 0 R
-63 0 V
814 4694 M
63 0 V
5812 0 R
-63 0 V
814 5492 M
63 0 V
5812 0 R
-63 0 V
1572 704 M
0 63 V
0 5204 R
0 -63 V
2520 704 M
0 63 V
0 5204 R
0 -63 V
3467 704 M
0 63 V
0 5204 R
0 -63 V
4415 704 M
0 63 V
0 5204 R
0 -63 V
5362 704 M
0 63 V
0 5204 R
0 -63 V
6310 704 M
0 63 V
0 5204 R
0 -63 V
stroke
814 5971 N
814 704 L
5875 0 V
0 5267 V
-5875 0 V
Z stroke
1.000 UP
1.000 UL
LTb
1.000 UP
1.000 UL
LT0
LC0 setrgbcolor
0.00 0.00 0.00 C 814 1019 Box
814 1019 Box
814 1019 Box
814 1019 Box
814 1019 Box
814 1019 Box
814 1019 Box
814 1018 Box
814 1019 Box
814 1019 Box
814 1019 Box
814 1019 Box
814 1019 Box
814 1019 Box
814 1019 Box
814 1019 Box
814 1019 Box
814 1019 Box
814 1019 Box
814 1019 Box
814 1019 Box
814 1019 Box
814 1019 Box
814 1019 Box
814 1019 Box
814 1019 Box
814 1019 Box
814 1019 Box
814 1019 Box
814 1019 Box
909 1161 Box
909 1161 Box
909 1161 Box
909 1161 Box
909 1161 Box
909 1160 Box
909 1161 Box
909 1161 Box
909 1161 Box
909 1161 Box
909 1161 Box
909 1161 Box
909 1161 Box
909 1161 Box
909 1161 Box
909 1161 Box
909 1161 Box
909 1161 Box
909 1161 Box
909 1161 Box
909 1161 Box
909 1161 Box
909 1161 Box
909 1161 Box
909 1161 Box
909 1161 Box
909 1161 Box
909 1161 Box
909 1161 Box
909 1161 Box
1004 1319 Box
1004 1316 Box
1004 1317 Box
1004 1317 Box
1004 1318 Box
1004 1317 Box
1004 1315 Box
1004 1317 Box
1004 1316 Box
1004 1317 Box
1004 1319 Box
1004 1316 Box
1004 1318 Box
1004 1317 Box
1004 1318 Box
1004 1316 Box
1004 1317 Box
1004 1317 Box
1004 1316 Box
1004 1318 Box
1004 1317 Box
1004 1317 Box
1004 1317 Box
1004 1316 Box
1004 1317 Box
1004 1317 Box
1004 1317 Box
1004 1317 Box
1004 1317 Box
1004 1318 Box
1098 1420 Box
1098 1419 Box
1098 1418 Box
1098 1419 Box
1098 1418 Box
1098 1419 Box
1098 1418 Box
1098 1418 Box
1098 1418 Box
1098 1419 Box
1098 1420 Box
1098 1419 Box
1098 1419 Box
1098 1420 Box
1098 1419 Box
1098 1419 Box
1098 1419 Box
1098 1419 Box
1098 1419 Box
1098 1418 Box
1098 1419 Box
1098 1419 Box
1098 1420 Box
1098 1419 Box
1098 1418 Box
1098 1419 Box
1098 1417 Box
1098 1418 Box
1098 1419 Box
1098 1418 Box
1193 1536 Box
1193 1535 Box
1193 1537 Box
1193 1536 Box
1193 1537 Box
1193 1536 Box
1193 1537 Box
1193 1537 Box
1193 1538 Box
1193 1538 Box
1193 1537 Box
1193 1536 Box
1193 1537 Box
1193 1538 Box
1193 1535 Box
1193 1534 Box
1193 1536 Box
1193 1538 Box
1193 1537 Box
1193 1535 Box
1193 1535 Box
1193 1536 Box
1193 1538 Box
1193 1536 Box
1193 1538 Box
1193 1536 Box
1193 1534 Box
1193 1536 Box
1193 1535 Box
1193 1537 Box
1288 1681 Box
1288 1678 Box
1288 1677 Box
1288 1677 Box
1288 1680 Box
1288 1680 Box
1288 1677 Box
1288 1678 Box
1288 1677 Box
1288 1678 Box
1288 1677 Box
1288 1677 Box
1288 1678 Box
1288 1675 Box
1288 1679 Box
1288 1676 Box
1288 1675 Box
1288 1679 Box
1288 1679 Box
1288 1680 Box
1288 1679 Box
1288 1678 Box
1288 1679 Box
1288 1679 Box
1288 1680 Box
1288 1678 Box
1288 1680 Box
1288 1680 Box
1288 1680 Box
1288 1679 Box
1383 1869 Box
1383 1865 Box
1383 1866 Box
1383 1871 Box
1383 1872 Box
1383 1871 Box
1383 1867 Box
1383 1875 Box
1383 1871 Box
1383 1870 Box
1383 1871 Box
1383 1863 Box
1383 1873 Box
1383 1871 Box
1383 1868 Box
1383 1871 Box
1383 1876 Box
1383 1865 Box
1383 1871 Box
1383 1874 Box
1383 1861 Box
1383 1872 Box
1383 1869 Box
1383 1865 Box
1383 1874 Box
1383 1866 Box
1383 1871 Box
1383 1869 Box
1383 1866 Box
1383 1871 Box
1477 1907 Box
1477 1905 Box
1477 1904 Box
1477 1909 Box
1477 1907 Box
1477 1900 Box
1477 1908 Box
1477 1904 Box
1477 1903 Box
1477 1908 Box
1477 1903 Box
1477 1906 Box
1477 1906 Box
1477 1901 Box
1477 1908 Box
1477 1910 Box
1477 1905 Box
1477 1904 Box
1477 1906 Box
1477 1894 Box
1477 1906 Box
1477 1903 Box
1477 1904 Box
1477 1907 Box
1477 1900 Box
1477 1904 Box
1477 1910 Box
1477 1903 Box
1477 1903 Box
1477 1909 Box
1572 1951 Box
1572 1944 Box
1572 1943 Box
1572 1938 Box
1572 1947 Box
1572 1938 Box
1572 1946 Box
1572 1948 Box
1572 1946 Box
1572 1947 Box
1572 1947 Box
1572 1945 Box
1572 1951 Box
1572 1947 Box
1572 1943 Box
1572 1944 Box
1572 1943 Box
1572 1946 Box
1572 1945 Box
1572 1943 Box
1572 1944 Box
1572 1941 Box
1572 1949 Box
1572 1943 Box
1572 1947 Box
1572 1947 Box
1572 1944 Box
1572 1946 Box
1572 1946 Box
1572 1946 Box
1667 2221 Box
1667 2218 Box
1667 2217 Box
1667 2217 Box
1667 2224 Box
1667 2218 Box
1667 2222 Box
1667 2223 Box
1667 2217 Box
1667 2216 Box
1667 2220 Box
1667 2213 Box
1667 2222 Box
1667 2220 Box
1667 2213 Box
1667 2218 Box
1667 2232 Box
1667 2218 Box
1667 2222 Box
1667 2209 Box
1667 2218 Box
1667 2219 Box
1667 2222 Box
1667 2203 Box
1667 2226 Box
1667 2214 Box
1667 2221 Box
1667 2206 Box
1667 2210 Box
1667 2228 Box
1762 2248 Box
1762 2254 Box
1762 2250 Box
1762 2250 Box
1762 2256 Box
1762 2244 Box
1762 2249 Box
1762 2245 Box
1762 2255 Box
1762 2254 Box
1762 2251 Box
1762 2249 Box
1762 2254 Box
1762 2255 Box
1762 2257 Box
1762 2249 Box
1762 2248 Box
1762 2257 Box
1762 2254 Box
1762 2249 Box
1762 2250 Box
1762 2248 Box
1762 2258 Box
1762 2250 Box
1762 2256 Box
1762 2243 Box
1762 2261 Box
1762 2253 Box
1762 2255 Box
1762 2246 Box
1856 2278 Box
1856 2282 Box
1856 2284 Box
1856 2273 Box
1856 2281 Box
1856 2283 Box
1856 2291 Box
1856 2276 Box
1856 2283 Box
1856 2280 Box
1856 2285 Box
1856 2284 Box
1856 2278 Box
1856 2273 Box
1856 2291 Box
1856 2293 Box
1856 2278 Box
1856 2287 Box
1856 2285 Box
1856 2285 Box
1856 2275 Box
1856 2282 Box
1856 2280 Box
1856 2278 Box
1856 2287 Box
1856 2275 Box
1856 2285 Box
1856 2283 Box
1856 2287 Box
1856 2279 Box
1951 2309 Box
1951 2307 Box
1951 2307 Box
1951 2307 Box
1951 2319 Box
1951 2313 Box
1951 2316 Box
1951 2316 Box
1951 2313 Box
1951 2312 Box
1951 2309 Box
1951 2304 Box
1951 2316 Box
1951 2315 Box
1951 2299 Box
1951 2318 Box
1951 2305 Box
1951 2308 Box
1951 2315 Box
1951 2314 Box
1951 2303 Box
1951 2310 Box
1951 2318 Box
1951 2312 Box
1951 2306 Box
1951 2313 Box
1951 2312 Box
1951 2322 Box
1951 2310 Box
1951 2312 Box
2046 2355 Box
2046 2348 Box
2046 2352 Box
2046 2356 Box
2046 2355 Box
2046 2351 Box
2046 2342 Box
2046 2338 Box
2046 2338 Box
2046 2348 Box
2046 2350 Box
2046 2353 Box
2046 2339 Box
2046 2337 Box
2046 2346 Box
2046 2349 Box
2046 2351 Box
2046 2346 Box
2046 2352 Box
2046 2348 Box
2046 2339 Box
2046 2349 Box
2046 2350 Box
2046 2347 Box
2046 2350 Box
2046 2343 Box
2046 2333 Box
2046 2345 Box
2046 2348 Box
2046 2349 Box
2141 2837 Box
2141 2833 Box
2141 2826 Box
2141 2846 Box
2141 2838 Box
2141 2829 Box
2141 2839 Box
2141 2836 Box
2141 2841 Box
2141 2820 Box
2141 2823 Box
2141 2827 Box
2141 2841 Box
2141 2832 Box
2141 2833 Box
2141 2818 Box
2141 2830 Box
2141 2811 Box
2141 2832 Box
2141 2833 Box
2141 2834 Box
2141 2818 Box
2141 2823 Box
2141 2823 Box
2141 2832 Box
2141 2784 Box
2141 2810 Box
2141 2809 Box
2141 2837 Box
2141 2821 Box
2235 2843 Box
2235 2872 Box
2235 2874 Box
2235 2877 Box
2235 2867 Box
2235 2864 Box
2235 2844 Box
2235 2860 Box
2235 2853 Box
2235 2858 Box
2235 2847 Box
2235 2873 Box
2235 2851 Box
2235 2852 Box
2235 2866 Box
2235 2877 Box
2235 2867 Box
2235 2848 Box
2235 2838 Box
2235 2848 Box
2235 2853 Box
2235 2855 Box
2235 2851 Box
2235 2851 Box
2235 2847 Box
2235 2844 Box
2235 2864 Box
2235 2858 Box
2235 2860 Box
2235 2854 Box
2330 2887 Box
2330 2874 Box
2330 2875 Box
2330 2878 Box
2330 2866 Box
2330 2890 Box
2330 2869 Box
2330 2875 Box
2330 2884 Box
2330 2889 Box
2330 2879 Box
2330 2886 Box
2330 2860 Box
2330 2900 Box
2330 2900 Box
2330 2872 Box
2330 2873 Box
2330 2884 Box
2330 2865 Box
2330 2880 Box
2330 2891 Box
2330 2884 Box
2330 2853 Box
2330 2887 Box
2330 2887 Box
2330 2888 Box
2330 2872 Box
2330 2862 Box
2330 2865 Box
2330 2887 Box
2425 2889 Box
2425 2910 Box
2425 2890 Box
2425 2892 Box
2425 2900 Box
2425 2898 Box
2425 2875 Box
2425 2908 Box
2425 2871 Box
2425 2892 Box
2425 2889 Box
2425 2904 Box
2425 2889 Box
2425 2910 Box
2425 2898 Box
2425 2903 Box
2425 2893 Box
2425 2876 Box
2425 2892 Box
2425 2904 Box
2425 2885 Box
2425 2910 Box
2425 2879 Box
2425 2872 Box
2425 2907 Box
2425 2891 Box
2425 2894 Box
2425 2920 Box
2425 2904 Box
2425 2911 Box
2520 2924 Box
2520 2915 Box
2520 2921 Box
2520 2915 Box
2520 2893 Box
2520 2923 Box
2520 2926 Box
2520 2923 Box
2520 2910 Box
2520 2930 Box
2520 2919 Box
2520 2921 Box
2520 2921 Box
2520 2903 Box
2520 2920 Box
2520 2924 Box
2520 2925 Box
2520 2931 Box
2520 2908 Box
2520 2922 Box
2520 2930 Box
2520 2925 Box
2520 2907 Box
2520 2911 Box
2520 2910 Box
2520 2918 Box
2520 2925 Box
2520 2924 Box
2520 2905 Box
2520 2917 Box
2614 2969 Box
2614 2927 Box
2614 2934 Box
2614 2923 Box
2614 2957 Box
2614 2939 Box
2614 2948 Box
2614 2942 Box
2614 2928 Box
2614 2933 Box
2614 2936 Box
2614 2932 Box
2614 2939 Box
2614 2926 Box
2614 2942 Box
2614 2935 Box
2614 2936 Box
2614 2918 Box
2614 2923 Box
2614 2925 Box
2614 2942 Box
2614 2936 Box
2614 2937 Box
2614 2926 Box
2614 2939 Box
2614 2954 Box
2614 2939 Box
2614 2962 Box
2614 2936 Box
2614 2935 Box
2709 2951 Box
2709 2951 Box
2709 2961 Box
2709 2973 Box
2709 2946 Box
2709 2934 Box
2709 2965 Box
2709 2981 Box
2709 2965 Box
2709 2966 Box
2709 2964 Box
2709 2957 Box
2709 2970 Box
2709 2958 Box
2709 2965 Box
2709 2953 Box
2709 2969 Box
2709 2964 Box
2709 2946 Box
2709 2956 Box
2709 2965 Box
2709 2946 Box
2709 2959 Box
2709 2942 Box
2709 2952 Box
2709 2965 Box
2709 2972 Box
2709 2941 Box
2709 2947 Box
2709 2981 Box
2804 2993 Box
2804 2977 Box
2804 2971 Box
2804 2988 Box
2804 3003 Box
2804 2991 Box
2804 2975 Box
2804 2984 Box
2804 2968 Box
2804 2972 Box
2804 2973 Box
2804 2987 Box
2804 2979 Box
2804 2972 Box
2804 2953 Box
2804 2969 Box
2804 2963 Box
2804 2995 Box
2804 2992 Box
2804 2976 Box
2804 2988 Box
2804 2991 Box
2804 2979 Box
2804 2970 Box
2804 2985 Box
2804 2971 Box
2804 2985 Box
2804 2972 Box
2804 2987 Box
2804 2974 Box
2899 3014 Box
2899 2999 Box
2899 2991 Box
2899 2985 Box
2899 2975 Box
2899 3011 Box
2899 2994 Box
2899 2991 Box
2899 2994 Box
2899 3007 Box
2899 3010 Box
2899 2988 Box
2899 3015 Box
2899 2987 Box
2899 3018 Box
2899 2975 Box
2899 2980 Box
2899 2998 Box
2899 2967 Box
2899 3017 Box
2899 2984 Box
2899 3015 Box
2899 3010 Box
2899 2981 Box
2899 3004 Box
2899 3011 Box
2899 3003 Box
2899 2963 Box
2899 3016 Box
2899 3008 Box
2993 3017 Box
2993 3022 Box
2993 3047 Box
2993 3040 Box
2993 3021 Box
2993 3026 Box
2993 2999 Box
2993 3028 Box
2993 2992 Box
2993 3032 Box
2993 3024 Box
2993 3037 Box
2993 3017 Box
2993 3013 Box
2993 3032 Box
2993 3014 Box
2993 3031 Box
2993 3036 Box
2993 3020 Box
2993 3025 Box
2993 3046 Box
2993 3012 Box
2993 3035 Box
2993 3012 Box
2993 3015 Box
2993 2994 Box
2993 3001 Box
2993 3022 Box
2993 3018 Box
2993 3022 Box
3088 3048 Box
3088 3027 Box
3088 3036 Box
3088 3050 Box
3088 3041 Box
3088 3061 Box
3088 3049 Box
3088 3036 Box
3088 3039 Box
3088 3022 Box
3088 3039 Box
3088 3043 Box
3088 3021 Box
3088 3046 Box
3088 3054 Box
3088 3042 Box
3088 3048 Box
3088 3027 Box
3088 3051 Box
3088 3046 Box
3088 3025 Box
3088 3037 Box
3088 3028 Box
3088 3062 Box
3088 3060 Box
3088 3032 Box
3088 3043 Box
3088 3048 Box
3088 3046 Box
3088 3047 Box
3183 3070 Box
3183 3091 Box
3183 3065 Box
3183 3090 Box
3183 3056 Box
3183 3054 Box
3183 3031 Box
3183 3040 Box
3183 3068 Box
3183 3035 Box
3183 3045 Box
3183 3057 Box
3183 3077 Box
3183 3061 Box
3183 3064 Box
3183 3043 Box
3183 3082 Box
3183 3029 Box
3183 3044 Box
3183 3074 Box
3183 3065 Box
3183 3075 Box
3183 3061 Box
3183 3041 Box
3183 3028 Box
3183 3054 Box
3183 3041 Box
3183 3057 Box
3183 3071 Box
3183 3071 Box
3278 3073 Box
3278 3054 Box
3278 3112 Box
3278 3098 Box
3278 3085 Box
3278 3068 Box
3278 3080 Box
3278 3093 Box
3278 3074 Box
3278 3070 Box
3278 3089 Box
3278 3082 Box
3278 3115 Box
3278 3071 Box
3278 3088 Box
3278 3073 Box
3278 3091 Box
3278 3075 Box
3278 3085 Box
3278 3065 Box
3278 3093 Box
3278 3071 Box
3278 3085 Box
3278 3078 Box
3278 3077 Box
3278 3092 Box
3278 3115 Box
3278 3074 Box
3278 3075 Box
3278 3076 Box
3372 3119 Box
3372 3122 Box
3372 3078 Box
3372 3097 Box
3372 3113 Box
3372 3102 Box
3372 3088 Box
3372 3059 Box
3372 3103 Box
3372 3095 Box
3372 3063 Box
3372 3128 Box
3372 3106 Box
3372 3139 Box
3372 3118 Box
3372 3108 Box
3372 3130 Box
3372 3096 Box
3372 3088 Box
3372 3085 Box
3372 3106 Box
3372 3097 Box
3372 3095 Box
3372 3101 Box
3372 3128 Box
3372 3102 Box
3372 3131 Box
3372 3098 Box
3372 3092 Box
3372 3109 Box
3467 3144 Box
3467 3156 Box
3467 3133 Box
3467 3126 Box
3467 3149 Box
3467 3133 Box
3467 3141 Box
3467 3126 Box
3467 3155 Box
3467 3131 Box
3467 3162 Box
3467 3129 Box
3467 3159 Box
3467 3144 Box
3467 3120 Box
3467 3132 Box
3467 3137 Box
3467 3148 Box
3467 3143 Box
3467 3145 Box
3467 3132 Box
3467 3148 Box
3467 3127 Box
3467 3160 Box
3467 3112 Box
3467 3120 Box
3467 3133 Box
3467 3149 Box
3467 3117 Box
3467 3153 Box
3562 3187 Box
3562 3149 Box
3562 3170 Box
3562 3212 Box
3562 3180 Box
3562 3169 Box
3562 3186 Box
3562 3171 Box
3562 3176 Box
3562 3120 Box
3562 3155 Box
3562 3217 Box
3562 3174 Box
3562 3209 Box
3562 3176 Box
3562 3180 Box
3562 3207 Box
3562 3192 Box
3562 3166 Box
3562 3180 Box
3562 3155 Box
3562 3172 Box
3562 3200 Box
3562 3149 Box
3562 3221 Box
3562 3177 Box
3562 3211 Box
3562 3199 Box
3562 3194 Box
3562 3205 Box
3657 4340 Box
3657 4381 Box
3657 4323 Box
3657 4347 Box
3657 4333 Box
3657 4359 Box
3657 4276 Box
3657 4325 Box
3657 4299 Box
3657 4294 Box
3657 4315 Box
3657 4348 Box
3657 4339 Box
3657 4288 Box
3657 4324 Box
3657 4291 Box
3657 4310 Box
3657 4312 Box
3657 4307 Box
3657 4312 Box
3657 4273 Box
3657 4366 Box
3657 4262 Box
3657 4291 Box
3657 4346 Box
3657 4313 Box
3657 4347 Box
3657 4355 Box
3657 4276 Box
3657 4316 Box
3752 4286 Box
3752 4276 Box
3752 4345 Box
3752 4337 Box
3752 4299 Box
3752 4342 Box
3752 4367 Box
3752 4219 Box
3752 4328 Box
3752 4361 Box
3752 4334 Box
3752 4346 Box
3752 4331 Box
3752 4310 Box
3752 4355 Box
3752 4304 Box
3752 4282 Box
3752 4363 Box
3752 4297 Box
3752 4319 Box
3752 4341 Box
3752 4318 Box
3752 4335 Box
3752 4288 Box
3752 4273 Box
3752 4241 Box
3752 4273 Box
3752 4305 Box
3752 4267 Box
3752 4346 Box
3846 4341 Box
3846 4364 Box
3846 4277 Box
3846 4321 Box
3846 4335 Box
3846 4308 Box
3846 4364 Box
3846 4368 Box
3846 4382 Box
3846 4343 Box
3846 4382 Box
3846 4321 Box
3846 4356 Box
3846 4347 Box
3846 4295 Box
3846 4378 Box
3846 4388 Box
3846 4389 Box
3846 4329 Box
3846 4322 Box
3846 4256 Box
3846 4347 Box
3846 4335 Box
3846 4296 Box
3846 4326 Box
3846 4286 Box
3846 4335 Box
3846 4371 Box
3846 4316 Box
3846 4341 Box
3941 4421 Box
3941 4355 Box
3941 4300 Box
3941 4375 Box
3941 4363 Box
3941 4353 Box
3941 4267 Box
3941 4323 Box
3941 4291 Box
3941 4361 Box
3941 4406 Box
3941 4288 Box
3941 4402 Box
3941 4334 Box
3941 4409 Box
3941 4218 Box
3941 4381 Box
3941 4358 Box
3941 4309 Box
3941 4390 Box
3941 4367 Box
3941 4359 Box
3941 4316 Box
3941 4323 Box
3941 4342 Box
3941 4346 Box
3941 4357 Box
3941 4322 Box
3941 4359 Box
3941 4377 Box
4036 4405 Box
4036 4351 Box
4036 4349 Box
4036 4372 Box
4036 4334 Box
4036 4396 Box
4036 4282 Box
4036 4310 Box
4036 4342 Box
4036 4366 Box
4036 4389 Box
4036 4347 Box
4036 4403 Box
4036 4322 Box
4036 4355 Box
4036 4325 Box
4036 4313 Box
4036 4349 Box
4036 4377 Box
4036 4318 Box
4036 4382 Box
4036 4366 Box
4036 4399 Box
4036 4387 Box
4036 4366 Box
4036 4336 Box
4036 4347 Box
4036 4326 Box
4036 4354 Box
4036 4341 Box
4131 4331 Box
4131 4361 Box
4131 4346 Box
4131 4347 Box
4131 4359 Box
4131 4361 Box
4131 4381 Box
4131 4399 Box
4131 4378 Box
4131 4364 Box
4131 4403 Box
4131 4376 Box
4131 4384 Box
4131 4385 Box
4131 4343 Box
4131 4358 Box
4131 4349 Box
4131 4390 Box
4131 4389 Box
4131 4377 Box
4131 4300 Box
4131 4346 Box
4131 4398 Box
4131 4345 Box
4131 4417 Box
4131 4368 Box
4131 4337 Box
4131 4371 Box
4131 4360 Box
4131 4379 Box
4225 4418 Box
4225 4323 Box
4225 4336 Box
4225 4450 Box
4225 4404 Box
4225 4383 Box
4225 4367 Box
4225 4375 Box
4225 4363 Box
4225 4351 Box
4225 4333 Box
4225 4365 Box
4225 4346 Box
4225 4305 Box
4225 4416 Box
4225 4348 Box
4225 4295 Box
4225 4388 Box
4225 4381 Box
4225 4391 Box
4225 4366 Box
4225 4353 Box
4225 4358 Box
4225 4404 Box
4225 4410 Box
4225 4363 Box
4225 4378 Box
4225 4419 Box
4225 4404 Box
4225 4369 Box
4320 4421 Box
4320 4373 Box
4320 4344 Box
4320 4370 Box
4320 4423 Box
4320 4433 Box
4320 4370 Box
4320 4444 Box
4320 4403 Box
4320 4393 Box
4320 4407 Box
4320 4319 Box
4320 4434 Box
4320 4411 Box
4320 4355 Box
4320 4418 Box
4320 4440 Box
4320 4322 Box
4320 4421 Box
4320 4445 Box
4320 4316 Box
4320 4409 Box
4320 4370 Box
4320 4360 Box
4320 4415 Box
4320 4353 Box
4320 4403 Box
4320 4376 Box
4320 4350 Box
4320 4379 Box
4415 4428 Box
4415 4404 Box
4415 4392 Box
4415 4417 Box
4415 4383 Box
4415 4339 Box
4415 4433 Box
4415 4387 Box
4415 4338 Box
4415 4434 Box
4415 4364 Box
4415 4396 Box
4415 4418 Box
4415 4332 Box
4415 4418 Box
4415 4428 Box
4415 4403 Box
4415 4385 Box
4415 4420 Box
4415 4281 Box
4415 4409 Box
4415 4376 Box
4415 4390 Box
4415 4410 Box
4415 4332 Box
4415 4376 Box
4415 4448 Box
4415 4403 Box
4415 4371 Box
4415 4452 Box
4510 4468 Box
4510 4449 Box
4510 4392 Box
4510 4306 Box
4510 4408 Box
4510 4338 Box
4510 4446 Box
4510 4465 Box
4510 4402 Box
4510 4465 Box
4510 4387 Box
4510 4428 Box
4510 4444 Box
4510 4411 Box
4510 4374 Box
4510 4434 Box
4510 4411 Box
4510 4447 Box
4510 4422 Box
4510 4402 Box
4510 4365 Box
4510 4409 Box
4510 4449 Box
4510 4357 Box
4510 4412 Box
4510 4412 Box
4510 4387 Box
4510 4453 Box
4510 4428 Box
4510 4434 Box
4604 4420 Box
4604 4421 Box
4604 4387 Box
4604 4381 Box
4604 4450 Box
4604 4407 Box
4604 4450 Box
4604 4429 Box
4604 4399 Box
4604 4392 Box
4604 4421 Box
4604 4372 Box
4604 4429 Box
4604 4433 Box
4604 4373 Box
4604 4404 Box
4604 4475 Box
4604 4410 Box
4604 4419 Box
4604 4334 Box
4604 4414 Box
4604 4392 Box
4604 4449 Box
4604 4277 Box
4604 4451 Box
4604 4334 Box
4604 4428 Box
4604 4329 Box
4604 4348 Box
4604 4464 Box
4699 4406 Box
4699 4472 Box
4699 4425 Box
4699 4436 Box
4699 4473 Box
4699 4380 Box
4699 4416 Box
4699 4379 Box
4699 4429 Box
4699 4432 Box
4699 4430 Box
4699 4436 Box
4699 4429 Box
4699 4450 Box
4699 4442 Box
4699 4422 Box
4699 4415 Box
4699 4447 Box
4699 4411 Box
4699 4361 Box
4699 4386 Box
4699 4416 Box
4699 4459 Box
4699 4430 Box
4699 4458 Box
4699 4322 Box
4699 4488 Box
4699 4438 Box
4699 4460 Box
4699 4413 Box
4794 4403 Box
4794 4452 Box
4794 4469 Box
4794 4424 Box
4794 4415 Box
4794 4433 Box
4794 4478 Box
4794 4384 Box
4794 4456 Box
4794 4445 Box
4794 4484 Box
4794 4458 Box
4794 4419 Box
4794 4389 Box
4794 4510 Box
4794 4492 Box
4794 4405 Box
4794 4490 Box
4794 4442 Box
4794 4464 Box
4794 4379 Box
4794 4466 Box
4794 4412 Box
4794 4401 Box
4794 4465 Box
4794 4380 Box
4794 4471 Box
4794 4406 Box
4794 4455 Box
4794 4424 Box
4889 4453 Box
4889 4416 Box
4889 4379 Box
4889 4427 Box
4889 4492 Box
4889 4443 Box
4889 4429 Box
4889 4461 Box
4889 4441 Box
4889 4435 Box
4889 4451 Box
4889 4386 Box
4889 4484 Box
4889 4443 Box
4889 4359 Box
4889 4456 Box
4889 4416 Box
4889 4441 Box
4889 4467 Box
4889 4446 Box
4889 4397 Box
4889 4379 Box
4889 4493 Box
4889 4443 Box
4889 4408 Box
4889 4461 Box
4889 4400 Box
4889 4521 Box
4889 4430 Box
4889 4463 Box
4983 4429 Box
4983 4393 Box
4983 4441 Box
4983 4443 Box
4983 4474 Box
4983 4447 Box
4983 4439 Box
4983 4394 Box
4983 4397 Box
4983 4452 Box
4983 4538 Box
4983 4448 Box
4983 4433 Box
4983 4402 Box
4983 4464 Box
4983 4462 Box
4983 4474 Box
4983 4446 Box
4983 4473 Box
4983 4479 Box
4983 4441 Box
4983 4480 Box
4983 4458 Box
4983 4483 Box
4983 4424 Box
4983 4406 Box
4983 4395 Box
4983 4464 Box
4983 4430 Box
4983 4442 Box
5078 4492 Box
5078 4471 Box
5078 4463 Box
5078 4488 Box
5078 4496 Box
5078 4504 Box
5078 4485 Box
5078 4477 Box
5078 4504 Box
5078 4443 Box
5078 4467 Box
5078 4474 Box
5078 4511 Box
5078 4483 Box
5078 4484 Box
5078 4453 Box
5078 4442 Box
5078 4413 Box
5078 4470 Box
5078 4490 Box
5078 4489 Box
5078 4477 Box
5078 4500 Box
5078 4443 Box
5078 4487 Box
5078 4317 Box
5078 4406 Box
5078 4422 Box
5078 4488 Box
5078 4443 Box
5173 4428 Box
5173 4564 Box
5173 4541 Box
5173 4543 Box
5173 4539 Box
5173 4485 Box
5173 4441 Box
5173 4503 Box
5173 4483 Box
5173 4491 Box
5173 4456 Box
5173 4529 Box
5173 4476 Box
5173 4486 Box
5173 4520 Box
5173 4527 Box
5173 4529 Box
5173 4496 Box
5173 4436 Box
5173 4465 Box
5173 4445 Box
5173 4504 Box
5173 4490 Box
5173 4443 Box
5173 4415 Box
5173 4442 Box
5173 4504 Box
5173 4462 Box
5173 4490 Box
5173 4487 Box
5268 4485 Box
5268 4445 Box
5268 4477 Box
5268 4510 Box
5268 4445 Box
5268 4490 Box
5268 4458 Box
5268 4486 Box
5268 4488 Box
5268 4532 Box
5268 4481 Box
5268 4502 Box
5268 4442 Box
5268 4513 Box
5268 4570 Box
5268 4475 Box
5268 4467 Box
5268 4543 Box
5268 4459 Box
5268 4475 Box
5268 4513 Box
5268 4481 Box
5268 4422 Box
5268 4481 Box
5268 4526 Box
5268 4523 Box
5268 4473 Box
5268 4436 Box
5268 4430 Box
5268 4521 Box
5362 4458 Box
5362 4540 Box
5362 4468 Box
5362 4464 Box
5362 4498 Box
5362 4461 Box
5362 4425 Box
5362 4521 Box
5362 4413 Box
5362 4472 Box
5362 4463 Box
5362 4520 Box
5362 4445 Box
5362 4514 Box
5362 4514 Box
5362 4518 Box
5362 4487 Box
5362 4429 Box
5362 4467 Box
5362 4515 Box
5362 4441 Box
5362 4437 Box
5362 4415 Box
5362 4417 Box
5362 4499 Box
5362 4465 Box
5362 4450 Box
5362 4561 Box
5362 4515 Box
5362 4546 Box
5457 4510 Box
5457 4480 Box
5457 4502 Box
5457 4479 Box
5457 4356 Box
5457 4487 Box
5457 4511 Box
5457 4463 Box
5457 4481 Box
5457 4520 Box
5457 4490 Box
5457 4510 Box
5457 4532 Box
5457 4454 Box
5457 4508 Box
5457 4509 Box
5457 4520 Box
5457 4556 Box
5457 4486 Box
5457 4486 Box
5457 4525 Box
5457 4472 Box
5457 4466 Box
5457 4453 Box
5457 4475 Box
5457 4500 Box
5457 4549 Box
5457 4508 Box
5457 4434 Box
5457 4504 Box
5552 4556 Box
5552 4477 Box
5552 4493 Box
5552 4456 Box
5552 4581 Box
5552 4559 Box
5552 4518 Box
5552 4495 Box
5552 4471 Box
5552 4485 Box
5552 4489 Box
5552 4519 Box
5552 4487 Box
5552 4466 Box
5552 4504 Box
5552 4473 Box
5552 4494 Box
5552 4429 Box
5552 4435 Box
5552 4465 Box
5552 4501 Box
5552 4488 Box
5552 4485 Box
5552 4445 Box
5552 4502 Box
5552 4548 Box
5552 4509 Box
5552 4541 Box
5552 4520 Box
5552 4490 Box
5647 4460 Box
5647 4465 Box
5647 4531 Box
5647 4582 Box
5647 4470 Box
5647 4419 Box
5647 4529 Box
5647 4586 Box
5647 4519 Box
5647 4550 Box
5647 4533 Box
5647 4505 Box
5647 4522 Box
5647 4495 Box
5647 4482 Box
5647 4465 Box
5647 4515 Box
5647 4520 Box
5647 4503 Box
5647 4517 Box
5647 4499 Box
5647 4453 Box
5647 4498 Box
5647 4506 Box
5647 4499 Box
5647 4511 Box
5647 4565 Box
5647 4466 Box
5647 4478 Box
5647 4552 Box
5741 4557 Box
5741 4506 Box
5741 4502 Box
5741 4547 Box
5741 4552 Box
5741 4532 Box
5741 4512 Box
5741 4506 Box
5741 4483 Box
5741 4506 Box
5741 4502 Box
5741 4548 Box
5741 4489 Box
5741 4461 Box
5741 4443 Box
5741 4470 Box
5741 4474 Box
5741 4520 Box
5741 4544 Box
5741 4504 Box
5741 4550 Box
5741 4529 Box
5741 4509 Box
5741 4519 Box
5741 4504 Box
5741 4503 Box
5741 4533 Box
5741 4468 Box
5741 4531 Box
5741 4514 Box
5836 4554 Box
5836 4533 Box
5836 4519 Box
5836 4429 Box
5836 4443 Box
5836 4543 Box
5836 4495 Box
5836 4520 Box
5836 4501 Box
5836 4580 Box
5836 4533 Box
5836 4507 Box
5836 4584 Box
5836 4510 Box
5836 4524 Box
5836 4445 Box
5836 4450 Box
5836 4534 Box
5836 4422 Box
5836 4550 Box
5836 4489 Box
5836 4577 Box
5836 4564 Box
5836 4442 Box
5836 4543 Box
5836 4542 Box
5836 4510 Box
5836 4412 Box
5836 4576 Box
5836 4523 Box
5931 4513 Box
5931 4533 Box
5931 4608 Box
5931 4570 Box
5931 4524 Box
5931 4549 Box
5931 4480 Box
5931 4548 Box
5931 4447 Box
5931 4558 Box
5931 4541 Box
5931 4555 Box
5931 4534 Box
5931 4511 Box
5931 4553 Box
5931 4500 Box
5931 4568 Box
5931 4579 Box
5931 4554 Box
5931 4537 Box
5931 4609 Box
5931 4498 Box
5931 4559 Box
5931 4526 Box
5931 4465 Box
5931 4423 Box
5931 4496 Box
5931 4543 Box
5931 4504 Box
5931 4525 Box
6026 4533 Box
6026 4492 Box
6026 4544 Box
6026 4545 Box
6026 4565 Box
6026 4586 Box
6026 4563 Box
6026 4526 Box
6026 4537 Box
6026 4480 Box
6026 4541 Box
6026 4519 Box
6026 4448 Box
6026 4512 Box
6026 4604 Box
6026 4550 Box
6026 4575 Box
6026 4490 Box
6026 4538 Box
6026 4565 Box
6026 4537 Box
6026 4510 Box
6026 4535 Box
6026 4588 Box
6026 4502 Box
6026 4502 Box
6026 4546 Box
6026 4572 Box
6026 4508 Box
6026 4601 Box
6120 4593 Box
6120 4624 Box
6120 4564 Box
6120 4635 Box
6120 4559 Box
6120 4521 Box
6120 4460 Box
6120 4456 Box
6120 4580 Box
6120 4438 Box
6120 4480 Box
6120 4538 Box
6120 4591 Box
6120 4542 Box
6120 4562 Box
6120 4475 Box
6120 4625 Box
6120 4432 Box
6120 4515 Box
6120 4607 Box
6120 4510 Box
6120 4569 Box
6120 4554 Box
6120 4516 Box
6120 4443 Box
6120 4530 Box
6120 4456 Box
6120 4564 Box
6120 4542 Box
6120 4571 Box
6215 4555 Box
6215 4493 Box
6215 4524 Box
6215 4570 Box
6215 4537 Box
6215 4556 Box
6215 4540 Box
6215 4541 Box
6215 4542 Box
6215 4497 Box
6215 4545 Box
6215 4576 Box
6215 4626 Box
6215 4499 Box
6215 4555 Box
6215 4517 Box
6215 4553 Box
6215 4514 Box
6215 4549 Box
6215 4483 Box
6215 4586 Box
6215 4523 Box
6215 4560 Box
6215 4554 Box
6215 4484 Box
6215 4571 Box
6215 4628 Box
6215 4513 Box
6215 4524 Box
6215 4557 Box
6310 4582 Box
6310 4597 Box
6310 4490 Box
6310 4540 Box
6310 4612 Box
6310 4521 Box
6310 4555 Box
6310 4440 Box
6310 4530 Box
6310 4531 Box
6310 4437 Box
6310 4544 Box
6310 4537 Box
6310 4577 Box
6310 4559 Box
6310 4540 Box
6310 4620 Box
6310 4518 Box
6310 4509 Box
6310 4468 Box
6310 4492 Box
6310 4463 Box
6310 4526 Box
6310 4510 Box
6310 4626 Box
6310 4582 Box
6310 4581 Box
6310 4507 Box
6310 4484 Box
6310 4587 Box
6405 4535 Box
6405 4623 Box
6405 4580 Box
6405 4542 Box
6405 4637 Box
6405 4554 Box
6405 4565 Box
6405 4545 Box
6405 4668 Box
6405 4514 Box
6405 4596 Box
6405 4573 Box
6405 4646 Box
6405 4588 Box
6405 4548 Box
6405 4537 Box
6405 4555 Box
6405 4538 Box
6405 4557 Box
6405 4594 Box
6405 4605 Box
6405 4548 Box
6405 4572 Box
6405 4604 Box
6405 4507 Box
6405 4573 Box
6405 4591 Box
6405 4614 Box
6405 4516 Box
6405 4469 Box
6499 4538 Box
6499 4539 Box
6499 4584 Box
6499 4554 Box
6499 4554 Box
6499 4526 Box
6499 4581 Box
6499 4532 Box
6499 4597 Box
6499 4529 Box
6499 4524 Box
6499 4603 Box
6499 4538 Box
6499 4640 Box
6499 4577 Box
6499 4577 Box
6499 4658 Box
6499 4618 Box
6499 4574 Box
6499 4602 Box
6499 4498 Box
6499 4567 Box
6499 4599 Box
6499 4497 Box
6499 4604 Box
6499 4583 Box
6499 4552 Box
6499 4602 Box
6499 4588 Box
6499 4517 Box
6594 4599 Box
6594 4642 Box
6594 4596 Box
6594 4589 Box
6594 4590 Box
6594 4553 Box
6594 4531 Box
6594 4580 Box
6594 4551 Box
6594 4548 Box
6594 4567 Box
6594 4588 Box
6594 4596 Box
6594 4553 Box
6594 4578 Box
6594 4546 Box
6594 4552 Box
6594 4560 Box
6594 4575 Box
6594 4569 Box
6594 4539 Box
6594 4606 Box
6594 4511 Box
6594 4548 Box
6594 4601 Box
6594 4551 Box
6594 4605 Box
6594 4603 Box
6594 4519 Box
6594 4574 Box
6689 4603 Box
6689 4525 Box
6689 4577 Box
6689 4546 Box
6689 4569 Box
6689 4502 Box
6689 4599 Box
6689 4458 Box
6689 4569 Box
6689 4589 Box
6689 4603 Box
6689 4551 Box
6689 4590 Box
6689 4569 Box
6689 4599 Box
6689 4547 Box
6689 4589 Box
6689 4674 Box
6689 4531 Box
6689 4551 Box
6689 4590 Box
6689 4609 Box
6689 4510 Box
6689 4511 Box
6689 4601 Box
6689 4568 Box
6689 4554 Box
6689 4611 Box
6689 4563 Box
6689 4550 Box
2.000 UL
LT0
LC0 setrgbcolor
0.50 0.50 0.50 C 814 1023 M
59 0 V
60 160 V
59 0 V
59 159 V
60 0 V
59 160 V
59 0 V
60 160 V
59 0 V
59 319 V
60 0 V
59 0 V
59 0 V
60 319 V
59 0 V
59 0 V
60 0 V
59 0 V
60 0 V
59 0 V
59 0 V
60 0 V
59 958 V
59 0 V
60 0 V
59 0 V
59 0 V
60 0 V
59 0 V
59 0 V
60 0 V
59 0 V
59 0 V
60 0 V
59 0 V
59 0 V
60 0 V
59 0 V
59 0 V
60 0 V
59 0 V
59 0 V
60 0 V
59 0 V
59 0 V
60 0 V
59 0 V
59 2553 V
60 0 V
59 0 V
60 0 V
59 0 V
59 0 V
60 0 V
59 0 V
59 0 V
60 0 V
59 0 V
59 0 V
60 0 V
59 0 V
59 0 V
60 0 V
59 0 V
59 0 V
60 0 V
59 0 V
59 0 V
60 0 V
59 0 V
59 0 V
60 0 V
59 0 V
59 0 V
60 0 V
59 0 V
59 0 V
60 0 V
59 0 V
59 0 V
60 0 V
59 0 V
60 0 V
59 0 V
59 0 V
60 0 V
59 0 V
59 0 V
60 0 V
59 0 V
59 0 V
60 0 V
59 0 V
59 0 V
60 0 V
59 0 V
59 0 V
60 0 V
59 0 V
stroke
LT1
LC1 setrgbcolor
0.50 0.50 0.50 C 814 1023 M
59 100 V
60 100 V
59 100 V
59 100 V
60 100 V
59 100 V
59 100 V
60 100 V
59 100 V
59 100 V
60 100 V
59 100 V
59 100 V
60 100 V
59 100 V
59 99 V
60 100 V
59 100 V
60 100 V
59 100 V
59 100 V
60 100 V
59 100 V
59 100 V
60 100 V
59 100 V
59 100 V
60 100 V
59 100 V
59 100 V
60 100 V
59 100 V
59 100 V
60 100 V
59 100 V
59 100 V
60 100 V
59 100 V
59 99 V
60 100 V
59 100 V
59 100 V
60 100 V
59 100 V
59 100 V
60 100 V
59 100 V
59 100 V
60 100 V
30 50 V
stroke
1.000 UL
LTb
LCb setrgbcolor
814 5971 N
814 704 L
5875 0 V
0 5267 V
-5875 0 V
Z stroke
1.000 UP
1.000 UL
LTb
stroke
grestore
end
showpage
%%Trailer
