%!PS-Adobe-2.0 EPSF-2.0
%%Title: /home/yummiii/Masterarbeit/Thesis/document/bilder/speedupNormalInputs_s.tex
%%Creator: gnuplot 4.6 patchlevel 5
%%CreationDate: Tue Jan  5 11:02:34 2016
%%DocumentFonts: 
%%BoundingBox: 50 50 758 305
%%EndComments
%%BeginProlog
/gnudict 256 dict def
gnudict begin
%
% The following true/false flags may be edited by hand if desired.
% The unit line width and grayscale image gamma correction may also be changed.
%
/Color true def
/Blacktext true def
/Solid false def
/Dashlength 1 def
/Landscape false def
/Level1 false def
/Rounded false def
/ClipToBoundingBox false def
/SuppressPDFMark false def
/TransparentPatterns false def
/gnulinewidth 5.000 def
/userlinewidth gnulinewidth def
/Gamma 1.0 def
/BackgroundColor {-1.000 -1.000 -1.000} def
%
/vshift -73 def
/dl1 {
  10.0 Dashlength mul mul
  Rounded { currentlinewidth 0.75 mul sub dup 0 le { pop 0.01 } if } if
} def
/dl2 {
  10.0 Dashlength mul mul
  Rounded { currentlinewidth 0.75 mul add } if
} def
/hpt_ 31.5 def
/vpt_ 31.5 def
/hpt hpt_ def
/vpt vpt_ def
/doclip {
  ClipToBoundingBox {
    newpath 50 50 moveto 758 50 lineto 758 305 lineto 50 305 lineto closepath
    clip
  } if
} def
%
% Gnuplot Prolog Version 4.6 (September 2012)
%
%/SuppressPDFMark true def
%
/M {moveto} bind def
/L {lineto} bind def
/R {rmoveto} bind def
/V {rlineto} bind def
/N {newpath moveto} bind def
/Z {closepath} bind def
/C {setrgbcolor} bind def
/f {rlineto fill} bind def
/g {setgray} bind def
/Gshow {show} def   % May be redefined later in the file to support UTF-8
/vpt2 vpt 2 mul def
/hpt2 hpt 2 mul def
/Lshow {currentpoint stroke M 0 vshift R 
	Blacktext {gsave 0 setgray show grestore} {show} ifelse} def
/Rshow {currentpoint stroke M dup stringwidth pop neg vshift R
	Blacktext {gsave 0 setgray show grestore} {show} ifelse} def
/Cshow {currentpoint stroke M dup stringwidth pop -2 div vshift R 
	Blacktext {gsave 0 setgray show grestore} {show} ifelse} def
/UP {dup vpt_ mul /vpt exch def hpt_ mul /hpt exch def
  /hpt2 hpt 2 mul def /vpt2 vpt 2 mul def} def
/DL {Color {setrgbcolor Solid {pop []} if 0 setdash}
 {pop pop pop 0 setgray Solid {pop []} if 0 setdash} ifelse} def
/BL {stroke userlinewidth 2 mul setlinewidth
	Rounded {1 setlinejoin 1 setlinecap} if} def
/AL {stroke userlinewidth 2 div setlinewidth
	Rounded {1 setlinejoin 1 setlinecap} if} def
/UL {dup gnulinewidth mul /userlinewidth exch def
	dup 1 lt {pop 1} if 10 mul /udl exch def} def
/PL {stroke userlinewidth setlinewidth
	Rounded {1 setlinejoin 1 setlinecap} if} def
3.8 setmiterlimit
% Default Line colors
/LCw {1 1 1} def
/LCb {0 0 0} def
/LCa {0 0 0} def
/LC0 {1 0 0} def
/LC1 {0 1 0} def
/LC2 {0 0 1} def
/LC3 {1 0 1} def
/LC4 {0 1 1} def
/LC5 {1 1 0} def
/LC6 {0 0 0} def
/LC7 {1 0.3 0} def
/LC8 {0.5 0.5 0.5} def
% Default Line Types
/LTw {PL [] 1 setgray} def
/LTb {BL [] LCb DL} def
/LTa {AL [1 udl mul 2 udl mul] 0 setdash LCa setrgbcolor} def
/LT0 {PL [] LC0 DL} def
/LT1 {PL [4 dl1 2 dl2] LC1 DL} def
/LT2 {PL [2 dl1 3 dl2] LC2 DL} def
/LT3 {PL [1 dl1 1.5 dl2] LC3 DL} def
/LT4 {PL [6 dl1 2 dl2 1 dl1 2 dl2] LC4 DL} def
/LT5 {PL [3 dl1 3 dl2 1 dl1 3 dl2] LC5 DL} def
/LT6 {PL [2 dl1 2 dl2 2 dl1 6 dl2] LC6 DL} def
/LT7 {PL [1 dl1 2 dl2 6 dl1 2 dl2 1 dl1 2 dl2] LC7 DL} def
/LT8 {PL [2 dl1 2 dl2 2 dl1 2 dl2 2 dl1 2 dl2 2 dl1 4 dl2] LC8 DL} def
/Pnt {stroke [] 0 setdash gsave 1 setlinecap M 0 0 V stroke grestore} def
/Dia {stroke [] 0 setdash 2 copy vpt add M
  hpt neg vpt neg V hpt vpt neg V
  hpt vpt V hpt neg vpt V closepath stroke
  Pnt} def
/Pls {stroke [] 0 setdash vpt sub M 0 vpt2 V
  currentpoint stroke M
  hpt neg vpt neg R hpt2 0 V stroke
 } def
/Box {stroke [] 0 setdash 2 copy exch hpt sub exch vpt add M
  0 vpt2 neg V hpt2 0 V 0 vpt2 V
  hpt2 neg 0 V closepath stroke
  Pnt} def
/Crs {stroke [] 0 setdash exch hpt sub exch vpt add M
  hpt2 vpt2 neg V currentpoint stroke M
  hpt2 neg 0 R hpt2 vpt2 V stroke} def
/TriU {stroke [] 0 setdash 2 copy vpt 1.12 mul add M
  hpt neg vpt -1.62 mul V
  hpt 2 mul 0 V
  hpt neg vpt 1.62 mul V closepath stroke
  Pnt} def
/Star {2 copy Pls Crs} def
/BoxF {stroke [] 0 setdash exch hpt sub exch vpt add M
  0 vpt2 neg V hpt2 0 V 0 vpt2 V
  hpt2 neg 0 V closepath fill} def
/TriUF {stroke [] 0 setdash vpt 1.12 mul add M
  hpt neg vpt -1.62 mul V
  hpt 2 mul 0 V
  hpt neg vpt 1.62 mul V closepath fill} def
/TriD {stroke [] 0 setdash 2 copy vpt 1.12 mul sub M
  hpt neg vpt 1.62 mul V
  hpt 2 mul 0 V
  hpt neg vpt -1.62 mul V closepath stroke
  Pnt} def
/TriDF {stroke [] 0 setdash vpt 1.12 mul sub M
  hpt neg vpt 1.62 mul V
  hpt 2 mul 0 V
  hpt neg vpt -1.62 mul V closepath fill} def
/DiaF {stroke [] 0 setdash vpt add M
  hpt neg vpt neg V hpt vpt neg V
  hpt vpt V hpt neg vpt V closepath fill} def
/Pent {stroke [] 0 setdash 2 copy gsave
  translate 0 hpt M 4 {72 rotate 0 hpt L} repeat
  closepath stroke grestore Pnt} def
/PentF {stroke [] 0 setdash gsave
  translate 0 hpt M 4 {72 rotate 0 hpt L} repeat
  closepath fill grestore} def
/Circle {stroke [] 0 setdash 2 copy
  hpt 0 360 arc stroke Pnt} def
/CircleF {stroke [] 0 setdash hpt 0 360 arc fill} def
/C0 {BL [] 0 setdash 2 copy moveto vpt 90 450 arc} bind def
/C1 {BL [] 0 setdash 2 copy moveto
	2 copy vpt 0 90 arc closepath fill
	vpt 0 360 arc closepath} bind def
/C2 {BL [] 0 setdash 2 copy moveto
	2 copy vpt 90 180 arc closepath fill
	vpt 0 360 arc closepath} bind def
/C3 {BL [] 0 setdash 2 copy moveto
	2 copy vpt 0 180 arc closepath fill
	vpt 0 360 arc closepath} bind def
/C4 {BL [] 0 setdash 2 copy moveto
	2 copy vpt 180 270 arc closepath fill
	vpt 0 360 arc closepath} bind def
/C5 {BL [] 0 setdash 2 copy moveto
	2 copy vpt 0 90 arc
	2 copy moveto
	2 copy vpt 180 270 arc closepath fill
	vpt 0 360 arc} bind def
/C6 {BL [] 0 setdash 2 copy moveto
	2 copy vpt 90 270 arc closepath fill
	vpt 0 360 arc closepath} bind def
/C7 {BL [] 0 setdash 2 copy moveto
	2 copy vpt 0 270 arc closepath fill
	vpt 0 360 arc closepath} bind def
/C8 {BL [] 0 setdash 2 copy moveto
	2 copy vpt 270 360 arc closepath fill
	vpt 0 360 arc closepath} bind def
/C9 {BL [] 0 setdash 2 copy moveto
	2 copy vpt 270 450 arc closepath fill
	vpt 0 360 arc closepath} bind def
/C10 {BL [] 0 setdash 2 copy 2 copy moveto vpt 270 360 arc closepath fill
	2 copy moveto
	2 copy vpt 90 180 arc closepath fill
	vpt 0 360 arc closepath} bind def
/C11 {BL [] 0 setdash 2 copy moveto
	2 copy vpt 0 180 arc closepath fill
	2 copy moveto
	2 copy vpt 270 360 arc closepath fill
	vpt 0 360 arc closepath} bind def
/C12 {BL [] 0 setdash 2 copy moveto
	2 copy vpt 180 360 arc closepath fill
	vpt 0 360 arc closepath} bind def
/C13 {BL [] 0 setdash 2 copy moveto
	2 copy vpt 0 90 arc closepath fill
	2 copy moveto
	2 copy vpt 180 360 arc closepath fill
	vpt 0 360 arc closepath} bind def
/C14 {BL [] 0 setdash 2 copy moveto
	2 copy vpt 90 360 arc closepath fill
	vpt 0 360 arc} bind def
/C15 {BL [] 0 setdash 2 copy vpt 0 360 arc closepath fill
	vpt 0 360 arc closepath} bind def
/Rec {newpath 4 2 roll moveto 1 index 0 rlineto 0 exch rlineto
	neg 0 rlineto closepath} bind def
/Square {dup Rec} bind def
/Bsquare {vpt sub exch vpt sub exch vpt2 Square} bind def
/S0 {BL [] 0 setdash 2 copy moveto 0 vpt rlineto BL Bsquare} bind def
/S1 {BL [] 0 setdash 2 copy vpt Square fill Bsquare} bind def
/S2 {BL [] 0 setdash 2 copy exch vpt sub exch vpt Square fill Bsquare} bind def
/S3 {BL [] 0 setdash 2 copy exch vpt sub exch vpt2 vpt Rec fill Bsquare} bind def
/S4 {BL [] 0 setdash 2 copy exch vpt sub exch vpt sub vpt Square fill Bsquare} bind def
/S5 {BL [] 0 setdash 2 copy 2 copy vpt Square fill
	exch vpt sub exch vpt sub vpt Square fill Bsquare} bind def
/S6 {BL [] 0 setdash 2 copy exch vpt sub exch vpt sub vpt vpt2 Rec fill Bsquare} bind def
/S7 {BL [] 0 setdash 2 copy exch vpt sub exch vpt sub vpt vpt2 Rec fill
	2 copy vpt Square fill Bsquare} bind def
/S8 {BL [] 0 setdash 2 copy vpt sub vpt Square fill Bsquare} bind def
/S9 {BL [] 0 setdash 2 copy vpt sub vpt vpt2 Rec fill Bsquare} bind def
/S10 {BL [] 0 setdash 2 copy vpt sub vpt Square fill 2 copy exch vpt sub exch vpt Square fill
	Bsquare} bind def
/S11 {BL [] 0 setdash 2 copy vpt sub vpt Square fill 2 copy exch vpt sub exch vpt2 vpt Rec fill
	Bsquare} bind def
/S12 {BL [] 0 setdash 2 copy exch vpt sub exch vpt sub vpt2 vpt Rec fill Bsquare} bind def
/S13 {BL [] 0 setdash 2 copy exch vpt sub exch vpt sub vpt2 vpt Rec fill
	2 copy vpt Square fill Bsquare} bind def
/S14 {BL [] 0 setdash 2 copy exch vpt sub exch vpt sub vpt2 vpt Rec fill
	2 copy exch vpt sub exch vpt Square fill Bsquare} bind def
/S15 {BL [] 0 setdash 2 copy Bsquare fill Bsquare} bind def
/D0 {gsave translate 45 rotate 0 0 S0 stroke grestore} bind def
/D1 {gsave translate 45 rotate 0 0 S1 stroke grestore} bind def
/D2 {gsave translate 45 rotate 0 0 S2 stroke grestore} bind def
/D3 {gsave translate 45 rotate 0 0 S3 stroke grestore} bind def
/D4 {gsave translate 45 rotate 0 0 S4 stroke grestore} bind def
/D5 {gsave translate 45 rotate 0 0 S5 stroke grestore} bind def
/D6 {gsave translate 45 rotate 0 0 S6 stroke grestore} bind def
/D7 {gsave translate 45 rotate 0 0 S7 stroke grestore} bind def
/D8 {gsave translate 45 rotate 0 0 S8 stroke grestore} bind def
/D9 {gsave translate 45 rotate 0 0 S9 stroke grestore} bind def
/D10 {gsave translate 45 rotate 0 0 S10 stroke grestore} bind def
/D11 {gsave translate 45 rotate 0 0 S11 stroke grestore} bind def
/D12 {gsave translate 45 rotate 0 0 S12 stroke grestore} bind def
/D13 {gsave translate 45 rotate 0 0 S13 stroke grestore} bind def
/D14 {gsave translate 45 rotate 0 0 S14 stroke grestore} bind def
/D15 {gsave translate 45 rotate 0 0 S15 stroke grestore} bind def
/DiaE {stroke [] 0 setdash vpt add M
  hpt neg vpt neg V hpt vpt neg V
  hpt vpt V hpt neg vpt V closepath stroke} def
/BoxE {stroke [] 0 setdash exch hpt sub exch vpt add M
  0 vpt2 neg V hpt2 0 V 0 vpt2 V
  hpt2 neg 0 V closepath stroke} def
/TriUE {stroke [] 0 setdash vpt 1.12 mul add M
  hpt neg vpt -1.62 mul V
  hpt 2 mul 0 V
  hpt neg vpt 1.62 mul V closepath stroke} def
/TriDE {stroke [] 0 setdash vpt 1.12 mul sub M
  hpt neg vpt 1.62 mul V
  hpt 2 mul 0 V
  hpt neg vpt -1.62 mul V closepath stroke} def
/PentE {stroke [] 0 setdash gsave
  translate 0 hpt M 4 {72 rotate 0 hpt L} repeat
  closepath stroke grestore} def
/CircE {stroke [] 0 setdash 
  hpt 0 360 arc stroke} def
/Opaque {gsave closepath 1 setgray fill grestore 0 setgray closepath} def
/DiaW {stroke [] 0 setdash vpt add M
  hpt neg vpt neg V hpt vpt neg V
  hpt vpt V hpt neg vpt V Opaque stroke} def
/BoxW {stroke [] 0 setdash exch hpt sub exch vpt add M
  0 vpt2 neg V hpt2 0 V 0 vpt2 V
  hpt2 neg 0 V Opaque stroke} def
/TriUW {stroke [] 0 setdash vpt 1.12 mul add M
  hpt neg vpt -1.62 mul V
  hpt 2 mul 0 V
  hpt neg vpt 1.62 mul V Opaque stroke} def
/TriDW {stroke [] 0 setdash vpt 1.12 mul sub M
  hpt neg vpt 1.62 mul V
  hpt 2 mul 0 V
  hpt neg vpt -1.62 mul V Opaque stroke} def
/PentW {stroke [] 0 setdash gsave
  translate 0 hpt M 4 {72 rotate 0 hpt L} repeat
  Opaque stroke grestore} def
/CircW {stroke [] 0 setdash 
  hpt 0 360 arc Opaque stroke} def
/BoxFill {gsave Rec 1 setgray fill grestore} def
/Density {
  /Fillden exch def
  currentrgbcolor
  /ColB exch def /ColG exch def /ColR exch def
  /ColR ColR Fillden mul Fillden sub 1 add def
  /ColG ColG Fillden mul Fillden sub 1 add def
  /ColB ColB Fillden mul Fillden sub 1 add def
  ColR ColG ColB setrgbcolor} def
/BoxColFill {gsave Rec PolyFill} def
/PolyFill {gsave Density fill grestore grestore} def
/h {rlineto rlineto rlineto gsave closepath fill grestore} bind def
%
% PostScript Level 1 Pattern Fill routine for rectangles
% Usage: x y w h s a XX PatternFill
%	x,y = lower left corner of box to be filled
%	w,h = width and height of box
%	  a = angle in degrees between lines and x-axis
%	 XX = 0/1 for no/yes cross-hatch
%
/PatternFill {gsave /PFa [ 9 2 roll ] def
  PFa 0 get PFa 2 get 2 div add PFa 1 get PFa 3 get 2 div add translate
  PFa 2 get -2 div PFa 3 get -2 div PFa 2 get PFa 3 get Rec
  TransparentPatterns {} {gsave 1 setgray fill grestore} ifelse
  clip
  currentlinewidth 0.5 mul setlinewidth
  /PFs PFa 2 get dup mul PFa 3 get dup mul add sqrt def
  0 0 M PFa 5 get rotate PFs -2 div dup translate
  0 1 PFs PFa 4 get div 1 add floor cvi
	{PFa 4 get mul 0 M 0 PFs V} for
  0 PFa 6 get ne {
	0 1 PFs PFa 4 get div 1 add floor cvi
	{PFa 4 get mul 0 2 1 roll M PFs 0 V} for
 } if
  stroke grestore} def
%
/languagelevel where
 {pop languagelevel} {1} ifelse
 2 lt
	{/InterpretLevel1 true def}
	{/InterpretLevel1 Level1 def}
 ifelse
%
% PostScript level 2 pattern fill definitions
%
/Level2PatternFill {
/Tile8x8 {/PaintType 2 /PatternType 1 /TilingType 1 /BBox [0 0 8 8] /XStep 8 /YStep 8}
	bind def
/KeepColor {currentrgbcolor [/Pattern /DeviceRGB] setcolorspace} bind def
<< Tile8x8
 /PaintProc {0.5 setlinewidth pop 0 0 M 8 8 L 0 8 M 8 0 L stroke} 
>> matrix makepattern
/Pat1 exch def
<< Tile8x8
 /PaintProc {0.5 setlinewidth pop 0 0 M 8 8 L 0 8 M 8 0 L stroke
	0 4 M 4 8 L 8 4 L 4 0 L 0 4 L stroke}
>> matrix makepattern
/Pat2 exch def
<< Tile8x8
 /PaintProc {0.5 setlinewidth pop 0 0 M 0 8 L
	8 8 L 8 0 L 0 0 L fill}
>> matrix makepattern
/Pat3 exch def
<< Tile8x8
 /PaintProc {0.5 setlinewidth pop -4 8 M 8 -4 L
	0 12 M 12 0 L stroke}
>> matrix makepattern
/Pat4 exch def
<< Tile8x8
 /PaintProc {0.5 setlinewidth pop -4 0 M 8 12 L
	0 -4 M 12 8 L stroke}
>> matrix makepattern
/Pat5 exch def
<< Tile8x8
 /PaintProc {0.5 setlinewidth pop -2 8 M 4 -4 L
	0 12 M 8 -4 L 4 12 M 10 0 L stroke}
>> matrix makepattern
/Pat6 exch def
<< Tile8x8
 /PaintProc {0.5 setlinewidth pop -2 0 M 4 12 L
	0 -4 M 8 12 L 4 -4 M 10 8 L stroke}
>> matrix makepattern
/Pat7 exch def
<< Tile8x8
 /PaintProc {0.5 setlinewidth pop 8 -2 M -4 4 L
	12 0 M -4 8 L 12 4 M 0 10 L stroke}
>> matrix makepattern
/Pat8 exch def
<< Tile8x8
 /PaintProc {0.5 setlinewidth pop 0 -2 M 12 4 L
	-4 0 M 12 8 L -4 4 M 8 10 L stroke}
>> matrix makepattern
/Pat9 exch def
/Pattern1 {PatternBgnd KeepColor Pat1 setpattern} bind def
/Pattern2 {PatternBgnd KeepColor Pat2 setpattern} bind def
/Pattern3 {PatternBgnd KeepColor Pat3 setpattern} bind def
/Pattern4 {PatternBgnd KeepColor Landscape {Pat5} {Pat4} ifelse setpattern} bind def
/Pattern5 {PatternBgnd KeepColor Landscape {Pat4} {Pat5} ifelse setpattern} bind def
/Pattern6 {PatternBgnd KeepColor Landscape {Pat9} {Pat6} ifelse setpattern} bind def
/Pattern7 {PatternBgnd KeepColor Landscape {Pat8} {Pat7} ifelse setpattern} bind def
} def
%
%
%End of PostScript Level 2 code
%
/PatternBgnd {
  TransparentPatterns {} {gsave 1 setgray fill grestore} ifelse
} def
%
% Substitute for Level 2 pattern fill codes with
% grayscale if Level 2 support is not selected.
%
/Level1PatternFill {
/Pattern1 {0.250 Density} bind def
/Pattern2 {0.500 Density} bind def
/Pattern3 {0.750 Density} bind def
/Pattern4 {0.125 Density} bind def
/Pattern5 {0.375 Density} bind def
/Pattern6 {0.625 Density} bind def
/Pattern7 {0.875 Density} bind def
} def
%
% Now test for support of Level 2 code
%
Level1 {Level1PatternFill} {Level2PatternFill} ifelse
%
/Symbol-Oblique /Symbol findfont [1 0 .167 1 0 0] makefont
dup length dict begin {1 index /FID eq {pop pop} {def} ifelse} forall
currentdict end definefont pop
Level1 SuppressPDFMark or 
{} {
/SDict 10 dict def
systemdict /pdfmark known not {
  userdict /pdfmark systemdict /cleartomark get put
} if
SDict begin [
  /Title (/home/yummiii/Masterarbeit/Thesis/document/bilder/speedupNormalInputs_s.tex)
  /Subject (gnuplot plot)
  /Creator (gnuplot 4.6 patchlevel 5)
  /Author (yummiii)
%  /Producer (gnuplot)
%  /Keywords ()
  /CreationDate (Tue Jan  5 11:02:34 2016)
  /DOCINFO pdfmark
end
} ifelse
end
%%EndProlog
%%Page: 1 1
gnudict begin
gsave
doclip
50 50 translate
0.050 0.050 scale
0 setgray
newpath
1.000 UL
LTb
LCb setrgbcolor
814 704 M
63 0 V
12898 0 R
-63 0 V
stroke
LTb
814 1294 M
63 0 V
12898 0 R
-63 0 V
814 1885 M
63 0 V
12898 0 R
-63 0 V
814 2475 M
63 0 V
12898 0 R
-63 0 V
814 3066 M
63 0 V
12898 0 R
-63 0 V
814 3656 M
63 0 V
12898 0 R
-63 0 V
814 4247 M
63 0 V
12898 0 R
-63 0 V
814 4837 M
63 0 V
12898 0 R
-63 0 V
3263 704 M
0 63 V
0 4070 R
0 -63 V
5815 704 M
0 63 V
0 4070 R
0 -63 V
8366 704 M
0 63 V
0 4070 R
0 -63 V
10917 704 M
0 63 V
0 4070 R
0 -63 V
13469 704 M
0 63 V
0 4070 R
0 -63 V
stroke
814 4837 N
814 704 L
12961 0 V
0 4133 V
814 4837 L
Z stroke
1.000 UP
1.000 UL
LTb
1.000 UP
1.000 UL
LT0
LC0 setrgbcolor
0.00 0.00 0.00 C 814 1073 Box
814 1067 Box
814 1069 Box
814 1067 Box
814 1068 Box
840 1151 Box
840 1159 Box
840 1165 Box
840 1155 Box
840 1154 Box
865 1251 Box
865 1252 Box
865 1253 Box
865 1264 Box
865 1245 Box
891 1352 Box
891 1350 Box
891 1353 Box
891 1329 Box
891 1349 Box
916 1446 Box
916 1453 Box
916 1434 Box
916 1432 Box
916 1448 Box
942 1526 Box
942 1544 Box
942 1539 Box
942 1528 Box
942 1535 Box
967 1626 Box
967 1620 Box
967 1626 Box
967 1624 Box
967 1619 Box
993 1688 Box
993 1696 Box
993 1707 Box
993 1706 Box
993 1690 Box
1018 1781 Box
1018 1815 Box
1018 1782 Box
1018 1770 Box
1018 1791 Box
1044 1831 Box
1044 1898 Box
1044 1843 Box
1044 1857 Box
1044 1894 Box
1069 1973 Box
1069 1960 Box
1069 1982 Box
1069 1955 Box
1069 1952 Box
1095 2075 Box
1095 2060 Box
1095 2032 Box
1095 2018 Box
1095 2031 Box
1120 2144 Box
1120 2090 Box
1120 2130 Box
1120 2127 Box
1120 2145 Box
1146 2218 Box
1146 2178 Box
1146 2197 Box
1146 2203 Box
1146 2217 Box
1171 2284 Box
1171 2272 Box
1171 2244 Box
1171 2259 Box
1171 2262 Box
1197 2351 Box
1197 2395 Box
1197 2348 Box
1197 2325 Box
1197 2352 Box
1222 2450 Box
1222 2465 Box
1222 2384 Box
1222 2478 Box
1222 2425 Box
1248 2514 Box
1248 2512 Box
1248 2513 Box
1248 2509 Box
1248 2549 Box
1273 2605 Box
1273 2604 Box
1273 2536 Box
1273 2610 Box
1273 2573 Box
1299 2658 Box
1299 2642 Box
1299 2608 Box
1299 2630 Box
1299 2639 Box
1324 2743 Box
1324 2749 Box
1324 2718 Box
1324 2740 Box
1324 2617 Box
1350 2821 Box
1350 2786 Box
1350 2699 Box
1350 2750 Box
1350 2815 Box
1375 2876 Box
1375 2876 Box
1375 2889 Box
1375 2898 Box
1375 2856 Box
1401 2925 Box
1401 2950 Box
1401 2792 Box
1401 2928 Box
1401 2958 Box
1426 3036 Box
1426 3036 Box
1426 3048 Box
1426 2942 Box
1426 3000 Box
1452 3091 Box
1452 3127 Box
1452 3065 Box
1452 3097 Box
1452 3042 Box
1477 3131 Box
1477 3119 Box
1477 3151 Box
1477 3157 Box
1477 3142 Box
1503 3171 Box
1503 3193 Box
1503 3228 Box
1503 3237 Box
1503 3222 Box
1528 3263 Box
1528 3247 Box
1528 3310 Box
1528 3285 Box
1528 3225 Box
1528 3349 Box
1528 3287 Box
1528 3301 Box
1528 3232 Box
1528 3167 Box
1554 2565 Box
1554 2576 Box
1554 2575 Box
1554 2605 Box
1554 2587 Box
1579 2603 Box
1579 2625 Box
1579 2604 Box
1579 2612 Box
1579 2619 Box
1605 2688 Box
1605 2659 Box
1605 2645 Box
1605 2644 Box
1605 2660 Box
1630 2693 Box
1630 2695 Box
1630 2668 Box
1630 2691 Box
1630 2662 Box
1656 2750 Box
1656 2740 Box
1656 2706 Box
1656 2701 Box
1656 2708 Box
1681 2744 Box
1681 2745 Box
1681 2748 Box
1681 2776 Box
1681 2768 Box
1707 2802 Box
1707 2775 Box
1707 2841 Box
1707 2801 Box
1707 2812 Box
1732 2836 Box
1732 2787 Box
1732 2825 Box
1732 2808 Box
1732 2848 Box
1758 2880 Box
1758 2868 Box
1758 2848 Box
1758 2883 Box
1758 2890 Box
1784 2923 Box
1784 2903 Box
1784 2912 Box
1784 2885 Box
1784 2905 Box
1809 2932 Box
1809 2950 Box
1809 2917 Box
1809 2952 Box
1809 2947 Box
1835 2954 Box
1835 2971 Box
1835 2957 Box
1835 2989 Box
1835 2989 Box
1860 3047 Box
1860 3036 Box
1860 3052 Box
1860 3002 Box
1860 3017 Box
1886 3058 Box
1886 3052 Box
1886 3052 Box
1886 3074 Box
1886 3072 Box
1911 3097 Box
1911 3077 Box
1911 3107 Box
1911 3110 Box
1911 3046 Box
1937 3135 Box
1937 3110 Box
1937 3142 Box
1937 3163 Box
1937 3068 Box
1962 3181 Box
1962 3142 Box
1962 3188 Box
1962 3181 Box
1962 3198 Box
1988 3150 Box
1988 3237 Box
1988 3217 Box
1988 3232 Box
1988 3215 Box
2013 3259 Box
2013 3299 Box
2013 3277 Box
2013 3243 Box
2013 3259 Box
2039 3262 Box
2039 3274 Box
2039 3275 Box
2039 3337 Box
2039 3292 Box
2064 3370 Box
2064 3370 Box
2064 3255 Box
2064 3304 Box
2064 3323 Box
2090 3411 Box
2090 3336 Box
2090 3307 Box
2090 3377 Box
2090 3302 Box
2115 3368 Box
2115 3391 Box
2115 3435 Box
2115 3396 Box
2115 3395 Box
2141 3472 Box
2141 3456 Box
2141 3430 Box
2141 3451 Box
2141 3430 Box
2166 3504 Box
2166 3517 Box
2166 3447 Box
2166 3504 Box
2166 3532 Box
2192 3538 Box
2192 3521 Box
2192 3520 Box
2192 3502 Box
2192 3538 Box
2217 3578 Box
2217 3524 Box
2217 3538 Box
2217 3534 Box
2217 3555 Box
2243 3604 Box
2243 3548 Box
2243 3600 Box
2243 3596 Box
2243 3610 Box
2268 3553 Box
2268 3579 Box
2268 3618 Box
2268 3695 Box
2268 3611 Box
2294 3729 Box
2294 3587 Box
2294 3722 Box
2294 3657 Box
2294 3661 Box
2319 3752 Box
2319 3768 Box
2319 3608 Box
2319 3703 Box
2319 3723 Box
2345 3738 Box
2345 3739 Box
2345 3737 Box
2345 3778 Box
2345 3781 Box
2370 3196 Box
2370 3207 Box
2370 3185 Box
2370 3174 Box
2370 3176 Box
2396 3208 Box
2396 3250 Box
2396 3203 Box
2396 3226 Box
2396 3238 Box
2421 3222 Box
2421 3250 Box
2421 3183 Box
2421 3242 Box
2421 3225 Box
2447 3254 Box
2447 3193 Box
2447 3234 Box
2447 3264 Box
2447 3246 Box
2472 3273 Box
2472 3272 Box
2472 3284 Box
2472 3267 Box
2472 3270 Box
2498 3300 Box
2498 3308 Box
2498 3263 Box
2498 3309 Box
2498 3314 Box
2523 3307 Box
2523 3319 Box
2523 3330 Box
2523 3332 Box
2523 3321 Box
2549 3348 Box
2549 3321 Box
2549 3357 Box
2549 3351 Box
2549 3334 Box
2574 3353 Box
2574 3378 Box
2574 3365 Box
2574 3343 Box
2574 3378 Box
2600 3401 Box
2600 3384 Box
2600 3410 Box
2600 3378 Box
2600 3365 Box
2625 3415 Box
2625 3422 Box
2625 3413 Box
2625 3374 Box
2625 3353 Box
2651 3440 Box
2651 3435 Box
2651 3452 Box
2651 3443 Box
2651 3447 Box
2677 3469 Box
2677 3444 Box
2677 3484 Box
2677 3481 Box
2677 3465 Box
2702 3463 Box
2702 3506 Box
2702 3477 Box
2702 3492 Box
2702 3485 Box
2728 3495 Box
2728 3510 Box
2728 3530 Box
2728 3541 Box
2728 3476 Box
2753 3550 Box
2753 3543 Box
2753 3573 Box
2753 3546 Box
2753 3531 Box
2779 3568 Box
2779 3579 Box
2779 3559 Box
2779 3560 Box
2779 3593 Box
2804 3599 Box
2804 3572 Box
2804 3535 Box
2804 3605 Box
2804 3590 Box
2830 3635 Box
2830 3602 Box
2830 3559 Box
2830 3641 Box
2830 3625 Box
2855 3660 Box
2855 3649 Box
2855 3643 Box
2855 3642 Box
2855 3633 Box
2881 3671 Box
2881 3633 Box
2881 3675 Box
2881 3670 Box
2881 3618 Box
2906 3706 Box
2906 3697 Box
2906 3680 Box
2906 3689 Box
2906 3691 Box
2932 3727 Box
2932 3686 Box
2932 3749 Box
2932 3730 Box
2932 3669 Box
2957 3749 Box
2957 3757 Box
2957 3711 Box
2957 3746 Box
2957 3725 Box
2983 3781 Box
2983 3806 Box
2983 3797 Box
2983 3772 Box
2983 3765 Box
3008 3840 Box
3008 3823 Box
3008 3763 Box
3008 3807 Box
3008 3834 Box
3034 3798 Box
3034 3848 Box
3034 3818 Box
3034 3832 Box
3034 3788 Box
3059 3871 Box
3059 3836 Box
3059 3823 Box
3059 3822 Box
3059 3864 Box
3085 3826 Box
3085 3827 Box
3085 3868 Box
3085 3849 Box
3085 3858 Box
3110 3888 Box
3110 3918 Box
3110 3887 Box
3110 3869 Box
3110 3873 Box
3136 3931 Box
3136 3893 Box
3136 3917 Box
3136 3951 Box
3136 3970 Box
3161 3957 Box
3161 3931 Box
3161 3966 Box
3161 3980 Box
3161 3965 Box
3187 3500 Box
3187 3508 Box
3187 3490 Box
3187 3523 Box
3187 3513 Box
3212 3477 Box
3212 3542 Box
3212 3560 Box
3212 3471 Box
3212 3538 Box
3238 3516 Box
3238 3546 Box
3238 3534 Box
3238 3506 Box
3238 3524 Box
3263 3552 Box
3263 3554 Box
3263 3553 Box
3263 3563 Box
3263 3576 Box
3289 3597 Box
3289 3584 Box
3289 3536 Box
3289 3554 Box
3289 3589 Box
3314 3545 Box
3314 3585 Box
3314 3572 Box
3314 3569 Box
3314 3587 Box
3340 3608 Box
3340 3625 Box
3340 3567 Box
3340 3602 Box
3340 3600 Box
3365 3641 Box
3365 3610 Box
3365 3627 Box
3365 3626 Box
3365 3646 Box
3391 3640 Box
3391 3635 Box
3391 3639 Box
3391 3607 Box
3391 3646 Box
3416 3671 Box
3416 3658 Box
3416 3656 Box
3416 3666 Box
3416 3677 Box
3442 3679 Box
3442 3692 Box
3442 3671 Box
3442 3658 Box
3442 3668 Box
3467 3685 Box
3467 3700 Box
3467 3671 Box
3467 3698 Box
3467 3702 Box
3493 3715 Box
3493 3759 Box
3493 3729 Box
3493 3755 Box
3493 3690 Box
3518 3721 Box
3518 3753 Box
3518 3732 Box
3518 3743 Box
3518 3726 Box
3544 3690 Box
3544 3759 Box
3544 3751 Box
3544 3750 Box
3544 3763 Box
3569 3783 Box
3569 3750 Box
3569 3762 Box
3569 3768 Box
3569 3768 Box
3595 3805 Box
3595 3823 Box
3595 3796 Box
3595 3809 Box
3595 3796 Box
3621 3808 Box
3621 3798 Box
3621 3812 Box
3621 3814 Box
3621 3736 Box
3646 3821 Box
3646 3811 Box
3646 3822 Box
3646 3826 Box
3646 3826 Box
3672 3855 Box
3672 3812 Box
3672 3837 Box
3672 3837 Box
3672 3840 Box
3697 3860 Box
3697 3888 Box
3697 3875 Box
3697 3873 Box
3697 3857 Box
3723 3894 Box
3723 3871 Box
3723 3864 Box
3723 3870 Box
3723 3868 Box
3748 3891 Box
3748 3925 Box
3748 3916 Box
3748 3912 Box
3748 3914 Box
3774 3907 Box
3774 3909 Box
3774 3910 Box
3774 3931 Box
3774 3897 Box
3799 3938 Box
3799 3962 Box
3799 3936 Box
3799 3940 Box
3799 3961 Box
3825 3946 Box
3825 3991 Box
3825 3970 Box
3825 3921 Box
3825 3935 Box
3850 3980 Box
3850 3952 Box
3850 3969 Box
3850 3996 Box
3850 3986 Box
3876 4012 Box
3876 3971 Box
3876 4008 Box
3876 3969 Box
3876 3978 Box
3901 3993 Box
3901 4007 Box
3901 3969 Box
3901 4012 Box
3901 3964 Box
3927 4045 Box
3927 4037 Box
3927 4009 Box
3927 4035 Box
3927 4040 Box
3952 4068 Box
3952 4037 Box
3952 4065 Box
3952 4060 Box
3952 4027 Box
3978 4086 Box
3978 4087 Box
3978 4071 Box
3978 4061 Box
3978 4067 Box
4003 3696 Box
4003 3704 Box
4003 3745 Box
4003 3669 Box
4003 3710 Box
4029 3709 Box
4029 3713 Box
4029 3736 Box
4029 3725 Box
4029 3725 Box
4054 3724 Box
4054 3748 Box
4054 3757 Box
4054 3741 Box
4054 3698 Box
4080 3726 Box
4080 3738 Box
4080 3714 Box
4080 3737 Box
4080 3764 Box
4105 3738 Box
4105 3773 Box
4105 3763 Box
4105 3756 Box
4105 3758 Box
4131 3794 Box
4131 3770 Box
4131 3775 Box
4131 3732 Box
4131 3779 Box
4156 3777 Box
4156 3784 Box
4156 3777 Box
4156 3797 Box
4156 3790 Box
4182 3765 Box
4182 3795 Box
4182 3783 Box
4182 3800 Box
4182 3791 Box
4207 3803 Box
4207 3820 Box
4207 3826 Box
4207 3836 Box
4207 3822 Box
4233 3833 Box
4233 3826 Box
4233 3831 Box
4233 3756 Box
4233 3840 Box
4258 3819 Box
4258 3858 Box
4258 3836 Box
4258 3837 Box
4258 3831 Box
4284 3842 Box
4284 3874 Box
4284 3861 Box
4284 3818 Box
4284 3838 Box
4309 3847 Box
4309 3865 Box
4309 3848 Box
4309 3870 Box
4309 3836 Box
4335 3895 Box
4335 3859 Box
4335 3891 Box
4335 3867 Box
4335 3896 Box
4360 3908 Box
4360 3914 Box
4360 3912 Box
4360 3917 Box
4360 3892 Box
4386 3931 Box
4386 3911 Box
4386 3901 Box
4386 3933 Box
4386 3907 Box
4411 3935 Box
4411 3926 Box
4411 3935 Box
4411 3925 Box
4411 3931 Box
4437 3947 Box
4437 3937 Box
4437 3896 Box
4437 3942 Box
4437 3928 Box
4462 3951 Box
4462 3946 Box
4462 3972 Box
4462 3960 Box
4462 3955 Box
4488 3971 Box
4488 3972 Box
4488 3959 Box
4488 3991 Box
4488 3978 Box
4513 3987 Box
4513 3980 Box
4513 3947 Box
4513 3977 Box
4513 3997 Box
4539 4004 Box
4539 3975 Box
4539 3980 Box
4539 4019 Box
4539 4025 Box
4565 4051 Box
4565 3999 Box
4565 4019 Box
4565 4015 Box
4565 4025 Box
4590 4055 Box
4590 4042 Box
4590 4030 Box
4590 4011 Box
4590 4035 Box
4616 4039 Box
4616 4029 Box
4616 4057 Box
4616 4037 Box
4616 4070 Box
4641 4022 Box
4641 4055 Box
4641 4051 Box
4641 4056 Box
4641 4071 Box
4667 4060 Box
4667 4085 Box
4667 4089 Box
4667 4083 Box
4667 4081 Box
4692 4085 Box
4692 4107 Box
4692 4130 Box
4692 4090 Box
4692 4100 Box
4718 4100 Box
4718 4110 Box
4718 4071 Box
4718 4099 Box
4718 4082 Box
4743 4093 Box
4743 4116 Box
4743 4123 Box
4743 4124 Box
4743 4126 Box
4769 4128 Box
4769 4138 Box
4769 4125 Box
4769 4135 Box
4769 4137 Box
4794 4166 Box
4794 4128 Box
4794 4166 Box
4794 4146 Box
4794 4090 Box
4820 3838 Box
4820 3852 Box
4820 3819 Box
4820 3781 Box
4820 3813 Box
4845 3837 Box
4845 3854 Box
4845 3845 Box
4845 3819 Box
4845 3845 Box
4871 3852 Box
4871 3834 Box
4871 3845 Box
4871 3861 Box
4871 3859 Box
4896 3869 Box
4896 3867 Box
4896 3883 Box
4896 3873 Box
4896 3845 Box
4922 3890 Box
4922 3869 Box
4922 3885 Box
4922 3881 Box
4922 3883 Box
4947 3907 Box
4947 3886 Box
4947 3900 Box
4947 3844 Box
4947 3887 Box
4973 3886 Box
4973 3914 Box
4973 3900 Box
4973 3906 Box
4973 3892 Box
4998 3930 Box
4998 3907 Box
4998 3888 Box
4998 3911 Box
4998 3910 Box
5024 3915 Box
5024 3926 Box
5024 3934 Box
5024 3910 Box
5024 3903 Box
5049 3924 Box
5049 3929 Box
5049 3953 Box
5049 3933 Box
5049 3939 Box
5075 3928 Box
5075 3931 Box
5075 3960 Box
5075 3945 Box
5075 3963 Box
5100 3967 Box
5100 3970 Box
5100 3951 Box
5100 3960 Box
5100 3929 Box
5126 3975 Box
5126 3974 Box
5126 3988 Box
5126 3971 Box
5126 3982 Box
5151 3981 Box
5151 3993 Box
5151 3984 Box
5151 3967 Box
5151 3981 Box
5177 4006 Box
5177 3984 Box
5177 3978 Box
5177 3997 Box
5177 4011 Box
5202 4034 Box
5202 4012 Box
5202 4003 Box
5202 4015 Box
5202 4014 Box
5228 4020 Box
5228 4012 Box
5228 4005 Box
5228 4033 Box
5228 4029 Box
5253 4047 Box
5253 3999 Box
5253 4033 Box
5253 4047 Box
5253 4028 Box
5279 4070 Box
5279 4050 Box
5279 4046 Box
5279 4059 Box
5279 4035 Box
5304 4044 Box
5304 4064 Box
5304 4058 Box
5304 4064 Box
5304 4052 Box
5330 4063 Box
5330 4072 Box
5330 4062 Box
5330 4074 Box
5330 4060 Box
5355 4099 Box
5355 4071 Box
5355 4103 Box
5355 4085 Box
5355 4088 Box
5381 4101 Box
5381 4116 Box
5381 4086 Box
5381 4086 Box
5381 4088 Box
5406 4096 Box
5406 4113 Box
5406 4108 Box
5406 4094 Box
5406 4084 Box
5432 4127 Box
5432 4085 Box
5432 4106 Box
5432 4128 Box
5432 4122 Box
5458 4125 Box
5458 4129 Box
5458 4120 Box
5458 4124 Box
5458 4141 Box
5483 4142 Box
5483 4155 Box
5483 4131 Box
5483 4161 Box
5483 4108 Box
5509 4176 Box
5509 4130 Box
5509 4166 Box
5509 4167 Box
5509 4162 Box
5534 4173 Box
5534 4135 Box
5534 4180 Box
5534 4167 Box
5534 4178 Box
5560 4152 Box
5560 4181 Box
5560 4187 Box
5560 4168 Box
5560 4188 Box
5585 4175 Box
5585 4208 Box
5585 4201 Box
5585 4176 Box
5585 4202 Box
5611 4221 Box
5611 4191 Box
5611 4203 Box
5611 4216 Box
5611 4226 Box
5636 3951 Box
5636 3935 Box
5636 3935 Box
5636 3893 Box
5636 3949 Box
5662 3949 Box
5662 3955 Box
5662 3955 Box
5662 3941 Box
5662 3949 Box
5687 3952 Box
5687 3958 Box
5687 3936 Box
5687 3938 Box
5687 3959 Box
5713 3957 Box
5713 3934 Box
5713 3925 Box
5713 3971 Box
5713 3942 Box
5738 3952 Box
5738 3980 Box
5738 3953 Box
5738 3969 Box
5738 3987 Box
5764 3989 Box
5764 3964 Box
5764 3969 Box
5764 3977 Box
5764 3963 Box
5789 4013 Box
5789 3990 Box
5789 3961 Box
5789 3992 Box
5789 3996 Box
5815 3998 Box
5815 3985 Box
5815 3991 Box
5815 4010 Box
5815 3978 Box
5840 4004 Box
5840 4002 Box
5840 4012 Box
5840 4011 Box
5840 4018 Box
5866 4009 Box
5866 4027 Box
5866 4009 Box
5866 4032 Box
5866 4004 Box
5891 4041 Box
5891 4046 Box
5891 4023 Box
5891 4036 Box
5891 4024 Box
5917 4022 Box
5917 4031 Box
5917 4043 Box
5917 4021 Box
5917 4033 Box
5942 4059 Box
5942 4048 Box
5942 4045 Box
5942 4053 Box
5942 4026 Box
5968 4056 Box
5968 4012 Box
5968 4029 Box
5968 4042 Box
5968 4049 Box
5993 4065 Box
5993 4059 Box
5993 4071 Box
5993 4063 Box
5993 4077 Box
6019 4072 Box
6019 4079 Box
6019 4037 Box
6019 4088 Box
6019 4090 Box
6044 4085 Box
6044 4106 Box
6044 4090 Box
6044 4095 Box
6044 4064 Box
6070 4089 Box
6070 4102 Box
6070 4088 Box
6070 4097 Box
6070 4109 Box
6095 4108 Box
6095 4120 Box
6095 4116 Box
6095 4114 Box
6095 4119 Box
6121 4116 Box
6121 4122 Box
6121 4119 Box
6121 4132 Box
6121 4124 Box
6146 4117 Box
6146 4144 Box
6146 4132 Box
6146 4114 Box
6146 4140 Box
6172 4129 Box
6172 4140 Box
6172 4129 Box
6172 4159 Box
6172 4120 Box
6197 4152 Box
6197 4139 Box
6197 4147 Box
6197 4104 Box
6197 4137 Box
6223 4153 Box
6223 4155 Box
6223 4165 Box
6223 4171 Box
6223 4161 Box
6248 4181 Box
6248 4162 Box
6248 4151 Box
6248 4168 Box
6248 4168 Box
6274 4173 Box
6274 4164 Box
6274 4177 Box
6274 4189 Box
6274 4195 Box
6299 4175 Box
6299 4200 Box
6299 4171 Box
6299 4169 Box
6299 4197 Box
6325 4224 Box
6325 4228 Box
6325 4181 Box
6325 4201 Box
6325 4214 Box
6350 4205 Box
6350 4219 Box
6350 4201 Box
6350 4229 Box
6350 4189 Box
6376 4237 Box
6376 4189 Box
6376 4230 Box
6376 4202 Box
6376 4215 Box
6402 4237 Box
6402 4217 Box
6402 4225 Box
6402 4250 Box
6402 4235 Box
6427 4233 Box
6427 4256 Box
6427 4223 Box
6427 4254 Box
6427 4242 Box
6453 4015 Box
6453 4006 Box
6453 4000 Box
6453 4013 Box
6453 3981 Box
6478 3988 Box
6478 3999 Box
6478 4020 Box
6478 4002 Box
6478 3994 Box
6504 4020 Box
6504 4030 Box
6504 4016 Box
6504 4017 Box
6504 4004 Box
6529 4032 Box
6529 4018 Box
6529 4022 Box
6529 4030 Box
6529 3996 Box
6555 4033 Box
6555 4026 Box
6555 4038 Box
6555 4050 Box
6555 4031 Box
6580 4052 Box
6580 4037 Box
6580 4060 Box
6580 4042 Box
6580 4026 Box
6606 4057 Box
6606 4061 Box
6606 4046 Box
6606 4055 Box
6606 4058 Box
6631 4048 Box
6631 4072 Box
6631 4063 Box
6631 4032 Box
6631 4052 Box
6657 4077 Box
6657 4071 Box
6657 4056 Box
6657 4059 Box
6657 4071 Box
6682 4085 Box
6682 4073 Box
6682 4073 Box
6682 4061 Box
6682 4078 Box
6708 4101 Box
6708 4084 Box
6708 4089 Box
6708 4095 Box
6708 4091 Box
6733 4096 Box
6733 4105 Box
6733 4116 Box
6733 4108 Box
6733 4108 Box
6759 4094 Box
6759 4105 Box
6759 4116 Box
6759 4107 Box
6759 4109 Box
6784 4115 Box
6784 4109 Box
6784 4118 Box
6784 4117 Box
6784 4113 Box
6810 4128 Box
6810 4125 Box
6810 4128 Box
6810 4117 Box
6810 4128 Box
6835 4131 Box
6835 4120 Box
6835 4138 Box
6835 4132 Box
6835 4129 Box
6861 4143 Box
6861 4142 Box
6861 4145 Box
6861 4146 Box
6861 4134 Box
6886 4144 Box
6886 4141 Box
6886 4143 Box
6886 4148 Box
6886 4159 Box
6912 4165 Box
6912 4173 Box
6912 4158 Box
6912 4154 Box
6912 4181 Box
6937 4167 Box
6937 4185 Box
6937 4167 Box
6937 4154 Box
6937 4184 Box
6963 4172 Box
6963 4162 Box
6963 4168 Box
6963 4152 Box
6963 4175 Box
6988 4170 Box
6988 4185 Box
6988 4166 Box
6988 4162 Box
6988 4188 Box
7014 4194 Box
7014 4191 Box
7014 4203 Box
7014 4191 Box
7014 4198 Box
7039 4205 Box
7039 4212 Box
7039 4206 Box
7039 4218 Box
7039 4198 Box
7065 4209 Box
7065 4209 Box
7065 4216 Box
7065 4212 Box
7065 4200 Box
7090 4211 Box
7090 4228 Box
7090 4205 Box
7090 4227 Box
7090 4231 Box
7116 4242 Box
7116 4230 Box
7116 4218 Box
7116 4229 Box
7116 4230 Box
7141 4269 Box
7141 4244 Box
7141 4239 Box
7141 4229 Box
7141 4235 Box
7167 4250 Box
7167 4249 Box
7167 4268 Box
7167 4232 Box
7167 4265 Box
7192 4253 Box
7192 4241 Box
7192 4243 Box
7192 4263 Box
7192 4260 Box
7218 4270 Box
7218 4227 Box
7218 4277 Box
7218 4261 Box
7218 4277 Box
7243 4278 Box
7243 4286 Box
7243 4280 Box
7243 4281 Box
7243 4275 Box
7269 4058 Box
7269 4072 Box
7269 4052 Box
7269 4054 Box
7269 4076 Box
7295 4066 Box
7295 4071 Box
7295 4066 Box
7295 4058 Box
7295 4061 Box
7320 4057 Box
7320 4072 Box
7320 4084 Box
7320 4071 Box
7320 4062 Box
7346 4090 Box
7346 4087 Box
7346 4080 Box
7346 4084 Box
7346 4079 Box
7371 4099 Box
7371 4078 Box
7371 4078 Box
7371 4071 Box
7371 4094 Box
7397 4082 Box
7397 4099 Box
7397 4091 Box
7397 4074 Box
7397 4101 Box
7422 4112 Box
7422 4107 Box
7422 4102 Box
7422 4116 Box
7422 4104 Box
7448 4113 Box
7448 4111 Box
7448 4112 Box
7448 4115 Box
7448 4104 Box
7473 4134 Box
7473 4111 Box
7473 4132 Box
7473 4116 Box
7473 4112 Box
7499 4139 Box
7499 4133 Box
7499 4133 Box
7499 4130 Box
7499 4135 Box
7524 4137 Box
7524 4134 Box
7524 4136 Box
7524 4146 Box
7524 4114 Box
7550 4143 Box
7550 4143 Box
7550 4150 Box
7550 4150 Box
7550 4136 Box
7575 4151 Box
7575 4157 Box
7575 4133 Box
7575 4143 Box
7575 4149 Box
7601 4159 Box
7601 4143 Box
7601 4165 Box
7601 4147 Box
7601 4160 Box
7626 4132 Box
7626 4175 Box
7626 4168 Box
7626 4166 Box
7626 4180 Box
7652 4181 Box
7652 4184 Box
7652 4177 Box
7652 4174 Box
7652 4176 Box
7677 4189 Box
7677 4177 Box
7677 4180 Box
7677 4198 Box
7677 4185 Box
7703 4166 Box
7703 4195 Box
7703 4189 Box
7703 4197 Box
7703 4199 Box
7728 4202 Box
7728 4191 Box
7728 4196 Box
7728 4199 Box
7728 4178 Box
7754 4198 Box
7754 4198 Box
7754 4199 Box
7754 4205 Box
7754 4205 Box
7779 4206 Box
7779 4218 Box
7779 4220 Box
7779 4221 Box
7779 4200 Box
7805 4219 Box
7805 4228 Box
7805 4218 Box
7805 4211 Box
7805 4218 Box
7830 4220 Box
7830 4209 Box
7830 4240 Box
7830 4226 Box
7830 4237 Box
7856 4239 Box
7856 4245 Box
7856 4236 Box
7856 4244 Box
7856 4233 Box
7881 4238 Box
7881 4250 Box
7881 4245 Box
7881 4256 Box
7881 4256 Box
7907 4260 Box
7907 4257 Box
7907 4267 Box
7907 4256 Box
7907 4235 Box
7932 4268 Box
7932 4258 Box
7932 4256 Box
7932 4274 Box
7932 4260 Box
7958 4272 Box
7958 4256 Box
7958 4247 Box
7958 4278 Box
7958 4267 Box
7983 4277 Box
7983 4275 Box
7983 4261 Box
7983 4256 Box
7983 4279 Box
8009 4285 Box
8009 4290 Box
8009 4282 Box
8009 4282 Box
8009 4276 Box
8034 4295 Box
8034 4302 Box
8034 4294 Box
8034 4299 Box
8034 4300 Box
8060 4305 Box
8060 4310 Box
8060 4310 Box
8060 4312 Box
8060 4308 Box
8085 4101 Box
8085 4088 Box
8085 4113 Box
8085 4098 Box
8085 4100 Box
8111 4130 Box
8111 4121 Box
8111 4124 Box
8111 4102 Box
8111 4118 Box
8136 4108 Box
8136 4128 Box
8136 4120 Box
8136 4112 Box
8136 4131 Box
8162 4122 Box
8162 4117 Box
8162 4113 Box
8162 4105 Box
8162 4117 Box
8187 4131 Box
8187 4137 Box
8187 4127 Box
8187 4132 Box
8187 4131 Box
8213 4137 Box
8213 4147 Box
8213 4121 Box
8213 4137 Box
8213 4128 Box
8239 4147 Box
8239 4145 Box
8239 4137 Box
8239 4145 Box
8239 4153 Box
8264 4132 Box
8264 4166 Box
8264 4156 Box
8264 4141 Box
8264 4135 Box
8290 4164 Box
8290 4160 Box
8290 4166 Box
8290 4160 Box
8290 4158 Box
8315 4169 Box
8315 4168 Box
8315 4160 Box
8315 4177 Box
8315 4174 Box
8341 4178 Box
8341 4161 Box
8341 4171 Box
8341 4186 Box
8341 4162 Box
8366 4175 Box
8366 4184 Box
8366 4171 Box
8366 4176 Box
8366 4185 Box
8392 4189 Box
8392 4187 Box
8392 4183 Box
8392 4183 Box
8392 4192 Box
8417 4184 Box
8417 4192 Box
8417 4202 Box
8417 4190 Box
8417 4190 Box
8443 4208 Box
8443 4200 Box
8443 4184 Box
8443 4214 Box
8443 4205 Box
8468 4217 Box
8468 4207 Box
8468 4200 Box
8468 4219 Box
8468 4220 Box
8494 4218 Box
8494 4223 Box
8494 4198 Box
8494 4213 Box
8494 4219 Box
8519 4219 Box
8519 4213 Box
8519 4222 Box
8519 4234 Box
8519 4225 Box
8545 4232 Box
8545 4229 Box
8545 4228 Box
8545 4199 Box
8545 4234 Box
8570 4247 Box
8570 4226 Box
8570 4240 Box
8570 4217 Box
8570 4243 Box
8596 4242 Box
8596 4242 Box
8596 4237 Box
8596 4249 Box
8596 4250 Box
8621 4231 Box
8621 4243 Box
8621 4256 Box
8621 4245 Box
8621 4245 Box
8647 4234 Box
8647 4249 Box
8647 4254 Box
8647 4244 Box
8647 4254 Box
8672 4277 Box
8672 4263 Box
8672 4265 Box
8672 4265 Box
8672 4270 Box
8698 4263 Box
8698 4271 Box
8698 4247 Box
8698 4265 Box
8698 4266 Box
8723 4256 Box
8723 4284 Box
8723 4283 Box
8723 4280 Box
8723 4286 Box
8749 4279 Box
8749 4283 Box
8749 4288 Box
8749 4301 Box
8749 4282 Box
8774 4292 Box
8774 4284 Box
8774 4294 Box
8774 4298 Box
8774 4285 Box
8800 4302 Box
8800 4308 Box
8800 4305 Box
8800 4285 Box
8800 4297 Box
8825 4316 Box
8825 4304 Box
8825 4316 Box
8825 4299 Box
8825 4302 Box
8851 4308 Box
8851 4314 Box
8851 4331 Box
8851 4287 Box
8851 4318 Box
8876 4303 Box
8876 4327 Box
8876 4325 Box
8876 4317 Box
8876 4314 Box
8902 4160 Box
8902 4131 Box
8902 4135 Box
8902 4158 Box
8902 4154 Box
8927 4153 Box
8927 4150 Box
8927 4138 Box
8927 4146 Box
8927 4136 Box
8953 4153 Box
8953 4161 Box
8953 4161 Box
8953 4163 Box
8953 4148 Box
8978 4169 Box
8978 4161 Box
8978 4168 Box
8978 4161 Box
8978 4150 Box
9004 4159 Box
9004 4167 Box
9004 4153 Box
9004 4167 Box
9004 4146 Box
9029 4180 Box
9029 4178 Box
9029 4162 Box
9029 4183 Box
9029 4186 Box
9055 4174 Box
9055 4167 Box
9055 4184 Box
9055 4180 Box
9055 4178 Box
9080 4179 Box
9080 4156 Box
9080 4190 Box
9080 4178 Box
9080 4183 Box
9106 4188 Box
9106 4183 Box
9106 4190 Box
9106 4191 Box
9106 4182 Box
9131 4200 Box
9131 4199 Box
9131 4207 Box
9131 4202 Box
9131 4195 Box
9157 4193 Box
9157 4201 Box
9157 4215 Box
9157 4205 Box
9157 4209 Box
9183 4208 Box
9183 4215 Box
9183 4221 Box
9183 4207 Box
9183 4204 Box
9208 4214 Box
9208 4220 Box
9208 4219 Box
9208 4199 Box
9208 4202 Box
9234 4206 Box
9234 4208 Box
9234 4227 Box
9234 4222 Box
9234 4219 Box
9259 4225 Box
9259 4229 Box
9259 4224 Box
9259 4231 Box
9259 4226 Box
9285 4241 Box
9285 4232 Box
9285 4237 Box
9285 4235 Box
9285 4223 Box
9310 4246 Box
9310 4241 Box
9310 4234 Box
9310 4249 Box
9310 4239 Box
9336 4246 Box
9336 4242 Box
9336 4264 Box
9336 4256 Box
9336 4250 Box
9361 4259 Box
9361 4251 Box
9361 4256 Box
9361 4235 Box
9361 4262 Box
9387 4257 Box
9387 4265 Box
9387 4261 Box
9387 4263 Box
9387 4247 Box
9412 4264 Box
9412 4279 Box
9412 4263 Box
9412 4280 Box
9412 4255 Box
9438 4273 Box
9438 4276 Box
9438 4247 Box
9438 4265 Box
9438 4263 Box
9463 4277 Box
9463 4279 Box
9463 4284 Box
9463 4283 Box
9463 4269 Box
9489 4275 Box
9489 4286 Box
9489 4291 Box
9489 4290 Box
9489 4277 Box
9514 4298 Box
9514 4306 Box
9514 4257 Box
9514 4272 Box
9514 4282 Box
9540 4281 Box
9540 4303 Box
9540 4294 Box
9540 4300 Box
9540 4298 Box
9565 4309 Box
9565 4311 Box
9565 4302 Box
9565 4297 Box
9565 4305 Box
9591 4313 Box
9591 4306 Box
9591 4288 Box
9591 4307 Box
9591 4315 Box
9616 4319 Box
9616 4312 Box
9616 4315 Box
9616 4330 Box
9616 4323 Box
9642 4316 Box
9642 4324 Box
9642 4326 Box
9642 4325 Box
9642 4298 Box
9667 4329 Box
9667 4319 Box
9667 4324 Box
9667 4324 Box
9667 4306 Box
9693 4345 Box
9693 4340 Box
9693 4322 Box
9693 4347 Box
9693 4293 Box
9718 4171 Box
9718 4166 Box
9718 4173 Box
9718 4181 Box
9718 4180 Box
9744 4169 Box
9744 4188 Box
9744 4158 Box
9744 4176 Box
9744 4169 Box
9769 4164 Box
9769 4172 Box
9769 4177 Box
9769 4172 Box
9769 4185 Box
9795 4188 Box
9795 4193 Box
9795 4179 Box
9795 4188 Box
9795 4194 Box
9820 4194 Box
9820 4177 Box
9820 4196 Box
9820 4196 Box
9820 4201 Box
9846 4198 Box
9846 4193 Box
9846 4213 Box
9846 4193 Box
9846 4195 Box
9871 4199 Box
9871 4204 Box
9871 4199 Box
9871 4195 Box
9871 4193 Box
9897 4212 Box
9897 4221 Box
9897 4215 Box
9897 4209 Box
9897 4207 Box
9922 4222 Box
9922 4217 Box
9922 4207 Box
9922 4213 Box
9922 4208 Box
9948 4224 Box
9948 4214 Box
9948 4226 Box
9948 4230 Box
9948 4232 Box
9973 4225 Box
9973 4233 Box
9973 4220 Box
9973 4223 Box
9973 4233 Box
9999 4236 Box
9999 4230 Box
9999 4220 Box
9999 4231 Box
9999 4244 Box
10024 4235 Box
10024 4236 Box
10024 4229 Box
10024 4241 Box
10024 4235 Box
10050 4242 Box
10050 4241 Box
10050 4250 Box
10050 4245 Box
10050 4236 Box
10076 4261 Box
10076 4243 Box
10076 4235 Box
10076 4251 Box
10076 4252 Box
10101 4254 Box
10101 4253 Box
10101 4267 Box
10101 4237 Box
10101 4258 Box
10127 4248 Box
10127 4260 Box
10127 4261 Box
10127 4265 Box
10127 4257 Box
10152 4273 Box
10152 4271 Box
10152 4259 Box
10152 4266 Box
10152 4275 Box
10178 4274 Box
10178 4263 Box
10178 4278 Box
10178 4258 Box
10178 4275 Box
10203 4271 Box
10203 4277 Box
10203 4283 Box
10203 4271 Box
10203 4261 Box
10229 4276 Box
10229 4287 Box
10229 4295 Box
10229 4282 Box
10229 4283 Box
10254 4291 Box
10254 4292 Box
10254 4297 Box
10254 4282 Box
10254 4293 Box
10280 4302 Box
10280 4303 Box
10280 4299 Box
10280 4303 Box
10280 4299 Box
10305 4286 Box
10305 4312 Box
10305 4311 Box
10305 4298 Box
10305 4301 Box
10331 4307 Box
10331 4301 Box
10331 4294 Box
10331 4307 Box
10331 4312 Box
10356 4307 Box
10356 4318 Box
10356 4306 Box
10356 4305 Box
10356 4317 Box
10382 4309 Box
10382 4320 Box
10382 4312 Box
10382 4314 Box
10382 4326 Box
10407 4329 Box
10407 4325 Box
10407 4323 Box
10407 4323 Box
10407 4327 Box
10433 4338 Box
10433 4326 Box
10433 4334 Box
10433 4325 Box
10433 4326 Box
10458 4345 Box
10458 4328 Box
10458 4335 Box
10458 4338 Box
10458 4331 Box
10484 4351 Box
10484 4338 Box
10484 4348 Box
10484 4352 Box
10484 4334 Box
10509 4356 Box
10509 4350 Box
10509 4339 Box
10509 4352 Box
10509 4357 Box
10535 4184 Box
10535 4204 Box
10535 4199 Box
10535 4192 Box
10535 4195 Box
10560 4194 Box
10560 4197 Box
10560 4202 Box
10560 4207 Box
10560 4203 Box
10586 4199 Box
10586 4206 Box
10586 4204 Box
10586 4208 Box
10586 4206 Box
10611 4213 Box
10611 4206 Box
10611 4207 Box
10611 4206 Box
10611 4204 Box
10637 4220 Box
10637 4221 Box
10637 4220 Box
10637 4220 Box
10637 4220 Box
10662 4227 Box
10662 4224 Box
10662 4221 Box
10662 4228 Box
10662 4224 Box
10688 4235 Box
10688 4222 Box
10688 4228 Box
10688 4235 Box
10688 4221 Box
10713 4233 Box
10713 4219 Box
10713 4232 Box
10713 4232 Box
10713 4227 Box
10739 4243 Box
10739 4239 Box
10739 4232 Box
10739 4233 Box
10739 4246 Box
10764 4239 Box
10764 4247 Box
10764 4235 Box
10764 4241 Box
10764 4249 Box
10790 4249 Box
10790 4251 Box
10790 4251 Box
10790 4250 Box
10790 4256 Box
10815 4257 Box
10815 4254 Box
10815 4256 Box
10815 4251 Box
10815 4257 Box
10841 4265 Box
10841 4263 Box
10841 4263 Box
10841 4252 Box
10841 4253 Box
10866 4274 Box
10866 4264 Box
10866 4260 Box
10866 4267 Box
10866 4263 Box
10892 4273 Box
10892 4247 Box
10892 4245 Box
10892 4263 Box
10892 4272 Box
10917 4279 Box
10917 4274 Box
10917 4271 Box
10917 4275 Box
10917 4273 Box
10943 4281 Box
10943 4275 Box
10943 4281 Box
10943 4283 Box
10943 4284 Box
10968 4286 Box
10968 4277 Box
10968 4294 Box
10968 4288 Box
10968 4275 Box
10994 4272 Box
10994 4300 Box
10994 4300 Box
10994 4293 Box
10994 4302 Box
11020 4281 Box
11020 4296 Box
11020 4298 Box
11020 4295 Box
11020 4293 Box
11045 4301 Box
11045 4296 Box
11045 4306 Box
11045 4306 Box
11045 4287 Box
11071 4303 Box
11071 4301 Box
11071 4303 Box
11071 4315 Box
11071 4294 Box
11096 4296 Box
11096 4313 Box
11096 4316 Box
11096 4304 Box
11096 4316 Box
11122 4314 Box
11122 4323 Box
11122 4316 Box
11122 4307 Box
11122 4317 Box
11147 4323 Box
11147 4312 Box
11147 4325 Box
11147 4326 Box
11147 4328 Box
11173 4327 Box
11173 4331 Box
11173 4313 Box
11173 4323 Box
11173 4327 Box
11198 4341 Box
11198 4338 Box
11198 4338 Box
11198 4339 Box
11198 4338 Box
11224 4334 Box
11224 4338 Box
11224 4347 Box
11224 4339 Box
11224 4336 Box
11249 4347 Box
11249 4336 Box
11249 4348 Box
11249 4345 Box
11249 4340 Box
11275 4350 Box
11275 4350 Box
11275 4346 Box
11275 4352 Box
11275 4345 Box
11300 4355 Box
11300 4365 Box
11300 4339 Box
11300 4352 Box
11300 4359 Box
11326 4353 Box
11326 4336 Box
11326 4359 Box
11326 4356 Box
11326 4348 Box
11351 4221 Box
11351 4211 Box
11351 4222 Box
11351 4223 Box
11351 4212 Box
11377 4229 Box
11377 4225 Box
11377 4225 Box
11377 4219 Box
11377 4220 Box
11402 4230 Box
11402 4221 Box
11402 4235 Box
11402 4227 Box
11402 4248 Box
11428 4233 Box
11428 4235 Box
11428 4226 Box
11428 4229 Box
11428 4237 Box
11453 4214 Box
11453 4243 Box
11453 4248 Box
11453 4228 Box
11453 4237 Box
11479 4240 Box
11479 4241 Box
11479 4246 Box
11479 4249 Box
11479 4243 Box
11504 4242 Box
11504 4241 Box
11504 4248 Box
11504 4251 Box
11504 4240 Box
11530 4240 Box
11530 4253 Box
11530 4252 Box
11530 4247 Box
11530 4258 Box
11555 4258 Box
11555 4265 Box
11555 4241 Box
11555 4252 Box
11555 4251 Box
11581 4256 Box
11581 4260 Box
11581 4262 Box
11581 4265 Box
11581 4248 Box
11606 4265 Box
11606 4267 Box
11606 4274 Box
11606 4265 Box
11606 4275 Box
11632 4252 Box
11632 4276 Box
11632 4267 Box
11632 4273 Box
11632 4262 Box
11657 4276 Box
11657 4270 Box
11657 4281 Box
11657 4275 Box
11657 4255 Box
11683 4269 Box
11683 4280 Box
11683 4283 Box
11683 4279 Box
11683 4278 Box
11708 4280 Box
11708 4294 Box
11708 4272 Box
11708 4273 Box
11708 4292 Box
11734 4295 Box
11734 4294 Box
11734 4283 Box
11734 4278 Box
11734 4292 Box
11759 4286 Box
11759 4304 Box
11759 4300 Box
11759 4303 Box
11759 4294 Box
11785 4302 Box
11785 4296 Box
11785 4305 Box
11785 4304 Box
11785 4300 Box
11810 4294 Box
11810 4304 Box
11810 4314 Box
11810 4301 Box
11810 4311 Box
11836 4309 Box
11836 4312 Box
11836 4318 Box
11836 4310 Box
11836 4314 Box
11861 4324 Box
11861 4322 Box
11861 4314 Box
11861 4309 Box
11861 4320 Box
11887 4314 Box
11887 4316 Box
11887 4317 Box
11887 4315 Box
11887 4330 Box
11912 4326 Box
11912 4337 Box
11912 4318 Box
11912 4324 Box
11912 4323 Box
11938 4323 Box
11938 4320 Box
11938 4337 Box
11938 4328 Box
11938 4335 Box
11964 4332 Box
11964 4334 Box
11964 4329 Box
11964 4340 Box
11964 4336 Box
11989 4340 Box
11989 4345 Box
11989 4336 Box
11989 4343 Box
11989 4339 Box
12015 4344 Box
12015 4337 Box
12015 4340 Box
12015 4343 Box
12015 4346 Box
12040 4353 Box
12040 4350 Box
12040 4355 Box
12040 4341 Box
12040 4343 Box
12066 4348 Box
12066 4362 Box
12066 4356 Box
12066 4347 Box
12066 4354 Box
12091 4372 Box
12091 4358 Box
12091 4366 Box
12091 4359 Box
12091 4345 Box
12117 4349 Box
12117 4373 Box
12117 4354 Box
12117 4364 Box
12117 4367 Box
12142 4363 Box
12142 4374 Box
12142 4368 Box
12142 4365 Box
12142 4362 Box
12168 4230 Box
12168 4244 Box
12168 4237 Box
12168 4230 Box
12168 4230 Box
12193 4233 Box
12193 4241 Box
12193 4246 Box
12193 4247 Box
12193 4253 Box
12219 4250 Box
12219 4250 Box
12219 4247 Box
12219 4235 Box
12219 4245 Box
12244 4252 Box
12244 4245 Box
12244 4246 Box
12244 4249 Box
12244 4251 Box
12270 4246 Box
12270 4249 Box
12270 4260 Box
12270 4256 Box
12270 4256 Box
12295 4252 Box
12295 4259 Box
12295 4258 Box
12295 4256 Box
12295 4268 Box
12321 4241 Box
12321 4256 Box
12321 4257 Box
12321 4261 Box
12321 4261 Box
12346 4269 Box
12346 4257 Box
12346 4278 Box
12346 4283 Box
12346 4263 Box
12372 4278 Box
12372 4275 Box
12372 4273 Box
12372 4276 Box
12372 4275 Box
12397 4284 Box
12397 4285 Box
12397 4274 Box
12397 4278 Box
12397 4273 Box
12423 4278 Box
12423 4273 Box
12423 4279 Box
12423 4285 Box
12423 4286 Box
12448 4276 Box
12448 4284 Box
12448 4288 Box
12448 4291 Box
12448 4289 Box
12474 4289 Box
12474 4295 Box
12474 4294 Box
12474 4296 Box
12474 4281 Box
12499 4295 Box
12499 4303 Box
12499 4294 Box
12499 4301 Box
12499 4299 Box
12525 4301 Box
12525 4306 Box
12525 4301 Box
12525 4301 Box
12525 4303 Box
12550 4311 Box
12550 4303 Box
12550 4303 Box
12550 4281 Box
12550 4305 Box
12576 4309 Box
12576 4308 Box
12576 4312 Box
12576 4296 Box
12576 4277 Box
12601 4308 Box
12601 4312 Box
12601 4304 Box
12601 4311 Box
12601 4317 Box
12627 4317 Box
12627 4318 Box
12627 4315 Box
12627 4317 Box
12627 4327 Box
12652 4319 Box
12652 4322 Box
12652 4325 Box
12652 4316 Box
12652 4315 Box
12678 4326 Box
12678 4319 Box
12678 4327 Box
12678 4314 Box
12678 4323 Box
12703 4332 Box
12703 4342 Box
12703 4328 Box
12703 4339 Box
12703 4319 Box
12729 4335 Box
12729 4341 Box
12729 4331 Box
12729 4341 Box
12729 4336 Box
12754 4347 Box
12754 4344 Box
12754 4337 Box
12754 4340 Box
12754 4343 Box
12780 4339 Box
12780 4351 Box
12780 4349 Box
12780 4353 Box
12780 4344 Box
12805 4352 Box
12805 4354 Box
12805 4343 Box
12805 4352 Box
12805 4357 Box
12831 4363 Box
12831 4354 Box
12831 4346 Box
12831 4354 Box
12831 4348 Box
12857 4354 Box
12857 4364 Box
12857 4363 Box
12857 4364 Box
12857 4361 Box
12882 4369 Box
12882 4358 Box
12882 4364 Box
12882 4362 Box
12882 4367 Box
12908 4362 Box
12908 4363 Box
12908 4376 Box
12908 4371 Box
12908 4370 Box
12933 4379 Box
12933 4378 Box
12933 4386 Box
12933 4366 Box
12933 4361 Box
12959 4362 Box
12959 4377 Box
12959 4383 Box
12959 4378 Box
12959 4376 Box
12984 4250 Box
12984 4258 Box
12984 4262 Box
12984 4249 Box
12984 4257 Box
13010 4246 Box
13010 4256 Box
13010 4250 Box
13010 4252 Box
13010 4273 Box
13035 4255 Box
13035 4277 Box
13035 4270 Box
13035 4264 Box
13035 4243 Box
13061 4268 Box
13061 4269 Box
13061 4273 Box
13061 4275 Box
13061 4265 Box
13086 4273 Box
13086 4273 Box
13086 4271 Box
13086 4269 Box
13086 4279 Box
13112 4268 Box
13112 4271 Box
13112 4279 Box
13112 4273 Box
13112 4276 Box
13137 4261 Box
13137 4275 Box
13137 4275 Box
13137 4271 Box
13137 4283 Box
13163 4289 Box
13163 4280 Box
13163 4274 Box
13163 4285 Box
13163 4282 Box
13188 4285 Box
13188 4290 Box
13188 4282 Box
13188 4290 Box
13188 4291 Box
13214 4283 Box
13214 4297 Box
13214 4292 Box
13214 4287 Box
13214 4295 Box
13239 4300 Box
13239 4297 Box
13239 4293 Box
13239 4295 Box
13239 4296 Box
13265 4302 Box
13265 4290 Box
13265 4298 Box
13265 4296 Box
13265 4295 Box
13290 4298 Box
13290 4305 Box
13290 4301 Box
13290 4306 Box
13290 4312 Box
13316 4312 Box
13316 4307 Box
13316 4307 Box
13316 4307 Box
13316 4304 Box
13341 4306 Box
13341 4317 Box
13341 4316 Box
13341 4315 Box
13341 4306 Box
13367 4316 Box
13367 4317 Box
13367 4316 Box
13367 4312 Box
13367 4310 Box
13392 4318 Box
13392 4326 Box
13392 4315 Box
13392 4322 Box
13392 4320 Box
13418 4325 Box
13418 4323 Box
13418 4325 Box
13418 4322 Box
13418 4330 Box
13443 4331 Box
13443 4328 Box
13443 4323 Box
13443 4329 Box
13443 4328 Box
13469 4327 Box
13469 4331 Box
13469 4333 Box
13469 4330 Box
13469 4332 Box
13494 4334 Box
13494 4331 Box
13494 4330 Box
13494 4338 Box
13494 4341 Box
13520 4343 Box
13520 4340 Box
13520 4342 Box
13520 4339 Box
13520 4338 Box
13545 4347 Box
13545 4336 Box
13545 4346 Box
13545 4344 Box
13545 4345 Box
13571 4334 Box
13571 4348 Box
13571 4347 Box
13571 4343 Box
13571 4357 Box
13596 4362 Box
13596 4355 Box
13596 4355 Box
13596 4349 Box
13596 4360 Box
13622 4361 Box
13622 4352 Box
13622 4364 Box
13622 4355 Box
13622 4357 Box
13647 4364 Box
13647 4369 Box
13647 4363 Box
13647 4360 Box
13647 4360 Box
13673 4365 Box
13673 4374 Box
13673 4364 Box
13673 4366 Box
13673 4366 Box
13698 4363 Box
13698 4379 Box
13698 4375 Box
13698 4374 Box
13698 4370 Box
13724 4374 Box
13724 4376 Box
13724 4377 Box
13724 4375 Box
13724 4382 Box
13749 4379 Box
13749 4381 Box
13749 4376 Box
13749 4373 Box
13749 4380 Box
13775 4385 Box
13775 4389 Box
13775 4377 Box
13775 4393 Box
13775 4388 Box
2.000 UL
LT0
LC0 setrgbcolor
0.50 0.50 0.50 C 814 1176 M
131 606 V
131 606 V
131 606 V
131 606 V
131 606 V
1600 2758 L
130 303 V
131 303 V
131 303 V
131 303 V
131 303 V
131 -988 V
131 202 V
131 202 V
131 202 V
131 202 V
131 202 V
131 -746 V
130 151 V
131 152 V
131 151 V
131 152 V
131 151 V
131 152 V
131 -630 V
131 121 V
131 122 V
131 121 V
131 121 V
131 121 V
130 -521 V
131 101 V
131 101 V
131 101 V
131 101 V
131 101 V
131 -444 V
131 87 V
131 86 V
131 87 V
131 87 V
131 86 V
131 -387 V
130 76 V
131 75 V
131 76 V
131 76 V
131 76 V
131 75 V
131 -351 V
131 67 V
131 67 V
131 68 V
131 67 V
131 67 V
130 -315 V
131 61 V
131 61 V
131 60 V
131 61 V
131 60 V
131 -285 V
131 55 V
131 55 V
131 55 V
131 56 V
131 55 V
131 -261 V
130 50 V
131 51 V
131 50 V
131 51 V
131 50 V
131 51 V
131 -244 V
131 47 V
131 46 V
131 47 V
131 47 V
131 46 V
130 -225 V
131 43 V
131 43 V
131 43 V
131 44 V
131 43 V
131 -210 V
131 40 V
131 41 V
131 40 V
131 40 V
131 41 V
130 -196 V
131 37 V
131 38 V
131 38 V
131 38 V
131 38 V
131 38 V
stroke
LT1
LC1 setrgbcolor
0.50 0.50 0.50 C 814 4483 M
131 0 V
131 0 V
131 0 V
131 0 V
131 0 V
131 0 V
130 0 V
131 0 V
131 0 V
131 0 V
131 0 V
131 0 V
131 0 V
131 0 V
131 0 V
131 0 V
131 0 V
131 0 V
130 0 V
131 0 V
131 0 V
131 0 V
131 0 V
131 0 V
131 0 V
131 0 V
131 0 V
131 0 V
131 0 V
131 0 V
130 0 V
131 0 V
131 0 V
131 0 V
131 0 V
131 0 V
131 0 V
131 0 V
131 0 V
131 0 V
131 0 V
131 0 V
131 0 V
130 0 V
131 0 V
131 0 V
131 0 V
131 0 V
131 0 V
131 0 V
131 0 V
131 0 V
131 0 V
131 0 V
131 0 V
130 0 V
131 0 V
131 0 V
131 0 V
131 0 V
131 0 V
131 0 V
131 0 V
131 0 V
131 0 V
131 0 V
131 0 V
131 0 V
130 0 V
131 0 V
131 0 V
131 0 V
131 0 V
131 0 V
131 0 V
131 0 V
131 0 V
131 0 V
131 0 V
131 0 V
130 0 V
131 0 V
131 0 V
131 0 V
131 0 V
131 0 V
131 0 V
131 0 V
131 0 V
131 0 V
131 0 V
131 0 V
130 0 V
131 0 V
131 0 V
131 0 V
131 0 V
131 0 V
131 0 V
stroke
1.000 UL
LTb
LCb setrgbcolor
814 4837 N
814 704 L
12961 0 V
0 4133 V
814 4837 L
Z stroke
1.000 UP
1.000 UL
LTb
stroke
grestore
end
showpage
%%Trailer
