%!PS-Adobe-2.0 EPSF-2.0
%%Title: /home/yummiii/Masterarbeit/Thesis/document/bilder/speedupNormalStates_q.tex
%%Creator: gnuplot 4.6 patchlevel 5
%%CreationDate: Tue Jan  5 11:02:34 2016
%%DocumentFonts: 
%%BoundingBox: 50 50 758 305
%%EndComments
%%BeginProlog
/gnudict 256 dict def
gnudict begin
%
% The following true/false flags may be edited by hand if desired.
% The unit line width and grayscale image gamma correction may also be changed.
%
/Color true def
/Blacktext true def
/Solid false def
/Dashlength 1 def
/Landscape false def
/Level1 false def
/Rounded false def
/ClipToBoundingBox false def
/SuppressPDFMark false def
/TransparentPatterns false def
/gnulinewidth 5.000 def
/userlinewidth gnulinewidth def
/Gamma 1.0 def
/BackgroundColor {-1.000 -1.000 -1.000} def
%
/vshift -73 def
/dl1 {
  10.0 Dashlength mul mul
  Rounded { currentlinewidth 0.75 mul sub dup 0 le { pop 0.01 } if } if
} def
/dl2 {
  10.0 Dashlength mul mul
  Rounded { currentlinewidth 0.75 mul add } if
} def
/hpt_ 31.5 def
/vpt_ 31.5 def
/hpt hpt_ def
/vpt vpt_ def
/doclip {
  ClipToBoundingBox {
    newpath 50 50 moveto 758 50 lineto 758 305 lineto 50 305 lineto closepath
    clip
  } if
} def
%
% Gnuplot Prolog Version 4.6 (September 2012)
%
%/SuppressPDFMark true def
%
/M {moveto} bind def
/L {lineto} bind def
/R {rmoveto} bind def
/V {rlineto} bind def
/N {newpath moveto} bind def
/Z {closepath} bind def
/C {setrgbcolor} bind def
/f {rlineto fill} bind def
/g {setgray} bind def
/Gshow {show} def   % May be redefined later in the file to support UTF-8
/vpt2 vpt 2 mul def
/hpt2 hpt 2 mul def
/Lshow {currentpoint stroke M 0 vshift R 
	Blacktext {gsave 0 setgray show grestore} {show} ifelse} def
/Rshow {currentpoint stroke M dup stringwidth pop neg vshift R
	Blacktext {gsave 0 setgray show grestore} {show} ifelse} def
/Cshow {currentpoint stroke M dup stringwidth pop -2 div vshift R 
	Blacktext {gsave 0 setgray show grestore} {show} ifelse} def
/UP {dup vpt_ mul /vpt exch def hpt_ mul /hpt exch def
  /hpt2 hpt 2 mul def /vpt2 vpt 2 mul def} def
/DL {Color {setrgbcolor Solid {pop []} if 0 setdash}
 {pop pop pop 0 setgray Solid {pop []} if 0 setdash} ifelse} def
/BL {stroke userlinewidth 2 mul setlinewidth
	Rounded {1 setlinejoin 1 setlinecap} if} def
/AL {stroke userlinewidth 2 div setlinewidth
	Rounded {1 setlinejoin 1 setlinecap} if} def
/UL {dup gnulinewidth mul /userlinewidth exch def
	dup 1 lt {pop 1} if 10 mul /udl exch def} def
/PL {stroke userlinewidth setlinewidth
	Rounded {1 setlinejoin 1 setlinecap} if} def
3.8 setmiterlimit
% Default Line colors
/LCw {1 1 1} def
/LCb {0 0 0} def
/LCa {0 0 0} def
/LC0 {1 0 0} def
/LC1 {0 1 0} def
/LC2 {0 0 1} def
/LC3 {1 0 1} def
/LC4 {0 1 1} def
/LC5 {1 1 0} def
/LC6 {0 0 0} def
/LC7 {1 0.3 0} def
/LC8 {0.5 0.5 0.5} def
% Default Line Types
/LTw {PL [] 1 setgray} def
/LTb {BL [] LCb DL} def
/LTa {AL [1 udl mul 2 udl mul] 0 setdash LCa setrgbcolor} def
/LT0 {PL [] LC0 DL} def
/LT1 {PL [4 dl1 2 dl2] LC1 DL} def
/LT2 {PL [2 dl1 3 dl2] LC2 DL} def
/LT3 {PL [1 dl1 1.5 dl2] LC3 DL} def
/LT4 {PL [6 dl1 2 dl2 1 dl1 2 dl2] LC4 DL} def
/LT5 {PL [3 dl1 3 dl2 1 dl1 3 dl2] LC5 DL} def
/LT6 {PL [2 dl1 2 dl2 2 dl1 6 dl2] LC6 DL} def
/LT7 {PL [1 dl1 2 dl2 6 dl1 2 dl2 1 dl1 2 dl2] LC7 DL} def
/LT8 {PL [2 dl1 2 dl2 2 dl1 2 dl2 2 dl1 2 dl2 2 dl1 4 dl2] LC8 DL} def
/Pnt {stroke [] 0 setdash gsave 1 setlinecap M 0 0 V stroke grestore} def
/Dia {stroke [] 0 setdash 2 copy vpt add M
  hpt neg vpt neg V hpt vpt neg V
  hpt vpt V hpt neg vpt V closepath stroke
  Pnt} def
/Pls {stroke [] 0 setdash vpt sub M 0 vpt2 V
  currentpoint stroke M
  hpt neg vpt neg R hpt2 0 V stroke
 } def
/Box {stroke [] 0 setdash 2 copy exch hpt sub exch vpt add M
  0 vpt2 neg V hpt2 0 V 0 vpt2 V
  hpt2 neg 0 V closepath stroke
  Pnt} def
/Crs {stroke [] 0 setdash exch hpt sub exch vpt add M
  hpt2 vpt2 neg V currentpoint stroke M
  hpt2 neg 0 R hpt2 vpt2 V stroke} def
/TriU {stroke [] 0 setdash 2 copy vpt 1.12 mul add M
  hpt neg vpt -1.62 mul V
  hpt 2 mul 0 V
  hpt neg vpt 1.62 mul V closepath stroke
  Pnt} def
/Star {2 copy Pls Crs} def
/BoxF {stroke [] 0 setdash exch hpt sub exch vpt add M
  0 vpt2 neg V hpt2 0 V 0 vpt2 V
  hpt2 neg 0 V closepath fill} def
/TriUF {stroke [] 0 setdash vpt 1.12 mul add M
  hpt neg vpt -1.62 mul V
  hpt 2 mul 0 V
  hpt neg vpt 1.62 mul V closepath fill} def
/TriD {stroke [] 0 setdash 2 copy vpt 1.12 mul sub M
  hpt neg vpt 1.62 mul V
  hpt 2 mul 0 V
  hpt neg vpt -1.62 mul V closepath stroke
  Pnt} def
/TriDF {stroke [] 0 setdash vpt 1.12 mul sub M
  hpt neg vpt 1.62 mul V
  hpt 2 mul 0 V
  hpt neg vpt -1.62 mul V closepath fill} def
/DiaF {stroke [] 0 setdash vpt add M
  hpt neg vpt neg V hpt vpt neg V
  hpt vpt V hpt neg vpt V closepath fill} def
/Pent {stroke [] 0 setdash 2 copy gsave
  translate 0 hpt M 4 {72 rotate 0 hpt L} repeat
  closepath stroke grestore Pnt} def
/PentF {stroke [] 0 setdash gsave
  translate 0 hpt M 4 {72 rotate 0 hpt L} repeat
  closepath fill grestore} def
/Circle {stroke [] 0 setdash 2 copy
  hpt 0 360 arc stroke Pnt} def
/CircleF {stroke [] 0 setdash hpt 0 360 arc fill} def
/C0 {BL [] 0 setdash 2 copy moveto vpt 90 450 arc} bind def
/C1 {BL [] 0 setdash 2 copy moveto
	2 copy vpt 0 90 arc closepath fill
	vpt 0 360 arc closepath} bind def
/C2 {BL [] 0 setdash 2 copy moveto
	2 copy vpt 90 180 arc closepath fill
	vpt 0 360 arc closepath} bind def
/C3 {BL [] 0 setdash 2 copy moveto
	2 copy vpt 0 180 arc closepath fill
	vpt 0 360 arc closepath} bind def
/C4 {BL [] 0 setdash 2 copy moveto
	2 copy vpt 180 270 arc closepath fill
	vpt 0 360 arc closepath} bind def
/C5 {BL [] 0 setdash 2 copy moveto
	2 copy vpt 0 90 arc
	2 copy moveto
	2 copy vpt 180 270 arc closepath fill
	vpt 0 360 arc} bind def
/C6 {BL [] 0 setdash 2 copy moveto
	2 copy vpt 90 270 arc closepath fill
	vpt 0 360 arc closepath} bind def
/C7 {BL [] 0 setdash 2 copy moveto
	2 copy vpt 0 270 arc closepath fill
	vpt 0 360 arc closepath} bind def
/C8 {BL [] 0 setdash 2 copy moveto
	2 copy vpt 270 360 arc closepath fill
	vpt 0 360 arc closepath} bind def
/C9 {BL [] 0 setdash 2 copy moveto
	2 copy vpt 270 450 arc closepath fill
	vpt 0 360 arc closepath} bind def
/C10 {BL [] 0 setdash 2 copy 2 copy moveto vpt 270 360 arc closepath fill
	2 copy moveto
	2 copy vpt 90 180 arc closepath fill
	vpt 0 360 arc closepath} bind def
/C11 {BL [] 0 setdash 2 copy moveto
	2 copy vpt 0 180 arc closepath fill
	2 copy moveto
	2 copy vpt 270 360 arc closepath fill
	vpt 0 360 arc closepath} bind def
/C12 {BL [] 0 setdash 2 copy moveto
	2 copy vpt 180 360 arc closepath fill
	vpt 0 360 arc closepath} bind def
/C13 {BL [] 0 setdash 2 copy moveto
	2 copy vpt 0 90 arc closepath fill
	2 copy moveto
	2 copy vpt 180 360 arc closepath fill
	vpt 0 360 arc closepath} bind def
/C14 {BL [] 0 setdash 2 copy moveto
	2 copy vpt 90 360 arc closepath fill
	vpt 0 360 arc} bind def
/C15 {BL [] 0 setdash 2 copy vpt 0 360 arc closepath fill
	vpt 0 360 arc closepath} bind def
/Rec {newpath 4 2 roll moveto 1 index 0 rlineto 0 exch rlineto
	neg 0 rlineto closepath} bind def
/Square {dup Rec} bind def
/Bsquare {vpt sub exch vpt sub exch vpt2 Square} bind def
/S0 {BL [] 0 setdash 2 copy moveto 0 vpt rlineto BL Bsquare} bind def
/S1 {BL [] 0 setdash 2 copy vpt Square fill Bsquare} bind def
/S2 {BL [] 0 setdash 2 copy exch vpt sub exch vpt Square fill Bsquare} bind def
/S3 {BL [] 0 setdash 2 copy exch vpt sub exch vpt2 vpt Rec fill Bsquare} bind def
/S4 {BL [] 0 setdash 2 copy exch vpt sub exch vpt sub vpt Square fill Bsquare} bind def
/S5 {BL [] 0 setdash 2 copy 2 copy vpt Square fill
	exch vpt sub exch vpt sub vpt Square fill Bsquare} bind def
/S6 {BL [] 0 setdash 2 copy exch vpt sub exch vpt sub vpt vpt2 Rec fill Bsquare} bind def
/S7 {BL [] 0 setdash 2 copy exch vpt sub exch vpt sub vpt vpt2 Rec fill
	2 copy vpt Square fill Bsquare} bind def
/S8 {BL [] 0 setdash 2 copy vpt sub vpt Square fill Bsquare} bind def
/S9 {BL [] 0 setdash 2 copy vpt sub vpt vpt2 Rec fill Bsquare} bind def
/S10 {BL [] 0 setdash 2 copy vpt sub vpt Square fill 2 copy exch vpt sub exch vpt Square fill
	Bsquare} bind def
/S11 {BL [] 0 setdash 2 copy vpt sub vpt Square fill 2 copy exch vpt sub exch vpt2 vpt Rec fill
	Bsquare} bind def
/S12 {BL [] 0 setdash 2 copy exch vpt sub exch vpt sub vpt2 vpt Rec fill Bsquare} bind def
/S13 {BL [] 0 setdash 2 copy exch vpt sub exch vpt sub vpt2 vpt Rec fill
	2 copy vpt Square fill Bsquare} bind def
/S14 {BL [] 0 setdash 2 copy exch vpt sub exch vpt sub vpt2 vpt Rec fill
	2 copy exch vpt sub exch vpt Square fill Bsquare} bind def
/S15 {BL [] 0 setdash 2 copy Bsquare fill Bsquare} bind def
/D0 {gsave translate 45 rotate 0 0 S0 stroke grestore} bind def
/D1 {gsave translate 45 rotate 0 0 S1 stroke grestore} bind def
/D2 {gsave translate 45 rotate 0 0 S2 stroke grestore} bind def
/D3 {gsave translate 45 rotate 0 0 S3 stroke grestore} bind def
/D4 {gsave translate 45 rotate 0 0 S4 stroke grestore} bind def
/D5 {gsave translate 45 rotate 0 0 S5 stroke grestore} bind def
/D6 {gsave translate 45 rotate 0 0 S6 stroke grestore} bind def
/D7 {gsave translate 45 rotate 0 0 S7 stroke grestore} bind def
/D8 {gsave translate 45 rotate 0 0 S8 stroke grestore} bind def
/D9 {gsave translate 45 rotate 0 0 S9 stroke grestore} bind def
/D10 {gsave translate 45 rotate 0 0 S10 stroke grestore} bind def
/D11 {gsave translate 45 rotate 0 0 S11 stroke grestore} bind def
/D12 {gsave translate 45 rotate 0 0 S12 stroke grestore} bind def
/D13 {gsave translate 45 rotate 0 0 S13 stroke grestore} bind def
/D14 {gsave translate 45 rotate 0 0 S14 stroke grestore} bind def
/D15 {gsave translate 45 rotate 0 0 S15 stroke grestore} bind def
/DiaE {stroke [] 0 setdash vpt add M
  hpt neg vpt neg V hpt vpt neg V
  hpt vpt V hpt neg vpt V closepath stroke} def
/BoxE {stroke [] 0 setdash exch hpt sub exch vpt add M
  0 vpt2 neg V hpt2 0 V 0 vpt2 V
  hpt2 neg 0 V closepath stroke} def
/TriUE {stroke [] 0 setdash vpt 1.12 mul add M
  hpt neg vpt -1.62 mul V
  hpt 2 mul 0 V
  hpt neg vpt 1.62 mul V closepath stroke} def
/TriDE {stroke [] 0 setdash vpt 1.12 mul sub M
  hpt neg vpt 1.62 mul V
  hpt 2 mul 0 V
  hpt neg vpt -1.62 mul V closepath stroke} def
/PentE {stroke [] 0 setdash gsave
  translate 0 hpt M 4 {72 rotate 0 hpt L} repeat
  closepath stroke grestore} def
/CircE {stroke [] 0 setdash 
  hpt 0 360 arc stroke} def
/Opaque {gsave closepath 1 setgray fill grestore 0 setgray closepath} def
/DiaW {stroke [] 0 setdash vpt add M
  hpt neg vpt neg V hpt vpt neg V
  hpt vpt V hpt neg vpt V Opaque stroke} def
/BoxW {stroke [] 0 setdash exch hpt sub exch vpt add M
  0 vpt2 neg V hpt2 0 V 0 vpt2 V
  hpt2 neg 0 V Opaque stroke} def
/TriUW {stroke [] 0 setdash vpt 1.12 mul add M
  hpt neg vpt -1.62 mul V
  hpt 2 mul 0 V
  hpt neg vpt 1.62 mul V Opaque stroke} def
/TriDW {stroke [] 0 setdash vpt 1.12 mul sub M
  hpt neg vpt 1.62 mul V
  hpt 2 mul 0 V
  hpt neg vpt -1.62 mul V Opaque stroke} def
/PentW {stroke [] 0 setdash gsave
  translate 0 hpt M 4 {72 rotate 0 hpt L} repeat
  Opaque stroke grestore} def
/CircW {stroke [] 0 setdash 
  hpt 0 360 arc Opaque stroke} def
/BoxFill {gsave Rec 1 setgray fill grestore} def
/Density {
  /Fillden exch def
  currentrgbcolor
  /ColB exch def /ColG exch def /ColR exch def
  /ColR ColR Fillden mul Fillden sub 1 add def
  /ColG ColG Fillden mul Fillden sub 1 add def
  /ColB ColB Fillden mul Fillden sub 1 add def
  ColR ColG ColB setrgbcolor} def
/BoxColFill {gsave Rec PolyFill} def
/PolyFill {gsave Density fill grestore grestore} def
/h {rlineto rlineto rlineto gsave closepath fill grestore} bind def
%
% PostScript Level 1 Pattern Fill routine for rectangles
% Usage: x y w h s a XX PatternFill
%	x,y = lower left corner of box to be filled
%	w,h = width and height of box
%	  a = angle in degrees between lines and x-axis
%	 XX = 0/1 for no/yes cross-hatch
%
/PatternFill {gsave /PFa [ 9 2 roll ] def
  PFa 0 get PFa 2 get 2 div add PFa 1 get PFa 3 get 2 div add translate
  PFa 2 get -2 div PFa 3 get -2 div PFa 2 get PFa 3 get Rec
  TransparentPatterns {} {gsave 1 setgray fill grestore} ifelse
  clip
  currentlinewidth 0.5 mul setlinewidth
  /PFs PFa 2 get dup mul PFa 3 get dup mul add sqrt def
  0 0 M PFa 5 get rotate PFs -2 div dup translate
  0 1 PFs PFa 4 get div 1 add floor cvi
	{PFa 4 get mul 0 M 0 PFs V} for
  0 PFa 6 get ne {
	0 1 PFs PFa 4 get div 1 add floor cvi
	{PFa 4 get mul 0 2 1 roll M PFs 0 V} for
 } if
  stroke grestore} def
%
/languagelevel where
 {pop languagelevel} {1} ifelse
 2 lt
	{/InterpretLevel1 true def}
	{/InterpretLevel1 Level1 def}
 ifelse
%
% PostScript level 2 pattern fill definitions
%
/Level2PatternFill {
/Tile8x8 {/PaintType 2 /PatternType 1 /TilingType 1 /BBox [0 0 8 8] /XStep 8 /YStep 8}
	bind def
/KeepColor {currentrgbcolor [/Pattern /DeviceRGB] setcolorspace} bind def
<< Tile8x8
 /PaintProc {0.5 setlinewidth pop 0 0 M 8 8 L 0 8 M 8 0 L stroke} 
>> matrix makepattern
/Pat1 exch def
<< Tile8x8
 /PaintProc {0.5 setlinewidth pop 0 0 M 8 8 L 0 8 M 8 0 L stroke
	0 4 M 4 8 L 8 4 L 4 0 L 0 4 L stroke}
>> matrix makepattern
/Pat2 exch def
<< Tile8x8
 /PaintProc {0.5 setlinewidth pop 0 0 M 0 8 L
	8 8 L 8 0 L 0 0 L fill}
>> matrix makepattern
/Pat3 exch def
<< Tile8x8
 /PaintProc {0.5 setlinewidth pop -4 8 M 8 -4 L
	0 12 M 12 0 L stroke}
>> matrix makepattern
/Pat4 exch def
<< Tile8x8
 /PaintProc {0.5 setlinewidth pop -4 0 M 8 12 L
	0 -4 M 12 8 L stroke}
>> matrix makepattern
/Pat5 exch def
<< Tile8x8
 /PaintProc {0.5 setlinewidth pop -2 8 M 4 -4 L
	0 12 M 8 -4 L 4 12 M 10 0 L stroke}
>> matrix makepattern
/Pat6 exch def
<< Tile8x8
 /PaintProc {0.5 setlinewidth pop -2 0 M 4 12 L
	0 -4 M 8 12 L 4 -4 M 10 8 L stroke}
>> matrix makepattern
/Pat7 exch def
<< Tile8x8
 /PaintProc {0.5 setlinewidth pop 8 -2 M -4 4 L
	12 0 M -4 8 L 12 4 M 0 10 L stroke}
>> matrix makepattern
/Pat8 exch def
<< Tile8x8
 /PaintProc {0.5 setlinewidth pop 0 -2 M 12 4 L
	-4 0 M 12 8 L -4 4 M 8 10 L stroke}
>> matrix makepattern
/Pat9 exch def
/Pattern1 {PatternBgnd KeepColor Pat1 setpattern} bind def
/Pattern2 {PatternBgnd KeepColor Pat2 setpattern} bind def
/Pattern3 {PatternBgnd KeepColor Pat3 setpattern} bind def
/Pattern4 {PatternBgnd KeepColor Landscape {Pat5} {Pat4} ifelse setpattern} bind def
/Pattern5 {PatternBgnd KeepColor Landscape {Pat4} {Pat5} ifelse setpattern} bind def
/Pattern6 {PatternBgnd KeepColor Landscape {Pat9} {Pat6} ifelse setpattern} bind def
/Pattern7 {PatternBgnd KeepColor Landscape {Pat8} {Pat7} ifelse setpattern} bind def
} def
%
%
%End of PostScript Level 2 code
%
/PatternBgnd {
  TransparentPatterns {} {gsave 1 setgray fill grestore} ifelse
} def
%
% Substitute for Level 2 pattern fill codes with
% grayscale if Level 2 support is not selected.
%
/Level1PatternFill {
/Pattern1 {0.250 Density} bind def
/Pattern2 {0.500 Density} bind def
/Pattern3 {0.750 Density} bind def
/Pattern4 {0.125 Density} bind def
/Pattern5 {0.375 Density} bind def
/Pattern6 {0.625 Density} bind def
/Pattern7 {0.875 Density} bind def
} def
%
% Now test for support of Level 2 code
%
Level1 {Level1PatternFill} {Level2PatternFill} ifelse
%
/Symbol-Oblique /Symbol findfont [1 0 .167 1 0 0] makefont
dup length dict begin {1 index /FID eq {pop pop} {def} ifelse} forall
currentdict end definefont pop
Level1 SuppressPDFMark or 
{} {
/SDict 10 dict def
systemdict /pdfmark known not {
  userdict /pdfmark systemdict /cleartomark get put
} if
SDict begin [
  /Title (/home/yummiii/Masterarbeit/Thesis/document/bilder/speedupNormalStates_q.tex)
  /Subject (gnuplot plot)
  /Creator (gnuplot 4.6 patchlevel 5)
  /Author (yummiii)
%  /Producer (gnuplot)
%  /Keywords ()
  /CreationDate (Tue Jan  5 11:02:34 2016)
  /DOCINFO pdfmark
end
} ifelse
end
%%EndProlog
%%Page: 1 1
gnudict begin
gsave
doclip
50 50 translate
0.050 0.050 scale
0 setgray
newpath
1.000 UL
LTb
LCb setrgbcolor
814 704 M
63 0 V
12898 0 R
-63 0 V
stroke
LTb
814 1393 M
63 0 V
12898 0 R
-63 0 V
814 2082 M
63 0 V
12898 0 R
-63 0 V
814 2771 M
63 0 V
12898 0 R
-63 0 V
814 3459 M
63 0 V
12898 0 R
-63 0 V
814 4148 M
63 0 V
12898 0 R
-63 0 V
814 4837 M
63 0 V
12898 0 R
-63 0 V
814 704 M
0 63 V
0 4070 R
0 -63 V
2254 704 M
0 63 V
0 4070 R
0 -63 V
3694 704 M
0 63 V
0 4070 R
0 -63 V
5134 704 M
0 63 V
0 4070 R
0 -63 V
6574 704 M
0 63 V
0 4070 R
0 -63 V
8015 704 M
0 63 V
0 4070 R
0 -63 V
9455 704 M
0 63 V
0 4070 R
0 -63 V
10895 704 M
0 63 V
0 4070 R
0 -63 V
12335 704 M
0 63 V
0 4070 R
0 -63 V
13775 704 M
0 63 V
0 4070 R
0 -63 V
stroke
814 4837 N
814 704 L
12961 0 V
0 4133 V
814 4837 L
Z stroke
1.000 UP
1.000 UL
LTb
1.000 UP
1.000 UL
LT0
LC0 setrgbcolor
0.00 0.00 0.00 C 814 2378 Box
814 2602 Box
814 2664 Box
814 2324 Box
814 2448 Box
843 2652 Box
843 2435 Box
843 2763 Box
843 3059 Box
843 2498 Box
872 1955 Box
872 2704 Box
872 2848 Box
872 2857 Box
872 2159 Box
900 2523 Box
900 2881 Box
900 1272 Box
900 2944 Box
900 2196 Box
929 1441 Box
929 2380 Box
929 2119 Box
929 3049 Box
929 2014 Box
958 2694 Box
958 2806 Box
958 2622 Box
958 2521 Box
958 2057 Box
987 1949 Box
987 2429 Box
987 2261 Box
987 3066 Box
987 2764 Box
1016 2674 Box
1016 2454 Box
1016 2722 Box
1016 2287 Box
1016 2498 Box
1044 2918 Box
1044 2110 Box
1044 2846 Box
1044 3218 Box
1044 2542 Box
1073 2658 Box
1073 2936 Box
1073 2023 Box
1073 2517 Box
1073 2654 Box
1102 1854 Box
1102 2895 Box
1102 1821 Box
1102 2268 Box
1102 2505 Box
1131 2493 Box
1131 2491 Box
1131 3117 Box
1131 2768 Box
1131 1981 Box
1160 2438 Box
1160 2599 Box
1160 3017 Box
1160 2446 Box
1160 2704 Box
1188 2016 Box
1188 2150 Box
1188 2452 Box
1188 2907 Box
1188 2521 Box
1217 1905 Box
1217 2518 Box
1217 2453 Box
1217 2535 Box
1217 2819 Box
1246 2004 Box
1246 2397 Box
1246 2542 Box
1246 2459 Box
1246 1552 Box
1275 2759 Box
1275 2216 Box
1275 2840 Box
1275 2046 Box
1275 2384 Box
1304 2487 Box
1304 2771 Box
1304 2652 Box
1304 3045 Box
1304 2763 Box
1332 2865 Box
1332 2091 Box
1332 2750 Box
1332 1953 Box
1332 2599 Box
1361 2431 Box
1361 2018 Box
1361 2713 Box
1361 2233 Box
1361 2005 Box
1390 2163 Box
1390 2075 Box
1390 2174 Box
1390 2896 Box
1390 3202 Box
1419 2553 Box
1419 2596 Box
1419 2029 Box
1419 1794 Box
1419 2273 Box
1448 2799 Box
1448 1936 Box
1448 3171 Box
1448 2335 Box
1448 2767 Box
1476 2482 Box
1476 2275 Box
1476 2944 Box
1476 2802 Box
1476 2810 Box
1505 2362 Box
1505 2830 Box
1505 2520 Box
1505 1803 Box
1505 2310 Box
1534 2192 Box
1534 2700 Box
1534 2808 Box
1534 3066 Box
1534 2456 Box
1563 2624 Box
1563 2477 Box
1563 2622 Box
1563 2458 Box
1563 2979 Box
1592 2873 Box
1592 2803 Box
1592 2991 Box
1592 2693 Box
1592 2235 Box
1620 2687 Box
1620 2910 Box
1620 2273 Box
1620 2611 Box
1620 2625 Box
1649 2346 Box
1649 2563 Box
1649 2811 Box
1649 2231 Box
1649 2401 Box
1678 2518 Box
1678 2900 Box
1678 2478 Box
1678 2051 Box
1678 2237 Box
1707 2592 Box
1707 2410 Box
1707 2693 Box
1707 2745 Box
1707 2829 Box
1736 2154 Box
1736 2416 Box
1736 2722 Box
1736 2811 Box
1736 2395 Box
1764 2803 Box
1764 2329 Box
1764 2719 Box
1764 2311 Box
1764 2621 Box
1793 2702 Box
1793 2449 Box
1793 3061 Box
1793 2625 Box
1793 2508 Box
1822 2490 Box
1822 2410 Box
1822 2882 Box
1822 2589 Box
1822 2496 Box
1851 2287 Box
1851 2515 Box
1851 2813 Box
1851 2527 Box
1851 2468 Box
1880 2653 Box
1880 2329 Box
1880 2668 Box
1880 2008 Box
1880 2541 Box
1908 2492 Box
1908 2499 Box
1908 1915 Box
1908 2043 Box
1908 2761 Box
1937 2578 Box
1937 2064 Box
1937 2283 Box
1937 2508 Box
1937 2564 Box
1966 2336 Box
1966 2944 Box
1966 2491 Box
1966 2763 Box
1966 2118 Box
1995 2636 Box
1995 2522 Box
1995 3001 Box
1995 2581 Box
1995 2686 Box
2024 2718 Box
2024 2678 Box
2024 2716 Box
2024 2146 Box
2024 2283 Box
2052 2049 Box
2052 2534 Box
2052 2488 Box
2052 2611 Box
2052 2939 Box
2081 2819 Box
2081 2901 Box
2081 2183 Box
2081 2555 Box
2081 2676 Box
2110 2843 Box
2110 2477 Box
2110 2677 Box
2110 2212 Box
2110 2686 Box
2139 2651 Box
2139 2587 Box
2139 2811 Box
2139 2438 Box
2139 2704 Box
2168 2728 Box
2168 2836 Box
2168 2666 Box
2168 2644 Box
2168 1620 Box
2197 2869 Box
2197 2839 Box
2197 2691 Box
2197 1893 Box
2197 2985 Box
2225 2918 Box
2225 2819 Box
2225 2845 Box
2225 2354 Box
2225 2750 Box
2254 2719 Box
2254 2830 Box
2254 1624 Box
2254 2783 Box
2254 2815 Box
2283 1822 Box
2283 2373 Box
2283 2778 Box
2283 2772 Box
2283 2842 Box
2312 2400 Box
2312 2363 Box
2312 2663 Box
2312 2780 Box
2312 2743 Box
2341 2602 Box
2341 2200 Box
2341 2960 Box
2341 2580 Box
2341 2712 Box
2369 2750 Box
2369 2900 Box
2369 2842 Box
2369 2502 Box
2369 2836 Box
2398 2369 Box
2398 3036 Box
2398 2748 Box
2398 2917 Box
2398 2800 Box
2427 2549 Box
2427 2805 Box
2427 2991 Box
2427 2673 Box
2427 2830 Box
2456 2893 Box
2456 2803 Box
2456 2578 Box
2456 2127 Box
2456 2610 Box
2485 2917 Box
2485 2594 Box
2485 2650 Box
2485 2992 Box
2485 2842 Box
2513 2575 Box
2513 2430 Box
2513 2538 Box
2513 3022 Box
2513 2429 Box
2542 2816 Box
2542 2276 Box
2542 3008 Box
2542 2793 Box
2542 2477 Box
2571 3028 Box
2571 2290 Box
2571 2375 Box
2571 2748 Box
2571 2759 Box
2600 2176 Box
2600 2686 Box
2600 2702 Box
2600 2465 Box
2600 2748 Box
2629 2399 Box
2629 2288 Box
2629 2809 Box
2629 2448 Box
2629 2487 Box
2657 3096 Box
2657 2420 Box
2657 2764 Box
2657 2942 Box
2657 2820 Box
2686 1720 Box
2686 2628 Box
2686 2689 Box
2686 3039 Box
2686 2506 Box
2715 3079 Box
2715 2692 Box
2715 2936 Box
2715 2462 Box
2715 2536 Box
2744 2503 Box
2744 2405 Box
2744 2576 Box
2744 2562 Box
2744 2617 Box
2773 2386 Box
2773 2727 Box
2773 2753 Box
2773 2947 Box
2773 2982 Box
2801 2399 Box
2801 2442 Box
2801 2520 Box
2801 2829 Box
2801 2851 Box
2830 2803 Box
2830 2959 Box
2830 2859 Box
2830 2676 Box
2830 2691 Box
2859 2344 Box
2859 1931 Box
2859 2773 Box
2859 2877 Box
2859 2502 Box
2888 3005 Box
2888 2604 Box
2888 2615 Box
2888 2981 Box
2888 2592 Box
2917 2484 Box
2917 2690 Box
2917 2883 Box
2917 2375 Box
2917 2509 Box
2945 2676 Box
2945 2702 Box
2945 2372 Box
2945 2949 Box
2945 2417 Box
2974 2723 Box
2974 3061 Box
2974 2892 Box
2974 2586 Box
2974 2284 Box
3003 2755 Box
3003 2897 Box
3003 3057 Box
3003 2483 Box
3003 3062 Box
3032 2913 Box
3032 1940 Box
3032 2876 Box
3032 2262 Box
3032 2535 Box
3061 2618 Box
3061 2746 Box
3061 2296 Box
3061 2371 Box
3061 2746 Box
3089 2456 Box
3089 2616 Box
3089 2758 Box
3089 2767 Box
3089 3151 Box
3118 2977 Box
3118 2486 Box
3118 2375 Box
3118 2619 Box
3118 3267 Box
3147 2377 Box
3147 3063 Box
3147 2769 Box
3147 2423 Box
3147 2928 Box
3176 1936 Box
3176 2981 Box
3176 3060 Box
3176 2758 Box
3176 2612 Box
3205 2903 Box
3205 3006 Box
3205 3127 Box
3205 2661 Box
3205 2303 Box
3233 2788 Box
3233 2713 Box
3233 2976 Box
3233 2173 Box
3233 2682 Box
3262 2733 Box
3262 3215 Box
3262 2151 Box
3262 2812 Box
3262 2722 Box
3291 2435 Box
3291 2113 Box
3291 2663 Box
3291 2695 Box
3291 2365 Box
3320 3012 Box
3320 2793 Box
3320 3168 Box
3320 2666 Box
3320 2707 Box
3349 2475 Box
3349 3221 Box
3349 2978 Box
3349 2658 Box
3349 2539 Box
3377 2649 Box
3377 2678 Box
3377 2777 Box
3377 1914 Box
3377 2698 Box
3406 2470 Box
3406 3133 Box
3406 3116 Box
3406 1858 Box
3406 2470 Box
3435 2868 Box
3435 3069 Box
3435 2834 Box
3435 2510 Box
3435 2343 Box
3464 2653 Box
3464 2764 Box
3464 2960 Box
3464 3239 Box
3464 2607 Box
3493 2615 Box
3493 2739 Box
3493 2905 Box
3493 2565 Box
3493 2203 Box
3521 2900 Box
3521 2814 Box
3521 2654 Box
3521 2675 Box
3521 2182 Box
3550 2957 Box
3550 2760 Box
3550 2600 Box
3550 2479 Box
3550 2601 Box
3579 2768 Box
3579 2825 Box
3579 2740 Box
3579 2884 Box
3579 3070 Box
3608 1907 Box
3608 2408 Box
3608 2959 Box
3608 2142 Box
3608 3116 Box
3637 2832 Box
3637 3096 Box
3637 3019 Box
3637 2298 Box
3637 2733 Box
3665 2956 Box
3665 3016 Box
3665 3235 Box
3665 2795 Box
3665 2625 Box
3694 2530 Box
3694 3015 Box
3694 2918 Box
3694 3040 Box
3694 3124 Box
3723 2976 Box
3723 2999 Box
3723 2988 Box
3723 2954 Box
3723 2166 Box
3752 2788 Box
3752 3044 Box
3752 2696 Box
3752 2822 Box
3752 2235 Box
3781 2841 Box
3781 2056 Box
3781 2000 Box
3781 3205 Box
3781 2733 Box
3809 2437 Box
3809 2624 Box
3809 2438 Box
3809 2421 Box
3809 2866 Box
3838 2732 Box
3838 2980 Box
3838 2639 Box
3838 2666 Box
3838 3140 Box
3867 2388 Box
3867 2787 Box
3867 3017 Box
3867 2951 Box
3867 2538 Box
3896 2430 Box
3896 3084 Box
3896 2934 Box
3896 3304 Box
3896 2660 Box
3925 2574 Box
3925 2875 Box
3925 2632 Box
3925 2688 Box
3925 2774 Box
3953 2982 Box
3953 2557 Box
3953 2809 Box
3953 2314 Box
3953 2858 Box
3982 3054 Box
3982 2857 Box
3982 2584 Box
3982 2838 Box
3982 2665 Box
4011 2640 Box
4011 2982 Box
4011 2929 Box
4011 2444 Box
4011 3013 Box
4040 2797 Box
4040 2632 Box
4040 3072 Box
4040 2780 Box
4040 2349 Box
4069 2645 Box
4069 2728 Box
4069 2724 Box
4069 3061 Box
4069 2980 Box
4097 2634 Box
4097 2848 Box
4097 3060 Box
4097 3108 Box
4097 2771 Box
4126 2907 Box
4126 2334 Box
4126 2901 Box
4126 2690 Box
4126 3491 Box
4155 2829 Box
4155 3108 Box
4155 2926 Box
4155 2852 Box
4155 3303 Box
4184 2719 Box
4184 2576 Box
4184 2543 Box
4184 2680 Box
4184 2692 Box
4213 2472 Box
4213 2991 Box
4213 2900 Box
4213 2766 Box
4213 2797 Box
4241 3043 Box
4241 3122 Box
4241 3123 Box
4241 3179 Box
4241 2989 Box
4270 2724 Box
4270 2561 Box
4270 2723 Box
4270 2642 Box
4270 2736 Box
4299 3201 Box
4299 2379 Box
4299 3012 Box
4299 2947 Box
4299 3098 Box
4328 2444 Box
4328 2855 Box
4328 2432 Box
4328 2954 Box
4328 2595 Box
4357 2820 Box
4357 2984 Box
4357 3111 Box
4357 2999 Box
4357 2956 Box
4385 3111 Box
4385 2679 Box
4385 2678 Box
4385 2883 Box
4385 3027 Box
4414 2624 Box
4414 2544 Box
4414 2771 Box
4414 2498 Box
4414 2689 Box
4443 3112 Box
4443 2631 Box
4443 3132 Box
4443 2666 Box
4443 2702 Box
4472 2815 Box
4472 3187 Box
4472 2969 Box
4472 2579 Box
4472 2715 Box
4501 2934 Box
4501 3099 Box
4501 3066 Box
4501 2976 Box
4501 2576 Box
4529 3265 Box
4529 2589 Box
4529 2731 Box
4529 2854 Box
4529 2773 Box
4558 2757 Box
4558 2810 Box
4558 3283 Box
4558 2711 Box
4558 2955 Box
4587 2886 Box
4587 2734 Box
4587 3384 Box
4587 2416 Box
4587 3184 Box
4616 2982 Box
4616 3043 Box
4616 3636 Box
4616 3064 Box
4616 2783 Box
4645 1956 Box
4645 2604 Box
4645 2988 Box
4645 3082 Box
4645 3088 Box
4673 2529 Box
4673 3072 Box
4673 2699 Box
4673 3089 Box
4673 2686 Box
4702 2436 Box
4702 3016 Box
4702 2850 Box
4702 2821 Box
4702 2891 Box
4731 2833 Box
4731 3199 Box
4731 3224 Box
4731 2691 Box
4731 2932 Box
4760 2800 Box
4760 2988 Box
4760 2724 Box
4760 2805 Box
4760 2803 Box
4789 2656 Box
4789 3135 Box
4789 2822 Box
4789 3215 Box
4789 2779 Box
4818 2607 Box
4818 2451 Box
4818 2692 Box
4818 3213 Box
4818 2517 Box
4846 2859 Box
4846 2813 Box
4846 2942 Box
4846 3045 Box
4846 2435 Box
4875 3349 Box
4875 2628 Box
4875 3187 Box
4875 2967 Box
4875 2706 Box
4904 2895 Box
4904 2497 Box
4904 2876 Box
4904 3046 Box
4904 2610 Box
4933 3038 Box
4933 3042 Box
4933 3087 Box
4933 2946 Box
4933 2947 Box
4962 2513 Box
4962 2799 Box
4962 2793 Box
4962 2877 Box
4962 2744 Box
4990 3039 Box
4990 3173 Box
4990 2675 Box
4990 2878 Box
4990 2896 Box
5019 3135 Box
5019 2909 Box
5019 3205 Box
5019 3093 Box
5019 2771 Box
5048 3219 Box
5048 2766 Box
5048 3230 Box
5048 2724 Box
5048 2468 Box
5077 3110 Box
5077 3012 Box
5077 2924 Box
5077 2803 Box
5077 2919 Box
5106 3040 Box
5106 2355 Box
5106 3090 Box
5106 3117 Box
5106 3031 Box
5134 2891 Box
5134 2992 Box
5134 2923 Box
5134 3019 Box
5134 3493 Box
5163 3072 Box
5163 2698 Box
5163 3258 Box
5163 3333 Box
5163 3020 Box
5192 2767 Box
5192 3025 Box
5192 3011 Box
5192 3017 Box
5192 3220 Box
5221 2766 Box
5221 2534 Box
5221 3106 Box
5221 3266 Box
5221 2724 Box
5250 3152 Box
5250 3214 Box
5250 3199 Box
5250 2718 Box
5250 3023 Box
5278 2759 Box
5278 2607 Box
5278 3224 Box
5278 3070 Box
5278 3166 Box
5307 3211 Box
5307 2501 Box
5307 2985 Box
5307 2908 Box
5307 2964 Box
5336 3085 Box
5336 3063 Box
5336 2566 Box
5336 3114 Box
5336 2632 Box
5365 2969 Box
5365 2854 Box
5365 2704 Box
5365 3226 Box
5365 3107 Box
5394 2904 Box
5394 2952 Box
5394 2937 Box
5394 2908 Box
5394 3166 Box
5422 2738 Box
5422 2900 Box
5422 3033 Box
5422 3169 Box
5422 3069 Box
5451 2613 Box
5451 3006 Box
5451 3102 Box
5451 2942 Box
5451 3297 Box
5480 3343 Box
5480 3207 Box
5480 2698 Box
5480 3006 Box
5480 2900 Box
5509 3112 Box
5509 3148 Box
5509 3255 Box
5509 2924 Box
5509 2886 Box
5538 3216 Box
5538 2915 Box
5538 3025 Box
5538 2947 Box
5538 2924 Box
5566 3203 Box
5566 2645 Box
5566 3064 Box
5566 3126 Box
5566 3035 Box
5595 3144 Box
5595 3063 Box
5595 3161 Box
5595 3037 Box
5595 3085 Box
5624 3168 Box
5624 3131 Box
5624 3127 Box
5624 2803 Box
5624 2798 Box
5653 2907 Box
5653 2951 Box
5653 2742 Box
5653 3186 Box
5653 2822 Box
5682 2965 Box
5682 2759 Box
5682 3156 Box
5682 3003 Box
5682 2732 Box
5710 3041 Box
5710 2710 Box
5710 2878 Box
5710 2342 Box
5710 3029 Box
5739 2750 Box
5739 3406 Box
5739 3101 Box
5739 3119 Box
5739 3175 Box
5768 2982 Box
5768 2966 Box
5768 3090 Box
5768 2945 Box
5768 2879 Box
5797 2882 Box
5797 3218 Box
5797 2800 Box
5797 3259 Box
5797 3217 Box
5826 2821 Box
5826 3049 Box
5826 2916 Box
5826 3080 Box
5826 2898 Box
5854 3485 Box
5854 2845 Box
5854 2916 Box
5854 3108 Box
5854 3391 Box
5883 3295 Box
5883 3103 Box
5883 3164 Box
5883 3116 Box
5883 3086 Box
5912 3076 Box
5912 3371 Box
5912 3509 Box
5912 2802 Box
5912 3244 Box
5941 3106 Box
5941 3069 Box
5941 3058 Box
5941 2766 Box
5941 3118 Box
5970 3004 Box
5970 3249 Box
5970 3224 Box
5970 2773 Box
5970 3096 Box
5998 3066 Box
5998 3377 Box
5998 3149 Box
5998 3031 Box
5998 3112 Box
6027 3134 Box
6027 2603 Box
6027 2920 Box
6027 2770 Box
6027 3090 Box
6056 3083 Box
6056 3093 Box
6056 3268 Box
6056 3042 Box
6056 2946 Box
6085 2571 Box
6085 2870 Box
6085 2830 Box
6085 3121 Box
6085 3005 Box
6114 2502 Box
6114 2975 Box
6114 3067 Box
6114 3123 Box
6114 3401 Box
6142 3175 Box
6142 2777 Box
6142 3136 Box
6142 3161 Box
6142 3411 Box
6171 2855 Box
6171 3271 Box
6171 3117 Box
6171 3230 Box
6171 2885 Box
6200 2635 Box
6200 2858 Box
6200 3057 Box
6200 2889 Box
6200 3047 Box
6229 2994 Box
6229 3279 Box
6229 3118 Box
6229 3369 Box
6229 3147 Box
6258 3374 Box
6258 2994 Box
6258 2929 Box
6258 3091 Box
6258 2980 Box
6286 3059 Box
6286 3110 Box
6286 3037 Box
6286 2966 Box
6286 2794 Box
6315 3099 Box
6315 3067 Box
6315 2578 Box
6315 2548 Box
6315 3064 Box
6344 3032 Box
6344 3233 Box
6344 3018 Box
6344 2937 Box
6344 3190 Box
6373 3192 Box
6373 2972 Box
6373 3198 Box
6373 2970 Box
6373 2983 Box
6402 3126 Box
6402 3027 Box
6402 2896 Box
6402 3175 Box
6402 3029 Box
6430 2884 Box
6430 3207 Box
6430 3550 Box
6430 3076 Box
6430 2989 Box
6459 3260 Box
6459 2879 Box
6459 2950 Box
6459 2737 Box
6459 2903 Box
6488 3281 Box
6488 3330 Box
6488 2873 Box
6488 2914 Box
6488 3109 Box
6517 3179 Box
6517 2918 Box
6517 3129 Box
6517 3114 Box
6517 3174 Box
6546 3393 Box
6546 3338 Box
6546 2779 Box
6546 3111 Box
6546 2676 Box
6574 3397 Box
6574 2876 Box
6574 3153 Box
6574 2932 Box
6574 2845 Box
6603 2998 Box
6603 3055 Box
6603 3238 Box
6603 3044 Box
6603 3225 Box
6632 2875 Box
6632 3053 Box
6632 2925 Box
6632 3143 Box
6632 3228 Box
6661 2618 Box
6661 2940 Box
6661 3426 Box
6661 3004 Box
6661 3309 Box
6690 3075 Box
6690 3020 Box
6690 2830 Box
6690 3247 Box
6690 3055 Box
6718 3052 Box
6718 3079 Box
6718 3043 Box
6718 3216 Box
6718 3123 Box
6747 3281 Box
6747 3267 Box
6747 3272 Box
6747 3182 Box
6747 3229 Box
6776 3216 Box
6776 2771 Box
6776 3101 Box
6776 3233 Box
6776 3455 Box
6805 3213 Box
6805 2999 Box
6805 3146 Box
6805 3130 Box
6805 3092 Box
6834 3108 Box
6834 3402 Box
6834 3006 Box
6834 2900 Box
6834 3247 Box
6862 3212 Box
6862 3134 Box
6862 3060 Box
6862 3107 Box
6862 2775 Box
6891 2931 Box
6891 2964 Box
6891 3330 Box
6891 2898 Box
6891 3027 Box
6920 2832 Box
6920 3072 Box
6920 3194 Box
6920 3045 Box
6920 3035 Box
6949 2977 Box
6949 3365 Box
6949 3118 Box
6949 3128 Box
6949 3141 Box
6978 3112 Box
6978 3194 Box
6978 2668 Box
6978 3289 Box
6978 3063 Box
7006 3007 Box
7006 3102 Box
7006 3068 Box
7006 3241 Box
7006 3329 Box
7035 3114 Box
7035 3104 Box
7035 3286 Box
7035 3055 Box
7035 3104 Box
7064 3308 Box
7064 2931 Box
7064 3103 Box
7064 2909 Box
7064 3208 Box
7093 3075 Box
7093 3433 Box
7093 3190 Box
7093 3173 Box
7093 3110 Box
7122 3277 Box
7122 3168 Box
7122 2895 Box
7122 2936 Box
7122 3038 Box
7150 2898 Box
7150 3384 Box
7150 3149 Box
7150 3035 Box
7150 2953 Box
7179 3466 Box
7179 3252 Box
7179 3020 Box
7179 3387 Box
7179 2286 Box
7208 3085 Box
7208 2739 Box
7208 2917 Box
7208 3132 Box
7208 3209 Box
7237 3286 Box
7237 3313 Box
7237 2895 Box
7237 2919 Box
7237 3214 Box
7266 2944 Box
7266 3179 Box
7266 2920 Box
7266 3016 Box
7266 3174 Box
7295 2899 Box
7295 3153 Box
7295 2985 Box
7295 3189 Box
7295 3239 Box
7323 3079 Box
7323 2928 Box
7323 3314 Box
7323 3222 Box
7323 2861 Box
7352 3138 Box
7352 3259 Box
7352 3328 Box
7352 3215 Box
7352 3401 Box
7381 2558 Box
7381 3556 Box
7381 3150 Box
7381 3252 Box
7381 3199 Box
7410 3150 Box
7410 3416 Box
7410 3259 Box
7410 2509 Box
7410 3153 Box
7439 3190 Box
7439 2966 Box
7439 3301 Box
7439 2944 Box
7439 2932 Box
7467 3102 Box
7467 3194 Box
7467 3143 Box
7467 3104 Box
7467 2789 Box
7496 3159 Box
7496 3043 Box
7496 3067 Box
7496 3284 Box
7496 3013 Box
7525 3353 Box
7525 3197 Box
7525 3196 Box
7525 3114 Box
7525 3255 Box
7554 3261 Box
7554 3508 Box
7554 3195 Box
7554 3218 Box
7554 3145 Box
7583 3191 Box
7583 3317 Box
7583 3003 Box
7583 2923 Box
7583 3022 Box
7611 3116 Box
7611 3136 Box
7611 3216 Box
7611 3087 Box
7611 2991 Box
7640 3120 Box
7640 3306 Box
7640 3016 Box
7640 2976 Box
7640 2835 Box
7669 3349 Box
7669 3127 Box
7669 3252 Box
7669 3188 Box
7669 3061 Box
7698 3195 Box
7698 3061 Box
7698 3267 Box
7698 3090 Box
7698 3104 Box
7727 2997 Box
7727 3223 Box
7727 3269 Box
7727 3057 Box
7727 3080 Box
7755 3276 Box
7755 3213 Box
7755 3115 Box
7755 3313 Box
7755 3172 Box
7784 3088 Box
7784 3275 Box
7784 3175 Box
7784 3121 Box
7784 3136 Box
7813 3126 Box
7813 3221 Box
7813 3055 Box
7813 3046 Box
7813 3199 Box
7842 2810 Box
7842 3130 Box
7842 3189 Box
7842 3415 Box
7842 3215 Box
7871 3275 Box
7871 3110 Box
7871 3250 Box
7871 3040 Box
7871 2990 Box
7899 3345 Box
7899 3051 Box
7899 3096 Box
7899 2636 Box
7899 2984 Box
7928 3168 Box
7928 3058 Box
7928 3132 Box
7928 3103 Box
7928 3154 Box
7957 3038 Box
7957 2968 Box
7957 3294 Box
7957 3191 Box
7957 3051 Box
7986 3069 Box
7986 2858 Box
7986 3034 Box
7986 2917 Box
7986 3307 Box
8015 3387 Box
8015 3393 Box
8015 3374 Box
8015 3552 Box
8015 3078 Box
8043 3165 Box
8043 3057 Box
8043 3122 Box
8043 2923 Box
8043 3162 Box
8072 2977 Box
8072 3085 Box
8072 3142 Box
8072 3431 Box
8072 3410 Box
8101 3353 Box
8101 2963 Box
8101 3626 Box
8101 3083 Box
8101 2956 Box
8130 3547 Box
8130 3544 Box
8130 3069 Box
8130 3339 Box
8130 3132 Box
8159 3270 Box
8159 3373 Box
8159 3171 Box
8159 3255 Box
8159 3122 Box
8187 3199 Box
8187 3098 Box
8187 3464 Box
8187 3197 Box
8187 2918 Box
8216 2977 Box
8216 3185 Box
8216 3239 Box
8216 3059 Box
8216 2955 Box
8245 3482 Box
8245 2651 Box
8245 3511 Box
8245 3079 Box
8245 3676 Box
8274 3053 Box
8274 3087 Box
8274 3366 Box
8274 2947 Box
8274 2899 Box
8303 3111 Box
8303 3468 Box
8303 3278 Box
8303 3329 Box
8303 3208 Box
8331 3147 Box
8331 3165 Box
8331 3346 Box
8331 3044 Box
8331 3234 Box
8360 3004 Box
8360 3330 Box
8360 3113 Box
8360 3236 Box
8360 3046 Box
8389 3284 Box
8389 3257 Box
8389 3232 Box
8389 3191 Box
8389 3137 Box
8418 3519 Box
8418 2967 Box
8418 3274 Box
8418 3048 Box
8418 3006 Box
8447 3070 Box
8447 2966 Box
8447 3128 Box
8447 3166 Box
8447 3259 Box
8475 3090 Box
8475 3306 Box
8475 3390 Box
8475 3286 Box
8475 3209 Box
8504 3304 Box
8504 3016 Box
8504 3520 Box
8504 3203 Box
8504 3298 Box
8533 3204 Box
8533 3373 Box
8533 2966 Box
8533 3171 Box
8533 3314 Box
8562 3061 Box
8562 3356 Box
8562 2923 Box
8562 3051 Box
8562 3246 Box
8591 3286 Box
8591 3278 Box
8591 3300 Box
8591 3447 Box
8591 3306 Box
8619 3140 Box
8619 3402 Box
8619 2861 Box
8619 2873 Box
8619 3274 Box
8648 3229 Box
8648 3119 Box
8648 3423 Box
8648 3503 Box
8648 3210 Box
8677 3177 Box
8677 3115 Box
8677 3210 Box
8677 2971 Box
8677 3244 Box
8706 3201 Box
8706 3322 Box
8706 2866 Box
8706 3264 Box
8706 3285 Box
8735 3399 Box
8735 3179 Box
8735 3210 Box
8735 2894 Box
8735 3281 Box
8763 3356 Box
8763 3162 Box
8763 3183 Box
8763 3444 Box
8763 3335 Box
8792 3432 Box
8792 3133 Box
8792 3164 Box
8792 3231 Box
8792 3103 Box
8821 3089 Box
8821 3269 Box
8821 3315 Box
8821 3345 Box
8821 3101 Box
8850 3205 Box
8850 3119 Box
8850 3341 Box
8850 3392 Box
8850 3346 Box
8879 3308 Box
8879 3222 Box
8879 3161 Box
8879 3296 Box
8879 3139 Box
8907 3358 Box
8907 3402 Box
8907 3244 Box
8907 3389 Box
8907 3341 Box
8936 3167 Box
8936 3363 Box
8936 3263 Box
8936 3378 Box
8936 3273 Box
8965 3377 Box
8965 3352 Box
8965 3239 Box
8965 3237 Box
8965 3465 Box
8994 3090 Box
8994 3412 Box
8994 3312 Box
8994 3153 Box
8994 3157 Box
9023 3288 Box
9023 3164 Box
9023 3060 Box
9023 3465 Box
9023 2935 Box
9051 2967 Box
9051 3305 Box
9051 3294 Box
9051 2744 Box
9051 3302 Box
9080 3314 Box
9080 3246 Box
9080 3208 Box
9080 3553 Box
9080 3032 Box
9109 3185 Box
9109 3058 Box
9109 3366 Box
9109 3157 Box
9109 3399 Box
9138 3270 Box
9138 3126 Box
9138 3326 Box
9138 3076 Box
9138 3515 Box
9167 3177 Box
9167 3164 Box
9167 3116 Box
9167 3456 Box
9167 2919 Box
9195 3341 Box
9195 3340 Box
9195 3307 Box
9195 3405 Box
9195 3288 Box
9224 2928 Box
9224 3412 Box
9224 3377 Box
9224 3162 Box
9224 3370 Box
9253 3216 Box
9253 3287 Box
9253 3318 Box
9253 3206 Box
9253 3366 Box
9282 3184 Box
9282 3323 Box
9282 3407 Box
9282 3314 Box
9282 3333 Box
9311 2765 Box
9311 3138 Box
9311 3548 Box
9311 2971 Box
9311 3141 Box
9339 3471 Box
9339 3421 Box
9339 3318 Box
9339 3155 Box
9339 3338 Box
9368 3403 Box
9368 3212 Box
9368 3178 Box
9368 3382 Box
9368 3282 Box
9397 3297 Box
9397 3155 Box
9397 3146 Box
9397 3504 Box
9397 3521 Box
9426 3259 Box
9426 3142 Box
9426 3016 Box
9426 3213 Box
9426 3530 Box
9455 3387 Box
9455 3547 Box
9455 3402 Box
9455 3387 Box
9455 3277 Box
9483 3223 Box
9483 2870 Box
9483 3335 Box
9483 3298 Box
9483 3180 Box
9512 3091 Box
9512 3328 Box
9512 3446 Box
9512 3157 Box
9512 3150 Box
9541 3127 Box
9541 2869 Box
9541 3404 Box
9541 3258 Box
9541 3296 Box
9570 3294 Box
9570 3209 Box
9570 3296 Box
9570 3435 Box
9570 3418 Box
9599 3243 Box
9599 3100 Box
9599 3638 Box
9599 3351 Box
9599 3119 Box
9627 3505 Box
9627 3109 Box
9627 3246 Box
9627 3475 Box
9627 3271 Box
9656 3292 Box
9656 3219 Box
9656 3155 Box
9656 3232 Box
9656 2974 Box
9685 3148 Box
9685 3322 Box
9685 3447 Box
9685 3450 Box
9685 3473 Box
9714 3035 Box
9714 3322 Box
9714 3363 Box
9714 3130 Box
9714 3254 Box
9743 3364 Box
9743 3110 Box
9743 2969 Box
9743 3262 Box
9743 3147 Box
9771 3293 Box
9771 3203 Box
9771 3242 Box
9771 3426 Box
9771 3488 Box
9800 3186 Box
9800 3376 Box
9800 3315 Box
9800 3260 Box
9800 3213 Box
9829 3265 Box
9829 2904 Box
9829 3481 Box
9829 3283 Box
9829 3191 Box
9858 3388 Box
9858 3234 Box
9858 3186 Box
9858 2794 Box
9858 3113 Box
9887 2756 Box
9887 3368 Box
9887 3443 Box
9887 3430 Box
9887 3572 Box
9916 3281 Box
9916 3410 Box
9916 3140 Box
9916 3415 Box
9916 3296 Box
9944 3203 Box
9944 3475 Box
9944 3166 Box
9944 3420 Box
9944 3452 Box
9973 3372 Box
9973 3506 Box
9973 3323 Box
9973 3330 Box
9973 3384 Box
10002 3109 Box
10002 3397 Box
10002 3298 Box
10002 3464 Box
10002 3346 Box
10031 3190 Box
10031 3342 Box
10031 3510 Box
10031 2998 Box
10031 3400 Box
10060 3345 Box
10060 3200 Box
10060 3321 Box
10060 3573 Box
10060 3562 Box
10088 3236 Box
10088 3627 Box
10088 3390 Box
10088 3233 Box
10088 3483 Box
10117 3101 Box
10117 3312 Box
10117 3317 Box
10117 3450 Box
10117 3479 Box
10146 3065 Box
10146 3441 Box
10146 3632 Box
10146 3350 Box
10146 3361 Box
10175 3363 Box
10175 3375 Box
10175 3020 Box
10175 3202 Box
10175 3371 Box
10204 3271 Box
10204 3126 Box
10204 3010 Box
10204 3422 Box
10204 3410 Box
10232 3441 Box
10232 3097 Box
10232 3344 Box
10232 3041 Box
10232 3191 Box
10261 3467 Box
10261 3379 Box
10261 3432 Box
10261 3356 Box
10261 3255 Box
10290 3266 Box
10290 3385 Box
10290 3027 Box
10290 3362 Box
10290 3344 Box
10319 3333 Box
10319 3558 Box
10319 3455 Box
10319 3561 Box
10319 3016 Box
10348 3339 Box
10348 3019 Box
10348 3235 Box
10348 3263 Box
10348 3508 Box
10376 3523 Box
10376 3560 Box
10376 3376 Box
10376 3147 Box
10376 3305 Box
10405 3342 Box
10405 2812 Box
10405 3418 Box
10405 3042 Box
10405 3509 Box
10434 3333 Box
10434 3194 Box
10434 3424 Box
10434 3464 Box
10434 3251 Box
10463 3522 Box
10463 3229 Box
10463 3440 Box
10463 3300 Box
10463 3292 Box
10492 3164 Box
10492 3283 Box
10492 3163 Box
10492 2944 Box
10492 3346 Box
10520 3360 Box
10520 3288 Box
10520 3379 Box
10520 3188 Box
10520 3298 Box
10549 3080 Box
10549 3360 Box
10549 3220 Box
10549 3239 Box
10549 3144 Box
10578 3313 Box
10578 3415 Box
10578 3298 Box
10578 3322 Box
10578 3304 Box
10607 3527 Box
10607 3203 Box
10607 3411 Box
10607 3456 Box
10607 3411 Box
10636 3571 Box
10636 3210 Box
10636 3087 Box
10636 3473 Box
10636 3436 Box
10664 3438 Box
10664 3440 Box
10664 3462 Box
10664 3334 Box
10664 3558 Box
10693 3018 Box
10693 3382 Box
10693 3263 Box
10693 3212 Box
10693 3317 Box
10722 3439 Box
10722 3235 Box
10722 3255 Box
10722 3335 Box
10722 3604 Box
10751 3571 Box
10751 3257 Box
10751 3399 Box
10751 3455 Box
10751 3180 Box
10780 3259 Box
10780 3223 Box
10780 2765 Box
10780 3409 Box
10780 3226 Box
10808 3652 Box
10808 3556 Box
10808 3309 Box
10808 3215 Box
10808 3396 Box
10837 3112 Box
10837 3392 Box
10837 3702 Box
10837 3163 Box
10837 3235 Box
10866 3417 Box
10866 3329 Box
10866 3443 Box
10866 3399 Box
10866 3476 Box
10895 3148 Box
10895 3306 Box
10895 3186 Box
10895 3266 Box
10895 3416 Box
10924 3363 Box
10924 3329 Box
10924 3343 Box
10924 3416 Box
10924 3411 Box
10952 3381 Box
10952 3201 Box
10952 3379 Box
10952 3345 Box
10952 3295 Box
10981 3340 Box
10981 3232 Box
10981 3349 Box
10981 3291 Box
10981 3270 Box
11010 3531 Box
11010 3129 Box
11010 3586 Box
11010 3036 Box
11010 3413 Box
11039 3445 Box
11039 3223 Box
11039 3248 Box
11039 3219 Box
11039 3527 Box
11068 3324 Box
11068 3468 Box
11068 3373 Box
11068 3219 Box
11068 3390 Box
11096 3391 Box
11096 2998 Box
11096 3430 Box
11096 3254 Box
11096 3535 Box
11125 3373 Box
11125 3135 Box
11125 3363 Box
11125 3606 Box
11125 3339 Box
11154 3515 Box
11154 3479 Box
11154 3602 Box
11154 3321 Box
11154 2990 Box
11183 3526 Box
11183 3350 Box
11183 3355 Box
11183 3345 Box
11183 3302 Box
11212 3087 Box
11212 3395 Box
11212 3622 Box
11212 3470 Box
11212 3538 Box
11240 3324 Box
11240 3398 Box
11240 3417 Box
11240 3455 Box
11240 3555 Box
11269 3397 Box
11269 3492 Box
11269 3394 Box
11269 3350 Box
11269 3267 Box
11298 3240 Box
11298 3382 Box
11298 3400 Box
11298 3474 Box
11298 3400 Box
11327 3434 Box
11327 3576 Box
11327 3243 Box
11327 3220 Box
11327 3371 Box
11356 3652 Box
11356 3469 Box
11356 3410 Box
11356 3430 Box
11356 3541 Box
11384 3442 Box
11384 3625 Box
11384 3134 Box
11384 3341 Box
11384 3212 Box
11413 3183 Box
11413 3637 Box
11413 3414 Box
11413 3171 Box
11413 3357 Box
11442 3407 Box
11442 3308 Box
11442 3141 Box
11442 3239 Box
11442 3408 Box
11471 3569 Box
11471 3358 Box
11471 3382 Box
11471 3452 Box
11471 3538 Box
11500 3284 Box
11500 3295 Box
11500 3611 Box
11500 3534 Box
11500 2877 Box
11528 3195 Box
11528 3298 Box
11528 2884 Box
11528 3336 Box
11528 3650 Box
11557 3085 Box
11557 3492 Box
11557 3449 Box
11557 3469 Box
11557 3418 Box
11586 3315 Box
11586 3373 Box
11586 3333 Box
11586 3361 Box
11586 3155 Box
11615 3425 Box
11615 3167 Box
11615 3074 Box
11615 3239 Box
11615 3472 Box
11644 3566 Box
11644 3310 Box
11644 3483 Box
11644 3445 Box
11644 3550 Box
11672 3376 Box
11672 2899 Box
11672 3530 Box
11672 3225 Box
11672 3368 Box
11701 3374 Box
11701 3198 Box
11701 3394 Box
11701 3163 Box
11701 3116 Box
11730 3285 Box
11730 3410 Box
11730 3335 Box
11730 3510 Box
11730 3421 Box
11759 3642 Box
11759 3438 Box
11759 3284 Box
11759 3036 Box
11759 3612 Box
11788 3657 Box
11788 3190 Box
11788 3407 Box
11788 3129 Box
11788 3380 Box
11816 3204 Box
11816 3495 Box
11816 3492 Box
11816 3466 Box
11816 3330 Box
11845 3377 Box
11845 3233 Box
11845 3427 Box
11845 3373 Box
11845 3527 Box
11874 3213 Box
11874 3556 Box
11874 3363 Box
11874 3340 Box
11874 3282 Box
11903 3434 Box
11903 3289 Box
11903 3385 Box
11903 3447 Box
11903 3155 Box
11932 3358 Box
11932 3353 Box
11932 3228 Box
11932 3147 Box
11932 3446 Box
11960 3523 Box
11960 3342 Box
11960 3047 Box
11960 3070 Box
11960 3324 Box
11989 3411 Box
11989 3360 Box
11989 3303 Box
11989 3163 Box
11989 3459 Box
12018 3127 Box
12018 3419 Box
12018 3179 Box
12018 3232 Box
12018 3222 Box
12047 3527 Box
12047 3571 Box
12047 3149 Box
12047 3600 Box
12047 2988 Box
12076 2994 Box
12076 3822 Box
12076 3419 Box
12076 3367 Box
12076 3385 Box
12104 3306 Box
12104 3380 Box
12104 3461 Box
12104 3501 Box
12104 3201 Box
12133 3344 Box
12133 3511 Box
12133 3247 Box
12133 3370 Box
12133 3464 Box
12162 3064 Box
12162 3505 Box
12162 3279 Box
12162 3661 Box
12162 3528 Box
12191 3187 Box
12191 3490 Box
12191 3242 Box
12191 3529 Box
12191 3293 Box
12220 3548 Box
12220 3356 Box
12220 3556 Box
12220 3414 Box
12220 3486 Box
12248 3460 Box
12248 3485 Box
12248 3352 Box
12248 3131 Box
12248 3348 Box
12277 3528 Box
12277 3592 Box
12277 3356 Box
12277 3470 Box
12277 3319 Box
12306 3621 Box
12306 3391 Box
12306 3372 Box
12306 3577 Box
12306 3271 Box
12335 3337 Box
12335 3417 Box
12335 3412 Box
12335 3147 Box
12335 3611 Box
12364 3200 Box
12364 3270 Box
12364 3288 Box
12364 3398 Box
12364 3559 Box
12392 3350 Box
12392 3552 Box
12392 3329 Box
12392 3510 Box
12392 3451 Box
12421 3576 Box
12421 3399 Box
12421 3524 Box
12421 3204 Box
12421 3407 Box
12450 3562 Box
12450 3450 Box
12450 3494 Box
12450 3398 Box
12450 3362 Box
12479 3404 Box
12479 3462 Box
12479 3323 Box
12479 3403 Box
12479 3327 Box
12508 3364 Box
12508 3384 Box
12508 3403 Box
12508 3567 Box
12508 3433 Box
12537 3250 Box
12537 3305 Box
12537 3214 Box
12537 3563 Box
12537 3289 Box
12565 3282 Box
12565 3426 Box
12565 2972 Box
12565 3553 Box
12565 3418 Box
12594 3322 Box
12594 3490 Box
12594 3433 Box
12594 3294 Box
12594 3665 Box
12623 3555 Box
12623 3397 Box
12623 3350 Box
12623 3348 Box
12623 3163 Box
12652 3748 Box
12652 3518 Box
12652 3530 Box
12652 3227 Box
12652 3456 Box
12681 3301 Box
12681 3316 Box
12681 3577 Box
12681 3514 Box
12681 3278 Box
12709 3580 Box
12709 3517 Box
12709 3128 Box
12709 3527 Box
12709 3314 Box
12738 3272 Box
12738 3628 Box
12738 3503 Box
12738 3551 Box
12738 3560 Box
12767 3145 Box
12767 3460 Box
12767 3417 Box
12767 3235 Box
12767 3645 Box
12796 3472 Box
12796 3642 Box
12796 3208 Box
12796 3348 Box
12796 3540 Box
12825 3491 Box
12825 3673 Box
12825 3510 Box
12825 3322 Box
12825 3398 Box
12853 3341 Box
12853 3618 Box
12853 3271 Box
12853 3535 Box
12853 3249 Box
12882 3465 Box
12882 3572 Box
12882 3569 Box
12882 3323 Box
12882 3438 Box
12911 3384 Box
12911 3444 Box
12911 3348 Box
12911 3458 Box
12911 3388 Box
12940 3196 Box
12940 3438 Box
12940 3389 Box
12940 3433 Box
12940 3246 Box
12969 3303 Box
12969 3455 Box
12969 3251 Box
12969 3166 Box
12969 3304 Box
12997 3481 Box
12997 3658 Box
12997 3441 Box
12997 3195 Box
12997 3565 Box
13026 3510 Box
13026 3194 Box
13026 3398 Box
13026 3374 Box
13026 3362 Box
13055 3320 Box
13055 3410 Box
13055 3193 Box
13055 3677 Box
13055 3466 Box
13084 3537 Box
13084 3464 Box
13084 3587 Box
13084 3540 Box
13084 3499 Box
13113 3382 Box
13113 3584 Box
13113 3483 Box
13113 3512 Box
13113 3478 Box
13141 3465 Box
13141 3498 Box
13141 3562 Box
13141 3431 Box
13141 3311 Box
13170 3105 Box
13170 3376 Box
13170 3505 Box
13170 3738 Box
13170 3570 Box
13199 3246 Box
13199 3376 Box
13199 3524 Box
13199 3485 Box
13199 3402 Box
13228 3320 Box
13228 3410 Box
13228 3590 Box
13228 3670 Box
13228 3420 Box
13257 3467 Box
13257 3232 Box
13257 3554 Box
13257 3636 Box
13257 3170 Box
13285 3356 Box
13285 3350 Box
13285 3420 Box
13285 3571 Box
13285 3453 Box
13314 3612 Box
13314 3315 Box
13314 3435 Box
13314 3422 Box
13314 3579 Box
13343 3554 Box
13343 3383 Box
13343 3745 Box
13343 3547 Box
13343 3352 Box
13372 3399 Box
13372 3305 Box
13372 3441 Box
13372 3441 Box
13372 3482 Box
13401 3362 Box
13401 3488 Box
13401 3619 Box
13401 3480 Box
13401 3636 Box
13429 3458 Box
13429 3541 Box
13429 3494 Box
13429 3580 Box
13429 3496 Box
13458 3532 Box
13458 3486 Box
13458 3250 Box
13458 3354 Box
13458 3512 Box
13487 3549 Box
13487 3304 Box
13487 3607 Box
13487 3321 Box
13487 3488 Box
13516 3594 Box
13516 3615 Box
13516 3383 Box
13516 3454 Box
13516 3320 Box
13545 3282 Box
13545 3320 Box
13545 3459 Box
13545 3476 Box
13545 3443 Box
13573 3479 Box
13573 3442 Box
13573 3533 Box
13573 3214 Box
13573 3299 Box
13602 3636 Box
13602 3298 Box
13602 3511 Box
13602 3274 Box
13602 3509 Box
13631 3403 Box
13631 3449 Box
13631 3665 Box
13631 3448 Box
13631 3589 Box
13660 3620 Box
13660 3406 Box
13660 3483 Box
13660 3365 Box
13660 3478 Box
13689 3494 Box
13689 3488 Box
13689 3349 Box
13689 3611 Box
13689 3478 Box
13717 3564 Box
13717 3430 Box
13717 3507 Box
13717 3326 Box
13717 3408 Box
13746 3617 Box
13746 3597 Box
13746 3416 Box
13746 3364 Box
13746 3538 Box
13775 3400 Box
13775 3609 Box
13775 3169 Box
13775 3413 Box
13775 3498 Box
1.000 UL
LTb
LCb setrgbcolor
814 4837 N
814 704 L
12961 0 V
0 4133 V
814 4837 L
Z stroke
1.000 UP
1.000 UL
LTb
stroke
grestore
end
showpage
%%Trailer
