%!PS-Adobe-2.0 EPSF-2.0
%%Title: /home/yummiii/Masterarbeit/Thesis/document/bilder/speedupNormalStates_s.tex
%%Creator: gnuplot 4.6 patchlevel 5
%%CreationDate: Tue Jan  5 11:02:34 2016
%%DocumentFonts: 
%%BoundingBox: 50 50 758 305
%%EndComments
%%BeginProlog
/gnudict 256 dict def
gnudict begin
%
% The following true/false flags may be edited by hand if desired.
% The unit line width and grayscale image gamma correction may also be changed.
%
/Color true def
/Blacktext true def
/Solid false def
/Dashlength 1 def
/Landscape false def
/Level1 false def
/Rounded false def
/ClipToBoundingBox false def
/SuppressPDFMark false def
/TransparentPatterns false def
/gnulinewidth 5.000 def
/userlinewidth gnulinewidth def
/Gamma 1.0 def
/BackgroundColor {-1.000 -1.000 -1.000} def
%
/vshift -73 def
/dl1 {
  10.0 Dashlength mul mul
  Rounded { currentlinewidth 0.75 mul sub dup 0 le { pop 0.01 } if } if
} def
/dl2 {
  10.0 Dashlength mul mul
  Rounded { currentlinewidth 0.75 mul add } if
} def
/hpt_ 31.5 def
/vpt_ 31.5 def
/hpt hpt_ def
/vpt vpt_ def
/doclip {
  ClipToBoundingBox {
    newpath 50 50 moveto 758 50 lineto 758 305 lineto 50 305 lineto closepath
    clip
  } if
} def
%
% Gnuplot Prolog Version 4.6 (September 2012)
%
%/SuppressPDFMark true def
%
/M {moveto} bind def
/L {lineto} bind def
/R {rmoveto} bind def
/V {rlineto} bind def
/N {newpath moveto} bind def
/Z {closepath} bind def
/C {setrgbcolor} bind def
/f {rlineto fill} bind def
/g {setgray} bind def
/Gshow {show} def   % May be redefined later in the file to support UTF-8
/vpt2 vpt 2 mul def
/hpt2 hpt 2 mul def
/Lshow {currentpoint stroke M 0 vshift R 
	Blacktext {gsave 0 setgray show grestore} {show} ifelse} def
/Rshow {currentpoint stroke M dup stringwidth pop neg vshift R
	Blacktext {gsave 0 setgray show grestore} {show} ifelse} def
/Cshow {currentpoint stroke M dup stringwidth pop -2 div vshift R 
	Blacktext {gsave 0 setgray show grestore} {show} ifelse} def
/UP {dup vpt_ mul /vpt exch def hpt_ mul /hpt exch def
  /hpt2 hpt 2 mul def /vpt2 vpt 2 mul def} def
/DL {Color {setrgbcolor Solid {pop []} if 0 setdash}
 {pop pop pop 0 setgray Solid {pop []} if 0 setdash} ifelse} def
/BL {stroke userlinewidth 2 mul setlinewidth
	Rounded {1 setlinejoin 1 setlinecap} if} def
/AL {stroke userlinewidth 2 div setlinewidth
	Rounded {1 setlinejoin 1 setlinecap} if} def
/UL {dup gnulinewidth mul /userlinewidth exch def
	dup 1 lt {pop 1} if 10 mul /udl exch def} def
/PL {stroke userlinewidth setlinewidth
	Rounded {1 setlinejoin 1 setlinecap} if} def
3.8 setmiterlimit
% Default Line colors
/LCw {1 1 1} def
/LCb {0 0 0} def
/LCa {0 0 0} def
/LC0 {1 0 0} def
/LC1 {0 1 0} def
/LC2 {0 0 1} def
/LC3 {1 0 1} def
/LC4 {0 1 1} def
/LC5 {1 1 0} def
/LC6 {0 0 0} def
/LC7 {1 0.3 0} def
/LC8 {0.5 0.5 0.5} def
% Default Line Types
/LTw {PL [] 1 setgray} def
/LTb {BL [] LCb DL} def
/LTa {AL [1 udl mul 2 udl mul] 0 setdash LCa setrgbcolor} def
/LT0 {PL [] LC0 DL} def
/LT1 {PL [4 dl1 2 dl2] LC1 DL} def
/LT2 {PL [2 dl1 3 dl2] LC2 DL} def
/LT3 {PL [1 dl1 1.5 dl2] LC3 DL} def
/LT4 {PL [6 dl1 2 dl2 1 dl1 2 dl2] LC4 DL} def
/LT5 {PL [3 dl1 3 dl2 1 dl1 3 dl2] LC5 DL} def
/LT6 {PL [2 dl1 2 dl2 2 dl1 6 dl2] LC6 DL} def
/LT7 {PL [1 dl1 2 dl2 6 dl1 2 dl2 1 dl1 2 dl2] LC7 DL} def
/LT8 {PL [2 dl1 2 dl2 2 dl1 2 dl2 2 dl1 2 dl2 2 dl1 4 dl2] LC8 DL} def
/Pnt {stroke [] 0 setdash gsave 1 setlinecap M 0 0 V stroke grestore} def
/Dia {stroke [] 0 setdash 2 copy vpt add M
  hpt neg vpt neg V hpt vpt neg V
  hpt vpt V hpt neg vpt V closepath stroke
  Pnt} def
/Pls {stroke [] 0 setdash vpt sub M 0 vpt2 V
  currentpoint stroke M
  hpt neg vpt neg R hpt2 0 V stroke
 } def
/Box {stroke [] 0 setdash 2 copy exch hpt sub exch vpt add M
  0 vpt2 neg V hpt2 0 V 0 vpt2 V
  hpt2 neg 0 V closepath stroke
  Pnt} def
/Crs {stroke [] 0 setdash exch hpt sub exch vpt add M
  hpt2 vpt2 neg V currentpoint stroke M
  hpt2 neg 0 R hpt2 vpt2 V stroke} def
/TriU {stroke [] 0 setdash 2 copy vpt 1.12 mul add M
  hpt neg vpt -1.62 mul V
  hpt 2 mul 0 V
  hpt neg vpt 1.62 mul V closepath stroke
  Pnt} def
/Star {2 copy Pls Crs} def
/BoxF {stroke [] 0 setdash exch hpt sub exch vpt add M
  0 vpt2 neg V hpt2 0 V 0 vpt2 V
  hpt2 neg 0 V closepath fill} def
/TriUF {stroke [] 0 setdash vpt 1.12 mul add M
  hpt neg vpt -1.62 mul V
  hpt 2 mul 0 V
  hpt neg vpt 1.62 mul V closepath fill} def
/TriD {stroke [] 0 setdash 2 copy vpt 1.12 mul sub M
  hpt neg vpt 1.62 mul V
  hpt 2 mul 0 V
  hpt neg vpt -1.62 mul V closepath stroke
  Pnt} def
/TriDF {stroke [] 0 setdash vpt 1.12 mul sub M
  hpt neg vpt 1.62 mul V
  hpt 2 mul 0 V
  hpt neg vpt -1.62 mul V closepath fill} def
/DiaF {stroke [] 0 setdash vpt add M
  hpt neg vpt neg V hpt vpt neg V
  hpt vpt V hpt neg vpt V closepath fill} def
/Pent {stroke [] 0 setdash 2 copy gsave
  translate 0 hpt M 4 {72 rotate 0 hpt L} repeat
  closepath stroke grestore Pnt} def
/PentF {stroke [] 0 setdash gsave
  translate 0 hpt M 4 {72 rotate 0 hpt L} repeat
  closepath fill grestore} def
/Circle {stroke [] 0 setdash 2 copy
  hpt 0 360 arc stroke Pnt} def
/CircleF {stroke [] 0 setdash hpt 0 360 arc fill} def
/C0 {BL [] 0 setdash 2 copy moveto vpt 90 450 arc} bind def
/C1 {BL [] 0 setdash 2 copy moveto
	2 copy vpt 0 90 arc closepath fill
	vpt 0 360 arc closepath} bind def
/C2 {BL [] 0 setdash 2 copy moveto
	2 copy vpt 90 180 arc closepath fill
	vpt 0 360 arc closepath} bind def
/C3 {BL [] 0 setdash 2 copy moveto
	2 copy vpt 0 180 arc closepath fill
	vpt 0 360 arc closepath} bind def
/C4 {BL [] 0 setdash 2 copy moveto
	2 copy vpt 180 270 arc closepath fill
	vpt 0 360 arc closepath} bind def
/C5 {BL [] 0 setdash 2 copy moveto
	2 copy vpt 0 90 arc
	2 copy moveto
	2 copy vpt 180 270 arc closepath fill
	vpt 0 360 arc} bind def
/C6 {BL [] 0 setdash 2 copy moveto
	2 copy vpt 90 270 arc closepath fill
	vpt 0 360 arc closepath} bind def
/C7 {BL [] 0 setdash 2 copy moveto
	2 copy vpt 0 270 arc closepath fill
	vpt 0 360 arc closepath} bind def
/C8 {BL [] 0 setdash 2 copy moveto
	2 copy vpt 270 360 arc closepath fill
	vpt 0 360 arc closepath} bind def
/C9 {BL [] 0 setdash 2 copy moveto
	2 copy vpt 270 450 arc closepath fill
	vpt 0 360 arc closepath} bind def
/C10 {BL [] 0 setdash 2 copy 2 copy moveto vpt 270 360 arc closepath fill
	2 copy moveto
	2 copy vpt 90 180 arc closepath fill
	vpt 0 360 arc closepath} bind def
/C11 {BL [] 0 setdash 2 copy moveto
	2 copy vpt 0 180 arc closepath fill
	2 copy moveto
	2 copy vpt 270 360 arc closepath fill
	vpt 0 360 arc closepath} bind def
/C12 {BL [] 0 setdash 2 copy moveto
	2 copy vpt 180 360 arc closepath fill
	vpt 0 360 arc closepath} bind def
/C13 {BL [] 0 setdash 2 copy moveto
	2 copy vpt 0 90 arc closepath fill
	2 copy moveto
	2 copy vpt 180 360 arc closepath fill
	vpt 0 360 arc closepath} bind def
/C14 {BL [] 0 setdash 2 copy moveto
	2 copy vpt 90 360 arc closepath fill
	vpt 0 360 arc} bind def
/C15 {BL [] 0 setdash 2 copy vpt 0 360 arc closepath fill
	vpt 0 360 arc closepath} bind def
/Rec {newpath 4 2 roll moveto 1 index 0 rlineto 0 exch rlineto
	neg 0 rlineto closepath} bind def
/Square {dup Rec} bind def
/Bsquare {vpt sub exch vpt sub exch vpt2 Square} bind def
/S0 {BL [] 0 setdash 2 copy moveto 0 vpt rlineto BL Bsquare} bind def
/S1 {BL [] 0 setdash 2 copy vpt Square fill Bsquare} bind def
/S2 {BL [] 0 setdash 2 copy exch vpt sub exch vpt Square fill Bsquare} bind def
/S3 {BL [] 0 setdash 2 copy exch vpt sub exch vpt2 vpt Rec fill Bsquare} bind def
/S4 {BL [] 0 setdash 2 copy exch vpt sub exch vpt sub vpt Square fill Bsquare} bind def
/S5 {BL [] 0 setdash 2 copy 2 copy vpt Square fill
	exch vpt sub exch vpt sub vpt Square fill Bsquare} bind def
/S6 {BL [] 0 setdash 2 copy exch vpt sub exch vpt sub vpt vpt2 Rec fill Bsquare} bind def
/S7 {BL [] 0 setdash 2 copy exch vpt sub exch vpt sub vpt vpt2 Rec fill
	2 copy vpt Square fill Bsquare} bind def
/S8 {BL [] 0 setdash 2 copy vpt sub vpt Square fill Bsquare} bind def
/S9 {BL [] 0 setdash 2 copy vpt sub vpt vpt2 Rec fill Bsquare} bind def
/S10 {BL [] 0 setdash 2 copy vpt sub vpt Square fill 2 copy exch vpt sub exch vpt Square fill
	Bsquare} bind def
/S11 {BL [] 0 setdash 2 copy vpt sub vpt Square fill 2 copy exch vpt sub exch vpt2 vpt Rec fill
	Bsquare} bind def
/S12 {BL [] 0 setdash 2 copy exch vpt sub exch vpt sub vpt2 vpt Rec fill Bsquare} bind def
/S13 {BL [] 0 setdash 2 copy exch vpt sub exch vpt sub vpt2 vpt Rec fill
	2 copy vpt Square fill Bsquare} bind def
/S14 {BL [] 0 setdash 2 copy exch vpt sub exch vpt sub vpt2 vpt Rec fill
	2 copy exch vpt sub exch vpt Square fill Bsquare} bind def
/S15 {BL [] 0 setdash 2 copy Bsquare fill Bsquare} bind def
/D0 {gsave translate 45 rotate 0 0 S0 stroke grestore} bind def
/D1 {gsave translate 45 rotate 0 0 S1 stroke grestore} bind def
/D2 {gsave translate 45 rotate 0 0 S2 stroke grestore} bind def
/D3 {gsave translate 45 rotate 0 0 S3 stroke grestore} bind def
/D4 {gsave translate 45 rotate 0 0 S4 stroke grestore} bind def
/D5 {gsave translate 45 rotate 0 0 S5 stroke grestore} bind def
/D6 {gsave translate 45 rotate 0 0 S6 stroke grestore} bind def
/D7 {gsave translate 45 rotate 0 0 S7 stroke grestore} bind def
/D8 {gsave translate 45 rotate 0 0 S8 stroke grestore} bind def
/D9 {gsave translate 45 rotate 0 0 S9 stroke grestore} bind def
/D10 {gsave translate 45 rotate 0 0 S10 stroke grestore} bind def
/D11 {gsave translate 45 rotate 0 0 S11 stroke grestore} bind def
/D12 {gsave translate 45 rotate 0 0 S12 stroke grestore} bind def
/D13 {gsave translate 45 rotate 0 0 S13 stroke grestore} bind def
/D14 {gsave translate 45 rotate 0 0 S14 stroke grestore} bind def
/D15 {gsave translate 45 rotate 0 0 S15 stroke grestore} bind def
/DiaE {stroke [] 0 setdash vpt add M
  hpt neg vpt neg V hpt vpt neg V
  hpt vpt V hpt neg vpt V closepath stroke} def
/BoxE {stroke [] 0 setdash exch hpt sub exch vpt add M
  0 vpt2 neg V hpt2 0 V 0 vpt2 V
  hpt2 neg 0 V closepath stroke} def
/TriUE {stroke [] 0 setdash vpt 1.12 mul add M
  hpt neg vpt -1.62 mul V
  hpt 2 mul 0 V
  hpt neg vpt 1.62 mul V closepath stroke} def
/TriDE {stroke [] 0 setdash vpt 1.12 mul sub M
  hpt neg vpt 1.62 mul V
  hpt 2 mul 0 V
  hpt neg vpt -1.62 mul V closepath stroke} def
/PentE {stroke [] 0 setdash gsave
  translate 0 hpt M 4 {72 rotate 0 hpt L} repeat
  closepath stroke grestore} def
/CircE {stroke [] 0 setdash 
  hpt 0 360 arc stroke} def
/Opaque {gsave closepath 1 setgray fill grestore 0 setgray closepath} def
/DiaW {stroke [] 0 setdash vpt add M
  hpt neg vpt neg V hpt vpt neg V
  hpt vpt V hpt neg vpt V Opaque stroke} def
/BoxW {stroke [] 0 setdash exch hpt sub exch vpt add M
  0 vpt2 neg V hpt2 0 V 0 vpt2 V
  hpt2 neg 0 V Opaque stroke} def
/TriUW {stroke [] 0 setdash vpt 1.12 mul add M
  hpt neg vpt -1.62 mul V
  hpt 2 mul 0 V
  hpt neg vpt 1.62 mul V Opaque stroke} def
/TriDW {stroke [] 0 setdash vpt 1.12 mul sub M
  hpt neg vpt 1.62 mul V
  hpt 2 mul 0 V
  hpt neg vpt -1.62 mul V Opaque stroke} def
/PentW {stroke [] 0 setdash gsave
  translate 0 hpt M 4 {72 rotate 0 hpt L} repeat
  Opaque stroke grestore} def
/CircW {stroke [] 0 setdash 
  hpt 0 360 arc Opaque stroke} def
/BoxFill {gsave Rec 1 setgray fill grestore} def
/Density {
  /Fillden exch def
  currentrgbcolor
  /ColB exch def /ColG exch def /ColR exch def
  /ColR ColR Fillden mul Fillden sub 1 add def
  /ColG ColG Fillden mul Fillden sub 1 add def
  /ColB ColB Fillden mul Fillden sub 1 add def
  ColR ColG ColB setrgbcolor} def
/BoxColFill {gsave Rec PolyFill} def
/PolyFill {gsave Density fill grestore grestore} def
/h {rlineto rlineto rlineto gsave closepath fill grestore} bind def
%
% PostScript Level 1 Pattern Fill routine for rectangles
% Usage: x y w h s a XX PatternFill
%	x,y = lower left corner of box to be filled
%	w,h = width and height of box
%	  a = angle in degrees between lines and x-axis
%	 XX = 0/1 for no/yes cross-hatch
%
/PatternFill {gsave /PFa [ 9 2 roll ] def
  PFa 0 get PFa 2 get 2 div add PFa 1 get PFa 3 get 2 div add translate
  PFa 2 get -2 div PFa 3 get -2 div PFa 2 get PFa 3 get Rec
  TransparentPatterns {} {gsave 1 setgray fill grestore} ifelse
  clip
  currentlinewidth 0.5 mul setlinewidth
  /PFs PFa 2 get dup mul PFa 3 get dup mul add sqrt def
  0 0 M PFa 5 get rotate PFs -2 div dup translate
  0 1 PFs PFa 4 get div 1 add floor cvi
	{PFa 4 get mul 0 M 0 PFs V} for
  0 PFa 6 get ne {
	0 1 PFs PFa 4 get div 1 add floor cvi
	{PFa 4 get mul 0 2 1 roll M PFs 0 V} for
 } if
  stroke grestore} def
%
/languagelevel where
 {pop languagelevel} {1} ifelse
 2 lt
	{/InterpretLevel1 true def}
	{/InterpretLevel1 Level1 def}
 ifelse
%
% PostScript level 2 pattern fill definitions
%
/Level2PatternFill {
/Tile8x8 {/PaintType 2 /PatternType 1 /TilingType 1 /BBox [0 0 8 8] /XStep 8 /YStep 8}
	bind def
/KeepColor {currentrgbcolor [/Pattern /DeviceRGB] setcolorspace} bind def
<< Tile8x8
 /PaintProc {0.5 setlinewidth pop 0 0 M 8 8 L 0 8 M 8 0 L stroke} 
>> matrix makepattern
/Pat1 exch def
<< Tile8x8
 /PaintProc {0.5 setlinewidth pop 0 0 M 8 8 L 0 8 M 8 0 L stroke
	0 4 M 4 8 L 8 4 L 4 0 L 0 4 L stroke}
>> matrix makepattern
/Pat2 exch def
<< Tile8x8
 /PaintProc {0.5 setlinewidth pop 0 0 M 0 8 L
	8 8 L 8 0 L 0 0 L fill}
>> matrix makepattern
/Pat3 exch def
<< Tile8x8
 /PaintProc {0.5 setlinewidth pop -4 8 M 8 -4 L
	0 12 M 12 0 L stroke}
>> matrix makepattern
/Pat4 exch def
<< Tile8x8
 /PaintProc {0.5 setlinewidth pop -4 0 M 8 12 L
	0 -4 M 12 8 L stroke}
>> matrix makepattern
/Pat5 exch def
<< Tile8x8
 /PaintProc {0.5 setlinewidth pop -2 8 M 4 -4 L
	0 12 M 8 -4 L 4 12 M 10 0 L stroke}
>> matrix makepattern
/Pat6 exch def
<< Tile8x8
 /PaintProc {0.5 setlinewidth pop -2 0 M 4 12 L
	0 -4 M 8 12 L 4 -4 M 10 8 L stroke}
>> matrix makepattern
/Pat7 exch def
<< Tile8x8
 /PaintProc {0.5 setlinewidth pop 8 -2 M -4 4 L
	12 0 M -4 8 L 12 4 M 0 10 L stroke}
>> matrix makepattern
/Pat8 exch def
<< Tile8x8
 /PaintProc {0.5 setlinewidth pop 0 -2 M 12 4 L
	-4 0 M 12 8 L -4 4 M 8 10 L stroke}
>> matrix makepattern
/Pat9 exch def
/Pattern1 {PatternBgnd KeepColor Pat1 setpattern} bind def
/Pattern2 {PatternBgnd KeepColor Pat2 setpattern} bind def
/Pattern3 {PatternBgnd KeepColor Pat3 setpattern} bind def
/Pattern4 {PatternBgnd KeepColor Landscape {Pat5} {Pat4} ifelse setpattern} bind def
/Pattern5 {PatternBgnd KeepColor Landscape {Pat4} {Pat5} ifelse setpattern} bind def
/Pattern6 {PatternBgnd KeepColor Landscape {Pat9} {Pat6} ifelse setpattern} bind def
/Pattern7 {PatternBgnd KeepColor Landscape {Pat8} {Pat7} ifelse setpattern} bind def
} def
%
%
%End of PostScript Level 2 code
%
/PatternBgnd {
  TransparentPatterns {} {gsave 1 setgray fill grestore} ifelse
} def
%
% Substitute for Level 2 pattern fill codes with
% grayscale if Level 2 support is not selected.
%
/Level1PatternFill {
/Pattern1 {0.250 Density} bind def
/Pattern2 {0.500 Density} bind def
/Pattern3 {0.750 Density} bind def
/Pattern4 {0.125 Density} bind def
/Pattern5 {0.375 Density} bind def
/Pattern6 {0.625 Density} bind def
/Pattern7 {0.875 Density} bind def
} def
%
% Now test for support of Level 2 code
%
Level1 {Level1PatternFill} {Level2PatternFill} ifelse
%
/Symbol-Oblique /Symbol findfont [1 0 .167 1 0 0] makefont
dup length dict begin {1 index /FID eq {pop pop} {def} ifelse} forall
currentdict end definefont pop
Level1 SuppressPDFMark or 
{} {
/SDict 10 dict def
systemdict /pdfmark known not {
  userdict /pdfmark systemdict /cleartomark get put
} if
SDict begin [
  /Title (/home/yummiii/Masterarbeit/Thesis/document/bilder/speedupNormalStates_s.tex)
  /Subject (gnuplot plot)
  /Creator (gnuplot 4.6 patchlevel 5)
  /Author (yummiii)
%  /Producer (gnuplot)
%  /Keywords ()
  /CreationDate (Tue Jan  5 11:02:34 2016)
  /DOCINFO pdfmark
end
} ifelse
end
%%EndProlog
%%Page: 1 1
gnudict begin
gsave
doclip
50 50 translate
0.050 0.050 scale
0 setgray
newpath
1.000 UL
LTb
LCb setrgbcolor
814 704 M
63 0 V
12898 0 R
-63 0 V
stroke
LTb
814 1393 M
63 0 V
12898 0 R
-63 0 V
814 2082 M
63 0 V
12898 0 R
-63 0 V
814 2771 M
63 0 V
12898 0 R
-63 0 V
814 3459 M
63 0 V
12898 0 R
-63 0 V
814 4148 M
63 0 V
12898 0 R
-63 0 V
814 4837 M
63 0 V
12898 0 R
-63 0 V
814 704 M
0 63 V
0 4070 R
0 -63 V
2254 704 M
0 63 V
0 4070 R
0 -63 V
3694 704 M
0 63 V
0 4070 R
0 -63 V
5134 704 M
0 63 V
0 4070 R
0 -63 V
6574 704 M
0 63 V
0 4070 R
0 -63 V
8015 704 M
0 63 V
0 4070 R
0 -63 V
9455 704 M
0 63 V
0 4070 R
0 -63 V
10895 704 M
0 63 V
0 4070 R
0 -63 V
12335 704 M
0 63 V
0 4070 R
0 -63 V
13775 704 M
0 63 V
0 4070 R
0 -63 V
stroke
814 4837 N
814 704 L
12961 0 V
0 4133 V
814 4837 L
Z stroke
1.000 UP
1.000 UL
LTb
1.000 UP
1.000 UL
LT0
LC0 setrgbcolor
0.00 0.00 0.00 C 814 2602 Box
814 2850 Box
814 2957 Box
814 2562 Box
814 2701 Box
843 3109 Box
843 2766 Box
843 3047 Box
843 3411 Box
843 2656 Box
872 2051 Box
872 2946 Box
872 3169 Box
872 3184 Box
872 2411 Box
900 2743 Box
900 3071 Box
900 1405 Box
900 3285 Box
900 2470 Box
929 1514 Box
929 2632 Box
929 2306 Box
929 3481 Box
929 2236 Box
958 2989 Box
958 3044 Box
958 2930 Box
958 2739 Box
958 2132 Box
987 2104 Box
987 2670 Box
987 2490 Box
987 3370 Box
987 3053 Box
1016 3021 Box
1016 2719 Box
1016 3047 Box
1016 2633 Box
1016 2743 Box
1044 3250 Box
1044 2304 Box
1044 3142 Box
1044 3635 Box
1044 2846 Box
1073 2944 Box
1073 3209 Box
1073 2215 Box
1073 2868 Box
1073 2950 Box
1102 2132 Box
1102 3184 Box
1102 1984 Box
1102 2481 Box
1102 2812 Box
1131 2752 Box
1131 2768 Box
1131 3553 Box
1131 3154 Box
1131 2209 Box
1160 2741 Box
1160 2844 Box
1160 3302 Box
1160 2784 Box
1160 3007 Box
1188 2196 Box
1188 2412 Box
1188 2685 Box
1188 3218 Box
1188 2912 Box
1217 2074 Box
1217 2823 Box
1217 2694 Box
1217 2899 Box
1217 3110 Box
1246 2148 Box
1246 2761 Box
1246 2845 Box
1246 2719 Box
1246 1724 Box
1275 3077 Box
1275 2501 Box
1275 3141 Box
1275 2354 Box
1275 2592 Box
1304 2784 Box
1304 3133 Box
1304 2846 Box
1304 3384 Box
1304 3082 Box
1332 3215 Box
1332 2285 Box
1332 3096 Box
1332 2141 Box
1332 2908 Box
1361 2655 Box
1361 2164 Box
1361 2959 Box
1361 2481 Box
1361 2181 Box
1390 2488 Box
1390 2251 Box
1390 2386 Box
1390 3105 Box
1390 3579 Box
1419 2887 Box
1419 2909 Box
1419 2188 Box
1419 1918 Box
1419 2542 Box
1448 3187 Box
1448 2156 Box
1448 3518 Box
1448 2626 Box
1448 3114 Box
1476 2727 Box
1476 2518 Box
1476 3322 Box
1476 3090 Box
1476 3145 Box
1505 2693 Box
1505 3123 Box
1505 2743 Box
1505 2022 Box
1505 2629 Box
1534 2455 Box
1534 2973 Box
1534 3130 Box
1534 3435 Box
1534 2755 Box
1563 2958 Box
1563 2789 Box
1563 2970 Box
1563 2703 Box
1563 3330 Box
1592 3205 Box
1592 3185 Box
1592 3322 Box
1592 2970 Box
1592 2536 Box
1620 2935 Box
1620 3236 Box
1620 2481 Box
1620 2913 Box
1620 2988 Box
1649 2627 Box
1649 2916 Box
1649 3164 Box
1649 2423 Box
1649 2713 Box
1678 2803 Box
1678 3254 Box
1678 2706 Box
1678 2373 Box
1678 2499 Box
1707 2859 Box
1707 2685 Box
1707 2916 Box
1707 2994 Box
1707 3190 Box
1736 2336 Box
1736 2622 Box
1736 3039 Box
1736 3172 Box
1736 2672 Box
1764 3047 Box
1764 2583 Box
1764 3096 Box
1764 2610 Box
1764 2884 Box
1793 3010 Box
1793 2679 Box
1793 3445 Box
1793 2869 Box
1793 2804 Box
1822 2747 Box
1822 2685 Box
1822 3152 Box
1822 2913 Box
1822 2779 Box
1851 2519 Box
1851 2834 Box
1851 3198 Box
1851 2802 Box
1851 2798 Box
1880 3001 Box
1880 2658 Box
1880 2977 Box
1880 2197 Box
1880 2838 Box
1908 2775 Box
1908 2785 Box
1908 2085 Box
1908 2289 Box
1908 3058 Box
1937 2826 Box
1937 2322 Box
1937 2528 Box
1937 2747 Box
1937 2858 Box
1966 2670 Box
1966 3312 Box
1966 2762 Box
1966 3061 Box
1966 2358 Box
1995 2903 Box
1995 2859 Box
1995 3333 Box
1995 2871 Box
1995 3013 Box
2024 2995 Box
2024 2988 Box
2024 3033 Box
2024 2441 Box
2024 2543 Box
2052 2294 Box
2052 2909 Box
2052 2849 Box
2052 2856 Box
2052 3285 Box
2081 3109 Box
2081 3191 Box
2081 2447 Box
2081 2904 Box
2081 2966 Box
2110 3183 Box
2110 2780 Box
2110 2984 Box
2110 2452 Box
2110 3057 Box
2139 2922 Box
2139 2844 Box
2139 3164 Box
2139 2692 Box
2139 3069 Box
2168 3031 Box
2168 3201 Box
2168 2992 Box
2168 2969 Box
2168 1831 Box
2197 3222 Box
2197 3195 Box
2197 3030 Box
2197 2052 Box
2197 3345 Box
2225 3237 Box
2225 3147 Box
2225 3171 Box
2225 2637 Box
2225 3078 Box
2254 2987 Box
2254 3130 Box
2254 1859 Box
2254 3108 Box
2254 3178 Box
2283 2054 Box
2283 2661 Box
2283 3130 Box
2283 3126 Box
2283 3164 Box
2312 2692 Box
2312 2578 Box
2312 3003 Box
2312 3159 Box
2312 3107 Box
2341 2928 Box
2341 2441 Box
2341 3340 Box
2341 2865 Box
2341 3035 Box
2369 3099 Box
2369 3250 Box
2369 3129 Box
2369 2850 Box
2369 3197 Box
2398 2600 Box
2398 3421 Box
2398 3099 Box
2398 3259 Box
2398 3185 Box
2427 2820 Box
2427 3103 Box
2427 3313 Box
2427 3029 Box
2427 3158 Box
2456 3210 Box
2456 3146 Box
2456 2905 Box
2456 2357 Box
2456 2927 Box
2485 3276 Box
2485 2926 Box
2485 2986 Box
2485 3391 Box
2485 3211 Box
2513 2951 Box
2513 2664 Box
2513 2854 Box
2513 3387 Box
2513 2722 Box
2542 3136 Box
2542 2563 Box
2542 3399 Box
2542 3130 Box
2542 2775 Box
2571 3400 Box
2571 2622 Box
2571 2620 Box
2571 3070 Box
2571 3095 Box
2600 2440 Box
2600 2970 Box
2600 3048 Box
2600 2743 Box
2600 3061 Box
2629 2692 Box
2629 2526 Box
2629 3115 Box
2629 2735 Box
2629 2758 Box
2657 3475 Box
2657 2706 Box
2657 3095 Box
2657 3304 Box
2657 3145 Box
2686 1935 Box
2686 2983 Box
2686 3025 Box
2686 3438 Box
2686 2835 Box
2715 3461 Box
2715 2996 Box
2715 3251 Box
2715 2784 Box
2715 2813 Box
2744 2789 Box
2744 2704 Box
2744 2893 Box
2744 2843 Box
2744 2961 Box
2773 2650 Box
2773 3014 Box
2773 3059 Box
2773 3297 Box
2773 3363 Box
2801 2726 Box
2801 2763 Box
2801 2760 Box
2801 3218 Box
2801 3180 Box
2830 3174 Box
2830 3323 Box
2830 3228 Box
2830 3042 Box
2830 2995 Box
2859 2577 Box
2859 2187 Box
2859 3132 Box
2859 3242 Box
2859 2812 Box
2888 3322 Box
2888 2944 Box
2888 2977 Box
2888 3345 Box
2888 2906 Box
2917 2792 Box
2917 3014 Box
2917 3202 Box
2917 2675 Box
2917 2795 Box
2945 2986 Box
2945 3049 Box
2945 2699 Box
2945 3295 Box
2945 2783 Box
2974 3041 Box
2974 3461 Box
2974 3270 Box
2974 2896 Box
2974 2550 Box
3003 3095 Box
3003 3231 Box
3003 3423 Box
3003 2794 Box
3003 3441 Box
3032 3256 Box
3032 2247 Box
3032 3242 Box
3032 2517 Box
3032 2784 Box
3061 2890 Box
3061 3124 Box
3061 2598 Box
3061 2679 Box
3061 3090 Box
3089 2753 Box
3089 2929 Box
3089 3071 Box
3089 3118 Box
3089 3552 Box
3118 3332 Box
3118 2771 Box
3118 2631 Box
3118 2905 Box
3118 3697 Box
3147 2675 Box
3147 3431 Box
3147 3082 Box
3147 2724 Box
3147 3284 Box
3176 2150 Box
3176 3344 Box
3176 3439 Box
3176 3124 Box
3176 2945 Box
3205 3240 Box
3205 3371 Box
3205 3496 Box
3205 3000 Box
3205 2624 Box
3233 3121 Box
3233 3024 Box
3233 3389 Box
3233 2425 Box
3233 3015 Box
3262 3064 Box
3262 3622 Box
3262 2427 Box
3262 3160 Box
3262 3053 Box
3291 2729 Box
3291 2398 Box
3291 2989 Box
3291 3029 Box
3291 2637 Box
3320 3386 Box
3320 3175 Box
3320 3644 Box
3320 3002 Box
3320 3030 Box
3349 2801 Box
3349 3609 Box
3349 3326 Box
3349 3011 Box
3349 2871 Box
3377 2973 Box
3377 3003 Box
3377 3145 Box
3377 2173 Box
3377 3052 Box
3406 2806 Box
3406 3521 Box
3406 3500 Box
3406 2080 Box
3406 2778 Box
3435 3241 Box
3435 3450 Box
3435 3169 Box
3435 2820 Box
3435 2612 Box
3464 2959 Box
3464 3105 Box
3464 3313 Box
3464 3623 Box
3464 2958 Box
3493 2930 Box
3493 3097 Box
3493 3246 Box
3493 2832 Box
3493 2485 Box
3521 3246 Box
3521 3173 Box
3521 2949 Box
3521 2974 Box
3521 2491 Box
3550 3310 Box
3550 3103 Box
3550 2912 Box
3550 2782 Box
3550 2912 Box
3579 3101 Box
3579 3198 Box
3579 3088 Box
3579 3226 Box
3579 3453 Box
3608 2141 Box
3608 2667 Box
3608 3350 Box
3608 2393 Box
3608 3490 Box
3637 3215 Box
3637 3483 Box
3637 3394 Box
3637 2612 Box
3637 3079 Box
3665 3298 Box
3665 3397 Box
3665 3654 Box
3665 3173 Box
3665 2959 Box
3694 2919 Box
3694 3401 Box
3694 3247 Box
3694 3428 Box
3694 3522 Box
3723 3365 Box
3723 3385 Box
3723 3334 Box
3723 3301 Box
3723 2398 Box
3752 3173 Box
3752 3407 Box
3752 3030 Box
3752 3125 Box
3752 2523 Box
3781 3207 Box
3781 2324 Box
3781 2250 Box
3781 3639 Box
3781 3083 Box
3809 2723 Box
3809 2968 Box
3809 2745 Box
3809 2725 Box
3809 3236 Box
3838 3068 Box
3838 3352 Box
3838 2936 Box
3838 3030 Box
3838 3520 Box
3867 2715 Box
3867 3155 Box
3867 3381 Box
3867 3295 Box
3867 2868 Box
3896 2725 Box
3896 3462 Box
3896 3299 Box
3896 3715 Box
3896 2987 Box
3925 2876 Box
3925 3236 Box
3925 2960 Box
3925 3040 Box
3925 3101 Box
3953 3381 Box
3953 2884 Box
3953 3166 Box
3953 2643 Box
3953 3187 Box
3982 3464 Box
3982 3190 Box
3982 2921 Box
3982 3193 Box
3982 3022 Box
4011 2944 Box
4011 3376 Box
4011 3299 Box
4011 2779 Box
4011 3406 Box
4040 3162 Box
4040 2960 Box
4040 3465 Box
4040 3108 Box
4040 2659 Box
4069 2962 Box
4069 3078 Box
4069 3098 Box
4069 3458 Box
4069 3323 Box
4097 2929 Box
4097 3187 Box
4097 3441 Box
4097 3495 Box
4097 3112 Box
4126 3271 Box
4126 2630 Box
4126 3286 Box
4126 3061 Box
4126 3924 Box
4155 3199 Box
4155 3490 Box
4155 3296 Box
4155 3200 Box
4155 3715 Box
4184 3082 Box
4184 2921 Box
4184 2858 Box
4184 3020 Box
4184 3061 Box
4213 2786 Box
4213 3375 Box
4213 3276 Box
4213 3089 Box
4213 3165 Box
4241 3436 Box
4241 3526 Box
4241 3505 Box
4241 3583 Box
4241 3366 Box
4270 3034 Box
4270 2906 Box
4270 3064 Box
4270 2972 Box
4270 3043 Box
4299 3624 Box
4299 2686 Box
4299 3379 Box
4299 3333 Box
4299 3510 Box
4328 2778 Box
4328 3208 Box
4328 2725 Box
4328 3336 Box
4328 2955 Box
4357 3166 Box
4357 3379 Box
4357 3510 Box
4357 3365 Box
4357 3334 Box
4385 3469 Box
4385 3013 Box
4385 3045 Box
4385 3255 Box
4385 3431 Box
4414 2979 Box
4414 2891 Box
4414 3120 Box
4414 2814 Box
4414 3027 Box
4443 3503 Box
4443 2975 Box
4443 3491 Box
4443 2981 Box
4443 3040 Box
4472 3185 Box
4472 3570 Box
4472 3316 Box
4472 2886 Box
4472 3079 Box
4501 3281 Box
4501 3519 Box
4501 3457 Box
4501 3333 Box
4501 2905 Box
4529 3660 Box
4529 2907 Box
4529 3064 Box
4529 3213 Box
4529 3121 Box
4558 3097 Box
4558 3163 Box
4558 3715 Box
4558 3051 Box
4558 3351 Box
4587 3259 Box
4587 3064 Box
4587 3821 Box
4587 2767 Box
4587 3546 Box
4616 3361 Box
4616 3421 Box
4616 4099 Box
4616 3440 Box
4616 3125 Box
4645 2183 Box
4645 2943 Box
4645 3363 Box
4645 3430 Box
4645 3477 Box
4673 2845 Box
4673 3467 Box
4673 3060 Box
4673 3449 Box
4673 3034 Box
4702 2731 Box
4702 3367 Box
4702 3205 Box
4702 3145 Box
4702 3261 Box
4731 3201 Box
4731 3605 Box
4731 3611 Box
4731 3009 Box
4731 3317 Box
4760 3175 Box
4760 3393 Box
4760 3069 Box
4760 3140 Box
4760 3167 Box
4789 2989 Box
4789 3500 Box
4789 3223 Box
4789 3606 Box
4789 3137 Box
4818 2912 Box
4818 2746 Box
4818 3056 Box
4818 3610 Box
4818 2855 Box
4846 3211 Box
4846 3150 Box
4846 3330 Box
4846 3427 Box
4846 2715 Box
4875 3767 Box
4875 2960 Box
4875 3592 Box
4875 3361 Box
4875 3024 Box
4904 3235 Box
4904 2816 Box
4904 3239 Box
4904 3390 Box
4904 2940 Box
4933 3415 Box
4933 3415 Box
4933 3490 Box
4933 3307 Box
4933 3304 Box
4962 2837 Box
4962 3125 Box
4962 3161 Box
4962 3273 Box
4962 3072 Box
4990 3434 Box
4990 3580 Box
4990 2990 Box
4990 3238 Box
4990 3227 Box
5019 3506 Box
5019 3315 Box
5019 3617 Box
5019 3480 Box
5019 3153 Box
5048 3626 Box
5048 3119 Box
5048 3632 Box
5048 3093 Box
5048 2819 Box
5077 3513 Box
5077 3408 Box
5077 3293 Box
5077 3137 Box
5077 3299 Box
5106 3429 Box
5106 2682 Box
5106 3490 Box
5106 3517 Box
5106 3433 Box
5134 3260 Box
5134 3395 Box
5134 3320 Box
5134 3399 Box
5134 3936 Box
5163 3490 Box
5163 3065 Box
5163 3650 Box
5163 3754 Box
5163 3412 Box
5192 3115 Box
5192 3442 Box
5192 3391 Box
5192 3400 Box
5192 3611 Box
5221 3118 Box
5221 2879 Box
5221 3488 Box
5221 3682 Box
5221 3071 Box
5250 3547 Box
5250 3601 Box
5250 3586 Box
5250 3064 Box
5250 3418 Box
5278 3120 Box
5278 2956 Box
5278 3640 Box
5278 3482 Box
5278 3569 Box
5307 3635 Box
5307 2819 Box
5307 3366 Box
5307 3288 Box
5307 3376 Box
5336 3463 Box
5336 3475 Box
5336 2918 Box
5336 3493 Box
5336 2976 Box
5365 3328 Box
5365 3253 Box
5365 3027 Box
5365 3629 Box
5365 3483 Box
5394 3265 Box
5394 3333 Box
5394 3297 Box
5394 3258 Box
5394 3565 Box
5422 3092 Box
5422 3249 Box
5422 3424 Box
5422 3556 Box
5422 3445 Box
5451 2936 Box
5451 3381 Box
5451 3467 Box
5451 3300 Box
5451 3711 Box
5480 3744 Box
5480 3618 Box
5480 3051 Box
5480 3373 Box
5480 3289 Box
5509 3496 Box
5509 3536 Box
5509 3662 Box
5509 3309 Box
5509 3249 Box
5538 3619 Box
5538 3295 Box
5538 3413 Box
5538 3316 Box
5538 3303 Box
5566 3587 Box
5566 3006 Box
5566 3463 Box
5566 3526 Box
5566 3428 Box
5595 3553 Box
5595 3418 Box
5595 3549 Box
5595 3418 Box
5595 3450 Box
5624 3570 Box
5624 3541 Box
5624 3522 Box
5624 3190 Box
5624 3166 Box
5653 3252 Box
5653 3321 Box
5653 3115 Box
5653 3598 Box
5653 3159 Box
5682 3328 Box
5682 3097 Box
5682 3565 Box
5682 3387 Box
5682 3057 Box
5710 3390 Box
5710 3039 Box
5710 3236 Box
5710 2639 Box
5710 3422 Box
5739 3102 Box
5739 3826 Box
5739 3525 Box
5739 3522 Box
5739 3581 Box
5768 3396 Box
5768 3348 Box
5768 3493 Box
5768 3339 Box
5768 3259 Box
5797 3238 Box
5797 3614 Box
5797 3151 Box
5797 3653 Box
5797 3613 Box
5826 3191 Box
5826 3431 Box
5826 3277 Box
5826 3460 Box
5826 3250 Box
5854 3928 Box
5854 3228 Box
5854 3277 Box
5854 3509 Box
5854 3837 Box
5883 3701 Box
5883 3491 Box
5883 3574 Box
5883 3536 Box
5883 3470 Box
5912 3471 Box
5912 3781 Box
5912 3945 Box
5912 3161 Box
5912 3635 Box
5941 3502 Box
5941 3473 Box
5941 3456 Box
5941 3105 Box
5941 3515 Box
5970 3369 Box
5970 3661 Box
5970 3629 Box
5970 3110 Box
5970 3487 Box
5998 3462 Box
5998 3793 Box
5998 3539 Box
5998 3428 Box
5998 3506 Box
6027 3530 Box
6027 2947 Box
6027 3312 Box
6027 3118 Box
6027 3499 Box
6056 3458 Box
6056 3466 Box
6056 3694 Box
6056 3431 Box
6056 3300 Box
6085 2877 Box
6085 3235 Box
6085 3181 Box
6085 3514 Box
6085 3384 Box
6114 2830 Box
6114 3365 Box
6114 3495 Box
6114 3522 Box
6114 3823 Box
6142 3566 Box
6142 3144 Box
6142 3529 Box
6142 3539 Box
6142 3860 Box
6171 3220 Box
6171 3704 Box
6171 3531 Box
6171 3657 Box
6171 3266 Box
6200 2963 Box
6200 3231 Box
6200 3428 Box
6200 3258 Box
6200 3439 Box
6229 3362 Box
6229 3705 Box
6229 3509 Box
6229 3783 Box
6229 3541 Box
6258 3816 Box
6258 3387 Box
6258 3312 Box
6258 3504 Box
6258 3344 Box
6286 3426 Box
6286 3507 Box
6286 3421 Box
6286 3368 Box
6286 3166 Box
6315 3484 Box
6315 3460 Box
6315 2914 Box
6315 2923 Box
6315 3456 Box
6344 3417 Box
6344 3642 Box
6344 3398 Box
6344 3277 Box
6344 3584 Box
6373 3595 Box
6373 3365 Box
6373 3613 Box
6373 3350 Box
6373 3350 Box
6402 3534 Box
6402 3430 Box
6402 3279 Box
6402 3585 Box
6402 3419 Box
6430 3244 Box
6430 3615 Box
6430 3997 Box
6430 3477 Box
6430 3356 Box
6459 3685 Box
6459 3268 Box
6459 3318 Box
6459 3092 Box
6459 3271 Box
6488 3700 Box
6488 3770 Box
6488 3230 Box
6488 3292 Box
6488 3498 Box
6517 3566 Box
6517 3278 Box
6517 3516 Box
6517 3508 Box
6517 3590 Box
6546 3820 Box
6546 3787 Box
6546 3095 Box
6546 3516 Box
6546 3042 Box
6574 3812 Box
6574 3236 Box
6574 3552 Box
6574 3303 Box
6574 3227 Box
6603 3382 Box
6603 3448 Box
6603 3644 Box
6603 3438 Box
6603 3626 Box
6632 3243 Box
6632 3442 Box
6632 3315 Box
6632 3548 Box
6632 3626 Box
6661 2962 Box
6661 3330 Box
6661 3851 Box
6661 3388 Box
6661 3723 Box
6690 3490 Box
6690 3422 Box
6690 3200 Box
6690 3656 Box
6690 3455 Box
6718 3450 Box
6718 3497 Box
6718 3422 Box
6718 3595 Box
6718 3531 Box
6747 3696 Box
6747 3667 Box
6747 3660 Box
6747 3566 Box
6747 3639 Box
6776 3609 Box
6776 3120 Box
6776 3500 Box
6776 3634 Box
6776 3885 Box
6805 3624 Box
6805 3377 Box
6805 3541 Box
6805 3527 Box
6805 3506 Box
6834 3500 Box
6834 3848 Box
6834 3380 Box
6834 3275 Box
6834 3642 Box
6862 3621 Box
6862 3526 Box
6862 3459 Box
6862 3513 Box
6862 3129 Box
6891 3306 Box
6891 3333 Box
6891 3778 Box
6891 3291 Box
6891 3421 Box
6920 3210 Box
6920 3464 Box
6920 3584 Box
6920 3414 Box
6920 3436 Box
6949 3361 Box
6949 3792 Box
6949 3531 Box
6949 3525 Box
6949 3552 Box
6978 3494 Box
6978 3578 Box
6978 3011 Box
6978 3703 Box
6978 3462 Box
7006 3389 Box
7006 3488 Box
7006 3453 Box
7006 3675 Box
7006 3765 Box
7035 3493 Box
7035 3497 Box
7035 3723 Box
7035 3475 Box
7035 3494 Box
7064 3716 Box
7064 3288 Box
7064 3489 Box
7064 3291 Box
7064 3603 Box
7093 3463 Box
7093 3872 Box
7093 3587 Box
7093 3562 Box
7093 3506 Box
7122 3686 Box
7122 3585 Box
7122 3265 Box
7122 3303 Box
7122 3439 Box
7150 3278 Box
7150 3837 Box
7150 3570 Box
7150 3395 Box
7150 3345 Box
7179 3898 Box
7179 3673 Box
7179 3397 Box
7179 3821 Box
7179 2619 Box
7208 3477 Box
7208 3083 Box
7208 3295 Box
7208 3518 Box
7208 3622 Box
7237 3705 Box
7237 3746 Box
7237 3282 Box
7237 3292 Box
7237 3606 Box
7266 3314 Box
7266 3574 Box
7266 3311 Box
7266 3375 Box
7266 3583 Box
7295 3258 Box
7295 3553 Box
7295 3354 Box
7295 3595 Box
7295 3639 Box
7323 3459 Box
7323 3301 Box
7323 3740 Box
7323 3633 Box
7323 3228 Box
7352 3520 Box
7352 3692 Box
7352 3731 Box
7352 3608 Box
7352 3797 Box
7381 2890 Box
7381 4014 Box
7381 3548 Box
7381 3686 Box
7381 3597 Box
7410 3571 Box
7410 3861 Box
7410 3672 Box
7410 2839 Box
7410 3554 Box
7439 3601 Box
7439 3328 Box
7439 3730 Box
7439 3330 Box
7439 3311 Box
7467 3512 Box
7467 3590 Box
7467 3532 Box
7467 3492 Box
7467 3148 Box
7496 3564 Box
7496 3430 Box
7496 3446 Box
7496 3694 Box
7496 3392 Box
7525 3768 Box
7525 3603 Box
7525 3586 Box
7525 3511 Box
7525 3671 Box
7554 3649 Box
7554 3944 Box
7554 3598 Box
7554 3627 Box
7554 3519 Box
7583 3579 Box
7583 3730 Box
7583 3381 Box
7583 3322 Box
7583 3387 Box
7611 3499 Box
7611 3535 Box
7611 3626 Box
7611 3473 Box
7611 3375 Box
7640 3496 Box
7640 3728 Box
7640 3410 Box
7640 3348 Box
7640 3203 Box
7669 3782 Box
7669 3552 Box
7669 3644 Box
7669 3618 Box
7669 3433 Box
7698 3595 Box
7698 3440 Box
7698 3669 Box
7698 3482 Box
7698 3494 Box
7727 3377 Box
7727 3626 Box
7727 3682 Box
7727 3453 Box
7727 3459 Box
7755 3698 Box
7755 3628 Box
7755 3511 Box
7755 3736 Box
7755 3596 Box
7784 3472 Box
7784 3680 Box
7784 3554 Box
7784 3520 Box
7784 3533 Box
7813 3506 Box
7813 3608 Box
7813 3451 Box
7813 3418 Box
7813 3582 Box
7842 3180 Box
7842 3498 Box
7842 3600 Box
7842 3845 Box
7842 3628 Box
7871 3677 Box
7871 3508 Box
7871 3657 Box
7871 3425 Box
7871 3352 Box
7899 3766 Box
7899 3423 Box
7899 3489 Box
7899 2957 Box
7899 3371 Box
7928 3558 Box
7928 3431 Box
7928 3519 Box
7928 3479 Box
7928 3527 Box
7957 3435 Box
7957 3339 Box
7957 3691 Box
7957 3591 Box
7957 3468 Box
7986 3438 Box
7986 3216 Box
7986 3440 Box
7986 3281 Box
7986 3693 Box
8015 3832 Box
8015 3843 Box
8015 3806 Box
8015 3976 Box
8015 3468 Box
8043 3574 Box
8043 3448 Box
8043 3533 Box
8043 3296 Box
8043 3555 Box
8072 3356 Box
8072 3485 Box
8072 3534 Box
8072 3857 Box
8072 3840 Box
8101 3785 Box
8101 3343 Box
8101 4076 Box
8101 3488 Box
8101 3361 Box
8130 3985 Box
8130 3965 Box
8130 3479 Box
8130 3764 Box
8130 3533 Box
8159 3698 Box
8159 3782 Box
8159 3560 Box
8159 3684 Box
8159 3519 Box
8187 3590 Box
8187 3495 Box
8187 3912 Box
8187 3577 Box
8187 3282 Box
8216 3350 Box
8216 3600 Box
8216 3664 Box
8216 3470 Box
8216 3334 Box
8245 3926 Box
8245 3015 Box
8245 3931 Box
8245 3477 Box
8245 4131 Box
8274 3447 Box
8274 3460 Box
8274 3790 Box
8274 3308 Box
8274 3273 Box
8303 3494 Box
8303 3907 Box
8303 3687 Box
8303 3760 Box
8303 3610 Box
8331 3539 Box
8331 3566 Box
8331 3760 Box
8331 3426 Box
8331 3640 Box
8360 3379 Box
8360 3770 Box
8360 3528 Box
8360 3641 Box
8360 3427 Box
8389 3705 Box
8389 3661 Box
8389 3659 Box
8389 3604 Box
8389 3522 Box
8418 3945 Box
8418 3338 Box
8418 3684 Box
8418 3427 Box
8418 3413 Box
8447 3464 Box
8447 3343 Box
8447 3522 Box
8447 3573 Box
8447 3661 Box
8475 3493 Box
8475 3709 Box
8475 3819 Box
8475 3706 Box
8475 3606 Box
8504 3708 Box
8504 3401 Box
8504 3958 Box
8504 3601 Box
8504 3718 Box
8533 3601 Box
8533 3779 Box
8533 3365 Box
8533 3580 Box
8533 3724 Box
8562 3449 Box
8562 3772 Box
8562 3314 Box
8562 3430 Box
8562 3636 Box
8591 3689 Box
8591 3686 Box
8591 3713 Box
8591 3868 Box
8591 3729 Box
8619 3549 Box
8619 3837 Box
8619 3235 Box
8619 3245 Box
8619 3687 Box
8648 3636 Box
8648 3518 Box
8648 3852 Box
8648 3934 Box
8648 3603 Box
8677 3578 Box
8677 3516 Box
8677 3601 Box
8677 3347 Box
8677 3646 Box
8706 3592 Box
8706 3763 Box
8706 3245 Box
8706 3691 Box
8706 3717 Box
8735 3823 Box
8735 3577 Box
8735 3601 Box
8735 3256 Box
8735 3710 Box
8763 3784 Box
8763 3550 Box
8763 3573 Box
8763 3856 Box
8763 3761 Box
8792 3848 Box
8792 3524 Box
8792 3558 Box
8792 3622 Box
8792 3487 Box
8821 3473 Box
8821 3686 Box
8821 3726 Box
8821 3745 Box
8821 3491 Box
8850 3626 Box
8850 3501 Box
8850 3755 Box
8850 3815 Box
8850 3758 Box
8879 3716 Box
8879 3630 Box
8879 3548 Box
8879 3705 Box
8879 3543 Box
8907 3769 Box
8907 3813 Box
8907 3647 Box
8907 3798 Box
8907 3758 Box
8936 3577 Box
8936 3780 Box
8936 3672 Box
8936 3800 Box
8936 3699 Box
8965 3806 Box
8965 3755 Box
8965 3660 Box
8965 3639 Box
8965 3887 Box
8994 3488 Box
8994 3832 Box
8994 3729 Box
8994 3547 Box
8994 3570 Box
9023 3705 Box
9023 3578 Box
9023 3443 Box
9023 3910 Box
9023 3290 Box
9051 3351 Box
9051 3711 Box
9051 3712 Box
9051 3106 Box
9051 3714 Box
9080 3740 Box
9080 3643 Box
9080 3603 Box
9080 3966 Box
9080 3430 Box
9109 3576 Box
9109 3447 Box
9109 3799 Box
9109 3541 Box
9109 3802 Box
9138 3675 Box
9138 3515 Box
9138 3742 Box
9138 3469 Box
9138 3958 Box
9167 3570 Box
9167 3569 Box
9167 3507 Box
9167 3874 Box
9167 3296 Box
9195 3756 Box
9195 3745 Box
9195 3730 Box
9195 3822 Box
9195 3721 Box
9224 3297 Box
9224 3837 Box
9224 3808 Box
9224 3568 Box
9224 3805 Box
9253 3626 Box
9253 3698 Box
9253 3736 Box
9253 3595 Box
9253 3782 Box
9282 3566 Box
9282 3728 Box
9282 3830 Box
9282 3713 Box
9282 3733 Box
9311 3141 Box
9311 3533 Box
9311 3989 Box
9311 3342 Box
9311 3534 Box
9339 3911 Box
9339 3830 Box
9339 3737 Box
9339 3576 Box
9339 3758 Box
9368 3844 Box
9368 3621 Box
9368 3581 Box
9368 3792 Box
9368 3707 Box
9397 3706 Box
9397 3576 Box
9397 3559 Box
9397 3935 Box
9397 3955 Box
9426 3666 Box
9426 3544 Box
9426 3396 Box
9426 3625 Box
9426 3972 Box
9455 3811 Box
9455 3971 Box
9455 3830 Box
9455 3804 Box
9455 3696 Box
9483 3654 Box
9483 3230 Box
9483 3742 Box
9483 3735 Box
9483 3569 Box
9512 3508 Box
9512 3735 Box
9512 3884 Box
9512 3530 Box
9512 3536 Box
9541 3529 Box
9541 3224 Box
9541 3820 Box
9541 3657 Box
9541 3712 Box
9570 3691 Box
9570 3598 Box
9570 3718 Box
9570 3863 Box
9570 3844 Box
9599 3648 Box
9599 3488 Box
9599 4093 Box
9599 3770 Box
9599 3517 Box
9627 3942 Box
9627 3521 Box
9627 3646 Box
9627 3889 Box
9627 3670 Box
9656 3724 Box
9656 3637 Box
9656 3538 Box
9656 3619 Box
9656 3351 Box
9685 3544 Box
9685 3727 Box
9685 3889 Box
9685 3877 Box
9685 3915 Box
9714 3427 Box
9714 3730 Box
9714 3774 Box
9714 3527 Box
9714 3673 Box
9743 3780 Box
9743 3515 Box
9743 3346 Box
9743 3674 Box
9743 3540 Box
9771 3710 Box
9771 3605 Box
9771 3653 Box
9771 3841 Box
9771 3926 Box
9800 3582 Box
9800 3784 Box
9800 3721 Box
9800 3678 Box
9800 3624 Box
9829 3667 Box
9829 3264 Box
9829 3906 Box
9829 3689 Box
9829 3594 Box
9858 3807 Box
9858 3652 Box
9858 3593 Box
9858 3145 Box
9858 3518 Box
9887 3098 Box
9887 3799 Box
9887 3864 Box
9887 3863 Box
9887 4004 Box
9916 3715 Box
9916 3839 Box
9916 3534 Box
9916 3846 Box
9916 3703 Box
9944 3589 Box
9944 3900 Box
9944 3571 Box
9944 3847 Box
9944 3886 Box
9973 3789 Box
9973 3928 Box
9973 3721 Box
9973 3748 Box
9973 3814 Box
10002 3503 Box
10002 3825 Box
10002 3725 Box
10002 3898 Box
10002 3774 Box
10031 3561 Box
10031 3779 Box
10031 3939 Box
10031 3358 Box
10031 3808 Box
10060 3747 Box
10060 3589 Box
10060 3743 Box
10060 4010 Box
10060 4012 Box
10088 3647 Box
10088 4073 Box
10088 3810 Box
10088 3630 Box
10088 3933 Box
10117 3488 Box
10117 3729 Box
10117 3738 Box
10117 3872 Box
10117 3895 Box
10146 3458 Box
10146 3875 Box
10146 4079 Box
10146 3777 Box
10146 3784 Box
10175 3773 Box
10175 3824 Box
10175 3423 Box
10175 3610 Box
10175 3786 Box
10204 3666 Box
10204 3521 Box
10204 3377 Box
10204 3849 Box
10204 3834 Box
10232 3854 Box
10232 3489 Box
10232 3756 Box
10232 3433 Box
10232 3590 Box
10261 3894 Box
10261 3799 Box
10261 3887 Box
10261 3764 Box
10261 3683 Box
10290 3675 Box
10290 3794 Box
10290 3400 Box
10290 3794 Box
10290 3770 Box
10319 3754 Box
10319 3992 Box
10319 3864 Box
10319 4000 Box
10319 3390 Box
10348 3755 Box
10348 3384 Box
10348 3640 Box
10348 3668 Box
10348 3919 Box
10376 3953 Box
10376 3999 Box
10376 3797 Box
10376 3549 Box
10376 3711 Box
10405 3750 Box
10405 3201 Box
10405 3837 Box
10405 3411 Box
10405 3945 Box
10434 3752 Box
10434 3583 Box
10434 3840 Box
10434 3888 Box
10434 3641 Box
10463 3960 Box
10463 3645 Box
10463 3863 Box
10463 3714 Box
10463 3698 Box
10492 3559 Box
10492 3686 Box
10492 3539 Box
10492 3309 Box
10492 3770 Box
10520 3772 Box
10520 3697 Box
10520 3792 Box
10520 3594 Box
10520 3711 Box
10549 3470 Box
10549 3776 Box
10549 3634 Box
10549 3634 Box
10549 3509 Box
10578 3724 Box
10578 3834 Box
10578 3702 Box
10578 3744 Box
10578 3707 Box
10607 3956 Box
10607 3611 Box
10607 3839 Box
10607 3886 Box
10607 3828 Box
10636 4021 Box
10636 3605 Box
10636 3476 Box
10636 3905 Box
10636 3869 Box
10664 3855 Box
10664 3873 Box
10664 3884 Box
10664 3739 Box
10664 3990 Box
10693 3392 Box
10693 3799 Box
10693 3680 Box
10693 3613 Box
10693 3732 Box
10722 3861 Box
10722 3662 Box
10722 3654 Box
10722 3750 Box
10722 4045 Box
10751 4003 Box
10751 3664 Box
10751 3810 Box
10751 3902 Box
10751 3569 Box
10780 3680 Box
10780 3622 Box
10780 3122 Box
10780 3823 Box
10780 3643 Box
10808 4104 Box
10808 4003 Box
10808 3726 Box
10808 3611 Box
10808 3823 Box
10837 3499 Box
10837 3802 Box
10837 4145 Box
10837 3551 Box
10837 3645 Box
10866 3853 Box
10866 3740 Box
10866 3865 Box
10866 3823 Box
10866 3904 Box
10895 3560 Box
10895 3714 Box
10895 3581 Box
10895 3670 Box
10895 3831 Box
10924 3758 Box
10924 3756 Box
10924 3762 Box
10924 3831 Box
10924 3838 Box
10952 3801 Box
10952 3601 Box
10952 3809 Box
10952 3758 Box
10952 3707 Box
10981 3743 Box
10981 3633 Box
10981 3768 Box
10981 3720 Box
10981 3680 Box
11010 3980 Box
11010 3525 Box
11010 4018 Box
11010 3424 Box
11010 3823 Box
11039 3881 Box
11039 3645 Box
11039 3645 Box
11039 3614 Box
11039 3963 Box
11068 3738 Box
11068 3895 Box
11068 3796 Box
11068 3635 Box
11068 3828 Box
11096 3800 Box
11096 3390 Box
11096 3842 Box
11096 3649 Box
11096 3976 Box
11125 3791 Box
11125 3532 Box
11125 3786 Box
11125 4043 Box
11125 3770 Box
11154 3951 Box
11154 3907 Box
11154 4040 Box
11154 3731 Box
11154 3351 Box
11183 3963 Box
11183 3771 Box
11183 3775 Box
11183 3763 Box
11183 3716 Box
11212 3459 Box
11212 3826 Box
11212 4080 Box
11212 3884 Box
11212 3971 Box
11240 3746 Box
11240 3816 Box
11240 3847 Box
11240 3875 Box
11240 3998 Box
11269 3818 Box
11269 3929 Box
11269 3812 Box
11269 3759 Box
11269 3671 Box
11298 3629 Box
11298 3801 Box
11298 3815 Box
11298 3880 Box
11298 3826 Box
11327 3870 Box
11327 4008 Box
11327 3620 Box
11327 3622 Box
11327 3770 Box
11356 4088 Box
11356 3883 Box
11356 3832 Box
11356 3845 Box
11356 3986 Box
11384 3865 Box
11384 4062 Box
11384 3538 Box
11384 3771 Box
11384 3594 Box
11413 3574 Box
11413 4071 Box
11413 3838 Box
11413 3568 Box
11413 3763 Box
11442 3833 Box
11442 3697 Box
11442 3534 Box
11442 3634 Box
11442 3814 Box
11471 4015 Box
11471 3783 Box
11471 3819 Box
11471 3887 Box
11471 3964 Box
11500 3681 Box
11500 3704 Box
11500 4040 Box
11500 3965 Box
11500 3254 Box
11528 3592 Box
11528 3716 Box
11528 3258 Box
11528 3760 Box
11528 4098 Box
11557 3475 Box
11557 3911 Box
11557 3881 Box
11557 3892 Box
11557 3850 Box
11586 3738 Box
11586 3791 Box
11586 3729 Box
11586 3776 Box
11586 3551 Box
11615 3830 Box
11615 3579 Box
11615 3477 Box
11615 3646 Box
11615 3895 Box
11644 4004 Box
11644 3707 Box
11644 3904 Box
11644 3866 Box
11644 3980 Box
11672 3781 Box
11672 3283 Box
11672 3964 Box
11672 3628 Box
11672 3774 Box
11701 3785 Box
11701 3600 Box
11701 3805 Box
11701 3566 Box
11701 3490 Box
11730 3668 Box
11730 3822 Box
11730 3740 Box
11730 3940 Box
11730 3847 Box
11759 4073 Box
11759 3842 Box
11759 3686 Box
11759 3422 Box
11759 4041 Box
11788 4090 Box
11788 3605 Box
11788 3841 Box
11788 3527 Box
11788 3786 Box
11816 3611 Box
11816 3912 Box
11816 3922 Box
11816 3879 Box
11816 3756 Box
11845 3803 Box
11845 3637 Box
11845 3855 Box
11845 3785 Box
11845 3971 Box
11874 3604 Box
11874 3987 Box
11874 3770 Box
11874 3753 Box
11874 3697 Box
11903 3857 Box
11903 3692 Box
11903 3811 Box
11903 3864 Box
11903 3546 Box
11932 3760 Box
11932 3769 Box
11932 3624 Box
11932 3552 Box
11932 3853 Box
11960 3967 Box
11960 3759 Box
11960 3429 Box
11960 3451 Box
11960 3728 Box
11989 3822 Box
11989 3768 Box
11989 3711 Box
11989 3575 Box
11989 3893 Box
12018 3526 Box
12018 3849 Box
12018 3589 Box
12018 3628 Box
12018 3620 Box
12047 3974 Box
12047 3999 Box
12047 3531 Box
12047 4042 Box
12047 3376 Box
12076 3370 Box
12076 4272 Box
12076 3856 Box
12076 3777 Box
12076 3789 Box
12104 3703 Box
12104 3805 Box
12104 3887 Box
12104 3916 Box
12104 3611 Box
12133 3756 Box
12133 3937 Box
12133 3650 Box
12133 3773 Box
12133 3902 Box
12162 3440 Box
12162 3922 Box
12162 3683 Box
12162 4122 Box
12162 3962 Box
12191 3588 Box
12191 3923 Box
12191 3666 Box
12191 3942 Box
12191 3699 Box
12220 3960 Box
12220 3777 Box
12220 3986 Box
12220 3829 Box
12220 3907 Box
12248 3883 Box
12248 3912 Box
12248 3753 Box
12248 3517 Box
12248 3760 Box
12277 3953 Box
12277 4017 Box
12277 3774 Box
12277 3897 Box
12277 3751 Box
12306 4061 Box
12306 3803 Box
12306 3775 Box
12306 4029 Box
12306 3689 Box
12335 3741 Box
12335 3836 Box
12335 3824 Box
12335 3543 Box
12335 4057 Box
12364 3608 Box
12364 3674 Box
12364 3686 Box
12364 3813 Box
12364 3991 Box
12392 3758 Box
12392 3990 Box
12392 3726 Box
12392 3930 Box
12392 3874 Box
12421 4012 Box
12421 3808 Box
12421 3951 Box
12421 3606 Box
12421 3819 Box
12450 3995 Box
12450 3863 Box
12450 3920 Box
12450 3817 Box
12450 3768 Box
12479 3819 Box
12479 3883 Box
12479 3720 Box
12479 3824 Box
12479 3738 Box
12508 3773 Box
12508 3802 Box
12508 3821 Box
12508 4008 Box
12508 3854 Box
12537 3642 Box
12537 3720 Box
12537 3611 Box
12537 4002 Box
12537 3694 Box
12565 3683 Box
12565 3856 Box
12565 3325 Box
12565 3966 Box
12565 3829 Box
12594 3732 Box
12594 3936 Box
12594 3860 Box
12594 3693 Box
12594 4108 Box
12623 4002 Box
12623 3819 Box
12623 3757 Box
12623 3753 Box
12623 3552 Box
12652 4219 Box
12652 3931 Box
12652 3967 Box
12652 3629 Box
12652 3870 Box
12681 3726 Box
12681 3723 Box
12681 4010 Box
12681 3952 Box
12681 3677 Box
12709 4007 Box
12709 3964 Box
12709 3513 Box
12709 3958 Box
12709 3730 Box
12738 3673 Box
12738 4059 Box
12738 3929 Box
12738 3967 Box
12738 3993 Box
12767 3530 Box
12767 3878 Box
12767 3839 Box
12767 3644 Box
12767 4074 Box
12796 3894 Box
12796 4094 Box
12796 3615 Box
12796 3757 Box
12796 3967 Box
12825 3907 Box
12825 4110 Box
12825 3932 Box
12825 3723 Box
12825 3809 Box
12853 3746 Box
12853 4054 Box
12853 3670 Box
12853 3955 Box
12853 3636 Box
12882 3895 Box
12882 3992 Box
12882 3992 Box
12882 3722 Box
12882 3855 Box
12911 3783 Box
12911 3867 Box
12911 3760 Box
12911 3882 Box
12911 3803 Box
12940 3587 Box
12940 3855 Box
12940 3803 Box
12940 3857 Box
12940 3651 Box
12969 3703 Box
12969 3872 Box
12969 3664 Box
12969 3545 Box
12969 3713 Box
12997 3905 Box
12997 4096 Box
12997 3867 Box
12997 3573 Box
12997 3995 Box
13026 3942 Box
13026 3578 Box
13026 3823 Box
13026 3801 Box
13026 3776 Box
13055 3733 Box
13055 3829 Box
13055 3580 Box
13055 4101 Box
13055 3900 Box
13084 3963 Box
13084 3884 Box
13084 4009 Box
13084 3974 Box
13084 3942 Box
13113 3798 Box
13113 4013 Box
13113 3911 Box
13113 3943 Box
13113 3913 Box
13141 3896 Box
13141 3926 Box
13141 4004 Box
13141 3852 Box
13141 3717 Box
13170 3505 Box
13170 3801 Box
13170 3927 Box
13170 4183 Box
13170 4002 Box
13199 3633 Box
13199 3796 Box
13199 3945 Box
13199 3903 Box
13199 3833 Box
13228 3715 Box
13228 3817 Box
13228 4026 Box
13228 4127 Box
13228 3827 Box
13257 3879 Box
13257 3622 Box
13257 3979 Box
13257 4074 Box
13257 3560 Box
13285 3769 Box
13285 3761 Box
13285 3830 Box
13285 4007 Box
13285 3870 Box
13314 4039 Box
13314 3729 Box
13314 3858 Box
13314 3837 Box
13314 4021 Box
13343 3992 Box
13343 3797 Box
13343 4193 Box
13343 3970 Box
13343 3754 Box
13372 3802 Box
13372 3712 Box
13372 3861 Box
13372 3874 Box
13372 3907 Box
13401 3772 Box
13401 3910 Box
13401 4044 Box
13401 3899 Box
13401 4062 Box
13429 3871 Box
13429 3969 Box
13429 3918 Box
13429 4002 Box
13429 3929 Box
13458 3951 Box
13458 3903 Box
13458 3655 Box
13458 3760 Box
13458 3945 Box
13487 3959 Box
13487 3710 Box
13487 4029 Box
13487 3720 Box
13487 3911 Box
13516 4031 Box
13516 4052 Box
13516 3794 Box
13516 3856 Box
13516 3738 Box
13545 3695 Box
13545 3735 Box
13545 3876 Box
13545 3892 Box
13545 3858 Box
13573 3905 Box
13573 3873 Box
13573 3971 Box
13573 3602 Box
13573 3703 Box
13602 4064 Box
13602 3702 Box
13602 3933 Box
13602 3674 Box
13602 3937 Box
13631 3828 Box
13631 3867 Box
13631 4102 Box
13631 3867 Box
13631 4017 Box
13660 4045 Box
13660 3800 Box
13660 3903 Box
13660 3775 Box
13660 3894 Box
13689 3913 Box
13689 3913 Box
13689 3761 Box
13689 4046 Box
13689 3900 Box
13717 3983 Box
13717 3865 Box
13717 3925 Box
13717 3727 Box
13717 3825 Box
13746 4048 Box
13746 4039 Box
13746 3817 Box
13746 3762 Box
13746 3966 Box
13775 3801 Box
13775 4043 Box
13775 3562 Box
13775 3821 Box
13775 3915 Box
1.000 UL
LTb
LCb setrgbcolor
814 4837 N
814 704 L
12961 0 V
0 4133 V
814 4837 L
Z stroke
1.000 UP
1.000 UL
LTb
stroke
grestore
end
showpage
%%Trailer
