%!PS-Adobe-3.0 EPSF-3.0
%%Creator: graphviz version 2.38.0 (20140413.2041)
%%Title: g
%%Pages: 1
%%BoundingBox: 36 36 466 800
%%EndComments
save
%%BeginProlog
/DotDict 200 dict def
DotDict begin

/setupLatin1 {
mark
/EncodingVector 256 array def
 EncodingVector 0

ISOLatin1Encoding 0 255 getinterval putinterval
EncodingVector 45 /hyphen put

% Set up ISO Latin 1 character encoding
/starnetISO {
        dup dup findfont dup length dict begin
        { 1 index /FID ne { def }{ pop pop } ifelse
        } forall
        /Encoding EncodingVector def
        currentdict end definefont
} def
/Times-Roman starnetISO def
/Times-Italic starnetISO def
/Times-Bold starnetISO def
/Times-BoldItalic starnetISO def
/Helvetica starnetISO def
/Helvetica-Oblique starnetISO def
/Helvetica-Bold starnetISO def
/Helvetica-BoldOblique starnetISO def
/Courier starnetISO def
/Courier-Oblique starnetISO def
/Courier-Bold starnetISO def
/Courier-BoldOblique starnetISO def
cleartomark
} bind def

%%BeginResource: procset graphviz 0 0
/coord-font-family /Times-Roman def
/default-font-family /Times-Roman def
/coordfont coord-font-family findfont 8 scalefont def

/InvScaleFactor 1.0 def
/set_scale {
       dup 1 exch div /InvScaleFactor exch def
       scale
} bind def

% styles
/solid { [] 0 setdash } bind def
/dashed { [9 InvScaleFactor mul dup ] 0 setdash } bind def
/dotted { [1 InvScaleFactor mul 6 InvScaleFactor mul] 0 setdash } bind def
/invis {/fill {newpath} def /stroke {newpath} def /show {pop newpath} def} bind def
/bold { 2 setlinewidth } bind def
/filled { } bind def
/unfilled { } bind def
/rounded { } bind def
/diagonals { } bind def
/tapered { } bind def

% hooks for setting color 
/nodecolor { sethsbcolor } bind def
/edgecolor { sethsbcolor } bind def
/graphcolor { sethsbcolor } bind def
/nopcolor {pop pop pop} bind def

/beginpage {	% i j npages
	/npages exch def
	/j exch def
	/i exch def
	/str 10 string def
	npages 1 gt {
		gsave
			coordfont setfont
			0 0 moveto
			(\() show i str cvs show (,) show j str cvs show (\)) show
		grestore
	} if
} bind def

/set_font {
	findfont exch
	scalefont setfont
} def

% draw text fitted to its expected width
/alignedtext {			% width text
	/text exch def
	/width exch def
	gsave
		width 0 gt {
			[] 0 setdash
			text stringwidth pop width exch sub text length div 0 text ashow
		} if
	grestore
} def

/boxprim {				% xcorner ycorner xsize ysize
		4 2 roll
		moveto
		2 copy
		exch 0 rlineto
		0 exch rlineto
		pop neg 0 rlineto
		closepath
} bind def

/ellipse_path {
	/ry exch def
	/rx exch def
	/y exch def
	/x exch def
	matrix currentmatrix
	newpath
	x y translate
	rx ry scale
	0 0 1 0 360 arc
	setmatrix
} bind def

/endpage { showpage } bind def
/showpage { } def

/layercolorseq
	[	% layer color sequence - darkest to lightest
		[0 0 0]
		[.2 .8 .8]
		[.4 .8 .8]
		[.6 .8 .8]
		[.8 .8 .8]
	]
def

/layerlen layercolorseq length def

/setlayer {/maxlayer exch def /curlayer exch def
	layercolorseq curlayer 1 sub layerlen mod get
	aload pop sethsbcolor
	/nodecolor {nopcolor} def
	/edgecolor {nopcolor} def
	/graphcolor {nopcolor} def
} bind def

/onlayer { curlayer ne {invis} if } def

/onlayers {
	/myupper exch def
	/mylower exch def
	curlayer mylower lt
	curlayer myupper gt
	or
	{invis} if
} def

/curlayer 0 def

%%EndResource
%%EndProlog
%%BeginSetup
14 default-font-family set_font
1 setmiterlimit
% /arrowlength 10 def
% /arrowwidth 5 def

% make sure pdfmark is harmless for PS-interpreters other than Distiller
/pdfmark where {pop} {userdict /pdfmark /cleartomark load put} ifelse
% make '<<' and '>>' safe on PS Level 1 devices
/languagelevel where {pop languagelevel}{1} ifelse
2 lt {
    userdict (<<) cvn ([) cvn load put
    userdict (>>) cvn ([) cvn load put
} if

%%EndSetup
setupLatin1
%%Page: 1 1
%%PageBoundingBox: 36 36 466 800
%%PageOrientation: Portrait
0 0 1 beginpage
gsave
36 36 430 764 boxprim clip newpath
1 1 set_scale 0 rotate 40 40 translate
% __start0
gsave
grestore
% s0
gsave
1 setlinewidth
0 0 0 nodecolor
329 663.72 18.7 18.7 ellipse_path stroke
0 0 0 nodecolor
14 /Times-Roman set_font
322.5 660.02 moveto 13 (s0) alignedtext
grestore
% __start0->s0
gsave
1 setlinewidth
0 0 0 edgecolor
newpath 329 719.55 moveto
329 711.55 329 701.81 329 692.78 curveto
stroke
0 0 0 edgecolor
newpath 332.5 692.63 moveto
329 682.63 lineto
325.5 692.63 lineto
closepath fill
1 setlinewidth
solid
0 0 0 edgecolor
newpath 332.5 692.63 moveto
329 682.63 lineto
325.5 692.63 lineto
closepath stroke
grestore
% s1
gsave
1 setlinewidth
0 0 0 nodecolor
234 571.03 18.72 18.72 ellipse_path stroke
1 setlinewidth
0 0 0 nodecolor
234 571.03 22.7 22.7 ellipse_path stroke
0 0 0 nodecolor
14 /Times-Roman set_font
227.5 567.33 moveto 13 (s1) alignedtext
grestore
% s0->s1
gsave
1 setlinewidth
0 0 0 edgecolor
newpath 315.79 650.11 moveto
300.8 635.8 276.06 612.18 257.7 594.66 curveto
stroke
0 0 0 edgecolor
newpath 259.93 591.94 moveto
250.28 587.57 lineto
255.09 597 lineto
closepath fill
1 setlinewidth
solid
0 0 0 edgecolor
newpath 259.93 591.94 moveto
250.28 587.57 lineto
255.09 597 lineto
closepath stroke
0 0 0 edgecolor
14 /Times-Roman set_font
291 615.68 moveto 7 (0) alignedtext
grestore
% s2
gsave
1 setlinewidth
0 0 0 nodecolor
122 389.63 18.7 18.7 ellipse_path stroke
0 0 0 nodecolor
14 /Times-Roman set_font
115.5 385.93 moveto 13 (s2) alignedtext
grestore
% s0->s2
gsave
1 setlinewidth
0 0 0 edgecolor
newpath 311.58 656.05 moveto
285.72 645.56 236.53 623.34 202 593.88 curveto
137.04 538.45 112.46 522.34 85 441.48 curveto
82.86 435.17 82.4 432.62 85 426.48 curveto
88.02 419.35 93.23 412.94 98.81 407.58 curveto
stroke
0 0 0 edgecolor
newpath 101.2 410.14 moveto
106.47 400.95 lineto
96.61 404.85 lineto
closepath fill
1 setlinewidth
solid
0 0 0 edgecolor
newpath 101.2 410.14 moveto
106.47 400.95 lineto
96.61 404.85 lineto
closepath stroke
0 0 0 edgecolor
14 /Times-Roman set_font
132 518.98 moveto 7 (1) alignedtext
grestore
% s7
gsave
1 setlinewidth
0 0 0 nodecolor
199 107.54 18.7 18.7 ellipse_path stroke
0 0 0 nodecolor
14 /Times-Roman set_font
192.5 103.84 moveto 13 (s7) alignedtext
grestore
% s0->s7
gsave
1 setlinewidth
0 0 0 edgecolor
newpath 345.58 654.71 moveto
370.57 641.34 415 611.95 415 572.03 curveto
415 572.03 415 572.03 415 199.24 curveto
415 119.22 287.41 108.63 228.35 108.01 curveto
stroke
0 0 0 edgecolor
newpath 228.17 104.51 moveto
218.17 108 lineto
228.16 111.51 lineto
closepath fill
1 setlinewidth
solid
0 0 0 edgecolor
newpath 228.17 104.51 moveto
218.17 108 lineto
228.16 111.51 lineto
closepath stroke
0 0 0 edgecolor
14 /Times-Roman set_font
415 385.93 moveto 7 (2) alignedtext
grestore
% s3
gsave
1 setlinewidth
0 0 0 nodecolor
195 478.33 18.7 18.7 ellipse_path stroke
0 0 0 nodecolor
14 /Times-Roman set_font
188.5 474.63 moveto 13 (s3) alignedtext
grestore
% s1->s3
gsave
1 setlinewidth
0 0 0 edgecolor
newpath 225.15 549.45 moveto
219.54 536.41 212.24 519.43 206.23 505.45 curveto
stroke
0 0 0 edgecolor
newpath 209.29 503.7 moveto
202.12 495.9 lineto
202.86 506.47 lineto
closepath fill
1 setlinewidth
solid
0 0 0 edgecolor
newpath 209.29 503.7 moveto
202.12 495.9 lineto
202.86 506.47 lineto
closepath stroke
0 0 0 edgecolor
14 /Times-Roman set_font
217 518.98 moveto 7 (0) alignedtext
grestore
% s1->s7
gsave
1 setlinewidth
0 0 0 edgecolor
newpath 255.05 561.55 moveto
283.58 548.5 331 520.6 331 479.33 curveto
331 479.33 331 479.33 331 199.24 curveto
331 149.43 266.35 124.92 227.54 114.69 curveto
stroke
0 0 0 edgecolor
newpath 227.9 111.17 moveto
217.35 112.18 lineto
226.22 117.97 lineto
closepath fill
1 setlinewidth
solid
0 0 0 edgecolor
newpath 227.9 111.17 moveto
217.35 112.18 lineto
226.22 117.97 lineto
closepath stroke
0 0 0 edgecolor
14 /Times-Roman set_font
331 341.59 moveto 7 (1) alignedtext
grestore
% s9
gsave
1 setlinewidth
0 0 0 nodecolor
139 18.85 18.7 18.7 ellipse_path stroke
0 0 0 nodecolor
14 /Times-Roman set_font
132.5 15.15 moveto 13 (s9) alignedtext
grestore
% s1->s9
gsave
1 setlinewidth
0 0 0 edgecolor
newpath 211.56 566.29 moveto
152.99 555.89 0 524.43 0 479.33 curveto
0 479.33 0 479.33 0 106.54 curveto
0 55 69.66 32.99 110.35 24.53 curveto
stroke
0 0 0 edgecolor
newpath 111.1 27.95 moveto
120.25 22.61 lineto
109.77 21.07 lineto
closepath fill
1 setlinewidth
solid
0 0 0 edgecolor
newpath 111.1 27.95 moveto
120.25 22.61 lineto
109.77 21.07 lineto
closepath stroke
0 0 0 edgecolor
14 /Times-Roman set_font
0 293.24 moveto 7 (2) alignedtext
grestore
% s4
gsave
1 setlinewidth
0 0 0 nodecolor
182 296.94 18.72 18.72 ellipse_path stroke
1 setlinewidth
0 0 0 nodecolor
182 296.94 22.7 22.7 ellipse_path stroke
0 0 0 nodecolor
14 /Times-Roman set_font
175.5 293.24 moveto 13 (s4) alignedtext
grestore
% s2->s4
gsave
1 setlinewidth
0 0 0 edgecolor
newpath 130.32 372.71 moveto
135.84 362.51 143.43 349.1 151 337.79 curveto
154.23 332.96 157.86 327.96 161.48 323.21 curveto
stroke
0 0 0 edgecolor
newpath 164.49 325.04 moveto
167.87 315 lineto
158.96 320.74 lineto
closepath fill
1 setlinewidth
solid
0 0 0 edgecolor
newpath 164.49 325.04 moveto
167.87 315 lineto
158.96 320.74 lineto
closepath stroke
0 0 0 edgecolor
14 /Times-Roman set_font
151 341.59 moveto 7 (1) alignedtext
grestore
% s6
gsave
1 setlinewidth
0 0 0 nodecolor
58 296.94 18.7 18.7 ellipse_path stroke
0 0 0 nodecolor
14 /Times-Roman set_font
51.5 293.24 moveto 13 (s6) alignedtext
grestore
% s2->s6
gsave
1 setlinewidth
0 0 0 edgecolor
newpath 104.22 383.38 moveto
89.88 378.13 70.58 368.52 61 352.79 curveto
56.19 344.88 54.59 335.09 54.47 325.98 curveto
stroke
0 0 0 edgecolor
newpath 57.97 325.88 moveto
54.89 315.75 lineto
50.98 325.59 lineto
closepath fill
1 setlinewidth
solid
0 0 0 edgecolor
newpath 57.97 325.88 moveto
54.89 315.75 lineto
50.98 325.59 lineto
closepath stroke
0 0 0 edgecolor
14 /Times-Roman set_font
61 341.59 moveto 7 (0) alignedtext
grestore
% s8
gsave
1 setlinewidth
0 0 0 nodecolor
118 296.94 18.72 18.72 ellipse_path stroke
1 setlinewidth
0 0 0 nodecolor
118 296.94 22.7 22.7 ellipse_path stroke
0 0 0 nodecolor
14 /Times-Roman set_font
111.5 293.24 moveto 13 (s8) alignedtext
grestore
% s2->s8
gsave
1 setlinewidth
0 0 0 edgecolor
newpath 121.21 370.72 moveto
120.7 359.12 120.02 343.68 119.41 330.01 curveto
stroke
0 0 0 edgecolor
newpath 122.91 329.83 moveto
118.97 319.99 lineto
115.92 330.13 lineto
closepath fill
1 setlinewidth
solid
0 0 0 edgecolor
newpath 122.91 329.83 moveto
118.97 319.99 lineto
115.92 330.13 lineto
closepath stroke
0 0 0 edgecolor
14 /Times-Roman set_font
121 341.59 moveto 7 (2) alignedtext
grestore
% s3->s2
gsave
1 setlinewidth
0 0 0 edgecolor
newpath 177.06 472.56 moveto
161.71 467.49 140.35 457.89 129 441.48 curveto
124.42 434.86 122.2 426.57 121.25 418.62 curveto
stroke
0 0 0 edgecolor
newpath 124.73 418.31 moveto
120.63 408.54 lineto
117.75 418.73 lineto
closepath fill
1 setlinewidth
solid
0 0 0 edgecolor
newpath 124.73 418.31 moveto
120.63 408.54 lineto
117.75 418.73 lineto
closepath stroke
0 0 0 edgecolor
14 /Times-Roman set_font
129 430.28 moveto 7 (1) alignedtext
grestore
% s3->s2
gsave
1 setlinewidth
0 0 0 edgecolor
newpath 182.07 464.36 moveto
175.57 457.68 167.68 449.31 161 441.48 curveto
153.45 432.63 145.56 422.53 138.86 413.67 curveto
stroke
0 0 0 edgecolor
newpath 141.65 411.56 moveto
132.87 405.64 lineto
136.05 415.75 lineto
closepath fill
1 setlinewidth
solid
0 0 0 edgecolor
newpath 141.65 411.56 moveto
132.87 405.64 lineto
136.05 415.75 lineto
closepath stroke
0 0 0 edgecolor
14 /Times-Roman set_font
161 430.28 moveto 7 (2) alignedtext
grestore
% s3->s4
gsave
1 setlinewidth
0 0 0 edgecolor
newpath 193.71 459.47 moveto
191.52 429.26 187.05 367.65 184.31 329.86 curveto
stroke
0 0 0 edgecolor
newpath 187.8 329.6 moveto
183.59 319.88 lineto
180.82 330.11 lineto
closepath fill
1 setlinewidth
solid
0 0 0 edgecolor
newpath 187.8 329.6 moveto
183.59 319.88 lineto
180.82 330.11 lineto
closepath stroke
0 0 0 edgecolor
14 /Times-Roman set_font
191 385.93 moveto 7 (0) alignedtext
grestore
% s4->s1
gsave
1 setlinewidth
0 0 0 edgecolor
newpath 201.19 309.89 moveto
210.46 316.8 220.71 326.38 226 337.79 curveto
256.65 403.82 248.07 492.15 240.33 538.53 curveto
stroke
0 0 0 edgecolor
newpath 236.85 538.12 moveto
238.56 548.58 lineto
243.74 539.34 lineto
closepath fill
1 setlinewidth
solid
0 0 0 edgecolor
newpath 236.85 538.12 moveto
238.56 548.58 lineto
243.74 539.34 lineto
closepath stroke
0 0 0 edgecolor
14 /Times-Roman set_font
248 430.28 moveto 7 (1) alignedtext
grestore
% s4->s2
gsave
1 setlinewidth
0 0 0 edgecolor
newpath 174.06 318.57 moveto
169.51 329.23 163.27 342.18 156 352.79 curveto
152.18 358.36 147.49 363.89 142.84 368.89 curveto
stroke
0 0 0 edgecolor
newpath 140.15 366.63 moveto
135.67 376.22 lineto
145.16 371.52 lineto
closepath fill
1 setlinewidth
solid
0 0 0 edgecolor
newpath 140.15 366.63 moveto
135.67 376.22 lineto
145.16 371.52 lineto
closepath stroke
0 0 0 edgecolor
14 /Times-Roman set_font
166 341.59 moveto 7 (2) alignedtext
grestore
% s5
gsave
1 setlinewidth
0 0 0 nodecolor
211 200.24 18.72 18.72 ellipse_path stroke
1 setlinewidth
0 0 0 nodecolor
211 200.24 22.7 22.7 ellipse_path stroke
0 0 0 nodecolor
14 /Times-Roman set_font
204.5 196.54 moveto 13 (s5) alignedtext
grestore
% s4->s5
gsave
1 setlinewidth
0 0 0 edgecolor
newpath 188.44 274.92 moveto
192.3 262.29 197.29 246 201.6 231.95 curveto
stroke
0 0 0 edgecolor
newpath 205 232.79 moveto
204.58 222.2 lineto
198.31 230.74 lineto
closepath fill
1 setlinewidth
solid
0 0 0 edgecolor
newpath 205 232.79 moveto
204.58 222.2 lineto
198.31 230.74 lineto
closepath stroke
0 0 0 edgecolor
14 /Times-Roman set_font
199 244.89 moveto 7 (0) alignedtext
grestore
% s5->s0
gsave
1 setlinewidth
0 0 0 edgecolor
newpath 233.64 204.19 moveto
277.33 211.27 369 233.58 369 295.94 curveto
369 572.03 369 572.03 369 572.03 curveto
369 596.65 356.51 622.08 345.49 639.72 curveto
stroke
0 0 0 edgecolor
newpath 342.49 637.91 moveto
339.93 648.19 lineto
348.34 641.75 lineto
closepath fill
1 setlinewidth
solid
0 0 0 edgecolor
newpath 342.49 637.91 moveto
339.93 648.19 lineto
348.34 641.75 lineto
closepath stroke
0 0 0 edgecolor
14 /Times-Roman set_font
369 430.28 moveto 7 (0) alignedtext
grestore
% s5->s3
gsave
1 setlinewidth
0 0 0 edgecolor
newpath 212.14 223.23 moveto
212.83 237.68 213.65 257.01 214 274.09 curveto
215.53 348.63 214.5 367.82 203 441.48 curveto
202.57 444.22 202.06 447.07 201.5 449.9 curveto
stroke
0 0 0 edgecolor
newpath 198.03 449.4 moveto
199.36 459.91 lineto
204.87 450.87 lineto
closepath fill
1 setlinewidth
solid
0 0 0 edgecolor
newpath 198.03 449.4 moveto
199.36 459.91 lineto
204.87 450.87 lineto
closepath stroke
0 0 0 edgecolor
14 /Times-Roman set_font
215 341.59 moveto 7 (1) alignedtext
grestore
% s5->s7
gsave
1 setlinewidth
0 0 0 edgecolor
newpath 208.1 177.29 moveto
206.46 164.96 204.41 149.46 202.67 136.29 curveto
stroke
0 0 0 edgecolor
newpath 206.14 135.8 moveto
201.36 126.35 lineto
199.2 136.72 lineto
closepath fill
1 setlinewidth
solid
0 0 0 edgecolor
newpath 206.14 135.8 moveto
201.36 126.35 lineto
199.2 136.72 lineto
closepath stroke
0 0 0 edgecolor
14 /Times-Roman set_font
206 148.19 moveto 7 (2) alignedtext
grestore
% s6->s1
gsave
1 setlinewidth
0 0 0 edgecolor
newpath 52.65 315.07 moveto
50.06 326.06 48.24 340.51 52 352.79 curveto
79.03 440.99 164.1 516.53 207.69 550.64 curveto
stroke
0 0 0 edgecolor
newpath 205.76 553.57 moveto
215.82 556.9 lineto
210.03 548.02 lineto
closepath fill
1 setlinewidth
solid
0 0 0 edgecolor
newpath 205.76 553.57 moveto
215.82 556.9 lineto
210.03 548.02 lineto
closepath stroke
0 0 0 edgecolor
14 /Times-Roman set_font
99 430.28 moveto 7 (1) alignedtext
grestore
% s6->s2
gsave
1 setlinewidth
0 0 0 edgecolor
newpath 68.58 312.94 moveto
78.59 327.12 93.77 348.64 105.4 365.11 curveto
stroke
0 0 0 edgecolor
newpath 102.81 367.51 moveto
111.43 373.66 lineto
108.53 363.47 lineto
closepath fill
1 setlinewidth
solid
0 0 0 edgecolor
newpath 102.81 367.51 moveto
111.43 373.66 lineto
108.53 363.47 lineto
closepath stroke
0 0 0 edgecolor
14 /Times-Roman set_font
96 341.59 moveto 7 (2) alignedtext
grestore
% s6->s7
gsave
1 setlinewidth
0 0 0 edgecolor
newpath 54.99 278.05 moveto
50.84 246.92 47.2 182.46 80 144.39 curveto
102.26 118.56 142.38 110.96 169.83 108.93 curveto
stroke
0 0 0 edgecolor
newpath 170.22 112.41 moveto
180.02 108.38 lineto
169.85 105.42 lineto
closepath fill
1 setlinewidth
solid
0 0 0 edgecolor
newpath 170.22 112.41 moveto
180.02 108.38 lineto
169.85 105.42 lineto
closepath stroke
0 0 0 edgecolor
14 /Times-Roman set_font
62 196.54 moveto 7 (0) alignedtext
grestore
% s7->s3
gsave
1 setlinewidth
0 0 0 edgecolor
newpath 216.24 115.72 moveto
243.38 128.3 293 157.06 293 199.24 curveto
293 390.63 293 390.63 293 390.63 curveto
293 428.8 250.79 454.21 221.77 467.17 curveto
stroke
0 0 0 edgecolor
newpath 220.36 463.97 moveto
212.52 471.09 lineto
223.09 470.41 lineto
closepath fill
1 setlinewidth
solid
0 0 0 edgecolor
newpath 220.36 463.97 moveto
212.52 471.09 lineto
223.09 470.41 lineto
closepath stroke
0 0 0 edgecolor
14 /Times-Roman set_font
293 293.24 moveto 7 (2) alignedtext
grestore
% s7->s7
gsave
1 setlinewidth
0 0 0 edgecolor
newpath 216.44 115.34 moveto
226.49 116.93 235.85 114.33 235.85 107.54 curveto
235.85 103.2 232.01 100.57 226.6 99.66 curveto
stroke
0 0 0 edgecolor
newpath 226.41 96.16 moveto
216.44 99.75 lineto
226.47 103.16 lineto
closepath fill
1 setlinewidth
solid
0 0 0 edgecolor
newpath 226.41 96.16 moveto
216.44 99.75 lineto
226.47 103.16 lineto
closepath stroke
0 0 0 edgecolor
14 /Times-Roman set_font
235.85 103.84 moveto 7 (1) alignedtext
grestore
% s7->s9
gsave
1 setlinewidth
0 0 0 edgecolor
newpath 181.29 100.51 moveto
168.01 94.98 150.69 85.39 142 70.7 curveto
138.04 64 136.45 55.9 136.06 48.15 curveto
stroke
0 0 0 edgecolor
newpath 139.56 48.01 moveto
136.18 37.97 lineto
132.56 47.92 lineto
closepath fill
1 setlinewidth
solid
0 0 0 edgecolor
newpath 139.56 48.01 moveto
136.18 37.97 lineto
132.56 47.92 lineto
closepath stroke
0 0 0 edgecolor
14 /Times-Roman set_font
142 59.5 moveto 7 (0) alignedtext
grestore
% s8->s5
gsave
1 setlinewidth
0 0 0 edgecolor
newpath 134.11 280.57 moveto
141.73 273.23 150.91 264.28 159 256.09 curveto
168.89 246.07 179.63 234.81 188.77 225.12 curveto
stroke
0 0 0 edgecolor
newpath 191.41 227.42 moveto
195.7 217.73 lineto
186.3 222.62 lineto
closepath fill
1 setlinewidth
solid
0 0 0 edgecolor
newpath 191.41 227.42 moveto
195.7 217.73 lineto
186.3 222.62 lineto
closepath stroke
0 0 0 edgecolor
14 /Times-Roman set_font
174 244.89 moveto 7 (0) alignedtext
grestore
% s8->s7
gsave
1 setlinewidth
0 0 0 edgecolor
newpath 126.82 275.53 moveto
141.65 241.22 171.55 172.06 187.82 134.4 curveto
stroke
0 0 0 edgecolor
newpath 191.09 135.68 moveto
191.84 125.11 lineto
184.66 132.9 lineto
closepath fill
1 setlinewidth
solid
0 0 0 edgecolor
newpath 191.09 135.68 moveto
191.84 125.11 lineto
184.66 132.9 lineto
closepath stroke
0 0 0 edgecolor
14 /Times-Roman set_font
170 196.54 moveto 7 (1) alignedtext
grestore
% s8->s9
gsave
1 setlinewidth
0 0 0 edgecolor
newpath 118.61 274.01 moveto
119.95 231.68 123.82 135.83 133 55.7 curveto
133.3 53.12 133.65 50.44 134.04 47.77 curveto
stroke
0 0 0 edgecolor
newpath 137.53 48.09 moveto
135.64 37.67 lineto
130.62 46.99 lineto
closepath fill
1 setlinewidth
solid
0 0 0 edgecolor
newpath 137.53 48.09 moveto
135.64 37.67 lineto
130.62 46.99 lineto
closepath stroke
0 0 0 edgecolor
14 /Times-Roman set_font
126 148.19 moveto 7 (2) alignedtext
grestore
% s9->s7
gsave
1 setlinewidth
0 0 0 edgecolor
newpath 148.55 35.16 moveto
154.99 45.35 163.79 58.97 172 70.7 curveto
175.05 75.05 178.39 79.64 181.65 84.01 curveto
stroke
0 0 0 edgecolor
newpath 178.91 86.19 moveto
187.73 92.06 lineto
184.5 81.97 lineto
closepath fill
1 setlinewidth
solid
0 0 0 edgecolor
newpath 178.91 86.19 moveto
187.73 92.06 lineto
184.5 81.97 lineto
closepath stroke
0 0 0 edgecolor
14 /Times-Roman set_font
172 59.5 moveto 7 (1) alignedtext
grestore
% s9->s7
gsave
1 setlinewidth
0 0 0 edgecolor
newpath 153.74 31.27 moveto
161.43 37.79 170.54 46.49 177 55.7 curveto
182.1 62.98 186.39 71.63 189.78 79.71 curveto
stroke
0 0 0 edgecolor
newpath 186.57 81.12 moveto
193.47 89.16 lineto
193.09 78.57 lineto
closepath fill
1 setlinewidth
solid
0 0 0 edgecolor
newpath 186.57 81.12 moveto
193.47 89.16 lineto
193.09 78.57 lineto
closepath stroke
0 0 0 edgecolor
14 /Times-Roman set_font
186 59.5 moveto 7 (2) alignedtext
grestore
% s9->s9
gsave
1 setlinewidth
0 0 0 edgecolor
newpath 156.44 26.65 moveto
166.49 28.24 175.85 25.64 175.85 18.85 curveto
175.85 14.5 172.01 11.87 166.6 10.96 curveto
stroke
0 0 0 edgecolor
newpath 166.41 7.46 moveto
156.44 11.05 lineto
166.47 14.46 lineto
closepath fill
1 setlinewidth
solid
0 0 0 edgecolor
newpath 166.41 7.46 moveto
156.44 11.05 lineto
166.47 14.46 lineto
closepath stroke
0 0 0 edgecolor
14 /Times-Roman set_font
175.85 15.15 moveto 7 (0) alignedtext
grestore
endpage
showpage
grestore
%%PageTrailer
%%EndPage: 1
%%Trailer
end
restore
%%EOF
